[[-0.06400368 -0.08220071 -0.08982327 ...  0.0752887   0.11837179
  -0.14574654]
 [ 0.04657907 -0.09725924  0.03757913 ...  0.07637901 -0.00891079
  -0.06759125]
 [ 0.06550343 -0.11135621  0.05293408 ... -0.05928577 -0.03124338
  -0.09627783]
 ...
 [ 0.05376771  0.05792158 -0.11760176 ...  0.14397292  0.08917543
  -0.05330563]
 [-0.1050048  -0.05501802  0.01845505 ... -0.07197804  0.09090784
   0.04832289]
 [-0.09402832 -0.09906684  0.10593085 ...  0.07545016 -0.10860508
  -0.06523611]]