step: 0
loss value: 0
Nearest to La: bonne, entraînait, étais, pays, accompagner, lon, corde, fièvre,
Nearest to même: compte, magnifiques, devenue, audehors, partons, résultat, Tout, autrefois,
Nearest to ils: carnatic, naturalistes, cri, Mains, renfermait, précipitèrent, raisonnement, avancé,
Nearest to un: établir, Sud, professeur, six, vingtsix, fantaisie, comprendre, instant,
Nearest to le: forêts, aimable, courage, géographiques, dirigeant, méridien, globe, e,
Nearest to pas: lampe, fanal, Direction, prudemment, savezvous, doivent, alors, nez,
Nearest to donc: approches, démonstrations, autre, limitation, dur, dizaine, Tout, Barbicane,
Nearest to sans: sujet, avions, lhumanité, construction, librement, lendroit, voyage, ouvrit,
Nearest to il: Dire, gound, étonnant, glaces, appartenant, Subitement, Phileas, vastes,
Nearest to cette: nouveaux, îlots, tube, Campement, Hommes, singapore, hauteurs, banks,
Nearest to où: morceaux, scotia, convenir, justice, chars, lumineux, reprenait, couché,
Nearest to of: Nouveau, lendroit, classes, lavoir, lumineux, certainement, Fergusson, fin,
Nearest to ’: dépêche, approcher, oeil, iso, Celuici, rocs, gagnait, douleur,
Nearest to cest: agissait, quun, balle, regardai, formait, croire, Trois, admirables,
Nearest to ses: Certain, empêcher, singulièrement, solide, parlait, Reconnaître, rani, soixantedix,
Nearest to comme: permet, troncs, tôt, vents, Longtemps, 1e9, riposta, toutes,


step: 10000
loss value: 0
Nearest to La: la, l, entraînait, étais, cette, sa, bonne, ………………………,
Nearest to même: compte, résultat, magnifiques, massacre, c5, partons, donc, travers,
Nearest to ils: cri, naturalistes, vieille, Mains, carnatic, cité, avancé, passagers,
Nearest to un: le, c5, au, respiration, 00000000000000000000000000000000000, six, établir, Comment,
Nearest to le: Le, du, un, au, ce, Nouvelle, résultats, 00000000000000000000000000000000000,
Nearest to pas: plus, ordinaires, palais, ………………………, alors, voici, 00000000000000000000000000000000000, épaisses,
Nearest to donc: caverne, Tout, autre, noirâtre, aisément, approches, même, démonstrations,
Nearest to sans: concert, du, lhumanité, construction, c5, objets, sienne, Land,
Nearest to il: d0, on, qui, c5, Nacelle, voulait, Il, ………………………,
Nearest to cette: la, sa, La, Campement, revoir, îlots, chaque, c5,
Nearest to où: et, morceaux, pouces, ouvrir, ………………………, scotia, en, celuilà,
Nearest to of: Nouveau, classes, venait, lendroit, quun, lavoir, Sera, Luimême,
Nearest to ’: c5, ………………………, d0, 00000000000000000000000000000000000, douleur, japerçus, oeil, chapter,
Nearest to cest: agissait, formait, balle, quun, croire, sodium, regardai, Trois,
Nearest to ses: les, leurs, empêcher, steamers, 00000000000000000000000000000000000, ………………………, seize, planètes,
Nearest to comme: UNK, permet, tôt, troncs, ………………………, Longtemps, stderr, vents,


step: 20000
loss value: 0
Nearest to La: la, cette, l, sa, entraînait, étais, bonne, ………………………,
Nearest to même: compte, résultat, partons, massacre, travers, magnifiques, Vaste, donc,
Nearest to ils: vieille, qui, on, naturalistes, considérable, Mains, carnatic, précipitèrent,
Nearest to un: le, dun, cet, ce, Comment, une, c5, au,
Nearest to le: Le, du, au, un, ce, l, résultats, son,
Nearest to pas: ordinaires, plus, fermait, palais, alors, point, ………………………, Direction,
Nearest to donc: caverne, Tout, noirâtre, aisément, même, dur, conserver, autre,
Nearest to sans: concert, lhumanité, construction, librement, gardait, du, navons, c5,
Nearest to il: on, Il, elle, qui, d0, je, Nacelle, voulait,
Nearest to cette: la, sa, La, une, revoir, chaque, Campement, îlots,
Nearest to où: et, ouvrir, pouces, celuilà, ………………………, scotia, bandes, passent,
Nearest to of: Nouveau, classes, venait, and, quun, lavoir, Revenir, c5,
Nearest to ’: c5, d0, ………………………, douleur, 00000000000000000000000000000000000, japerçus, demeurait, contact,
Nearest to cest: formait, agissait, quun, balle, croire, Trois, sodium, regardai,
Nearest to ses: les, leurs, mes, des, ces, nos, steamers, seize,
Nearest to comme: troncs, parcours, permet, tôt, stderr, servi, vents, abandonner,


step: 30000
loss value: 0
Nearest to La: la, cette, sa, l, entraînait, bonne, étais, ………………………,
Nearest to même: compte, résultat, massacre, travers, partons, Vaste, neût, saknussemm,
Nearest to ils: on, vieille, qui, il, naturalistes, considérable, Il, je,
Nearest to un: le, dun, cet, une, Un, c5, son, ce,
Nearest to le: Le, du, un, l, au, ce, touchait, ………………………,
Nearest to pas: ordinaires, point, fermait, jamais, palais, rien, plus, donc,
Nearest to donc: caverne, Tout, noirâtre, aisément, impossible, conserver, ah, dur,
Nearest to sans: concert, lhumanité, gardait, navons, construction, librement, maintenant, sienne,
Nearest to il: Il, on, elle, d0, je, qui, quil, Nacelle,
Nearest to cette: la, sa, une, La, Cette, chaque, revoir, Campement,
Nearest to où: ouvrir, pouces, celuilà, et, ………………………, bandes, lumineuse, passent,
Nearest to of: Nouveau, classes, Revenir, venait, quun, and, suspendue, c5,
Nearest to ’: c5, d0, ………………………, douleur, 00000000000000000000000000000000000, demeurait, project, japerçus,
Nearest to cest: balle, formait, quun, agissait, croire, Trois, sodium, regardait,
Nearest to ses: leurs, les, mes, nos, ces, des, steamers, seize,
Nearest to comme: troncs, parcours, tôt, servi, siècle, abandonner, stderr, riposta,


step: 40000
loss value: 0
Nearest to La: la, cette, l, sa, entraînait, bonne, ………………………, répondis,
Nearest to même: massacre, travers, compte, Vaste, partons, résultat, neût, saknussemm,
Nearest to ils: qui, on, vieille, il, naturalistes, Il, considérable, ouvrir,
Nearest to un: Un, le, une, dun, cet, son, quun, c5,
Nearest to le: Le, du, l, ce, un, au, touchait, les,
Nearest to pas: jamais, point, ordinaires, rien, fermait, ………………………, Direction, importe,
Nearest to donc: caverne, Tout, impossible, noirâtre, pas, conserver, dur, chevaux,
Nearest to sans: concert, gardait, navons, lhumanité, librement, construction, maintenant, mécriaije,
Nearest to il: Il, on, elle, d0, quil, je, fogg, ils,
Nearest to cette: la, une, sa, La, Cette, chaque, revoir, leur,
Nearest to où: ouvrir, pouces, celuilà, bandes, lumineuse, ………………………, lois, passent,
Nearest to of: c5, Revenir, venait, Nouveau, classes, suspendue, quun, holder,
Nearest to ’: c5, ………………………, d0, project, douleur, demeurait, oeil, japerçus,
Nearest to cest: balle, formait, quun, agissait, croire, regardait, seul, Trois,
Nearest to ses: leurs, les, mes, nos, ces, des, vos, steamers,
Nearest to comme: troncs, parcours, éperon, servi, Après, riposta, siècle, généralement,


step: 50000
loss value: 0
Nearest to La: la, cette, l, sa, bonne, entraînait, Cette, ………………………,
Nearest to même: Vaste, compte, travers, résultat, partons, massacre, saknussemm, neût,
Nearest to ils: vieille, il, qui, on, naturalistes, Il, je, ouvrir,
Nearest to un: le, Un, une, dun, cet, quun, chaque, son,
Nearest to le: Le, un, du, l, ce, au, touchait, son,
Nearest to pas: jamais, point, rien, Pas, ordinaires, fermait, ………………………, verre,
Nearest to donc: caverne, Tout, impossible, noirâtre, conserver, chevaux, dur, pas,
Nearest to sans: concert, navons, gardait, librement, maintenant, mécriaije, construction, lhumanité,
Nearest to il: Il, on, elle, d0, quil, fogg, je, sil,
Nearest to cette: la, une, sa, Cette, La, chaque, leur, revoir,
Nearest to où: ouvrir, pouces, celuilà, bandes, lumineuse, passent, lois, ………………………,
Nearest to of: Revenir, venait, Nouveau, holder, c5, classes, suspendue, sacrés,
Nearest to ’: c5, douleur, ………………………, demeurait, d0, project, oeil, contact,
Nearest to cest: balle, formait, quun, agissait, regardait, voulezvous, croire, osseux,
Nearest to ses: leurs, mes, les, nos, ces, des, vos, Les,
Nearest to comme: troncs, parcours, éperon, Après, généralement, siècle, servi, éléments,


step: 60000
loss value: 0
Nearest to La: la, cette, l, bonne, sa, entraînait, Cette, ………………………,
Nearest to même: Vaste, travers, partons, compte, massacre, résultat, saknussemm, neût,
Nearest to ils: il, vieille, qui, on, naturalistes, elles, je, ouvrir,
Nearest to un: Un, dun, le, cet, une, quun, chaque, c5,
Nearest to le: Le, l, touchait, un, du, ce, au, son,
Nearest to pas: jamais, point, Pas, rien, ordinaires, fermait, verre, ………………………,
Nearest to donc: caverne, Tout, impossible, noirâtre, pas, conserver, chevaux, dur,
Nearest to sans: navons, concert, gardait, mécriaije, Sans, construction, librement, maintenant,
Nearest to il: Il, on, elle, quil, d0, sil, fogg, je,
Nearest to cette: la, une, Cette, sa, La, chaque, quarantehuit, singapore,
Nearest to où: ouvrir, pouces, celuilà, bandes, passent, ………………………, lumineuse, lois,
Nearest to of: Revenir, holder, and, venait, Nouveau, Electronic, suspendue, classes,
Nearest to ’: c5, ………………………, douleur, demeurait, project, d0, electronic, oeil,
Nearest to cest: balle, formait, regardait, quun, voulezvous, agissait, osseux, croire,
Nearest to ses: leurs, mes, nos, les, ces, vos, Ses, steamers,
Nearest to comme: troncs, parcours, Après, généralement, éperon, éléments, servi, siècle,


step: 70000
loss value: 0
Nearest to La: la, cette, bonne, l, entraînait, sa, Cette, ………………………,
Nearest to même: Vaste, travers, massacre, partons, résultat, compte, saknussemm, Tout,
Nearest to ils: elles, qui, vieille, il, on, je, naturalistes, ouvrir,
Nearest to un: Un, le, cet, une, quun, dun, chaque, quelque,
Nearest to le: Le, l, un, ce, au, touchait, son, précipité,
Nearest to pas: Pas, jamais, point, rien, ordinaires, fermait, verre, ………………………,
Nearest to donc: caverne, impossible, Tout, noirâtre, pas, conserver, touché, rarement,
Nearest to sans: navons, gardait, Sans, concert, maintenant, construction, sauvages, librement,
Nearest to il: Il, on, elle, quil, fogg, je, sil, d0,
Nearest to cette: la, une, Cette, sa, La, chaque, quarantehuit, singapore,
Nearest to où: ouvrir, pouces, celuilà, bandes, passent, lumineuse, quand, lois,
Nearest to of: Revenir, holder, venait, c5, and, Electronic, Nouveau, suspendue,
Nearest to ’: douleur, c5, ………………………, project, electronic, demeurait, ascii, oeil,
Nearest to cest: balle, regardait, formait, voulezvous, quun, agissait, ………………………, pays,
Nearest to ses: leurs, mes, nos, les, vos, Ses, ces, langleterre,
Nearest to comme: troncs, Après, généralement, parcours, éperon, éléments, servi, siècle,


step: 80000
loss value: 0
Nearest to La: la, cette, bonne, l, entraînait, Cette, ………………………, sa,
Nearest to même: Vaste, travers, massacre, partons, résultat, compte, Tout, théorie,
Nearest to ils: elles, vieille, qui, il, je, on, naturalistes, Qui,
Nearest to un: Un, quun, une, cet, dun, chaque, le, son,
Nearest to le: Le, l, du, touchait, un, ce, les, ………………………,
Nearest to pas: Pas, jamais, point, rien, ordinaires, fermait, verre, ………………………,
Nearest to donc: caverne, impossible, Tout, noirâtre, conserver, touché, pas, Passepartout,
Nearest to sans: navons, Sans, gardait, sauvages, maintenant, construction, concert, librement,
Nearest to il: Il, on, elle, quil, sil, fogg, je, d0,
Nearest to cette: la, Cette, une, sa, La, chaque, quarantehuit, singapore,
Nearest to où: ouvrir, pouces, celuilà, bandes, passent, lumineuse, lois, portant,
Nearest to of: Revenir, holder, venait, Electronic, and, from, c5, suspendue,
Nearest to ’: c5, ………………………, project, douleur, demeurait, oeil, electronic, ascii,
Nearest to cest: regardait, balle, voulezvous, formait, quun, agissait, osseux, pays,
Nearest to ses: leurs, mes, nos, les, Ses, vos, ces, des,
Nearest to comme: Après, troncs, généralement, éperon, parcours, éléments, servi, abandonner,


step: 90000
loss value: 0
Nearest to La: la, bonne, cette, entraînait, l, Cette, ………………………, lampe,
Nearest to même: Vaste, massacre, travers, partons, résultat, suivit, compte, neût,
Nearest to ils: elles, vieille, il, qui, on, naturalistes, je, Qui,
Nearest to un: Un, une, quun, cet, le, chaque, dun, son,
Nearest to le: Le, du, les, touchait, un, l, aimable, précipité,
Nearest to pas: Pas, jamais, point, rien, ordinaires, fermait, ………………………, verre,
Nearest to donc: caverne, impossible, Tout, noirâtre, conserver, pas, touché, rarement,
Nearest to sans: Sans, navons, sauvages, gardait, laissèrent, librement, mécriaije, construction,
Nearest to il: Il, on, elle, quil, sil, fogg, je, d0,
Nearest to cette: la, Cette, une, sa, La, chaque, quarantehuit, Grande,
Nearest to où: ouvrir, lumineuse, pouces, bandes, lois, portant, passent, celuilà,
Nearest to of: Revenir, holder, Electronic, venait, from, c5, langue, suspendue,
Nearest to ’: project, demeurait, c5, ………………………, oeil, douleur, electronic, copyright,
Nearest to cest: regardait, voulezvous, balle, formait, quun, ………………………, pays, dit,
Nearest to ses: leurs, nos, mes, les, Ses, vos, ces, langleterre,
Nearest to comme: Après, généralement, troncs, éperon, parcours, éléments, vents, fus,


step: 100000
loss value: 0
Nearest to La: la, bonne, entraînait, cette, ………………………, Cette, l, —il,
Nearest to même: Vaste, massacre, travers, partons, suivit, résultat, Tout, voir,
Nearest to ils: elles, vieille, il, qui, naturalistes, je, on, ouvrir,
Nearest to un: Un, quun, une, le, cet, chaque, dun, son,
Nearest to le: Le, les, un, l, du, ce, son, ………………………,
Nearest to pas: Pas, jamais, point, rien, ………………………, ordinaires, fermait, verre,
Nearest to donc: caverne, impossible, conserver, Tout, noirâtre, pourtant, touché, rarement,
Nearest to sans: Sans, navons, sauvages, gardait, mécriaije, librement, construction, laissèrent,
Nearest to il: Il, on, elle, quil, sil, fogg, je, Nacelle,
Nearest to cette: la, Cette, une, sa, La, quarantehuit, singapore, chaque,
Nearest to où: ouvrir, bandes, quand, lois, lumineuse, passent, ………………………, pouces,
Nearest to of: langue, holder, Revenir, Electronic, venait, first, Nouveau, suspendue,
Nearest to ’: project, ………………………, demeurait, copyright, oeil, e, electronic, c5,
Nearest to cest: regardait, voulezvous, balle, formait, fleuve, ………………………, pays, Seconde,
Nearest to ses: leurs, nos, mes, les, Ses, vos, ces, langleterre,
Nearest to comme: Après, éperon, généralement, troncs, cétait, vents, parcours, éléments,


step: 0
loss value: 0
Nearest to les: agréable, prairies, discuter, sentait, précieuses, Luimême, montons, —au,
Nearest to tout: dautre, craintes, livres, accompli, centrale, marqué, difficilement, arrivèrent,
Nearest to après: américains, lutter, La, trentecinq, degrés, franchit, jai, that,
Nearest to nous: raison, connaissance, arrive, ajouta, Seconde, jourlà, cru, Place,
Nearest to été: merveilles, gorge, lança, soleil, jolie, ouverture, trouverait, étoiles,
Nearest to dont: savezvous, hauteurs, vieille, départ, allions, savant, 25, passant,
Nearest to fut: connue, troupe, trentaine, cette, ruhmkorff, répliqua, Rayons, belles,
Nearest to a: énergie, reconnu, Donnait, siècle, intention, goélette, dailleurs, office,
Nearest to aux: océan, troisième, errante, coquillages, fixé, Joe, touché, individual,
Nearest to et: route, saurais, éclair, faible, orientale, poisson, mâts, sommet,
Nearest to au: livres, texas, denham, risquer, respiration, c, température, pluies,
Nearest to monsieur: reprenant, bleu, naturelles, adieu, Tandis, chikaris, samuel, appartenait,
Nearest to vous: autrement, épreuve, sentiment, dangereuse, répéta, reparut, mine, chacun,
Nearest to quil: pensait, calculer, ditil, ferait, espérer, inde, gauche, Distance,
Nearest to se: aime, lavant, voyageurs, nemo, satisfaction, tenté, établi, faquir,
Nearest to je: bateau, marche, routes, déterminer, force, véritables, excursion, comprenez,


step: 10000
loss value: 0
Nearest to les: des, ces, ses, aux, Les, —au, dacier, nos,
Nearest to tout: dautre, accompli, humain, 0, paroles, craintes, livres, nerfs,
Nearest to après: américains, lutter, that, mettre, franchit, cela, rencontrer, c5,
Nearest to nous: raison, arrive, 0, d0, Seconde, chasseurs, retourna, jourlà,
Nearest to été: merveilles, lança, gorge, hasard, soleil, ouverture, —pourquoi, Seul,
Nearest to dont: 25, savant, hauteurs, plateforme, 00000000000000000000000000000000000, que, départ, savezvous,
Nearest to fut: connue, avait, trentaine, étroite, Seconde, elle, 0, excellent,
Nearest to a: 0, d0, dailleurs, intention, eût, reconnu, moteur, siècle,
Nearest to aux: les, océan, des, fixé, suis, touché, coquillages, Joe,
Nearest to et: 00000000000000000000000000000000000, mâts, 0, d0, c5, UNK, «, éclair,
Nearest to au: du, le, pluies, c, livres, Un, requins, respiration,
Nearest to monsieur: naturelles, adieu, chikaris, répondit, bleu, rencontra, 0, reprenant,
Nearest to vous: compris, 0, d0, danger, globe, portée, dangereuse, épreuve,
Nearest to quil: ferait, pensait, calculer, qui, lidenbrock, inde, d0, je,
Nearest to se: bc, lavant, faisait, aime, établi, me, trouvèrent, devions,
Nearest to je: Je, véritables, 1f3, bateau, n, diverses, commence, aussi,


step: 20000
loss value: 0
Nearest to les: des, Les, ces, ses, aux, leurs, nos, mes,
Nearest to tout: dautre, humain, accompli, 0, craintes, nerfs, livres, paroles,
Nearest to après: américains, lutter, franchit, that, mettre, rencontrer, hésiter, cela,
Nearest to nous: raison, arrive, 0, d0, Seconde, chasseurs, retourna, jourlà,
Nearest to été: merveilles, lança, gorge, —pourquoi, furent, ouverture, hasard, eûmes,
Nearest to dont: attendons, plateforme, 25, hauteurs, puisque, prince, 00000000000000000000000000000000000, départ,
Nearest to fut: avait, étroite, trentaine, raisonnement, Seconde, honnête, connue, 0,
Nearest to a: eût, avait, 0, intention, dailleurs, d0, signes, hurrah,
Nearest to aux: les, océan, des, leurs, ses, Les, Ces, fixé,
Nearest to et: mâts, 00000000000000000000000000000000000, ou, 0, réfraction, d0, saurais, mais,
Nearest to au: le, du, pluies, c, Un, dun, soit, furieux,
Nearest to monsieur: répondit, rencontra, 0, samuel, naturelles, chikaris, parfaitement, collègues,
Nearest to vous: compris, cela, d0, 0, dangereuse, portée, ossements, danger,
Nearest to quil: ferait, qui, pensait, calculer, lidenbrock, d0, inde, je,
Nearest to se: me, bc, ne, trouvèrent, lavant, faisait, daller, richesses,
Nearest to je: Je, tu, véritables, il, 1f3, diverses, aussi, bateau,


step: 30000
loss value: 0
Nearest to les: Les, des, ces, ses, aux, leurs, nos, Des,
Nearest to tout: dautre, humain, accompli, craintes, mètre, 0, enlever, nerfs,
Nearest to après: américains, lutter, franchit, mettre, that, signes, hésiter, rencontrer,
Nearest to nous: raison, 0, d0, arrive, chasseurs, Nous, Seconde, retourna,
Nearest to été: merveilles, lança, —pourquoi, gorge, furent, sommet, hasard, eûmes,
Nearest to dont: puisque, attendons, prince, hauteurs, plateforme, 25, Mais, départ,
Nearest to fut: avait, étroite, était, raisonnement, trentaine, honnête, Seconde, est,
Nearest to a: avait, eût, 0, intention, d0, dailleurs, hurrah, signes,
Nearest to aux: les, océan, des, leurs, Les, ses, Ces, —au,
Nearest to et: mâts, Et, 00000000000000000000000000000000000, mais, réfraction, ou, saurais, 0,
Nearest to au: du, le, pluies, dun, c, Au, furieux, Un,
Nearest to monsieur: répondit, samuel, rencontra, naturelles, parfaitement, sécriatil, chikaris, collègues,
Nearest to vous: compris, nous, d0, 0, appris, dominait, dangereuse, danger,
Nearest to quil: qui, ferait, pensait, calculer, d0, il, lidenbrock, que,
Nearest to se: me, Se, ne, trouvèrent, bc, devint, daller, richesses,
Nearest to je: Je, tu, véritables, il, 1f3, lon, diverses, commence,


step: 0
loss value: 0
Nearest to y: jespère, Impossible, mécanicien, produire, nautilus, vainement, rue, chances,
Nearest to en: auxquelles, poumons, Munro, recommandation, résistance, meilleurs, loin, ceylan,
Nearest to la: cherchait, 30, sarrêter, 21, amérique, oublié, faisaient, distributing,
Nearest to dune: hors, présidence, habitant, Donc, voudrez, suffisante, charger, sommet,
Nearest to leur: manœuvrer, porta, rendre, abord, milliards, Vaste, title, librement,
Nearest to me: devant, unless, hôtes, mission, celle, remettre, objets, Reconnaître,
Nearest to sont: armé, murs, longue, certain, bandes, fonte, gouverneur, ingénieurs,
Nearest to ses: fallu, line, suspendus, mine, steamhouse, rompre, lire, faillit,
Nearest to s: assis, importante, remarquable, domain, beau, cétacés, sauvages, centimètres,
Nearest to le: damérique, pouces, gutenbergtm, damages, Doute, particulières, gentlemen, dent,
Nearest to De: Cestàdire, loin, sonore, successivement, charbon, sélevaient, rarement, immense,
Nearest to bien: aspect, regagnai, banians, Vaste, sir, lhonorable, quarantecinq, sétend,
Nearest to il: fou, convenait, soixantequinze, établi, hurrah, lhélice, Conseil, fonte,
Nearest to ces: lion, courant, associated, villages, steamers, lœil, entièrement, grand,
Nearest to n: colonnes, million, oncle, accompagné, présente, antérieure, laisser, Projectile,
Nearest to elle: innombrables, durville, Donner, singulier, nouvelles, cherchant, hui, lentement,


step: 0
loss value: 0
Nearest to sous: demeurait, Degrés, parties, Circonstance, tuyaux, intérieur, tonneaux, Peuvent,
Nearest to répondit: aime, lindien, jet, faquir, situation, confortable, dy, cantonnements,
Nearest to monsieur: sarrêta, goût, porter, honneur, joli, points, froid, Je,
Nearest to d: aller, hardis, hasard, dut, Aucun, aujourdhui, préoccuper, verre,
Nearest to lui: situation, chargés, dix, constater, membres, trente, abondamment, lire,
Nearest to vers: hongkong, naturelles, pressé, parlant, Lorsque, maison, prononcé, plusieurs,
Nearest to deux: tu, aurions, verticale, Comme, douzaine, tortues, lécorce, côte,
Nearest to sur: —la, jeus, Compagnons, froide, prétexte, ferai, frappé, Bord,
Nearest to à: portaient, chapno, plongé, Toutefois, doux, Sont, aube, project,
Nearest to capitaine: bloc, océans, fortune, bagages, oeil, jusquaux, suivi, 23,
Nearest to une: chiffre, oude, they, marine, paisible, éruption, manquait, roc,
Nearest to avec: troublé, quaprès, laisse, rochers, quarante, b3, prochaine, Sera,
Nearest to s: bassin, aventures, ailes, remettre, status, saillie, professeur, lancre,
Nearest to la: vie, volume, prises, Moyen, Foundation, agissait, perdait, tenait,
Nearest to De: fameuse, flottant, rues, mauvaise, Dautres, sétend, 21, En,
Nearest to »: réfraction, up, mirent, oiseau, terrains, assez, humaines, included,


step: 10000
loss value: 0
Nearest to sous: parties, demeurait, devant, Degrés, prévu, jetés, will, sur,
Nearest to répondit: dy, lindien, servent, situation, successivement, confortable, pur, faquir,
Nearest to monsieur: porter, honneur, sarrêta, goût, forment, ………………………, 00000000000000000000000000000000000, dehors,
Nearest to d: aller, ………………………, hardis, de, dense, verre, hasard, jespère,
Nearest to lui: ………………………, dix, membres, constater, mettre, situation, abondamment, flore,
Nearest to vers: Lorsque, hongkong, sur, maison, naturelles, travers, peur, mains,
Nearest to deux: tu, douzaine, trois, aurions, hennissements, verticale, dessus, pesanteur,
Nearest to sur: dans, jeus, prétexte, Sur, 00000000000000000000000000000000000, vers, Compagnons, contre,
Nearest to à: de, pour, Toutefois, parfaitement, De, stderr, fûmes, fumée,
Nearest to capitaine: ………………………, 00000000000000000000000000000000000, océans, bloc, 23, Lumière, oeil, jusquaux,
Nearest to une: la, cette, prime, oude, paisible, unique, sa, roc,
Nearest to avec: quaprès, rochers, troublé, par, b3, entre, quarante, Géant,
Nearest to s: ………………………, 0, aventures, professeur, bassin, accompagner, conseil, remettre,
Nearest to la: sa, cette, La, une, c5, agissait, volume, lépaisseur,
Nearest to De: de, à, flottant, En, fameuse, 21, mauvaise, sétend,
Nearest to »: jusquau, up, oiseau, jaurais, railroad, humaines, ailes, réfraction,


step: 20000
loss value: 0
Nearest to sous: sur, dans, devant, parties, jetés, formation, prévu, demeurait,
Nearest to répondit: dit, dy, servent, confortable, lindien, successivement, jet, reprit,
Nearest to monsieur: sarrêta, porter, honneur, goût, ………………………, forment, Calme, dehors,
Nearest to d: de, ………………………, hardis, aller, jespère, sétend, Aucun, dense,
Nearest to lui: ………………………, abondamment, constater, dix, incendie, mettre, membres, revenus,
Nearest to vers: sur, Lorsque, hongkong, travers, maison, peur, naturelles, À,
Nearest to deux: trois, tu, quelques, six, douzaine, hennissements, aurions, verticale,
Nearest to sur: dans, vers, Sur, sous, prétexte, contre, jeus, Dans,
Nearest to à: pour, dans, de, À, jusquà, parfaitement, Toutefois, De,
Nearest to capitaine: ………………………, terminé, Lumière, déjeuner, remarquable, 23, bloc, océans,
Nearest to une: cette, la, Une, sa, un, oude, unique, paisible,
Nearest to avec: par, quaprès, entre, b3, rochers, troublé, Géant, très,
Nearest to s: ………………………, conseil, aventures, professeur, 0, bassin, n, l,
Nearest to la: La, sa, cette, une, leur, agissait, l, c5,
Nearest to De: de, En, à, fameuse, flottant, 21, feuilles, imaginé,
Nearest to »: jusquau, up, oiseau, jaurais, nappes, ailes, railroad, nourriture,


step: 30000
loss value: 0
Nearest to sous: dans, sur, devant, parties, formation, vers, par, Pour,
Nearest to répondit: dit, reprit, répliqua, dy, confortable, jet, servent, monsieur,
Nearest to monsieur: sarrêta, porter, honneur, goût, répondit, Calme, dehors, dentre,
Nearest to d: de, hardis, jespère, ………………………, sétend, aller, van, Aucun,
Nearest to lui: abondamment, incendie, constater, ………………………, revenus, somme, lire, mettre,
Nearest to vers: sur, Lorsque, travers, sous, dans, maison, peur, artificiel,
Nearest to deux: trois, six, quelques, hennissements, douzaine, tu, siens, verticale,
Nearest to sur: dans, vers, Sur, sous, contre, Dans, jeus, prétexte,
Nearest to à: pour, À, de, dans, jusquà, sur, Sur, dresse,
Nearest to capitaine: ………………………, terminé, déjeuner, Lumière, remarquable, Capitaine, 23, flanc,
Nearest to une: cette, Une, la, un, sa, dune, oude, unique,
Nearest to avec: par, entre, b3, quaprès, rochers, sur, Dans, disposer,
Nearest to s: conseil, n, ………………………, professeur, Tout, aventures, l, accès,
Nearest to la: La, sa, cette, une, l, agissait, leur, ma,
Nearest to De: de, En, fameuse, imaginé, jusquà, rencontra, feuilles, mollusques,
Nearest to »: jusquau, up, oiseau, ailes, nourriture, nappes, jaurais, emporter,


step: 40000
loss value: 0
Nearest to sous: dans, sur, devant, vers, Pour, par, Dans, parties,
Nearest to répondit: dit, reprit, répliqua, jet, confortable, dy, monsieur, servent,
Nearest to monsieur: sarrêta, porter, répondit, honneur, goût, dire, ………………………, Calme,
Nearest to d: de, hardis, jespère, van, ………………………, sétend, aller, Aucun,
Nearest to lui: abondamment, constater, incendie, ………………………, somme, lire, revenus, situation,
Nearest to vers: sur, Lorsque, sous, dans, travers, artificiel, maison, 15,
Nearest to deux: trois, six, quelques, quatre, hennissements, huit, siens, soixante,
Nearest to sur: dans, vers, Sur, sous, contre, Dans, jeus, prétexte,
Nearest to à: À, jusquà, pour, de, dans, dresse, Sur, sur,
Nearest to capitaine: déjeuner, terminé, ………………………, Capitaine, Lumière, remarquable, 23, flanc,
Nearest to une: Une, cette, la, un, sa, dune, Cette, oude,
Nearest to avec: entre, par, b3, sur, quaprès, Dans, rochers, souffrances,
Nearest to s: n, conseil, professeur, Tout, l, ………………………, L, aventures,
Nearest to la: La, sa, cette, une, ma, l, 00000000000000000000000000000000000, agissait,
Nearest to De: de, fameuse, imaginé, jusquà, En, rencontra, feuilles, mollusques,
Nearest to »: up, jusquau, oiseau, ailes, nourriture, nappes, emporter, paroles,


step: 50000
loss value: 0
Nearest to sous: dans, sur, devant, vers, Pour, Dans, par, parties,
Nearest to répondit: dit, répliqua, reprit, jet, monsieur, dy, servent, confortable,
Nearest to monsieur: sarrêta, répondit, porter, honneur, dire, disje, goût, cœur,
Nearest to d: jespère, hardis, de, van, sétend, Aucun, aller, ………………………,
Nearest to lui: constater, ………………………, abondamment, incendie, me, somme, situation, lire,
Nearest to vers: sur, Lorsque, dans, sous, travers, 15, Sur, maison,
Nearest to deux: trois, six, quelques, huit, quatre, siens, hennissements, soixante,
Nearest to sur: dans, Sur, vers, sous, contre, Dans, jeus, peuton,
Nearest to à: À, jusquà, pour, dans, de, dresse, Toutefois, Dans,
Nearest to capitaine: Capitaine, déjeuner, terminé, ………………………, Lumière, remarquable, flanc, 23,
Nearest to une: Une, cette, la, un, dune, sa, Cette, unique,
Nearest to avec: entre, par, b3, souffrances, sur, Dans, quaprès, disposer,
Nearest to s: n, conseil, Tout, professeur, ………………………, l, L, verre,
Nearest to la: La, sa, cette, une, l, agissait, ma, 00000000000000000000000000000000000,
Nearest to De: de, fameuse, imaginé, rencontra, jusquà, feuilles, En, Deux,
Nearest to »: up, jusquau, oiseau, ailes, nappes, nourriture, paroles, jaurais,


step: 60000
loss value: 0
Nearest to sous: dans, sur, devant, Pour, Dans, vers, par, journées,
Nearest to répondit: dit, répliqua, reprit, jet, dy, sécria, monsieur, servent,
Nearest to monsieur: sarrêta, porter, honneur, répondit, disje, cœur, goût, dire,
Nearest to d: de, sétend, van, jespère, hardis, ………………………, Aucun, vingtsept,
Nearest to lui: constater, incendie, ………………………, abondamment, me, somme, lire, situation,
Nearest to vers: sur, Lorsque, dans, sous, travers, Sur, 15, Vers,
Nearest to deux: trois, six, quelques, huit, quatre, sept, siens, soixante,
Nearest to sur: dans, Sur, vers, sous, contre, Dans, peuton, jeus,
Nearest to à: À, jusquà, dresse, pour, Toutefois, de, dans, Dans,
Nearest to capitaine: Capitaine, déjeuner, ………………………, terminé, Lumière, remarquable, flanc, 23,
Nearest to une: Une, cette, la, un, dune, sa, Cette, unique,
Nearest to avec: entre, souffrances, par, sur, Dans, b3, rochers, quaprès,
Nearest to s: n, ………………………, conseil, L, professeur, l, Tout, verre,
Nearest to la: La, cette, sa, une, l, agissait, Sa, ma,
Nearest to De: de, fameuse, imaginé, rencontra, feuilles, v, jusquà, Deux,
Nearest to »: up, jusquau, ailes, oiseau, nappes, nourriture, paroles, axel,


step: 70000
loss value: 0
Nearest to sous: dans, sur, Dans, devant, Pour, vers, journées, par,
Nearest to répondit: dit, répliqua, reprit, jet, sécria, dy, servent, monsieur,
Nearest to monsieur: porter, sarrêta, honneur, répondit, cœur, disje, suppose, goût,
Nearest to d: de, van, jespère, sétend, ………………………, 00000000000000000000000000000000000, hardis, Aucun,
Nearest to lui: incendie, ………………………, constater, me, abondamment, somme, situation, lire,
Nearest to vers: sur, Lorsque, dans, Vers, Sur, travers, sous, 15,
Nearest to deux: trois, six, quelques, huit, sept, quatre, soixante, cinq,
Nearest to sur: dans, Sur, vers, Dans, contre, sous, peuton, devant,
Nearest to à: À, jusquà, dresse, de, 00000000000000000000000000000000000, pour, dans, Sur,
Nearest to capitaine: Capitaine, déjeuner, ………………………, terminé, 00000000000000000000000000000000000, remarquable, Lumière, flanc,
Nearest to une: Une, cette, la, un, dune, Cette, chargées, sa,
Nearest to avec: entre, souffrances, b3, Avec, sur, Dans, Géant, disposer,
Nearest to s: n, ………………………, L, l, conseil, professeur, verre, 00000000000000000000000000000000000,
Nearest to la: La, sa, cette, 00000000000000000000000000000000000, l, une, agissait, longue,
Nearest to De: de, fameuse, imaginé, feuilles, rencontra, 00000000000000000000000000000000000, A, v,
Nearest to »: up, jusquau, ailes, oiseau, paroles, nourriture, nappes, 00000000000000000000000000000000000,


step: 80000
loss value: 0
Nearest to sous: dans, sur, Dans, Pour, devant, vers, journées, par,
Nearest to répondit: dit, répliqua, reprit, jet, sécria, dy, demanda, servent,
Nearest to monsieur: porter, sarrêta, honneur, cœur, répondit, disje, suppose, ditil,
Nearest to d: de, van, jespère, sétend, ………………………, danger, hardis, Aucun,
Nearest to lui: constater, incendie, ………………………, me, abondamment, somme, situation, parti,
Nearest to vers: sur, Lorsque, Vers, Sur, dans, travers, 15, sous,
Nearest to deux: trois, six, huit, quelques, quatre, sept, soixante, cartes,
Nearest to sur: Sur, dans, vers, Dans, contre, sous, devant, peuton,
Nearest to à: À, jusquà, dresse, dans, quà, sur, Sur, de,
Nearest to capitaine: Capitaine, déjeuner, ………………………, terminé, remarquable, flanc, Lumière, 23,
Nearest to une: Une, cette, la, un, sa, dune, chargées, Cette,
Nearest to avec: entre, Avec, souffrances, b3, sur, Grande, Géant, Entre,
Nearest to s: n, L, conseil, l, ………………………, professeur, verre, accès,
Nearest to la: La, sa, cette, une, agissait, l, ma, Sa,
Nearest to De: de, fameuse, imaginé, rencontra, feuilles, A, v, jusquà,
Nearest to »: up, jusquau, ailes, oiseau, nourriture, nappes, axel, paroles,


step: 90000
loss value: 0
Nearest to sous: dans, sur, Dans, Pour, devant, vers, journées, étoiles,
Nearest to répondit: dit, répliqua, reprit, jet, sécria, dy, demanda, servent,
Nearest to monsieur: sarrêta, porter, honneur, cœur, suppose, disje, répondit, ditil,
Nearest to d: van, de, jespère, danger, sétend, ………………………, Aucun, hardis,
Nearest to lui: ………………………, constater, incendie, abondamment, me, somme, situation, Lui,
Nearest to vers: sur, Lorsque, Vers, Sur, dans, travers, 15, sous,
Nearest to deux: trois, six, huit, quatre, quelques, sept, soixante, cinq,
Nearest to sur: Sur, dans, vers, Dans, contre, sous, peuton, devant,
Nearest to à: À, jusquà, de, dresse, Sur, pour, dans, quà,
Nearest to capitaine: Capitaine, déjeuner, terminé, ………………………, remarquable, Lumière, flanc, 23,
Nearest to une: Une, cette, un, la, dune, chargées, Cette, oude,
Nearest to avec: entre, Avec, souffrances, b3, goût, calcul, Grande, murmura,
Nearest to s: n, L, ………………………, l, conseil, verre, professeur, Gutenberg,
Nearest to la: La, cette, sa, Sa, une, ma, l, longue,
Nearest to De: de, fameuse, imaginé, feuilles, rencontra, Deux, v, A,
Nearest to »: up, oiseau, ailes, jusquau, nappes, nourriture, axel, paroles,


step: 100000
loss value: 0
Nearest to sous: dans, sur, Dans, Pour, devant, journées, vers, étoiles,
Nearest to répondit: dit, répliqua, reprit, jet, sécria, servent, dy, monsieur,
Nearest to monsieur: honneur, porter, sarrêta, cœur, répondit, disje, suppose, ditil,
Nearest to d: van, jespère, danger, sétend, vingtsept, D, Aucun, hardis,
Nearest to lui: ………………………, constater, incendie, Lui, me, somme, abondamment, ingénieur,
Nearest to vers: sur, Lorsque, Vers, Sur, dans, travers, 15, sous,
Nearest to deux: trois, six, huit, sept, quatre, quelques, cinq, soixante,
Nearest to sur: Sur, dans, vers, Dans, contre, sous, peuton, devant,
Nearest to à: À, jusquà, dresse, de, quà, pour, Sur, 00000000000000000000000000000000000,
Nearest to capitaine: Capitaine, déjeuner, terminé, remarquable, ………………………, Lumière, flanc, regarder,
Nearest to une: Une, cette, la, un, dune, Cette, chargées, sa,
Nearest to avec: Avec, entre, souffrances, calcul, b3, Grande, murmura, goût,
Nearest to s: n, L, ………………………, verre, Gutenberg, l, conseil, gaillard,
Nearest to la: La, sa, cette, Sa, une, 00000000000000000000000000000000000, agissait, ma,
Nearest to De: de, fameuse, imaginé, feuilles, rencontra, Deux, mauvaise, v,
Nearest to »: up, oiseau, ailes, nappes, axel, jusquau, nourriture, paroles,


step: 0
loss value: 0
Nearest to comme: —rien, neût, parfaitement, ruhmkorff, tenant, sauta, —pas, Impossible,
Nearest to dune: o, meeting, tombe, aidant, chefs, quau, Ici, formes,
Nearest to fait: naturaliste, fatalité, douleur, cordes, Sorte, hein, pari, capitaines,
Nearest to par: fournisseur, principale, mets, Mathias, x, vallée, déjà, questions,
Nearest to avec: tribus, soumis, station, membres, cipayes, distribute, nombre, vivait,
Nearest to quelques: traversé, purent, combat, vieille, poussière, manomètre, forts, îles,
Nearest to plus: muet, absolument, remarquer, about, police, Celuici, passé, réseau,
Nearest to sous: propos, indien, fogg, rendu, quantité, fanatiques, léléphant, étroit,
Nearest to cest: montagnards, pardessus, oh, —vous, michael, glisser, fuyaient, sourd,
Nearest to n: Projectile, gaya, huttes, pérouse, case, physique, ………………………, continents,
Nearest to fogg: détail, baie, sous, pareil, trentesix, indien, remplacer, stuart,
Nearest to Le: aucun, profit, briser, dépense, arrive, armé, lit, Profondeur,
Nearest to qu: dis, chapno, prirent, raison, niveau, arme, questions, bleu,
Nearest to ces: —cela, Quinze, mètres, Géant, projets, géants, parcouru, more,
Nearest to —: Grands, viennent, pluies, revenait, puisque, objet, charmant, étroit,
Nearest to il: dressé, entrée, peek, chapter, président, porta, remonte, boulets,


step: 10000
loss value: 0
Nearest to comme: —rien, fraîche, gravir, parfaitement, neût, ruhmkorff, gaya, —pas,
Nearest to dune: tombe, meeting, aidant, o, cette, façon, leurs, ………………………,
Nearest to fait: naturaliste, fatalité, pari, température, capitaines, douleur, cordes, succession,
Nearest to par: dans, fournisseur, sur, à, 00000000000000000000000000000000000, et, Mathias, apercevoir,
Nearest to avec: sur, lèvres, frontière, ………………………, soumis, vide, distribute, par,
Nearest to quelques: vieille, traversé, avonsnous, court, îles, mal, flancs, demanderai,
Nearest to plus: UNK, police, violent, superbe, i, ombre, japercevais, —nous,
Nearest to sous: propos, fanatiques, parapet, indien, quantité, nana, ascensionnelle, étroit,
Nearest to cest: montagnards, voudrais, fuyaient, oh, sapprocha, prend, gaya, 00000000000000000000000000000000000,
Nearest to n: gaya, est, huttes, buffles, ………………………, Deau, Projectile, a,
Nearest to fogg: détail, 00000000000000000000000000000000000, côtes, d0, donc, pareil, baie, stuart,
Nearest to Le: le, aucun, Profondeur, armé, profit, poudre, chapter, briser,
Nearest to qu: narwal, chapno, raison, b3, niveau, questions, 00000000000000000000000000000000000, simplement,
Nearest to ces: des, ………………………, les, rester, —cela, projets, observé, étais,
Nearest to —: Grands, puisque, mon, traces, quelque, et, pluies, objet,
Nearest to il: on, Il, qui, porta, ’, je, y, en,


step: 20000
loss value: 0
Nearest to comme: UNK, fraîche, car, gaya, parfaitement, —rien, gravir, étendu,
Nearest to dune: cette, tombe, aidant, o, une, meeting, zone, leurs,
Nearest to fait: fatalité, Telle, cest, naturaliste, sait, lui, pari, succession,
Nearest to par: dans, sur, à, avec, Dans, et, pour, depuis,
Nearest to avec: sur, par, Dans, à, dans, soumis, Avec, lèvres,
Nearest to quelques: traversé, les, vieille, mr, forts, gallons, mal, îles,
Nearest to plus: UNK, ’, ombre, pour, pas, très, police, —nous,
Nearest to sous: propos, dans, parapet, sur, fanatiques, Sur, de, ascensionnelle,
Nearest to cest: fuyaient, montagnards, fait, prend, sapprocha, gaya, moment, oh,
Nearest to n: est, gaya, huttes, dont, ………………………, case, pérouse, a,
Nearest to fogg: détail, 00000000000000000000000000000000000, côtes, d0, remplacer, stuart, donc, lhôtel,
Nearest to Le: le, aucun, Profondeur, du, armé, étendus, profit, au,
Nearest to qu: raison, narwal, simplement, document, chapno, dumont, questions, ici,
Nearest to ces: les, des, Les, ………………………, ses, fixé, Ces, observé,
Nearest to —: Grands, «, puisque, mais, et, dit, disje, mon,
Nearest to il: on, Il, qui, je, porta, c, cela, quil,


step: 30000
loss value: 0
Nearest to comme: fraîche, —rien, gaya, gravir, car, étendu, parfaitement, ruhmkorff,
Nearest to dune: une, cette, de, la, aidant, tombe, Une, Cette,
Nearest to fait: fatalité, UNK, Telle, pari, sait, entière, naturaliste, cest,
Nearest to par: dans, sur, avec, Dans, à, sous, depuis, fournisseur,
Nearest to avec: sur, Dans, par, Avec, lèvres, à, dans, soumis,
Nearest to quelques: les, cinq, mr, traversé, deux, longues, court, vieille,
Nearest to plus: très, police, japercevais, reptiles, dedans, absolument, trop, front,
Nearest to sous: dans, sur, propos, Sur, parapet, de, par, fanatiques,
Nearest to cest: fuyaient, prend, montagnards, gaya, heureusement, fait, oh, sapprocha,
Nearest to n: dont, est, gaya, huttes, ………………………, convenir, pérouse, faillit,
Nearest to fogg: donc, détail, remplacer, stuart, froidement, rouges, lhôtel, côtes,
Nearest to Le: le, aucun, du, Profondeur, Mais, étendus, armé, Du,
Nearest to qu: raison, narwal, simplement, serons, ici, d, document, en,
Nearest to ces: les, des, Ces, ses, Les, mètres, deux, observé,
Nearest to —: Grands, puisque, «, gaya, évidemment, appartenant, ………………………, disje,
Nearest to il: on, Il, quil, elle, porta, qui, je, ils,


step: 40000
loss value: 0
Nearest to comme: avec, car, fraîche, «, gravir, couvertures, —rien, foi,
Nearest to dune: une, cette, aidant, tombe, Cette, passent, Dune, Une,
Nearest to fait: fatalité, entière, pari, surprise, Telle, cest, naturaliste, température,
Nearest to par: dans, sur, avec, Dans, depuis, et, à, pour,
Nearest to avec: sur, par, Avec, Dans, comme, dans, à, lèvres,
Nearest to quelques: deux, cinq, mr, traversé, les, longues, trois, quatre,
Nearest to plus: trop, Plus, très, front, police, reptiles, absolument, pareilles,
Nearest to sous: dans, sur, Sur, propos, parapet, par, fanatiques, nana,
Nearest to cest: fuyaient, prend, fait, montagnards, oh, je, gaya, moment,
Nearest to n: est, avez, dont, ne, pérouse, convenir, ici, faillit,
Nearest to fogg: remplacer, détail, froidement, stuart, rouges, donc, guitt, lhôtel,
Nearest to Le: le, aucun, du, Mais, étendus, duquel, armé, Profondeur,
Nearest to qu: ici, narwal, raison, voudrez, d, simplement, attaque, que,
Nearest to ces: les, des, mètres, Ces, ses, Les, rester, existait,
Nearest to —: puisque, «, Grands, mais, parazard, disje, charmant, entier,
Nearest to il: on, Il, elle, quil, qui, je, ils, porta,


step: 50000
loss value: 0
Nearest to comme: fraîche, car, gravir, —rien, UNK, avec, couvertures, Aussi,
Nearest to dune: une, cette, Dune, aidant, Une, dun, façon, passent,
Nearest to fait: fatalité, pari, entière, Telle, température, atteint, surprise, Vous,
Nearest to par: dans, sur, Dans, avec, depuis, sous, pour, fournisseur,
Nearest to avec: Avec, Dans, sur, par, Après, lèvres, comme, à,
Nearest to quelques: deux, cinq, mr, traversé, les, certains, leurs, longues,
Nearest to plus: Plus, trop, très, absolument, pareilles, front, reptiles, confiance,
Nearest to sous: dans, sur, Sur, parapet, propos, de, par, nana,
Nearest to cest: fuyaient, prend, montagnards, cas, oh, lheure, Comme, est,
Nearest to n: dont, convenir, gaya, faillit, allions, est, singapore, avez,
Nearest to fogg: détail, froidement, donc, guitt, remplacer, stuart, lhôtel, rouges,
Nearest to Le: le, aucun, du, Mais, étendus, au, Du, duquel,
Nearest to qu: raison, voudrez, narwal, ici, simplement, d, attaque, quil,
Nearest to ces: les, Ces, des, ses, mètres, leurs, Des, Les,
Nearest to —: puisque, «, Grands, parazard, charmant, disje, entier, appartenant,
Nearest to il: Il, on, elle, quil, je, ils, trompais, qui,


step: 60000
loss value: 0
Nearest to comme: fraîche, gravir, —rien, car, parfaitement, Aussi, seul, couvertures,
Nearest to dune: une, cette, Dune, aidant, Une, dun, passent, zone,
Nearest to fait: fatalité, pari, entière, Telle, température, atteint, depuis, Vous,
Nearest to par: dans, Dans, sur, Par, avec, depuis, sous, fournisseur,
Nearest to avec: Avec, Dans, sur, Après, par, lèvres, comme, Comme,
Nearest to quelques: deux, cinq, mr, traversé, certains, longues, les, quatre,
Nearest to plus: Plus, trop, très, absolument, assez, dedans, moins, front,
Nearest to sous: dans, sur, Sur, parapet, propos, nana, par, vers,
Nearest to cest: fuyaient, prend, est, lheure, Comme, cas, oh, heureusement,
Nearest to n: dont, convenir, faillit, gaya, ………………………, ne, avez, allions,
Nearest to fogg: guitt, détail, froidement, remplacer, stuart, lhôtel, rouges, donc,
Nearest to Le: le, aucun, Mais, Du, du, Ce, étendus, Mon,
Nearest to qu: raison, voudrez, quil, narwal, ici, attaque, its, serons,
Nearest to ces: les, Ces, des, ses, mètres, leurs, Des, Les,
Nearest to —: puisque, Grands, «, parazard, charmant, gaya, disje, dor,
Nearest to il: Il, on, elle, quil, ils, trompais, sil, je,


step: 70000
loss value: 0
Nearest to comme: fraîche, gravir, seul, parfaitement, Aussi, —rien, couvertures, torrent,
Nearest to dune: une, Dune, aidant, cette, dun, Une, passent, zone,
Nearest to fait: fatalité, pari, température, diables, entière, Telle, atteint, depuis,
Nearest to par: dans, Dans, sur, Par, depuis, sous, fournisseur, rues,
Nearest to avec: Avec, Dans, Après, sur, lèvres, par, Comme, comme,
Nearest to quelques: deux, cinq, certains, longues, mr, traversé, trois, quatre,
Nearest to plus: Plus, trop, très, assez, moins, absolument, reptiles, dedans,
Nearest to sous: dans, sur, Sur, parapet, propos, nana, par, lampe,
Nearest to cest: prend, fuyaient, lheure, pauvre, heureusement, Comme, cas, oh,
Nearest to n: dont, convenir, faillit, ………………………, ne, gaya, avez, singapore,
Nearest to fogg: guitt, froidement, détail, stuart, lhôtel, rouges, remplacer, pensée,
Nearest to Le: le, aucun, Du, Mais, du, Ce, Mon, étendus,
Nearest to qu: quil, voudrez, raison, narwal, its, attaque, ici, serons,
Nearest to ces: les, Ces, des, ses, leurs, mètres, mots, ………………………,
Nearest to —: puisque, «, parazard, Grands, disje, gaya, charmant, dor,
Nearest to il: Il, on, elle, quil, ils, je, —il, trompais,


step: 80000
loss value: 0
Nearest to comme: fraîche, Aussi, seul, parfaitement, gravir, torrent, européen, —rien,
Nearest to dune: une, Dune, dun, aidant, cette, zone, passent, Une,
Nearest to fait: fatalité, température, diables, atteint, pari, Telle, entière, depuis,
Nearest to par: Dans, dans, Par, sur, depuis, rues, fournisseur, doigts,
Nearest to avec: Avec, Dans, Après, lèvres, sur, Comme, marais, Sur,
Nearest to quelques: deux, cinq, certains, longues, mr, traversé, trois, Quelques,
Nearest to plus: Plus, trop, très, moins, assez, absolument, dedans, confiance,
Nearest to sous: dans, sur, Sur, parapet, propos, nana, par, entre,
Nearest to cest: prend, lheure, fuyaient, pauvre, cétait, Comme, est, heureusement,
Nearest to n: dont, convenir, faillit, gaya, ………………………, ne, Qu, singapore,
Nearest to fogg: guitt, froidement, stuart, détail, lhôtel, pensée, remplacer, vingtdeux,
Nearest to Le: le, aucun, Du, Ce, du, Mais, Mon, régnait,
Nearest to qu: quil, voudrez, raison, narwal, its, attaque, baltimore, que,
Nearest to ces: Ces, les, des, ses, mètres, leurs, ………………………, mots,
Nearest to —: puisque, «, Grands, parazard, gaya, disje, charmant, appartenant,
Nearest to il: Il, on, elle, quil, —il, ils, je, sil,


step: 90000
loss value: 0
Nearest to comme: fraîche, gravir, parfaitement, Aussi, dhomme, seul, avec, européen,
Nearest to dune: une, Dune, dun, aidant, zone, passent, cette, étrange,
Nearest to fait: fatalité, température, depuis, diables, Telle, atteint, entière, pari,
Nearest to par: Dans, Par, dans, sur, depuis, rues, fournisseur, doigts,
Nearest to avec: Avec, Dans, Après, lèvres, sur, marais, Comme, Sur,
Nearest to quelques: deux, cinq, certains, longues, Quelques, plusieurs, îles, quatre,
Nearest to plus: Plus, trop, moins, très, assez, dedans, absolument, complètement,
Nearest to sous: dans, sur, Sur, parapet, propos, nana, par, lampe,
Nearest to cest: prend, pauvre, cétait, lheure, fuyaient, est, Comme, heureusement,
Nearest to n: dont, faillit, convenir, ………………………, laisse, gaya, dy, Qu,
Nearest to fogg: guitt, stuart, pensée, détail, lhôtel, froidement, vingtdeux, guide,
Nearest to Le: le, aucun, Du, Mon, du, Ce, demandai, Ned,
Nearest to qu: quil, voudrez, raison, its, narwal, baltimore, attaque, ici,
Nearest to ces: Ces, les, des, ses, mètres, leurs, ………………………, mots,
Nearest to —: «, puisque, appartenant, gaya, disje, parazard, charmant, spécimens,
Nearest to il: Il, on, elle, quil, —il, sil, aisément, ils,


step: 100000
loss value: 0
Nearest to comme: fraîche, gravir, seul, parfaitement, dhomme, Aussi, européen, —rien,
Nearest to dune: une, Dune, dun, aidant, zone, cette, passent, étrange,
Nearest to fait: fatalité, température, depuis, diables, Telle, entière, atteint, donné,
Nearest to par: Par, Dans, dans, sur, rues, depuis, sort, succession,
Nearest to avec: Avec, Dans, Après, lèvres, Comme, précieuses, marais, Sur,
Nearest to quelques: deux, cinq, certains, Quelques, longues, plusieurs, Deau, îles,
Nearest to plus: Plus, trop, moins, assez, très, absolument, confiance, complètement,
Nearest to sous: dans, sur, parapet, Sur, propos, nana, Dans, 1f3,
Nearest to cest: prend, pauvre, cétait, lheure, fuyaient, est, Comme, mince,
Nearest to n: dont, laisse, ………………………, convenir, gaya, faillit, N, stderr,
Nearest to fogg: guitt, stuart, guide, pensée, vingtdeux, détail, lhôtel, remplacer,
Nearest to Le: le, aucun, Du, demandai, Ce, Mon, Ned, régnait,
Nearest to qu: quil, voudrez, raison, narwal, its, baltimore, attaque, ici,
Nearest to ces: Ces, les, ses, mètres, des, leurs, mots, ………………………,
Nearest to —: «, puisque, disje, charmant, gaya, Grands, appartenant, évidemment,
Nearest to il: Il, on, elle, quil, —il, je, sil, autorité,


step: 0
loss value: 0
Nearest to donc: jusquau, représentants, tour, mille, couvertures, —pas, Ils, descendre,
Nearest to la: hui, —un, —parce, continua, explosion, Luimême, ouverture, demeurait,
Nearest to il: démesurément, fridriksson, devant, Latitude, pensais, sifflement, euxmêmes, revoir,
Nearest to quil: sécria, quà, insurrection, grêle, opérer, lélectricité, Nétait, muséum,
Nearest to «: leffet, passepartout, rayon, observait, lait, également, dressé, parages,
Nearest to encore: ému, nouvelle, serions, sy, laiguille, savants, my, quelle,
Nearest to me: criait, humaine, limited, but, Longueur, laves, ceuxci, léopard,
Nearest to à: naturelle, différentes, verne, damages, dun, centimètres, sarrêter, sneffels,
Nearest to comme: saurons, disparurent, relativement, reptiles, Phileas, enfants, services, révolte,
Nearest to été: atmosphérique, For, Me, solaires, bombay, e, serons, rêve,
Nearest to dune: doit, centimètres, efforts, chaînes, genre, Vitesse, étrangers, non,
Nearest to mille: pressé, vouloir, celuici, nombreuses, horrible, dabord, donc, ailleurs,
Nearest to —: repritil, soulever, fureur, Lamérique, eaux, jambes, Côte, lasie,
Nearest to sont: fugitifs, angle, daccord, permission, terminée, offre, frappa, distinguer,
Nearest to si: marins, blessure, frégate, Celuici, tigre, œuvres, payer, quai,
Nearest to dont: Répondit, verrez, malheureux, franchit, extérieure, connaître, savons, orage,


step: 10000
loss value: 0
Nearest to donc: Chapitre, ………………………, jusquau, maintenant, espace, descendre, pu, Ils,
Nearest to la: cette, sa, une, leur, La, voyageur, cru, d0,
Nearest to il: qui, on, devant, démesurément, —je, euxmêmes, suffit, cela,
Nearest to quil: insurrection, opérer, horribles, lélectricité, quà, hésiter, pouvait, eu,
Nearest to «: d0, —, rayon, lames, observait, lait, Rencontre, Même,
Nearest to encore: ému, sy, nouvelle, c5, parlait, quelle, savants, laiguille,
Nearest to me: criait, humaine, but, Ne, limited, b3, ceuxci, Lendemain,
Nearest to à: de, writing, sous, naturelle, différentes, À, c5, dans,
Nearest to comme: disparurent, UNK, stderr, Phileas, voulaient, saurons, montagnes, régulièrement,
Nearest to été: atmosphérique, e, b3, Me, For, demanderai, serons, bombay,
Nearest to dune: doit, Vitesse, sa, lidenbrock, hart, centimètres, non, efforts,
Nearest to mille: milles, horrible, quelquefois, Dès, vouloir, seconde, pressé, cambridge,
Nearest to —: soulever, bc, samuel, «, perles, d0, sousmarins, victime,
Nearest to sont: UNK, fugitifs, offre, permission, native, angle, produire, steamers,
Nearest to si: c5, sodium, frégate, Dès, œuvres, payer, tigre, leau,
Nearest to dont: verrez, franchit, uniquement, malheureux, extérieure, orage, savons, Répondit,


step: 20000
loss value: 0
Nearest to donc: Chapitre, pu, maintenant, linstant, coton, ………………………, Project, espace,
Nearest to la: sa, cette, La, une, leur, ma, l, voyageur,
Nearest to il: on, qui, Il, démesurément, —je, elle, cela, devant,
Nearest to quil: insurrection, horribles, pouvait, pourra, opérer, quà, eu, il,
Nearest to «: —, d0, observait, lames, rayon, brigadier, Même, lait,
Nearest to encore: ému, sy, quelle, laiguille, c5, savants, parlait, nouvelle,
Nearest to me: criait, humaine, se, Ne, ne, but, Lheure, limited,
Nearest to à: À, dans, naturelle, de, sur, sous, writing, différentes,
Nearest to comme: disparurent, indien, voulaient, Phileas, répondait, régulièrement, lames, saurons,
Nearest to été: e, Me, atmosphérique, b3, demanderai, john, For, échappé,
Nearest to dune: sa, une, Vitesse, doit, d, lidenbrock, hart, la,
Nearest to mille: milles, horrible, vouloir, quelquefois, Dès, tous, cambridge, seconde,
Nearest to —: «, sousmarins, samuel, soulever, dheure, bc, apparence, dirait,
Nearest to sont: UNK, native, offre, angle, fugitifs, steamers, permission, personnage,
Nearest to si: c5, sodium, œuvres, Dès, payer, rendit, ………………………, frégate,
Nearest to dont: malheureux, franchit, uniquement, extérieure, verrez, coûté, orage, cercle,


step: 30000
loss value: 0
Nearest to donc: Chapitre, pu, linstant, maintenant, coton, tenaient, aimable, Project,
Nearest to la: sa, La, cette, une, ma, leur, l, c5,
Nearest to il: on, Il, qui, elle, —je, revenu, ils, je,
Nearest to quil: insurrection, qu, il, que, pouvait, horribles, Qui, pourra,
Nearest to «: —, d0, observait, lames, prévenu, brigadier, travers, Nous,
Nearest to encore: sy, ému, quelle, laiguille, c5, partis, nouvelle, parlait,
Nearest to me: se, criait, humaine, Ne, ne, lui, Lheure, but,
Nearest to à: À, dans, sur, de, naturelle, sous, c5, vers,
Nearest to comme: disparurent, indien, répondait, cétacés, lames, régulièrement, Aucune, éteindre,
Nearest to été: e, Me, john, atmosphérique, demanderai, b3, distinguer, échappé,
Nearest to dune: une, sa, Vitesse, d, lidenbrock, de, la, doit,
Nearest to mille: milles, vouloir, cent, quelquefois, horrible, cents, tous, Cent,
Nearest to —: «, bc, d0, sousmarins, samuel, soulever, dheure, Lamérique,
Nearest to sont: personnage, native, offre, UNK, angle, frappa, gagna, Éléphants,
Nearest to si: c5, œuvres, sodium, payer, Dès, ………………………, rendit, UNK,
Nearest to dont: franchit, malheureux, uniquement, extérieure, verrez, coûté, spectateurs, cercle,


step: 40000
loss value: 0
Nearest to donc: Chapitre, pu, linstant, aimable, maintenant, coton, tenaient, précieuses,
Nearest to la: La, sa, cette, ma, une, l, leur, Cette,
Nearest to il: on, Il, elle, quil, je, qui, revenu, ils,
Nearest to quil: il, qu, que, insurrection, pouvait, Qui, horribles, opérer,
Nearest to «: —, observait, d0, lames, prévenu, brigadier, travers, terrains,
Nearest to encore: sy, quelle, ému, laiguille, partis, c5, reconnaissance, savants,
Nearest to me: se, Ne, criait, humaine, lui, ne, Lheure, but,
Nearest to à: À, de, sur, dans, sous, naturelle, devant, vers,
Nearest to comme: disparurent, cétacés, indien, répondait, lames, Lorsque, éteindre, continuait,
Nearest to été: e, Me, john, demanderai, atmosphérique, b3, distinguer, échappé,
Nearest to dune: une, d, sa, Vitesse, de, lidenbrock, cette, hart,
Nearest to mille: milles, cent, Cent, cents, vouloir, quelquefois, horrible, tous,
Nearest to —: «, sousmarins, dheure, bc, d0, Lamérique, samuel, dirait,
Nearest to sont: personnage, gagna, native, offre, frappa, angle, Éléphants, sera,
Nearest to si: c5, œuvres, ………………………, rendit, sodium, Laquelle, payer, Dès,
Nearest to dont: franchit, malheureux, uniquement, spectateurs, extérieure, coûté, —et, vitre,


step: 50000
loss value: 0
Nearest to donc: pu, aimable, maintenant, linstant, coton, Chapitre, tenaient, précieuses,
Nearest to la: La, sa, cette, ma, une, l, leur, Cette,
Nearest to il: on, Il, elle, quil, je, —il, sil, nautilus,
Nearest to quil: il, qu, que, Qui, insurrection, poids, pouvait, opérer,
Nearest to «: —, observait, lames, d0, brigadier, Nous, prévenu, terrains,
Nearest to encore: sy, quelle, partis, laiguille, déjà, ému, reconnaissance, pas,
Nearest to me: se, ne, lui, Ne, criait, humaine, Lheure, dis,
Nearest to à: À, dans, sur, de, au, sous, naturelle, devant,
Nearest to comme: cétacés, indien, lames, répondait, disparurent, Comme, Lorsque, continuait,
Nearest to été: e, Me, john, demanderai, distinguer, échappé, atmosphérique, b3,
Nearest to dune: une, d, sa, Vitesse, lidenbrock, toute, hart, ancien,
Nearest to mille: milles, cents, Cent, cent, vouloir, quelquefois, horrible, tous,
Nearest to —: «, dheure, sousmarins, bc, d0, partons, samuel, Lamérique,
Nearest to sont: personnage, gagna, sera, native, Éléphants, angle, frappa, inclinés,
Nearest to si: c5, œuvres, ………………………, Sol, sodium, payer, all, Laquelle,
Nearest to dont: franchit, malheureux, uniquement, vitre, spectateurs, où, Pendant, extérieure,


step: 60000
loss value: 0
Nearest to donc: aimable, pas, pu, tenaient, coton, maintenant, linstant, Chapitre,
Nearest to la: La, sa, cette, ma, une, l, leur, Cette,
Nearest to il: on, Il, elle, quil, sil, —il, ils, je,
Nearest to quil: il, qu, que, Qui, poids, insurrection, opérer, rarement,
Nearest to «: —, observait, lames, brigadier, d0, Nous, travers, prévenu,
Nearest to encore: sy, déjà, quelle, partis, laiguille, pas, ému, reconnaissance,
Nearest to me: se, lui, Ne, ne, Lheure, criait, humaine, vais,
Nearest to à: À, de, ramure, sur, mâts, dans, devant, naturelle,
Nearest to comme: cétacés, Comme, indien, lames, répondait, Lorsque, disparurent, Aucune,
Nearest to été: Me, e, john, eu, distinguer, échappé, demanderai, atmosphérique,
Nearest to dune: une, d, Vitesse, sa, ancien, lidenbrock, for, hart,
Nearest to mille: milles, cents, cent, Cent, vouloir, cubes, tous, Cents,
Nearest to —: «, dheure, Lamérique, sousmarins, partons, samuel, bc, d0,
Nearest to sont: personnage, gagna, furent, sera, UNK, étaient, Éléphants, native,
Nearest to si: c5, ………………………, œuvres, Sol, all, puisque, sodium, Laquelle,
Nearest to dont: franchit, malheureux, vitre, uniquement, spectateurs, où, Pendant, extérieure,


step: 70000
loss value: 0
Nearest to donc: aimable, maintenant, tenaient, pas, coton, pu, linstant, précieuses,
Nearest to la: La, sa, cette, ma, l, une, chaudes, conduits,
Nearest to il: Il, on, elle, sil, —il, quil, je, ils,
Nearest to quil: il, que, qu, poids, Qui, insurrection, opérer, rarement,
Nearest to «: —, observait, travers, lames, prévenu, brigadier, Nous, d0,
Nearest to encore: déjà, sy, partis, laiguille, quelle, reconnaissance, ému, pas,
Nearest to me: se, lui, Ne, ne, criait, Lheure, humaine, dis,
Nearest to à: À, sur, dans, de, devant, mâts, sous, ramure,
Nearest to comme: Comme, cétacés, lames, indien, Lorsque, répondait, Aucune, Vers,
Nearest to été: john, Me, e, eu, distinguer, échappé, demanderai, Quun,
Nearest to dune: une, d, Vitesse, ancien, for, lidenbrock, sa, hart,
Nearest to mille: milles, cents, Cent, cent, vouloir, cubes, ………………………, Cents,
Nearest to —: «, sousmarins, Lamérique, dheure, partons, samuel, dirait, UNK,
Nearest to sont: personnage, furent, étaient, sera, gagna, Éléphants, native, inclinés,
Nearest to si: ………………………, c5, puisque, Sol, all, œuvres, Laquelle, sodium,
Nearest to dont: franchit, malheureux, vitre, spectateurs, uniquement, secrets, Ni, Pendant,


step: 80000
loss value: 0
Nearest to donc: maintenant, aimable, tenaient, précieuses, linstant, pu, coton, pas,
Nearest to la: sa, La, cette, une, ma, l, chaudes, Cette,
Nearest to il: Il, on, elle, sil, —il, quil, je, ils,
Nearest to quil: il, que, qu, poids, Qui, opérer, fogg, insurrection,
Nearest to «: —, observait, prévenu, travers, brigadier, Nous, lames, côtes,
Nearest to encore: déjà, sy, partis, laiguille, quelle, reconnaissance, ému, toujours,
Nearest to me: se, lui, ne, Ne, Lheure, criait, humaine, vais,
Nearest to à: À, sur, dans, devant, vers, de, naturelle, ramure,
Nearest to comme: Comme, cétacés, Lorsque, indien, lames, Aucune, répondait, disparurent,
Nearest to été: john, Me, e, eu, distinguer, échappé, Été, probablement,
Nearest to dune: une, d, ancien, for, Vitesse, lidenbrock, dun, lorsquil,
Nearest to mille: milles, cents, Cent, cent, vouloir, cubes, Cents, ………………………,
Nearest to —: «, partons, dheure, Lamérique, entendait, sousmarins, disposition, dirait,
Nearest to sont: personnage, étaient, furent, sera, gagna, choisir, Éléphants, pain,
Nearest to si: ………………………, puisque, all, quand, Sol, œuvres, c5, Laquelle,
Nearest to dont: franchit, malheureux, vitre, spectateurs, secrets, uniquement, qui, Ni,


step: 90000
loss value: 0
Nearest to donc: maintenant, aimable, tenaient, précieuses, linstant, Project, mieux, pu,
Nearest to la: La, cette, sa, ma, une, l, chaudes, Cette,
Nearest to il: Il, on, sil, elle, —il, quil, je, projectile,
Nearest to quil: qu, il, que, poids, fogg, Qui, opérer, quon,
Nearest to «: —, observait, prévenu, brigadier, travers, lames, cabine, Nous,
Nearest to encore: déjà, sy, partis, laiguille, quelle, maintenant, toujours, reconnaissance,
Nearest to me: se, lui, ne, Ne, Lheure, men, criait, humaine,
Nearest to à: À, de, mâts, sur, banque, dans, vers, cabine,
Nearest to comme: Comme, cétacés, lames, Lorsque, indien, Vers, éteindre, répondait,
Nearest to été: Me, john, e, eu, distinguer, Été, échappé, trouvé,
Nearest to dune: une, d, ancien, dun, for, lidenbrock, Vitesse, lorsquil,
Nearest to mille: milles, Cent, cents, cent, vouloir, Cents, cubes, tous,
Nearest to —: «, Lamérique, partons, dheure, disposition, entendait, sousmarins, dirait,
Nearest to sont: étaient, furent, personnage, sera, gagna, choisir, pain, Éléphants,
Nearest to si: ………………………, puisque, all, quand, Sol, œuvres, Laquelle, louragan,
Nearest to dont: franchit, malheureux, vitre, secrets, spectateurs, uniquement, qui, Ni,


step: 100000
loss value: 0
Nearest to donc: maintenant, aimable, tenaient, linstant, Ils, précieuses, mieux, pu,
Nearest to la: sa, cette, La, une, ma, l, début, chaudes,
Nearest to il: Il, on, sil, elle, —il, je, quil, projectile,
Nearest to quil: qu, que, il, poids, quon, opérer, fogg, Qui,
Nearest to «: —, observait, prévenu, brigadier, cabine, Nous, travers, consulter,
Nearest to encore: déjà, sy, partis, toujours, souvent, laiguille, maintenant, quelle,
Nearest to me: se, ne, lui, Ne, men, Lheure, dis, criait,
Nearest to à: À, de, ramure, cabine, banque, sur, lagent, devant,
Nearest to comme: Comme, cétacés, lames, Lorsque, indien, Vers, éteindre, Aucune,
Nearest to été: e, john, eu, Me, Été, distinguer, échappé, trouvé,
Nearest to dune: une, ancien, d, lorsquil, dun, for, Vitesse, lidenbrock,
Nearest to mille: milles, Cent, cents, cent, Cents, cubes, vouloir, ………………………,
Nearest to —: «, disposition, dheure, partons, Lamérique, sousmarins, bc, refusa,
Nearest to sont: étaient, furent, personnage, sera, choisir, gagna, pain, Éléphants,
Nearest to si: ………………………, puisque, all, Sol, Vaste, œuvres, quand, saisit,
Nearest to dont: franchit, vitre, secrets, malheureux, spectateurs, Dont, allait, Ni,


