{
	"name": "ARC-MUND-PUB-IIB-2",
	"blobs":[[24,780,79,20],[3,720,3,3],[52,711,14,3],[18,711,78,61],[1,677,7,3],[96,646,3,3],[24,637,76,66],[55,611,37,4],[18,566,71,63],[25,502,70,57],[47,484,12,3],[25,473,24,21],[38,469,9,3],[49,465,7,3],[38,465,10,3],[91,363,4,3],[95,356,3,3],[27,354,44,8],[40,350,11,3],[2,350,3,3],[27,334,19,3],[45,330,11,3],[23,330,9,3],[64,329,3,3],[45,326,11,3],[28,326,8,3],[17,315,24,3],[54,306,11,3],[22,304,25,5],[14,293,3,3],[93,281,8,14],[38,47,5,3],[45,46,14,3],[29,38,19,3],[47,34,11,3],[25,34,9,3],[48,30,11,3],[31,30,8,3],[20,19,25,3],[25,9,35,5],[21,1204,69,55],[2,1193,3,3],[3,1180,3,3],[53,1130,14,3],[18,1130,77,57],[95,1117,4,6],[23,1048,76,61],[17,979,79,61],[1,946,3,3],[22,909,72,63],[17,845,75,55],[24,800,74,36]],
	"pngs":[
		["pngs/txt/ARC-MUND-PUB-IIB-2.00000.png","pngs/opencv/ARC-MUND-PUB-IIB-2.00000.png"],
		["pngs/txt/ARC-MUND-PUB-IIB-2.00001.png","pngs/opencv/ARC-MUND-PUB-IIB-2.00001.png"]
	]
}