{
	"name": "ARC-MUND-PUB-IIB-25-35",
	"blobs":[[53,792,3,3],[3,786,3,3],[1,782,12,3],[67,777,7,3],[3,776,23,4],[39,762,30,5],[18,762,18,6],[65,755,3,3],[10,752,5,4],[19,751,22,7],[16,744,16,5],[16,740,8,3],[31,728,33,7],[60,727,20,4],[63,715,7,3],[33,636,6,3],[18,596,27,3],[17,592,24,3],[54,554,4,3],[51,509,4,4],[65,485,7,3],[66,465,5,6],[14,336,24,8],[29,331,6,3],[14,331,4,3],[14,327,5,3],[13,280,89,67],[94,266,5,4],[26,198,67,14],[9,176,7,3],[17,151,97,39],[32,136,88,9],[28,67,86,60],[17,13,96,46],[17,13,16,3],[18,8,63,4],[44,1597,22,3],[19,1539,63,49],[28,1528,4,3],[51,1527,8,6],[38,1527,4,3],[96,1506,6,8],[6,1504,3,4],[25,1460,75,55],[45,1457,22,3],[3,1436,3,3],[5,1397,4,3],[18,1396,68,52],[63,1388,6,3],[70,1387,38,3],[48,1387,7,4],[34,1385,7,3],[25,1327,67,54],[51,1313,5,3],[3,1306,4,12],[95,1298,3,3],[11,1289,4,3],[19,1263,62,49],[8,1251,6,3],[98,1241,5,11],[25,1232,40,21],[65,1231,21,19],[25,1213,88,16],[49,1207,15,3],[36,1207,7,3],[77,1183,3,3],[18,1141,86,44],[45,1136,12,3],[33,1136,7,3],[75,1029,5,4],[54,1014,26,3],[27,1014,24,3],[88,1001,4,4],[16,986,71,26],[50,974,3,3],[97,963,12,13],[26,928,76,36],[86,894,9,3],[15,892,77,27],[38,884,9,3],[29,856,21,5],[6,839,3,3],[30,827,62,11],[28,2393,81,7],[52,2381,9,3],[42,2381,7,3],[16,2319,87,50],[25,2258,91,51],[16,2199,91,50],[73,2187,17,3],[56,2187,4,3],[26,2124,94,51],[16,2069,89,46],[26,2013,90,46],[13,1960,90,44],[8,1936,4,3],[98,1878,6,5],[75,1863,5,3],[19,1860,14,6],[48,1853,40,6],[59,1777,7,3],[78,1773,21,6],[40,1767,16,4],[19,1767,19,4],[4,1749,4,4],[65,1600,24,12],[25,1600,38,12],[25,3158,82,31],[26,3151,56,7],[15,3117,87,14],[95,3105,9,3],[75,3105,5,3],[57,3105,4,3],[42,3105,7,3],[6,3101,4,6],[6,3064,3,5],[26,3044,90,50],[15,2978,85,57],[63,2971,14,3],[49,2971,12,3],[42,2971,6,3],[10,2969,4,4],[22,2966,4,4],[24,2911,88,50],[97,2852,5,4],[16,2846,84,56],[25,2785,84,52],[16,2725,87,51],[21,2714,18,5],[25,2650,86,57],[24,2638,8,3],[96,2635,3,3],[17,2580,88,49],[55,2570,10,3],[37,2570,3,3],[25,2570,4,3],[97,2564,7,7],[7,2522,3,3],[26,2508,83,52],[87,2502,3,3],[17,2448,97,52],[27,2400,83,39],[16,3995,79,5],[97,3993,4,6],[43,3985,5,3],[4,3980,4,6],[24,3931,82,51],[2,3919,6,3],[6,3889,4,4],[20,3871,11,3],[15,3868,87,38],[92,3844,3,3],[69,3809,16,3],[25,3792,80,19],[6,3780,3,3],[1,3780,3,3],[0,3773,6,6],[97,3755,4,3],[97,3734,3,3],[15,3717,88,52],[25,3653,85,55],[17,3597,78,47],[75,3593,5,3],[40,3593,18,3],[26,3544,82,40],[96,3523,4,6],[17,3489,87,46],[15,3477,6,3],[4,3476,5,4],[79,3473,3,3],[25,3419,92,53],[34,3407,6,3],[75,3393,4,3],[16,3350,79,45],[71,3338,4,3],[42,3338,5,3],[49,3273,19,3],[27,3273,85,51],[26,3261,3,3],[17,3210,90,36],[19,4774,118,26],[15,4709,111,56],[18,4640,125,60],[92,4635,3,4],[75,4560,3,3],[15,4560,115,72],[54,4548,3,3],[24,4483,15,5],[20,4477,98,57],[36,4472,47,3],[43,4461,3,3],[8,4461,4,3],[2,4460,4,4],[42,4446,13,3],[58,4442,31,8],[3,4442,4,5],[78,4438,11,3],[3,4429,6,3],[15,4404,15,3],[16,4399,13,3],[12,4392,96,54],[82,4388,3,3],[27,4388,49,3],[96,4382,5,10],[3,4380,6,4],[94,4378,10,3],[86,4377,3,3],[80,4377,4,3],[68,4377,3,3],[24,4306,81,63],[25,4306,3,3],[3,4284,4,3],[18,4246,97,51],[24,4193,88,44],[88,4181,3,3],[6,4175,4,3],[81,4148,6,3],[2,4141,4,3],[16,4113,78,63],[13,4107,4,3],[38,4047,76,57],[3,4015,4,4],[15,4000,89,37],[47,5593,6,3],[29,5576,47,4],[88,5575,4,3],[9,5574,10,3],[78,5539,9,3],[39,5537,3,3],[77,5504,12,3],[25,5442,89,57],[72,5386,5,3],[14,5386,87,47],[43,5374,4,3],[13,5365,4,5],[29,5324,15,3],[25,5321,84,50],[28,5315,6,3],[3,5297,3,6],[72,5296,4,3],[39,5278,9,3],[60,5274,4,3],[15,5243,94,23],[27,5241,43,3],[18,5176,98,56],[15,5116,96,51],[87,5104,3,3],[79,5104,3,3],[54,5104,3,3],[17,5040,99,50],[98,5033,4,5],[16,4973,115,60],[27,4931,94,33],[28,4924,51,6],[72,4900,5,3],[14,4842,119,32],[19,4800,122,33],[17,6347,85,48],[86,6340,3,3],[23,6284,83,55],[31,6272,6,3],[8,6259,7,4],[16,6218,87,50],[87,6210,4,3],[9,6172,5,3],[24,6161,93,49],[74,6099,5,3],[16,6098,93,54],[6,6086,6,3],[23,6032,93,50],[93,6023,4,3],[71,6021,3,3],[73,6006,5,3],[15,5963,83,44],[6,5961,4,4],[74,5959,5,3],[26,5959,47,3],[4,5943,8,7],[4,5933,3,6],[98,5920,5,4],[3,5911,3,6],[2,5886,6,7],[98,5881,5,6],[2,5880,3,3],[2,5874,6,5],[98,5873,6,7],[9,5872,6,3],[83,5870,4,3],[26,5852,139,10],[4,5822,3,3],[117,5821,14,3],[51,5821,3,3],[63,5816,4,3],[41,5816,5,3],[3,5814,4,3],[42,5808,3,3],[58,5799,17,3],[38,5799,17,3],[96,5767,5,4],[60,5734,15,4],[31,5725,7,3],[42,5724,7,3],[25,5664,86,44],[10,5632,90,23],[15,5604,84,17],[97,6469,3,6],[7,6467,4,4],[29,6464,6,3],[29,6459,6,3],[24,6422,83,47],[71,6410,3,3]],
	"pngs":[
		["pngs/txt/ARC-MUND-PUB-IIB-25-35.00000.png","pngs/opencv/ARC-MUND-PUB-IIB-25-35.00000.png"],
		["pngs/txt/ARC-MUND-PUB-IIB-25-35.00001.png","pngs/opencv/ARC-MUND-PUB-IIB-25-35.00001.png"],
		["pngs/txt/ARC-MUND-PUB-IIB-25-35.00002.png","pngs/opencv/ARC-MUND-PUB-IIB-25-35.00002.png"],
		["pngs/txt/ARC-MUND-PUB-IIB-25-35.00003.png","pngs/opencv/ARC-MUND-PUB-IIB-25-35.00003.png"],
		["pngs/txt/ARC-MUND-PUB-IIB-25-35.00004.png","pngs/opencv/ARC-MUND-PUB-IIB-25-35.00004.png"],
		["pngs/txt/ARC-MUND-PUB-IIB-25-35.00005.png","pngs/opencv/ARC-MUND-PUB-IIB-25-35.00005.png"],
		["pngs/txt/ARC-MUND-PUB-IIB-25-35.00006.png","pngs/opencv/ARC-MUND-PUB-IIB-25-35.00006.png"],
		["pngs/txt/ARC-MUND-PUB-IIB-25-35.00007.png","pngs/opencv/ARC-MUND-PUB-IIB-25-35.00007.png"],
		["pngs/txt/ARC-MUND-PUB-IIB-25-35.00008.png","pngs/opencv/ARC-MUND-PUB-IIB-25-35.00008.png"]
	]
}