{
	"name": "ARC-MUND-PUB-BULLETIN-SOCIETE-PHOTO-CENTRE-1906-17",
	"blobs":[[11,784,3,3],[14,779,97,21],[8,779,3,3],[83,774,6,3],[13,759,108,17],[58,750,4,3],[25,748,11,3],[12,740,18,5],[5,739,4,3],[12,732,9,3],[26,726,7,5],[12,720,11,3],[40,707,61,43],[71,707,4,3],[4,707,3,4],[14,677,93,28],[10,661,6,3],[21,654,3,3],[84,652,3,3],[80,652,3,3],[16,650,4,5],[52,647,24,3],[73,639,4,3],[19,636,60,37],[23,636,9,3],[16,614,4,4],[63,610,7,3],[13,610,75,31],[53,605,4,5],[74,604,3,3],[18,603,34,8],[71,597,6,4],[3,587,4,3],[29,565,3,3],[16,561,21,4],[15,560,71,39],[74,534,3,3],[44,534,33,9],[13,534,86,30],[8,531,3,3],[81,508,5,3],[20,508,59,20],[74,501,3,3],[15,501,34,13],[65,454,4,3],[50,450,4,3],[77,449,6,3],[68,448,8,4],[68,443,10,4],[64,438,19,5],[7,435,57,23],[83,434,3,3],[1,434,6,3],[30,429,42,5],[84,418,5,4],[9,407,3,4],[9,393,4,3],[69,391,3,3],[12,389,81,32],[3,388,4,3],[15,381,6,3],[52,377,20,3],[40,375,3,3],[88,367,3,3],[13,344,72,36],[73,333,6,6],[68,333,4,3],[18,333,48,9],[59,325,13,3],[17,325,34,6],[36,316,5,4],[73,295,3,3],[62,290,7,3],[11,288,76,30],[42,280,12,4],[89,269,4,3],[84,261,4,3],[14,259,68,18],[75,258,4,3],[8,253,5,3],[14,252,49,5],[71,251,4,3],[22,236,98,10],[34,221,82,3],[22,211,55,13],[44,204,13,3],[22,204,11,3],[22,195,59,5],[16,183,65,7],[90,178,4,3],[15,168,74,17],[91,158,4,6],[15,153,48,14],[16,147,23,6],[37,143,13,3],[58,140,10,6],[18,140,18,6],[21,84,90,50],[76,73,4,4],[5,67,28,4],[38,64,11,6],[11,63,9,3],[35,39,15,6],[26,38,7,4],[71,34,4,3],[30,34,36,8],[42,24,7,3],[60,5,17,5],[14,1590,76,10],[2,1550,3,3],[19,1517,77,63],[91,1504,3,3],[92,1489,3,4],[92,1476,3,3],[92,1471,3,3],[89,1459,6,10],[0,1451,3,3],[14,1442,91,56],[91,1435,3,3],[1,1383,105,54],[16,1334,76,42],[16,1324,51,7],[107,1304,38,3],[40,1304,59,6],[79,1285,21,4],[68,1230,19,3],[61,1230,5,3],[17,1193,85,33],[17,1176,77,15],[15,1105,88,64],[18,1081,84,16],[19,1042,79,13],[14,1024,87,9],[38,1023,3,3],[64,1022,5,3],[14,979,7,3],[14,976,79,48],[57,971,3,3],[26,969,16,3],[74,872,3,3],[10,842,61,33],[57,835,13,3],[19,835,23,3],[10,835,5,3],[16,831,8,3],[10,823,62,5],[16,807,73,8],[16,800,96,6],[1,2398,3,2],[62,2395,10,5],[46,2395,14,3],[26,2395,15,5],[65,2390,4,3],[22,2390,17,4],[1,2388,10,8],[24,2380,10,3],[1,2374,6,8],[26,2371,49,22],[16,2369,4,4],[86,2362,5,5],[89,2354,3,3],[8,2332,74,35],[62,2326,5,4],[15,2326,29,5],[37,2318,30,5],[13,2317,20,8],[32,2303,57,9],[69,2290,4,4],[2,2277,3,3],[22,2249,94,16],[12,2179,94,63],[22,2098,95,74],[72,2090,25,3],[11,2029,102,62],[28,2021,8,3],[90,2019,3,6],[1,1994,4,3],[22,1950,96,62],[1,1940,4,4],[11,1930,85,11],[11,1901,96,28],[28,1894,16,3],[14,1873,4,3],[88,1872,3,3],[77,1834,4,3],[21,1833,74,27],[0,1827,4,5],[21,1804,83,31],[70,1794,4,3],[63,1794,6,3],[1,1788,3,4],[1,1778,3,8],[0,1757,3,3],[11,1740,78,38],[11,1730,74,8],[1,1718,6,4],[1,1711,4,3],[1,1700,4,3],[20,1656,131,55],[14,1600,83,51],[3,3108,3,3],[1,3102,4,3],[66,3093,9,6],[52,3093,9,6],[78,3089,4,3],[1,3076,6,5],[1,3070,7,4],[77,3066,4,3],[12,3066,97,38],[53,3065,3,3],[13,3056,81,9],[80,3054,3,3],[14,3052,4,6],[27,3049,49,7],[82,3048,3,3],[12,3035,49,8],[41,3023,46,18],[36,3019,15,3],[54,3016,6,3],[54,3003,18,12],[58,2996,10,3],[9,2993,27,6],[20,2928,115,57],[9,2920,33,5],[9,2866,102,58],[0,2856,4,5],[65,2851,14,3],[23,2850,38,4],[21,2838,55,10],[73,2835,3,3],[24,2835,3,3],[68,2818,20,16],[20,2814,28,20],[9,2813,9,3],[24,2809,48,4],[1,2803,8,9],[31,2801,25,3],[1,2798,6,4],[13,2793,8,4],[9,2793,3,3],[43,2792,3,3],[39,2792,3,3],[25,2789,8,5],[8,2780,3,3],[40,2775,4,6],[10,2774,52,18],[69,2769,6,3],[46,2769,8,3],[10,2769,23,4],[68,2764,6,4],[55,2763,12,9],[23,2761,19,8],[14,2761,6,3],[5,2760,4,5],[66,2755,5,7],[10,2755,53,9],[70,2753,12,5],[15,2745,3,3],[61,2743,16,5],[4,2742,3,3],[71,2739,4,3],[12,2739,47,13],[56,2738,3,3],[41,2737,14,5],[14,2727,6,3],[45,2726,4,3],[59,2724,6,3],[5,2716,8,3],[56,2707,11,5],[68,2705,7,3],[25,2705,4,3],[7,2703,3,3],[1,2689,6,4],[23,2679,3,3],[20,2661,73,62],[71,2652,4,3],[35,2650,4,4],[26,2645,6,4],[63,2640,4,3],[14,2629,64,18],[54,2623,3,3],[67,2620,3,3],[55,2619,7,5],[49,2615,9,3],[13,2615,37,13],[73,2610,6,6],[23,2609,20,5],[47,2607,3,3],[56,2606,14,6],[36,2605,3,3],[66,2601,3,3],[10,2599,32,8],[4,2598,5,3],[84,2597,6,3],[80,2531,3,3],[18,2530,4,3],[49,2529,4,3],[18,2528,82,62],[32,2520,4,4],[46,2517,5,5],[5,2502,5,6],[5,2489,4,3],[11,2454,93,67],[4,2453,11,6],[80,2452,3,3],[20,2447,49,4],[23,2441,7,3],[15,2436,4,3],[66,2415,9,3],[20,2415,90,15],[80,2414,3,3],[1,2407,6,5],[88,2404,6,3],[71,2400,8,2],[23,2400,54,16],[1,2400,7,6]],
	"pngs":[
		["pngs/txt/ARC-MUND-PUB-BULLETIN-SOCIETE-PHOTO-CENTRE-1906-17.00000.png","pngs/opencv/ARC-MUND-PUB-BULLETIN-SOCIETE-PHOTO-CENTRE-1906-17.00000.png"],
		["pngs/txt/ARC-MUND-PUB-BULLETIN-SOCIETE-PHOTO-CENTRE-1906-17.00001.png","pngs/opencv/ARC-MUND-PUB-BULLETIN-SOCIETE-PHOTO-CENTRE-1906-17.00001.png"],
		["pngs/txt/ARC-MUND-PUB-BULLETIN-SOCIETE-PHOTO-CENTRE-1906-17.00002.png","pngs/opencv/ARC-MUND-PUB-BULLETIN-SOCIETE-PHOTO-CENTRE-1906-17.00002.png"],
		["pngs/txt/ARC-MUND-PUB-BULLETIN-SOCIETE-PHOTO-CENTRE-1906-17.00003.png","pngs/opencv/ARC-MUND-PUB-BULLETIN-SOCIETE-PHOTO-CENTRE-1906-17.00003.png"]
	]
}