{
	"name": "ARC-MUND-PUB-IIP-REVUE-BELGE-PHOTO-011904",
	"blobs":[[12,775,108,24],[54,768,10,3],[73,767,3,3],[13,764,39,7],[13,753,63,6],[14,748,39,3],[10,702,3,3],[12,700,85,47],[78,697,4,3],[78,665,3,3],[18,664,75,31],[22,653,59,10],[18,643,70,9],[15,637,6,3],[41,574,3,3],[8,573,96,62],[9,573,17,5],[33,572,3,3],[76,570,5,3],[22,552,67,16],[86,548,6,3],[69,536,3,3],[23,536,58,15],[23,511,76,24],[13,489,85,15],[11,468,17,4],[11,464,75,11],[11,438,78,25],[86,432,3,3],[20,432,8,4],[39,431,31,3],[21,392,79,38],[47,386,35,5],[50,382,16,3],[20,380,4,3],[78,379,4,3],[18,376,4,3],[10,293,95,81],[75,291,5,3],[91,280,6,5],[15,250,163,40],[16,236,9,3],[31,234,19,4],[39,224,76,10],[30,216,69,6],[15,214,5,5],[13,146,86,66],[39,139,10,3],[17,138,6,3],[2,137,14,5],[11,68,81,68],[66,58,14,4],[12,26,108,39],[41,21,15,3],[46,17,4,3],[39,12,9,3],[13,12,9,3],[67,6,14,4],[89,4,4,4],[36,3,25,7],[11,3,22,7],[18,1541,45,5],[47,1529,6,3],[33,1529,13,5],[40,1525,20,3],[26,1525,13,3],[12,1511,65,9],[26,1498,36,9],[38,1497,15,3],[13,1493,14,3],[19,1465,78,19],[20,1465,6,3],[19,1450,78,15],[61,1444,25,3],[19,1437,70,11],[57,1429,3,3],[12,1387,77,35],[12,1371,73,15],[76,1369,9,6],[18,1349,75,13],[18,1340,68,6],[17,1329,70,9],[18,1316,77,11],[39,1313,16,3],[53,1304,4,4],[3,1300,3,3],[16,1277,72,25],[9,1266,31,9],[30,1261,25,4],[17,1261,12,3],[46,1258,33,12],[71,1252,3,3],[68,1247,3,3],[22,1242,45,15],[22,1235,45,4],[32,1221,10,3],[22,1215,7,4],[59,1210,6,3],[36,1207,18,5],[29,1203,8,3],[13,1196,6,4],[11,1188,74,7],[11,1132,93,53],[77,1130,4,3],[27,1096,64,33],[78,1081,4,3],[7,1060,83,14],[74,1053,4,3],[38,1050,34,9],[10,1050,16,9],[7,1033,110,25],[53,1026,15,5],[17,1026,16,5],[72,1025,3,3],[7,1012,65,12],[74,1011,6,5],[70,978,3,3],[15,975,97,34],[20,943,99,34],[17,941,4,3],[20,890,3,3],[67,884,7,3],[10,883,103,56],[14,871,5,4],[13,828,96,57],[85,817,11,6],[15,809,83,13],[22,800,45,2],[34,2396,25,3],[62,2395,12,3],[10,2346,76,27],[86,2337,6,3],[15,2291,77,50],[8,2262,78,25],[62,2261,12,3],[11,2232,74,9],[17,2182,75,45],[73,2181,8,3],[86,2173,3,3],[38,2169,28,5],[8,2168,5,5],[12,2120,72,31],[19,2112,3,3],[23,2111,3,3],[72,2109,31,7],[30,2109,5,3],[18,2054,77,49],[11,2004,77,46],[19,1955,76,44],[1,1926,87,24],[12,1888,76,10],[17,1831,81,52],[2,1790,85,37],[15,1785,10,3],[31,1782,36,7],[68,1781,12,6],[63,1757,16,5],[23,1757,19,3],[5,1748,6,3],[46,1699,17,5],[20,1699,13,3],[43,1613,29,5],[52,3198,31,2],[64,3194,11,3],[3,3158,84,42],[52,3154,8,3],[21,3154,17,3],[4,3154,10,3],[70,3151,7,3],[47,3144,62,5],[10,3144,35,4],[64,3114,18,22],[57,3114,7,3],[49,3108,4,3],[14,3103,8,3],[10,3098,66,45],[56,3089,7,3],[12,3088,18,4],[16,3080,42,4],[76,3016,5,3],[87,3015,6,3],[11,3015,32,4],[12,2989,98,21],[0,2987,3,3],[53,2967,17,3],[10,2964,41,26],[49,2955,26,7],[77,2952,5,3],[12,2952,37,10],[66,2951,3,3],[13,2946,8,3],[13,2941,63,8],[56,2933,4,3],[50,2933,4,3],[75,2930,4,6],[62,2930,11,6],[19,2930,30,6],[13,2930,5,6],[83,2924,4,3],[4,2920,51,12],[29,2912,19,4],[13,2908,22,4],[43,2907,5,3],[6,2901,36,5],[1,2892,6,4],[10,2855,77,42],[66,2851,8,3],[31,2851,12,3],[73,2839,7,3],[22,2839,17,3],[9,2838,4,3],[1,2836,3,3],[81,2835,8,7],[18,2781,75,44],[5,2772,4,3],[11,2764,73,12],[22,2763,12,4],[65,2762,10,3],[11,2723,81,37],[22,2715,19,3],[73,2714,16,4],[1,2713,4,3],[2,2691,4,4],[17,2653,85,57],[9,2610,89,38],[74,2583,12,3],[65,2583,3,3],[54,2583,9,3],[28,2583,3,3],[9,2582,10,3],[3,2581,3,3],[16,2520,89,56],[12,2460,85,55],[1,2444,4,3],[17,2426,86,30],[16,2404,73,19],[87,3998,3,2],[16,3986,66,11],[2,3984,4,4],[60,3980,22,7],[16,3978,50,6],[9,3961,83,15],[11,3961,3,3],[8,3943,77,17],[13,3891,84,50],[13,3872,86,9],[74,3869,6,3],[74,3865,6,3],[25,3865,7,3],[16,3856,96,5],[40,3840,45,7],[47,3835,16,4],[56,3832,5,3],[15,3802,78,27],[11,3800,8,3],[72,3773,4,6],[13,3770,77,28],[13,3753,69,14],[66,3748,3,3],[16,3748,3,3],[67,3741,3,3],[24,3741,33,10],[13,3741,16,3],[75,3733,6,3],[55,3733,4,3],[27,3733,5,3],[1,3732,3,3],[62,3690,11,3],[15,3684,83,47],[14,3675,59,7],[7,3668,3,5],[13,3637,108,36],[8,3608,85,25],[12,3608,7,3],[70,3604,8,3],[52,3599,12,3],[28,3599,17,3],[81,3598,5,4],[14,3575,111,27],[75,3571,3,3],[14,3556,15,6],[44,3534,11,3],[32,3534,9,3],[82,3533,6,5],[30,3533,70,37],[16,3530,15,7],[49,3509,16,4],[67,3479,6,3],[17,3478,16,5],[3,3475,97,54],[11,3469,3,3],[3,3440,3,3],[8,3432,103,45],[12,3371,110,60],[70,3369,4,3],[56,3369,8,3],[22,3369,33,6],[78,3365,3,3],[34,3365,10,3],[17,3365,5,3],[12,3365,3,3],[30,3361,54,3],[12,3361,13,3],[13,3357,6,3],[84,3356,4,3],[44,3355,4,3],[7,3346,4,5],[87,3340,3,3],[10,3306,127,50],[10,3287,3,3],[74,3278,5,3],[75,3274,7,3],[25,3274,7,3],[83,3270,6,3],[14,3243,75,28],[14,3233,4,3],[77,3217,6,6],[14,3215,70,19],[4,3200,83,9],[48,4228,3,4],[76,4224,4,3],[18,4224,3,3],[19,4220,75,60],[21,4209,6,3],[2,4208,3,3],[53,4195,6,3],[25,4195,11,3],[62,4182,16,6],[14,4172,65,22],[19,4172,3,3],[25,4171,7,3],[58,4167,3,3],[38,4167,17,3],[29,4167,8,3],[14,4167,12,3],[15,4132,78,8],[13,4108,4,4],[2,4103,3,5],[77,4102,4,3],[56,4097,26,8],[18,4097,62,34],[66,4092,7,3],[23,4092,22,3],[52,4088,5,3],[28,4087,5,4],[61,4083,11,3],[54,4083,5,3],[34,4083,11,6],[15,4080,12,6],[79,4076,4,3],[57,4073,12,3],[13,4067,43,11],[12,4059,9,4],[38,4058,3,4],[41,4053,46,19],[7,4046,3,3],[7,4045,66,19],[12,4039,29,11],[7,4032,5,13],[39,4018,43,30],[6,4018,3,3],[11,4017,62,7],[20,4005,24,3],[71,4003,6,3],[89,4000,3,2]],
	"pngs":[
		["pngs/txt/ARC-MUND-PUB-IIP-REVUE-BELGE-PHOTO-011904.00000.png","pngs/opencv/ARC-MUND-PUB-IIP-REVUE-BELGE-PHOTO-011904.00000.png"],
		["pngs/txt/ARC-MUND-PUB-IIP-REVUE-BELGE-PHOTO-011904.00001.png","pngs/opencv/ARC-MUND-PUB-IIP-REVUE-BELGE-PHOTO-011904.00001.png"],
		["pngs/txt/ARC-MUND-PUB-IIP-REVUE-BELGE-PHOTO-011904.00002.png","pngs/opencv/ARC-MUND-PUB-IIP-REVUE-BELGE-PHOTO-011904.00002.png"],
		["pngs/txt/ARC-MUND-PUB-IIP-REVUE-BELGE-PHOTO-011904.00003.png","pngs/opencv/ARC-MUND-PUB-IIP-REVUE-BELGE-PHOTO-011904.00003.png"],
		["pngs/txt/ARC-MUND-PUB-IIP-REVUE-BELGE-PHOTO-011904.00004.png","pngs/opencv/ARC-MUND-PUB-IIP-REVUE-BELGE-PHOTO-011904.00004.png"],
		["pngs/txt/ARC-MUND-PUB-IIP-REVUE-BELGE-PHOTO-011904.00005.png","pngs/opencv/ARC-MUND-PUB-IIP-REVUE-BELGE-PHOTO-011904.00005.png"]
	]
}