{
	"name": "ARC-MUND-PUB-UAI-CONGRES-47-INT-PERIODIQUES-REVUES-1913",
	"blobs":[[20,745,7,7],[37,740,67,12],[107,707,10,13],[21,680,101,38],[21,680,5,5],[107,674,4,3],[38,672,64,5],[21,672,7,3],[107,665,7,3],[21,664,5,4],[107,652,14,12],[21,651,13,12],[124,650,77,70],[38,649,64,19],[105,620,8,10],[20,610,16,19],[20,597,11,12],[21,576,13,19],[37,574,168,56],[105,548,7,3],[20,546,13,8],[105,522,13,24],[19,499,12,46],[105,498,8,6],[34,495,167,59],[19,456,12,18],[20,451,5,3],[20,447,6,3],[20,417,12,27],[37,415,158,60],[118,363,3,3],[106,362,4,4],[106,349,4,12],[20,347,208,47],[111,343,67,3],[132,333,9,3],[20,333,79,39],[20,253,201,60],[20,253,77,44],[106,225,114,7],[19,222,77,9],[19,217,72,3],[19,212,70,3],[19,198,74,11],[106,165,79,59],[19,164,77,31],[20,95,80,49],[107,93,109,51],[18,49,76,24],[46,44,15,3],[49,38,23,4],[22,38,24,4],[15,20,78,15]],
	"pngs":[
		["pngs/txt/ARC-MUND-PUB-UAI-CONGRES-47-INT-PERIODIQUES-REVUES-1913.00000.png","pngs/opencv/ARC-MUND-PUB-UAI-CONGRES-47-INT-PERIODIQUES-REVUES-1913.00000.png"]
	]
}