{
	"name": "ARC-MUND-PUB-IIB-41",
	"blobs":[[19,785,64,15],[60,769,7,4],[33,728,74,42],[9,713,7,3],[44,707,8,3],[6,686,6,3],[18,685,78,22],[22,678,50,4],[11,676,4,3],[29,673,14,3],[13,672,3,3],[42,663,22,5],[19,663,16,3],[68,641,6,5],[42,638,8,5],[72,637,9,3],[78,630,8,3],[81,574,3,3],[20,519,69,35],[29,502,72,5],[28,470,72,31],[20,432,69,26],[34,423,14,3],[56,400,19,3],[42,395,6,4],[53,378,8,5],[76,373,5,3],[47,373,7,3],[29,368,16,7],[59,367,3,3],[80,362,5,4],[55,355,20,5],[80,348,20,4],[16,333,14,3],[31,332,48,5],[50,324,8,3],[40,324,8,3],[63,314,11,3],[25,314,68,10],[41,314,4,3],[31,314,8,3],[22,314,8,3],[14,309,20,3],[26,302,28,7],[34,299,8,3],[20,292,42,3],[19,190,13,6],[46,175,6,4],[58,172,10,3],[17,172,17,3],[35,167,17,3],[23,164,6,3],[53,134,3,3],[94,1595,5,3],[17,1555,77,42],[31,1545,3,3],[14,1539,5,6],[13,1524,4,14],[8,1511,7,8],[9,1500,6,10],[31,1494,67,49],[43,1478,8,4],[18,1463,65,12],[18,1444,67,18],[20,1439,49,6],[31,1389,67,38],[91,1371,8,6],[97,1341,3,7],[7,1340,3,3],[19,1320,68,40],[27,1267,70,41],[6,1251,3,3],[21,1224,68,19],[21,1198,66,24],[6,1188,4,3],[58,1184,7,3],[29,1147,66,32],[20,1108,65,27],[20,1100,62,7],[31,1046,65,42],[20,996,64,37],[15,981,4,3],[34,968,59,9],[32,941,68,26],[17,888,68,40],[32,836,62,39],[17,800,78,24],[14,2356,66,42],[12,2332,4,13],[30,2323,64,17],[46,2319,33,3],[47,2303,48,15],[29,2296,62,8],[17,2248,65,37],[57,2241,3,3],[31,2239,3,3],[13,2233,3,6],[30,2212,66,12],[31,2186,67,25],[17,2137,66,37],[31,2126,3,3],[84,2121,8,3],[35,2121,47,5],[10,2111,3,9],[8,2105,8,5],[33,2085,63,35],[17,2030,72,43],[31,2018,3,3],[75,2015,3,3],[10,2006,3,3],[10,1997,3,3],[10,1990,3,6],[31,1971,71,45],[33,1955,3,3],[16,1924,69,25],[22,1916,56,4],[17,1916,4,3],[31,1899,3,3],[10,1881,3,13],[10,1877,3,3],[13,1870,4,6],[36,1853,80,46],[11,1848,4,6],[34,1844,61,13],[15,1796,68,36],[31,1785,3,3],[13,1765,4,8],[23,1764,3,3],[98,1759,3,3],[21,1749,4,3],[32,1731,62,54],[8,1724,9,40],[16,1673,69,48],[31,1662,3,3],[13,1652,3,3],[13,1642,3,6],[31,1610,68,52],[19,3182,67,18],[99,3148,6,3],[27,3131,72,39],[95,3117,4,3],[96,3099,4,3],[97,3087,3,4],[18,3084,74,21],[96,3082,5,4],[96,3073,4,3],[5,3064,4,3],[96,3063,4,3],[18,3063,63,25],[96,3058,4,3],[3,3054,4,3],[86,3050,4,3],[100,3049,6,3],[6,3048,10,4],[7,3038,8,9],[100,3030,5,3],[7,3013,5,24],[23,2989,77,47],[28,2984,61,8],[6,2976,11,36],[18,2939,72,36],[100,2910,4,8],[100,2905,3,3],[70,2877,3,3],[6,2871,95,57],[5,2853,4,3],[23,2817,49,43],[101,2799,4,3],[28,2769,4,3],[78,2766,4,3],[71,2766,4,3],[33,2766,62,40],[101,2765,4,5],[51,2763,10,6],[100,2757,4,3],[44,2750,9,4],[97,2748,4,4],[75,2745,4,3],[62,2745,11,3],[96,2740,4,4],[4,2729,3,6],[4,2721,3,3],[95,2717,5,5],[18,2708,71,42],[104,2667,3,3],[99,2666,4,13],[28,2655,68,42],[7,2647,6,8],[100,2646,3,4],[15,2618,65,27],[36,2610,4,3],[20,2610,8,3],[43,2607,17,8],[54,2605,8,3],[49,2605,4,3],[27,2605,15,3],[16,2572,6,17],[15,2547,6,8],[14,2523,7,9],[43,2510,5,3],[7,2487,5,3],[14,2468,64,21],[31,2458,3,3],[62,2454,8,4],[17,2448,4,8],[103,2438,4,3],[16,2421,4,18],[16,2414,3,4],[35,2409,66,46],[19,3993,65,7],[26,3958,4,4],[29,3944,76,39],[7,3940,5,6],[99,3936,4,3],[19,3894,75,41],[97,3880,4,3],[68,3879,4,3],[104,3849,3,3],[5,3824,6,6],[26,3823,73,44],[101,3816,3,3],[6,3816,7,6],[19,3776,74,38],[1,3768,4,3],[32,3729,73,38],[94,3715,5,3],[95,3700,4,3],[95,3685,4,5],[15,3665,71,38],[94,3662,5,10],[95,3656,5,3],[99,3650,5,4],[77,3636,3,3],[31,3601,82,37],[4,3585,7,3],[15,3528,69,43],[27,3480,71,36],[45,3475,48,4],[31,3469,58,5],[5,3460,9,27],[21,3458,7,4],[80,3454,4,3],[17,3402,68,35],[6,3351,6,9],[28,3346,73,44],[75,3345,16,3],[6,3345,3,3],[19,3288,68,46],[100,3247,4,3],[29,3235,67,42],[6,3234,4,7],[8,3230,4,3],[22,3227,3,3],[4,3202,4,4],[20,3200,70,26],[4,4797,4,3],[95,4789,6,3],[17,4784,6,3],[18,4759,91,40],[95,4755,7,9],[5,4716,15,34],[31,4712,74,24],[31,4712,5,3],[31,4706,52,5],[100,4705,4,3],[100,4696,4,3],[33,4694,54,9],[85,4690,3,3],[58,4689,16,4],[38,4687,17,6],[100,4685,4,4],[92,4671,3,3],[95,4662,6,3],[44,4660,7,4],[96,4650,3,4],[22,4648,37,7],[45,4643,3,3],[17,4641,22,6],[31,4633,34,8],[73,4619,4,3],[27,4619,35,13],[19,4619,16,3],[30,4603,3,3],[35,4602,4,3],[29,4598,4,4],[77,4576,4,3],[9,4526,11,3],[95,4500,6,3],[14,4498,101,16],[73,4489,5,3],[68,4489,4,3],[14,4489,79,7],[14,4479,80,8],[15,4467,79,10],[7,4451,4,4],[6,4444,5,5],[27,4442,81,11],[6,4432,10,11],[26,4412,78,29],[99,4401,8,3],[1,4397,4,3],[68,4396,3,3],[93,4372,7,8],[93,4367,5,3],[94,4357,6,6],[13,4351,70,35],[2,4350,8,3],[93,4345,8,9],[18,4339,63,11],[94,4331,6,6],[34,4330,6,3],[17,4326,4,4],[10,4323,4,3],[10,4299,3,3],[10,4291,3,3],[10,4285,4,3],[5,4280,10,4],[29,4276,66,41],[5,4268,9,12],[84,4267,5,4],[15,4228,69,38],[26,4172,68,43],[17,4115,81,44],[97,4100,7,3],[52,4084,8,3],[28,4043,72,39],[5,4041,8,8],[6,4036,4,3],[18,4000,80,33],[62,5571,4,3],[17,5556,69,41],[97,5540,4,3],[26,5540,3,3],[79,5539,6,3],[36,5538,4,3],[24,5533,3,3],[85,5516,6,5],[6,5506,3,3],[3,5503,16,37],[11,5494,4,6],[5,5485,11,14],[11,5480,3,3],[30,5467,75,54],[5,5466,9,16],[11,5459,4,3],[6,5459,4,3],[18,5416,78,42],[30,5365,74,39],[7,5365,7,4],[6,5357,6,5],[94,5345,4,9],[60,5307,17,3],[17,5307,71,36],[71,5303,5,3],[21,5300,38,6],[101,5280,3,3],[15,5270,3,3],[29,5216,78,44],[29,5215,19,4],[5,5212,13,70],[94,5199,4,3],[18,5160,6,3],[18,5153,90,48],[96,5137,4,3],[30,5067,90,57],[4,5060,14,79],[18,5059,6,3],[19,5000,87,58],[100,4986,3,3],[6,4978,4,5],[25,4929,89,47],[5,4921,11,22],[10,4920,9,3],[5,4908,6,4],[25,4902,67,17],[16,4891,70,6],[24,4873,72,16],[30,4839,6,3],[36,4821,69,41],[30,4821,6,3],[95,4807,4,3],[22,6397,9,3],[37,6395,5,4],[105,6392,3,3],[100,6364,3,3],[5,6340,10,12],[5,6328,5,9],[30,6325,72,26],[6,6318,4,3],[61,6316,19,3],[13,6304,68,11],[94,6293,6,5],[16,6277,71,27],[16,6277,5,3],[95,6268,9,4],[17,6266,61,11],[55,6246,7,3],[9,6222,4,4],[26,6198,75,27],[20,6160,83,26],[75,6155,5,3],[66,6155,7,3],[21,6152,33,6],[22,6139,59,10],[9,6102,3,3],[26,6079,74,48],[56,6058,14,3],[18,6056,73,12],[22,6027,41,22],[55,6012,8,4],[100,6004,3,3],[31,5976,31,37],[42,5961,10,4],[68,5946,4,3],[20,5925,34,37],[6,5917,3,3],[54,5911,9,3],[5,5876,9,8],[30,5872,64,38],[42,5858,11,3],[3,5858,7,3],[20,5820,55,38],[99,5805,6,3],[5,5774,9,20],[35,5761,38,46],[0,5748,6,3],[93,5743,5,6],[4,5710,4,3],[94,5708,6,4],[19,5695,61,41],[25,5681,10,3],[100,5671,3,3],[5,5670,3,3],[4,5658,19,26],[3,5647,13,9],[10,5644,5,5],[5,5629,12,14],[7,5625,4,3],[35,5614,65,59],[5,5611,10,13],[5,5611,4,3],[6,5604,7,4],[15,5603,28,3],[93,5600,6,2],[28,7172,88,28],[25,7172,5,3],[94,7158,6,4],[18,7100,86,48],[22,7056,3,3],[26,7052,4,3],[23,7044,96,43],[1,7031,3,3],[42,7016,8,4],[16,7009,31,6],[21,6996,5,11],[78,6992,3,3],[62,6992,13,3],[21,6978,6,6],[55,6974,15,3],[18,6974,66,32],[75,6972,6,3],[16,6972,7,5],[5,6931,7,7],[28,6923,94,38],[32,6918,22,3],[27,6918,3,3],[87,6914,5,3],[27,6914,3,3],[8,6908,4,4],[16,6899,4,3],[16,6865,94,41],[101,6849,3,3],[50,6849,8,3],[5,6845,10,7],[54,6836,9,3],[29,6835,6,3],[100,6833,4,3],[36,6833,16,3],[6,6833,10,10],[27,6828,3,3],[32,6821,5,6],[6,6821,6,10],[32,6805,5,12],[5,6804,10,14],[29,6797,4,3],[5,6792,4,3],[26,6789,98,42],[7,6785,4,6],[100,6784,4,4],[57,6780,3,3],[18,6732,95,47],[15,6732,7,5],[105,6719,3,3],[99,6714,5,7],[4,6713,18,9],[100,6708,4,5],[99,6687,3,3],[29,6681,91,31],[5,6679,5,10],[32,6668,90,12],[5,6665,6,8],[88,6664,4,3],[27,6664,5,3],[77,6650,3,3],[95,6625,3,5],[4,6623,4,3],[4,6608,3,3],[1,6600,4,3],[95,6599,3,3],[16,6595,93,45],[75,6589,5,3],[16,6589,3,3],[95,6583,4,4],[104,6581,4,3],[58,6578,9,3],[4,6576,8,9],[60,6572,4,5],[6,6572,6,3],[26,6570,23,6],[67,6569,30,9],[26,6568,4,3],[60,6567,4,3],[69,6564,19,3],[26,6562,4,3],[7,6558,5,3],[33,6557,17,12],[26,6557,5,4],[60,6554,24,10],[8,6550,4,3],[26,6547,30,9],[6,6543,3,3],[6,6537,3,3],[27,6534,62,19],[5,6530,4,3],[10,6526,4,3],[27,6524,31,9],[5,6520,3,3],[61,6517,36,19],[95,6513,3,3],[5,6513,4,3],[5,6508,3,3],[5,6499,9,8],[100,6496,3,3],[6,6486,7,6],[27,6473,77,50],[7,6473,3,4],[99,6468,4,7],[6,6464,8,4],[42,6455,8,4],[92,6453,7,10],[95,6440,5,3],[51,6440,5,3],[10,6431,3,3],[94,6426,9,4],[22,6423,49,20],[17,6423,4,20],[37,6416,9,3],[96,6415,4,5],[40,6410,12,3],[20,6409,10,4],[96,6400,5,2],[14,7938,10,3],[19,7937,66,49],[96,7920,4,3],[35,7874,55,54],[26,7874,9,3],[24,7812,74,52],[14,7811,9,3],[66,7810,11,3],[9,7798,67,3],[9,7792,4,3],[100,7757,4,3],[10,7748,3,3],[99,7741,5,6],[34,7739,64,49],[9,7739,5,8],[78,7737,11,3],[25,7737,8,3],[95,7714,4,3],[19,7684,101,44],[71,7682,9,3],[16,7682,7,5],[87,7631,4,3],[26,7631,79,42],[0,7619,3,3],[95,7605,3,3],[95,7592,4,6],[22,7564,80,43],[17,7564,5,3],[29,7523,63,32],[54,7517,22,5],[27,7517,19,5],[39,7510,44,6],[86,7508,5,3],[27,7508,10,8],[4,7466,6,4],[4,7461,3,3],[16,7457,76,44],[76,7456,5,3],[54,7443,9,4],[100,7432,6,4],[100,7404,5,4],[28,7399,68,45],[6,7398,6,8],[25,7394,6,3],[8,7394,3,3],[67,7389,3,3],[48,7375,15,3],[16,7375,57,14],[21,7371,5,3],[16,7345,76,29],[74,7343,11,4],[56,7293,12,3],[28,7293,94,40],[31,7284,44,8],[87,7282,4,3],[4,7261,3,3],[4,7237,4,4],[18,7235,5,3],[4,7233,4,3],[75,7223,5,3],[16,7223,91,48],[0,7215,3,3],[31,7200,78,14],[26,8798,13,2],[15,8798,4,2],[59,8797,5,3],[70,8791,10,3],[40,8791,13,3],[15,8791,4,3],[85,8759,5,3],[25,8759,77,23],[90,8745,6,3],[79,8745,6,3],[68,8745,3,3],[16,8684,75,45],[36,8628,73,46],[82,8626,9,3],[26,8626,8,3],[72,8613,4,3],[73,8551,8,3],[16,8550,83,53],[59,8538,8,3],[31,8521,6,3],[33,8518,89,18],[70,8517,6,4],[28,8514,25,3],[43,8492,36,21],[87,8489,5,3],[28,8489,7,3],[24,8469,6,3],[25,8434,45,45],[72,8432,10,3],[14,8432,9,3],[32,8408,9,4],[34,8374,38,48],[25,8372,5,3],[83,8371,7,3],[72,8314,7,3],[15,8313,72,48],[36,8266,6,3],[36,8257,58,46],[83,8252,8,3],[22,8210,6,3],[92,8201,8,11],[20,8197,46,45],[28,8196,4,4],[70,8195,7,3],[13,8194,8,3],[31,8136,58,48],[80,8134,9,3],[9,8129,3,7],[91,8087,5,5],[93,8083,3,3],[18,8076,86,50],[68,8073,9,3],[13,8073,7,3],[25,8014,87,50],[1,8001,3,3],[8,9597,4,3],[99,9595,9,4],[68,9546,8,3],[17,9546,78,49],[12,9546,11,3],[100,9521,4,3],[6,9514,4,7],[30,9490,63,47],[23,9490,8,3],[77,9489,10,3],[94,9450,6,3],[18,9439,8,3],[16,9426,96,53],[97,9413,3,3],[87,9386,4,3],[34,9353,61,48],[25,9353,11,3],[72,9339,4,3],[43,9338,3,3],[21,9291,86,49],[16,9291,10,3],[9,9248,3,3],[9,9243,3,3],[80,9230,11,3],[27,9230,89,51],[9,9228,3,14],[4,9217,4,4],[76,9216,5,3],[68,9216,4,3],[61,9216,3,3],[37,9216,3,3],[95,9178,3,8],[95,9172,3,5],[72,9151,8,3],[25,9151,66,54],[100,9108,6,3],[79,9074,12,6],[29,9073,71,68],[25,9072,9,3],[86,9060,6,3],[94,9059,4,4],[0,9059,7,4],[20,9006,64,44],[15,9005,13,4],[25,8952,84,44],[21,8896,79,46],[16,8896,13,4],[26,8847,76,39],[95,8814,3,6],[69,8813,10,3],[70,8801,7,3],[17,8801,80,36],[26,10388,46,12],[73,10385,8,3],[8,10340,4,6],[39,10326,79,50],[27,10326,16,3],[9,10318,3,5],[56,10314,6,3],[52,10314,3,3],[5,10313,10,3],[15,10250,73,48],[13,10249,8,3],[7,10197,5,7],[23,10196,10,3],[32,10195,73,44],[26,10128,60,57],[17,10128,12,3],[5,10087,8,31],[6,10078,4,7],[100,10072,4,3],[7,10051,4,12],[32,10047,75,58],[23,10047,10,3],[105,10040,3,3],[71,9992,15,3],[21,9992,78,47],[18,9992,8,3],[81,9940,10,3],[28,9940,73,42],[36,9928,3,3],[4,9927,3,3],[18,9873,79,42],[7,9866,3,3],[33,9812,76,49],[24,9812,11,3],[20,9758,73,45],[17,9758,10,3],[7,9726,6,8],[82,9707,10,3],[28,9707,81,42],[13,9655,68,42],[100,9632,4,3],[7,9609,7,7],[28,9602,78,43],[8,9601,5,5],[77,11173,12,3],[50,11173,13,3],[25,11173,87,27],[7,11171,6,9],[50,11158,30,5],[14,11158,9,3],[3,11157,5,5],[93,11156,5,5],[70,11102,10,3],[16,11102,73,45],[82,11045,8,3],[31,11045,93,47],[25,11045,9,3],[17,10988,83,48],[25,10936,93,43],[99,10929,5,4],[77,10922,4,3],[64,10922,12,3],[16,10888,86,40],[32,10832,71,46],[26,10832,11,3],[96,10818,3,4],[68,10771,15,3],[15,10771,85,41],[1,10765,5,4],[35,10719,58,43],[26,10719,11,3],[83,10707,3,3],[5,10705,3,3],[87,10704,8,5],[51,10701,21,6],[31,10701,10,3],[17,10701,5,3],[4,10679,3,3],[25,10641,81,49],[15,10641,11,3],[8,10605,4,4],[27,10585,92,47],[68,10572,6,3],[25,10571,41,4],[5,10569,19,5],[25,10511,77,48],[15,10511,14,3],[100,10498,3,3],[76,10438,14,3],[26,10438,87,48],[44,10425,8,4],[96,10418,4,3],[3,10402,4,4],[21,10400,57,24],[26,11959,88,41],[79,11947,4,3],[69,11947,3,3],[87,11946,6,3],[32,11946,5,3],[25,11946,5,3],[1,11946,3,3],[17,11893,88,38],[74,11892,8,3],[14,11882,6,3],[7,11834,7,11],[85,11833,7,3],[33,11833,80,50],[14,11793,5,3],[68,11772,14,3],[20,11772,78,50],[16,11772,8,3],[12,11761,9,4],[27,11715,76,47],[8,11711,8,4],[4,11703,3,4],[94,11666,6,4],[77,11652,6,3],[70,11646,10,3],[17,11646,76,49],[15,11646,12,3],[12,11636,8,4],[33,11594,73,43],[27,11594,9,3],[8,11590,4,6],[100,11589,4,6],[81,11583,4,3],[5,11579,3,3],[74,11555,4,3],[14,11520,87,52],[14,11509,3,3],[100,11507,3,3],[30,11465,4,3],[7,11461,3,3],[36,11446,80,55],[27,11446,13,3],[95,11434,3,3],[94,11427,5,3],[4,11393,4,3],[19,11385,81,44],[14,11385,8,3],[4,11381,4,3],[93,11379,7,16],[81,11378,4,3],[29,11377,4,3],[3,11377,5,3],[14,11376,9,6],[7,11344,4,5],[7,11337,4,6],[27,11320,96,57],[68,11307,3,3],[96,11261,4,3],[20,11235,81,75],[16,11234,12,3],[30,11225,4,3],[30,11200,74,25],[26,12782,73,18],[96,12728,6,10],[15,12719,74,53],[37,12714,7,3],[2,12704,3,3],[102,12699,3,3],[26,12649,78,10],[52,12639,16,3],[39,12639,7,3],[8,12620,4,3],[80,12619,4,3],[6,12615,4,3],[4,12572,4,4],[4,12566,4,5],[18,12551,94,60],[71,12549,9,3],[16,12549,6,5],[102,12536,4,3],[53,12529,9,4],[29,12504,4,3],[5,12495,10,40],[26,12491,99,39],[7,12479,6,8],[100,12476,4,3],[83,12471,10,3],[26,12471,48,19],[101,12470,3,3],[98,12465,7,4],[18,12439,90,26],[14,12439,3,3],[4,12433,3,3],[17,12423,4,3],[94,12416,8,7],[95,12411,3,4],[19,12401,89,39],[15,12399,5,3],[95,12394,5,16],[33,12392,6,4],[5,12391,3,3],[44,12388,3,3],[28,12358,95,20],[6,12355,4,4],[99,12352,3,3],[10,12347,3,3],[31,12345,5,3],[26,12331,10,9],[29,12330,65,29],[32,12318,9,3],[19,12301,5,3],[19,12288,5,9],[17,12263,91,45],[75,12262,5,3],[15,12261,3,5],[13,12252,5,4],[7,12219,5,5],[25,12214,78,38],[19,12156,81,47],[16,12156,7,3],[12,12145,7,4],[100,12131,4,3],[6,12131,7,15],[100,12126,4,4],[31,12091,83,54],[81,12088,12,3],[26,12088,14,3],[101,12085,5,3],[8,12083,7,7],[29,12034,73,48],[67,12031,15,3],[17,12031,14,3],[12,12021,8,4],[38,12000,56,22],[104,13598,4,2],[98,13597,4,3],[15,13530,77,68],[6,13478,5,3],[26,13459,78,63],[15,13387,76,63],[7,13360,3,3],[6,13352,6,6],[7,13348,4,3],[6,13340,4,3],[9,13326,3,8],[26,13304,74,74],[29,13291,3,3],[95,13259,6,7],[95,13231,5,3],[4,13230,4,6],[4,13221,3,3],[14,13216,78,63],[95,13215,3,3],[95,13210,3,3],[6,13181,4,3],[7,13152,3,3],[26,13134,75,74],[13,13045,76,81],[31,13038,4,3],[48,13035,3,3],[20,13035,3,3],[57,13023,9,3],[100,13011,5,6],[101,13002,6,8],[6,13002,10,35],[101,12997,14,3],[7,12997,6,3],[27,12996,19,4],[67,12987,23,9],[27,12984,71,39],[101,12980,15,3],[6,12980,4,3],[6,12965,5,6],[7,12954,4,3],[26,12939,77,49],[7,12934,4,3],[84,12930,4,3],[5,12927,3,3],[90,12917,14,16],[95,12904,5,12],[95,12897,8,5],[5,12890,3,3],[4,12871,3,3],[4,12853,4,11],[14,12848,73,75],[31,12843,4,3],[2,12843,20,5],[27,12800,79,43],[27,14363,71,37],[15,14293,74,62],[93,14287,7,7],[30,14282,6,4],[98,14281,7,4],[6,14259,9,13],[8,14248,6,10],[100,14243,5,7],[100,14228,3,3],[100,14219,3,3],[26,14206,69,71],[96,14140,3,3],[15,14128,76,68],[8,14066,4,10],[26,14059,77,60],[15,13994,78,57],[8,13944,4,3],[8,13933,4,4],[25,13924,81,62],[17,13858,76,59],[99,13846,4,4],[55,13842,8,4],[10,13839,3,3],[100,13838,3,6],[100,13825,4,3],[100,13819,4,3],[100,13813,5,3],[6,13813,3,6],[101,13807,3,3],[100,13793,3,3],[8,13787,4,3],[26,13774,77,69],[6,13766,10,4],[87,13721,4,4],[15,13694,74,71],[84,13689,5,4],[101,13681,5,3],[92,13680,7,5],[6,13641,4,3],[100,13623,3,3],[7,13623,7,11],[9,13617,3,3],[26,13604,79,63],[9,13602,4,4],[15,15180,75,20],[7,15151,4,5],[6,15136,4,4],[28,15114,71,58],[15,15028,80,77],[28,14953,79,66],[95,14941,3,4],[95,14919,5,6],[96,14880,4,7],[15,14870,77,62],[94,14823,3,3],[25,14795,73,67],[96,14762,6,5],[5,14740,7,3],[15,14726,82,60],[25,14655,83,63],[17,14583,75,63],[81,14566,12,4],[11,14536,4,5],[7,14527,6,6],[28,14510,78,64],[15,14438,72,63],[26,14400,72,29],[14,15997,5,3],[37,15937,48,3],[99,15928,6,4],[25,15904,82,26],[49,15896,8,3],[25,15875,19,3],[16,15822,85,21],[24,15810,4,3],[23,15754,97,50],[74,15745,4,3],[17,15690,96,56],[52,15678,9,3],[25,15627,88,51],[18,15585,93,34],[63,15579,11,3],[23,15574,52,8],[20,15574,12,3],[96,15560,4,3],[27,15551,30,5],[74,15536,3,3],[74,15528,3,3],[80,15527,13,10],[26,15526,70,32],[17,15461,81,60],[74,15438,3,3],[8,15436,3,3],[27,15389,76,64],[16,15322,72,60],[63,15310,3,3],[56,15310,6,3],[28,15254,85,57],[13,15200,73,46],[19,16006,8,3]],
	"pngs":[
		["pngs/txt/ARC-MUND-PUB-IIB-41.00000.png","pngs/opencv/ARC-MUND-PUB-IIB-41.00000.png"],
		["pngs/txt/ARC-MUND-PUB-IIB-41.00001.png","pngs/opencv/ARC-MUND-PUB-IIB-41.00001.png"],
		["pngs/txt/ARC-MUND-PUB-IIB-41.00002.png","pngs/opencv/ARC-MUND-PUB-IIB-41.00002.png"],
		["pngs/txt/ARC-MUND-PUB-IIB-41.00003.png","pngs/opencv/ARC-MUND-PUB-IIB-41.00003.png"],
		["pngs/txt/ARC-MUND-PUB-IIB-41.00004.png","pngs/opencv/ARC-MUND-PUB-IIB-41.00004.png"],
		["pngs/txt/ARC-MUND-PUB-IIB-41.00005.png","pngs/opencv/ARC-MUND-PUB-IIB-41.00005.png"],
		["pngs/txt/ARC-MUND-PUB-IIB-41.00006.png","pngs/opencv/ARC-MUND-PUB-IIB-41.00006.png"],
		["pngs/txt/ARC-MUND-PUB-IIB-41.00007.png","pngs/opencv/ARC-MUND-PUB-IIB-41.00007.png"],
		["pngs/txt/ARC-MUND-PUB-IIB-41.00008.png","pngs/opencv/ARC-MUND-PUB-IIB-41.00008.png"],
		["pngs/txt/ARC-MUND-PUB-IIB-41.00009.png","pngs/opencv/ARC-MUND-PUB-IIB-41.00009.png"],
		["pngs/txt/ARC-MUND-PUB-IIB-41.00010.png","pngs/opencv/ARC-MUND-PUB-IIB-41.00010.png"],
		["pngs/txt/ARC-MUND-PUB-IIB-41.00011.png","pngs/opencv/ARC-MUND-PUB-IIB-41.00011.png"],
		["pngs/txt/ARC-MUND-PUB-IIB-41.00012.png","pngs/opencv/ARC-MUND-PUB-IIB-41.00012.png"],
		["pngs/txt/ARC-MUND-PUB-IIB-41.00013.png","pngs/opencv/ARC-MUND-PUB-IIB-41.00013.png"],
		["pngs/txt/ARC-MUND-PUB-IIB-41.00014.png","pngs/opencv/ARC-MUND-PUB-IIB-41.00014.png"],
		["pngs/txt/ARC-MUND-PUB-IIB-41.00015.png","pngs/opencv/ARC-MUND-PUB-IIB-41.00015.png"],
		["pngs/txt/ARC-MUND-PUB-IIB-41.00016.png","pngs/opencv/ARC-MUND-PUB-IIB-41.00016.png"],
		["pngs/txt/ARC-MUND-PUB-IIB-41.00017.png","pngs/opencv/ARC-MUND-PUB-IIB-41.00017.png"],
		["pngs/txt/ARC-MUND-PUB-IIB-41.00018.png","pngs/opencv/ARC-MUND-PUB-IIB-41.00018.png"],
		["pngs/txt/ARC-MUND-PUB-IIB-41.00019.png","pngs/opencv/ARC-MUND-PUB-IIB-41.00019.png"],
		["pngs/txt/ARC-MUND-PUB-IIB-41.00020.png","pngs/opencv/ARC-MUND-PUB-IIB-41.00020.png"]
	]
}