{
	"name": "ARC-MUND-PUB-IIB-25-9-1905",
	"blobs":[[27,771,88,29],[4,721,5,5],[21,710,7,3],[21,708,94,52],[30,642,63,55],[21,551,64,80],[30,476,63,64],[21,420,94,46],[16,420,7,3],[24,407,74,12],[31,342,9,3],[44,341,56,55],[20,277,95,53],[30,213,99,52],[10,204,3,3],[74,147,5,3],[19,147,105,56],[48,132,4,4],[26,71,83,57],[21,53,63,8],[18,36,47,6],[29,30,39,5],[22,18,52,11],[48,14,17,3],[19,14,16,3],[20,9,66,4],[28,1549,89,51],[73,1485,9,3],[22,1485,96,53],[33,1420,61,54],[68,1357,11,3],[19,1357,86,52],[30,1307,3,3],[32,1295,65,51],[29,1290,3,3],[6,1280,4,5],[75,1246,3,3],[69,1233,11,3],[20,1233,74,52],[76,1229,4,3],[23,1220,7,3],[12,1220,5,3],[31,1150,51,59],[22,1092,44,48],[5,1075,4,3],[26,1018,63,49],[72,951,12,3],[23,951,91,56],[26,897,92,44],[23,831,66,55],[32,800,54,21],[21,1916,4,7],[21,1872,4,19],[21,1851,97,75],[21,1769,82,77],[5,1656,7,3],[22,1627,97,51],[102,1613,3,3],[5,1612,22,4],[42,1600,49,4],[32,1600,9,4]],
	"pngs":[
		["pngs/txt/ARC-MUND-PUB-IIB-25-9-1905.00000.png","pngs/opencv/ARC-MUND-PUB-IIB-25-9-1905.00000.png"],
		["pngs/txt/ARC-MUND-PUB-IIB-25-9-1905.00001.png","pngs/opencv/ARC-MUND-PUB-IIB-25-9-1905.00001.png"],
		["pngs/txt/ARC-MUND-PUB-IIB-25-9-1905.00002.png","pngs/opencv/ARC-MUND-PUB-IIB-25-9-1905.00002.png"]
	]
}