{
	"name": "ARC-MUND-PUB-UAI-CONGRES-29-UNIV-INT-1913",
	"blobs":[[106,215,74,18],[19,215,77,47],[14,157,78,35],[18,131,9,3],[18,129,92,30],[50,128,17,3],[50,123,16,3],[26,117,9,13],[24,106,79,13],[30,104,9,4],[70,103,6,3],[25,99,4,6],[14,85,60,16],[51,83,3,4],[19,78,7,7],[53,72,5,8],[17,71,5,6],[32,67,5,6],[49,66,3,3],[43,65,3,6],[39,60,5,7],[45,56,5,9],[28,54,5,7],[49,53,3,3],[32,52,3,3],[38,38,11,16],[28,30,40,10],[35,27,4,5],[48,23,4,6],[35,22,3,3]],
	"pngs":[
		["pngs/txt/ARC-MUND-PUB-UAI-CONGRES-29-UNIV-INT-1913.00000.png","pngs/opencv/ARC-MUND-PUB-UAI-CONGRES-29-UNIV-INT-1913.00000.png"]
	]
}