{
	"name": "ARC-MUND-PUB-IIB-7",
	"blobs":[[12,783,76,17],[25,732,79,43],[13,681,78,44],[24,647,77,26],[24,627,75,19],[12,591,80,28],[13,582,47,5],[26,555,88,5],[14,509,4,5],[26,505,79,25],[12,468,90,28],[20,352,41,6],[29,333,7,3],[11,323,20,3],[38,319,5,3],[19,314,25,3],[11,303,41,5],[18,211,42,6],[29,198,12,4],[27,193,7,3],[37,180,12,6],[6,180,11,6],[17,175,25,3],[9,175,3,3],[9,162,41,6],[30,1580,94,20],[18,1522,95,50],[14,1522,5,3],[29,1464,95,50],[15,1404,97,51],[28,1342,97,53],[12,1292,5,3],[12,1285,102,49],[29,1219,64,58],[12,1189,67,22],[28,1149,78,22],[12,1119,78,22],[12,1095,73,22],[26,1065,80,22],[26,1042,74,20],[13,989,78,45],[26,941,80,40],[55,939,7,3],[13,905,76,26],[13,885,79,18],[26,836,78,41],[55,831,4,3],[12,800,78,23],[13,2368,101,32],[34,2311,92,50],[13,2250,94,53],[31,2190,89,52],[14,2121,99,62],[33,2065,93,48],[15,2003,86,55],[33,1942,84,53],[13,1882,94,53],[33,1822,92,52],[15,1761,87,52],[30,1699,97,53],[16,1666,4,3],[16,1641,5,3],[16,1639,90,52],[24,1604,3,3],[32,1600,95,31],[12,2725,20,8],[28,2668,89,48],[11,2611,86,48],[18,2563,3,3],[31,2552,86,51],[10,2491,94,53],[31,2428,96,55],[15,2417,5,3],[15,2413,5,3],[15,2400,101,21]],
	"pngs":[
		["pngs/txt/ARC-MUND-PUB-IIB-7.00000.png","pngs/opencv/ARC-MUND-PUB-IIB-7.00000.png"],
		["pngs/txt/ARC-MUND-PUB-IIB-7.00001.png","pngs/opencv/ARC-MUND-PUB-IIB-7.00001.png"],
		["pngs/txt/ARC-MUND-PUB-IIB-7.00002.png","pngs/opencv/ARC-MUND-PUB-IIB-7.00002.png"],
		["pngs/txt/ARC-MUND-PUB-IIB-7.00003.png","pngs/opencv/ARC-MUND-PUB-IIB-7.00003.png"]
	]
}