{
	"name": "ARC-MUND-PUB-IIB-25-27-1905",
	"blobs":[[34,742,58,49],[23,674,74,56],[37,603,57,59],[106,595,3,3],[20,539,65,53],[34,475,74,52],[7,428,3,4],[23,414,73,49],[42,373,65,29],[34,373,9,3],[35,352,48,20],[21,295,9,3],[21,288,71,52],[40,258,7,18],[105,235,3,3],[36,220,86,56],[23,197,66,12],[23,171,51,25],[27,166,11,3],[18,166,5,3],[29,129,4,3],[36,78,84,65],[21,61,61,8],[40,38,25,4],[29,31,39,5],[61,16,10,3],[19,16,55,13],[20,10,64,4],[20,1583,67,17],[35,1517,72,54],[26,1470,5,5],[26,1461,5,8],[23,1452,71,54],[21,1452,9,7],[43,1433,4,3],[37,1385,76,55],[99,1371,3,3],[26,1363,4,3],[26,1353,4,7],[5,1341,8,6],[26,1334,4,8],[100,1329,5,8],[101,1320,4,4],[101,1307,3,3],[21,1301,74,66],[6,1298,4,5],[3,1293,7,4],[37,1241,76,52],[24,1180,56,50],[34,1149,44,20],[105,1123,4,3],[34,1117,51,31],[22,1055,88,51],[34,991,66,53],[20,928,88,52],[39,866,83,50],[20,803,59,51],[35,2345,3,3],[43,2342,57,9],[24,2333,87,11],[32,2327,9,3],[24,2327,4,3],[24,2304,4,21],[24,2259,90,76],[21,2177,83,75],[11,2165,5,5],[22,2122,41,17],[71,2084,3,3],[54,2084,15,3],[34,2084,60,27],[37,2076,7,5],[37,2065,85,17],[35,2065,8,3],[25,2004,69,50],[95,1990,3,3],[35,1930,62,58],[16,1915,3,3],[22,1853,72,63],[35,1778,72,63],[21,1717,99,50],[37,1654,73,51],[24,1600,70,42],[26,1600,6,11]],
	"pngs":[
		["pngs/txt/ARC-MUND-PUB-IIB-25-27-1905.00000.png","pngs/opencv/ARC-MUND-PUB-IIB-25-27-1905.00000.png"],
		["pngs/txt/ARC-MUND-PUB-IIB-25-27-1905.00001.png","pngs/opencv/ARC-MUND-PUB-IIB-25-27-1905.00001.png"],
		["pngs/txt/ARC-MUND-PUB-IIB-25-27-1905.00002.png","pngs/opencv/ARC-MUND-PUB-IIB-25-27-1905.00002.png"]
	]
}