{
	"name": "ARC-MUND-PUB-UAI-120-MONNAIE-INTERNATIONALE",
	"blobs":[[12,760,77,40],[4,743,4,9],[17,705,79,52],[12,647,81,53],[4,621,4,5],[16,589,81,54],[13,537,80,48],[16,481,83,50],[13,423,85,53],[16,367,86,50],[1,353,4,3],[13,348,83,14],[1,341,3,3],[2,336,3,3],[2,329,3,4],[1,319,3,3],[1,306,3,3],[13,303,76,47],[1,293,3,6],[1,281,3,3],[13,276,79,29],[1,274,3,4],[17,240,149,31],[41,237,10,3],[13,181,79,44],[5,165,3,3],[68,160,3,3],[16,123,66,7],[34,101,6,3],[43,98,9,6],[53,93,11,3],[25,93,14,3],[17,93,4,3],[13,83,24,6],[12,73,9,3],[25,72,34,5],[16,59,68,7],[35,36,6,3],[43,33,9,6],[72,32,3,3],[53,29,11,3],[25,29,14,3],[17,29,4,3],[67,20,3,3],[49,18,9,3],[21,18,17,6],[13,18,7,4],[25,7,5,3],[12,7,9,3],[31,6,46,6],[12,1555,78,45],[17,1500,80,50],[1,1475,3,3],[12,1445,84,51],[16,1390,79,51],[1,1381,4,4],[1,1364,3,3],[1,1349,4,3],[12,1329,88,56],[16,1281,81,43],[1,1254,3,7],[13,1221,82,56],[16,1167,80,50],[1,1159,3,3],[1,1154,3,4],[1,1120,3,4],[13,1110,79,54],[18,1054,91,53],[13,998,80,53],[17,942,79,50],[2,939,3,3],[12,889,80,51],[2,881,8,5],[4,870,3,4],[3,858,4,3],[17,823,80,54],[1,810,4,8],[12,800,78,11],[12,2353,84,47],[17,2302,82,47],[14,2247,80,48],[17,2193,80,50],[12,2133,87,55],[3,2107,4,7],[16,2076,86,52],[12,2018,80,54],[18,1965,78,50],[2,1955,3,6],[2,1950,4,4],[12,1905,82,49],[17,1849,82,52],[1,1842,78,4],[12,1781,86,53],[2,1772,4,5],[3,1756,4,3],[3,1742,4,5],[3,1731,4,9],[3,1721,4,3],[17,1720,87,59],[1,1712,3,3],[1,1705,3,3],[12,1663,79,52],[17,1643,79,17],[17,1610,82,32],[12,1600,87,5],[60,3007,4,3],[52,2978,3,3],[15,2971,4,3],[46,2950,4,4],[21,2937,93,4],[2,2908,3,3],[16,2882,88,26],[29,2873,5,3],[20,2868,3,3],[17,2761,82,50],[12,2699,81,54],[3,2674,4,3],[17,2640,82,56],[12,2580,81,55],[3,2551,4,3],[18,2523,85,54],[12,2466,81,52],[16,2409,85,52],[12,2400,73,5]],
	"pngs":[
		["pngs/txt/ARC-MUND-PUB-UAI-120-MONNAIE-INTERNATIONALE.00000.png","pngs/opencv/ARC-MUND-PUB-UAI-120-MONNAIE-INTERNATIONALE.00000.png"],
		["pngs/txt/ARC-MUND-PUB-UAI-120-MONNAIE-INTERNATIONALE.00001.png","pngs/opencv/ARC-MUND-PUB-UAI-120-MONNAIE-INTERNATIONALE.00001.png"],
		["pngs/txt/ARC-MUND-PUB-UAI-120-MONNAIE-INTERNATIONALE.00002.png","pngs/opencv/ARC-MUND-PUB-UAI-120-MONNAIE-INTERNATIONALE.00002.png"],
		["pngs/txt/ARC-MUND-PUB-UAI-120-MONNAIE-INTERNATIONALE.00003.png","pngs/opencv/ARC-MUND-PUB-UAI-120-MONNAIE-INTERNATIONALE.00003.png"]
	]
}