{
	"name": "ARC-MUND-PUB-UAI-CONGRES-69-SOC-THEO-1913",
	"blobs":[[20,338,88,26],[21,305,72,8],[106,237,80,47],[20,236,78,48],[106,171,76,43],[20,169,83,46],[106,101,80,47],[20,101,80,46],[18,61,80,18],[14,32,69,27],[29,23,38,11]],
	"pngs":[
		["pngs/txt/ARC-MUND-PUB-UAI-CONGRES-69-SOC-THEO-1913.00000.png","pngs/opencv/ARC-MUND-PUB-UAI-CONGRES-69-SOC-THEO-1913.00000.png"]
	]
}