{
	"name": "ARC-MUND-PUB-IIB-25-4",
	"blobs":[[31,774,9,5],[31,755,10,18],[31,751,9,3],[31,746,88,53],[30,746,8,4],[49,742,17,3],[28,742,8,3],[17,679,100,54],[17,679,5,3],[70,674,8,3],[37,674,14,3],[76,663,3,3],[92,653,3,3],[81,640,7,4],[24,581,3,3],[42,575,5,3],[16,533,76,34],[73,529,4,3],[42,529,10,3],[26,474,108,47],[16,415,106,51],[25,358,77,49],[52,354,9,3],[26,354,4,3],[16,311,103,35],[74,295,4,3],[42,295,9,3],[22,199,58,6],[27,180,35,6],[26,173,40,6],[22,166,51,6],[36,158,24,6],[18,158,16,3],[53,152,15,3],[17,152,32,4],[16,139,12,3],[99,138,3,3],[29,71,89,59],[25,53,57,6],[25,20,49,20],[48,16,18,3],[21,16,16,3],[56,10,15,3],[20,10,32,4],[82,1591,3,3],[55,1582,3,3],[19,1582,63,18],[26,1528,95,45],[27,1528,6,3],[46,1524,14,3],[23,1511,5,3],[23,1493,7,11],[72,1463,7,3],[20,1463,89,50],[9,1436,4,3],[27,1406,91,48],[26,1406,13,16],[64,1394,9,3],[59,1394,3,3],[74,1393,15,3],[22,1371,8,9],[22,1364,7,6],[20,1326,11,10],[71,1324,8,3],[21,1323,82,57],[30,1307,9,8],[30,1303,8,3],[28,1267,91,48],[47,1263,14,3],[22,1241,6,3],[24,1232,5,3],[22,1220,7,6],[22,1212,7,5],[16,1194,95,61],[72,1191,7,3],[39,1191,14,3],[8,1188,4,3],[32,1156,9,3],[32,1139,6,3],[28,1126,86,57],[10,1099,3,3],[19,1064,73,53],[11,1043,3,3],[30,1002,77,54],[49,998,14,3],[28,998,8,3],[18,943,92,48],[70,939,8,3],[38,939,16,3],[29,881,80,50],[50,877,14,3],[28,877,9,3],[4,865,3,3],[55,859,3,3],[1,850,4,3],[18,813,90,47],[36,809,16,3],[33,2357,51,5],[1,2304,4,4],[16,2282,88,39],[62,2268,3,3],[96,2241,3,3],[68,2209,7,3],[35,2189,3,3],[43,2173,3,3],[55,2168,4,3],[30,2130,4,3],[23,2111,3,3],[24,2048,73,60],[15,1963,74,73],[82,1956,3,3],[26,1890,75,62],[63,1885,3,3],[14,1826,74,53],[21,1819,10,3],[15,1815,41,7],[37,1802,3,3],[39,1771,85,26],[29,1771,6,3],[2,1751,4,4],[19,1739,7,21],[19,1730,7,7],[20,1719,6,7],[27,1706,74,56],[26,1683,12,14],[29,1657,8,25],[18,1653,3,3],[27,1645,6,3],[36,1642,82,55],[85,1637,3,3],[21,1627,7,7],[4,1610,10,3],[19,1600,69,34]],
	"pngs":[
		["pngs/txt/ARC-MUND-PUB-IIB-25-4.00000.png","pngs/opencv/ARC-MUND-PUB-IIB-25-4.00000.png"],
		["pngs/txt/ARC-MUND-PUB-IIB-25-4.00001.png","pngs/opencv/ARC-MUND-PUB-IIB-25-4.00001.png"],
		["pngs/txt/ARC-MUND-PUB-IIB-25-4.00002.png","pngs/opencv/ARC-MUND-PUB-IIB-25-4.00002.png"]
	]
}