{
	"name": "ARC-MUND-PUB-PO-BANQUE-MONDIALE",
	"blobs":[[0,103,35,14],[0,95,21,7],[0,0,171,94]],
	"pngs":[
		["pngs/txt/ARC-MUND-PUB-PO-BANQUE-MONDIALE.00000.png","pngs/opencv/ARC-MUND-PUB-PO-BANQUE-MONDIALE.00000.png"]
	]
}