{
	"name": "ARC-MUND-PUB-IIB-25-26",
	"blobs":[[24,793,3,3],[43,757,77,43],[21,743,5,3],[90,728,3,3],[20,674,87,73],[33,578,94,85],[22,517,100,51],[35,494,7,3],[34,457,5,3],[32,454,95,53],[20,434,5,3],[11,412,6,6],[4,381,4,4],[21,379,84,65],[110,361,4,3],[36,342,82,23],[20,276,81,53],[20,276,6,3],[34,212,91,52],[1,195,3,3],[1,182,3,5],[1,163,3,3],[1,159,3,3],[22,154,92,46],[22,152,4,3],[46,151,3,3],[28,150,17,5],[1,148,4,5],[66,146,8,3],[48,145,13,4],[41,76,86,56],[25,58,60,7],[24,32,55,11],[24,19,53,12],[21,19,16,3],[23,12,63,4],[32,1571,5,3],[35,1570,78,30],[24,1525,5,3],[24,1521,4,3],[24,1513,4,3],[23,1510,77,49],[35,1445,6,7],[32,1441,7,3],[32,1440,82,58],[23,1422,5,3],[24,1411,6,3],[24,1407,4,3],[25,1378,6,5],[24,1374,88,54],[22,1374,7,3],[16,1359,4,3],[38,1351,6,6],[38,1342,6,6],[36,1301,78,58],[24,1277,9,12],[22,1247,7,3],[25,1239,85,51],[22,1239,7,3],[40,1219,5,6],[40,1209,6,3],[25,1207,5,4],[40,1194,7,12],[40,1186,7,7],[40,1184,79,44],[26,1115,5,5],[20,1114,78,59],[40,1096,5,6],[37,1087,7,3],[37,1078,77,24],[93,1072,3,3],[36,1072,6,3],[32,1072,3,3],[37,1056,73,20],[21,1037,3,3],[10,1005,3,4],[21,996,82,48],[34,992,20,3],[19,909,4,4],[33,896,93,83],[25,882,5,3],[25,878,4,3],[16,871,3,3],[25,869,4,6],[22,859,8,9],[31,824,81,62],[44,800,72,14],[34,2358,40,42],[65,2344,4,3],[98,2326,4,4],[5,2321,4,3],[98,2320,4,3],[98,2309,4,3],[99,2301,3,6],[99,2281,3,3],[19,2274,84,28],[38,2210,76,54],[20,2141,68,58],[35,2073,76,57],[26,2012,7,5],[26,2007,89,54],[22,2007,11,4],[37,1977,7,18],[38,1973,5,3],[33,1935,75,60],[98,1919,3,3],[21,1869,55,55],[37,1803,73,55],[1,1745,4,8],[1,1741,3,3],[20,1733,75,59],[36,1676,80,46],[25,1623,77,42],[29,1619,11,3],[22,1619,5,3],[42,3198,17,2],[32,3198,7,2],[97,3183,4,5],[98,3179,3,3],[97,3158,4,8],[98,3151,3,5],[98,3142,5,5],[98,3133,3,5],[20,3122,49,52],[98,3117,4,3],[18,3114,4,3],[33,3053,35,60],[21,2991,36,50],[33,2925,35,53],[34,2925,13,7],[19,2905,3,3],[6,2900,3,3],[97,2895,3,3],[22,2852,36,61],[100,2835,8,4],[104,2812,3,3],[34,2762,37,61],[21,2696,63,54],[104,2662,4,3],[32,2622,35,62],[21,2561,47,49],[45,2502,23,47],[32,2502,12,47],[2,2488,14,3],[30,2487,4,3],[47,2486,3,3],[95,2479,7,9],[34,2473,19,8],[97,2470,5,7],[99,2461,3,3],[98,2454,4,5],[99,2431,4,3],[99,2424,3,3],[33,2418,31,54],[20,2418,13,63],[7,2414,4,4],[49,2400,19,9],[41,2400,7,9],[21,3963,81,37],[108,3943,4,3],[37,3941,7,4],[40,3873,83,28],[18,3814,50,48],[34,3741,49,61],[5,3723,3,3],[97,3688,4,9],[17,3682,50,48],[5,3676,5,3],[56,3675,4,3],[50,3674,4,3],[94,3673,8,13],[2,3672,6,3],[80,3637,14,3],[35,3618,56,54],[97,3582,3,3],[97,3563,3,3],[30,3549,25,57],[19,3549,12,57],[5,3544,5,3],[97,3543,5,10],[27,3542,6,3],[14,3540,7,4],[36,3480,13,59],[48,3479,25,60],[53,3465,27,3],[56,3429,3,3],[7,3415,3,5],[98,3414,4,3],[98,3405,3,6],[18,3393,35,55],[32,3331,38,51],[19,3265,43,56],[37,3200,40,54],[24,4767,3,3],[34,4739,81,61],[106,4729,7,3],[19,4703,7,3],[27,4693,75,35],[20,4693,9,9],[39,4674,6,7],[39,4642,5,13],[35,4629,86,52],[97,4611,3,6],[97,4581,3,6],[20,4562,82,51],[4,4552,9,3],[34,4491,73,60],[97,4476,3,3],[97,4472,3,3],[22,4409,81,61],[22,4409,7,3],[5,4399,8,3],[30,4370,4,3],[38,4353,6,3],[33,4334,93,64],[97,4319,3,3],[98,4298,3,3],[7,4275,4,3],[23,4261,75,51],[36,4207,6,3],[32,4196,79,53],[52,4180,6,4],[21,4131,6,3],[21,4117,82,52],[110,4102,3,3],[40,4034,78,52],[0,4018,10,4],[31,4000,74,7],[102,5586,5,7],[97,5523,3,4],[5,5522,3,3],[97,5516,3,3],[97,5508,3,3],[6,5478,3,3],[22,5475,58,40],[42,5471,10,3],[20,5471,6,3],[3,5461,4,3],[42,5456,3,3],[81,5438,9,3],[44,5382,67,14],[33,5382,9,14],[28,5337,6,3],[28,5329,5,3],[23,5315,77,55],[36,5298,4,4],[36,5294,5,3],[9,5294,5,4],[10,5289,5,3],[10,5285,3,3],[36,5282,4,3],[36,5266,4,3],[36,5262,5,3],[36,5258,5,3],[37,5251,4,6],[34,5243,75,59],[47,5235,12,3],[22,5193,76,40],[35,5184,35,8],[28,5184,6,8],[8,5173,7,3],[38,5168,5,3],[38,5157,6,3],[38,5153,6,3],[39,5144,6,4],[39,5124,6,3],[34,5119,76,53],[25,5103,6,3],[25,5099,6,3],[25,5094,6,3],[25,5087,6,6],[21,5056,83,51],[8,5046,7,3],[32,4995,56,50],[44,4986,15,3],[106,4985,7,3],[20,4932,71,52],[35,4872,64,48],[19,4813,65,47],[35,5751,6,3],[36,5704,3,3],[26,5704,3,3],[25,5689,87,76],[6,5679,6,3],[20,5618,90,63],[104,5603,6,3]],
	"pngs":[
		["pngs/txt/ARC-MUND-PUB-IIB-25-26.00000.png","pngs/opencv/ARC-MUND-PUB-IIB-25-26.00000.png"],
		["pngs/txt/ARC-MUND-PUB-IIB-25-26.00001.png","pngs/opencv/ARC-MUND-PUB-IIB-25-26.00001.png"],
		["pngs/txt/ARC-MUND-PUB-IIB-25-26.00002.png","pngs/opencv/ARC-MUND-PUB-IIB-25-26.00002.png"],
		["pngs/txt/ARC-MUND-PUB-IIB-25-26.00003.png","pngs/opencv/ARC-MUND-PUB-IIB-25-26.00003.png"],
		["pngs/txt/ARC-MUND-PUB-IIB-25-26.00004.png","pngs/opencv/ARC-MUND-PUB-IIB-25-26.00004.png"],
		["pngs/txt/ARC-MUND-PUB-IIB-25-26.00005.png","pngs/opencv/ARC-MUND-PUB-IIB-25-26.00005.png"],
		["pngs/txt/ARC-MUND-PUB-IIB-25-26.00006.png","pngs/opencv/ARC-MUND-PUB-IIB-25-26.00006.png"],
		["pngs/txt/ARC-MUND-PUB-IIB-25-26.00007.png","pngs/opencv/ARC-MUND-PUB-IIB-25-26.00007.png"]
	]
}