{
	"name": "ARC-MUND-PUB-BULLETIN-IIB-75-ORGA-BIBLIO-INT-1906",
	"blobs":[[26,769,170,31],[27,683,216,67],[27,614,84,12],[27,603,180,61],[27,520,194,63],[26,493,76,3],[25,442,86,47],[26,441,195,60],[55,418,6,4],[27,363,191,58],[56,312,8,3],[27,293,223,51],[111,269,92,10],[27,266,182,42],[27,176,183,71],[110,123,112,34],[37,122,60,9],[133,116,17,3],[139,108,15,5],[128,108,8,3],[33,72,42,6],[44,56,14,3],[37,47,16,3],[51,41,13,3],[26,41,12,3],[50,31,8,3],[37,31,8,3],[27,20,101,10],[27,1357,201,68],[28,1272,215,66],[29,1191,197,62],[27,1115,170,57],[27,1079,198,16],[146,1075,16,6],[112,1070,107,10],[27,1022,185,51],[27,937,216,66],[26,849,223,69],[26,800,230,30]],
	"pngs":[
		["pngs/txt/ARC-MUND-PUB-BULLETIN-IIB-75-ORGA-BIBLIO-INT-1906.00000.png","pngs/opencv/ARC-MUND-PUB-BULLETIN-IIB-75-ORGA-BIBLIO-INT-1906.00000.png"],
		["pngs/txt/ARC-MUND-PUB-BULLETIN-IIB-75-ORGA-BIBLIO-INT-1906.00001.png","pngs/opencv/ARC-MUND-PUB-BULLETIN-IIB-75-ORGA-BIBLIO-INT-1906.00001.png"]
	]
}