{
	"name": "ARC-MUND-PUB-BULLETIN-IIB-8-1903-FASC-1_3",
	"blobs":[[115,779,4,3],[27,753,100,30],[69,727,9,3],[33,724,23,4],[122,715,7,23],[29,715,83,25],[113,713,7,25],[81,706,16,3],[38,702,38,13],[104,701,21,3],[81,701,17,3],[171,658,3,3],[139,658,5,3],[28,656,110,6],[157,655,13,7],[145,654,9,5],[131,650,3,3],[127,650,3,3],[28,650,65,4],[28,646,80,3],[28,639,82,6],[126,638,10,7],[119,638,4,6],[135,635,3,6],[28,635,85,3],[30,631,75,3],[135,627,4,7],[142,626,4,6],[35,626,52,3],[71,622,15,3],[52,622,15,3],[36,622,12,3],[28,622,7,3],[119,617,5,17],[118,613,3,3],[135,608,54,48],[177,602,5,3],[127,590,49,17],[138,585,19,3],[167,581,10,8],[28,576,97,40],[140,574,9,3],[115,529,87,26],[137,524,14,3],[146,520,7,3],[139,520,6,3],[134,516,32,3],[139,511,5,3],[145,508,30,6],[116,508,22,6],[112,473,76,5],[133,450,13,3],[153,444,9,3],[149,444,3,3],[135,444,13,3],[116,444,17,3],[117,432,27,6],[108,427,12,3],[133,424,15,6],[123,420,17,3],[120,376,21,3],[26,376,77,23],[130,371,39,12],[75,364,4,3],[24,358,72,16],[36,300,82,7],[36,284,83,9],[36,226,191,105],[28,129,193,80],[25,87,82,24],[22,79,29,6],[45,77,11,3],[74,75,4,3],[45,69,51,6],[22,1549,192,51],[49,1483,38,3],[24,1480,187,50],[137,1474,35,5],[24,1474,70,8],[23,1398,176,57],[23,1368,74,11],[23,1323,174,56],[144,1321,10,3],[56,1321,10,3],[22,1292,86,10],[109,1267,101,35],[22,1251,86,39],[109,1249,80,17],[23,1173,181,57],[168,1104,14,3],[22,1102,174,52],[168,1058,13,3],[22,1023,175,60],[109,950,101,54],[23,950,83,54],[22,871,193,60],[55,870,10,3],[141,869,10,3],[108,812,87,38],[133,808,32,3],[108,2327,78,10],[28,2327,174,61],[21,2296,3,3],[22,2248,187,61],[55,2247,11,3],[142,2246,10,3],[21,2175,176,52],[21,2102,175,55],[46,2101,28,4],[83,2073,13,3],[110,2062,76,19],[25,2050,82,32],[25,2021,180,40],[170,1975,12,3],[24,1945,176,57],[160,1877,20,3],[56,1864,10,3],[23,1863,182,63],[152,1862,3,3],[24,1836,85,8],[81,1785,15,3],[23,1785,180,60],[143,1784,11,3],[55,1783,10,3],[78,1737,17,3],[22,1712,178,53],[141,1710,10,3],[55,1710,11,3],[22,1676,85,15],[109,1669,8,3],[22,1653,80,8],[109,1647,8,3],[22,1628,186,62],[55,1626,10,3],[141,1625,10,3],[31,1600,153,7],[86,3197,5,3],[73,3197,9,3],[40,3197,9,3],[28,3197,6,3],[175,3196,6,4],[162,3196,10,4],[128,3196,12,4],[115,3196,12,4],[52,3195,15,5],[142,3194,19,6],[30,3157,85,18],[30,3118,170,57],[192,3090,6,3],[29,3047,171,52],[113,2982,121,46],[149,2976,3,3],[141,2976,7,3],[24,2976,83,15],[23,2938,173,19],[80,2933,14,3],[23,2892,175,48],[56,2892,11,3],[23,2818,191,55],[110,2772,8,3],[111,2739,8,3],[24,2736,182,63],[56,2736,10,3],[22,2663,184,55],[25,2625,174,19],[25,2572,176,55],[81,2504,17,3],[25,2491,191,64],[52,2490,22,5],[142,2489,10,3],[165,2435,15,3],[23,2409,197,62],[140,2408,10,3],[56,2407,10,3],[33,3963,175,37],[31,3903,77,41],[31,3893,70,9],[31,3885,70,6],[31,3875,199,69],[116,3808,81,47],[162,3755,10,3],[142,3755,17,3],[124,3755,16,3],[35,3746,173,37],[27,3673,176,55],[89,3651,6,3],[28,3626,80,28],[115,3590,86,64],[28,3590,82,34],[38,3579,4,3],[43,3570,3,3],[191,3560,6,3],[98,3524,5,3],[113,3513,85,52],[26,3513,86,52],[27,3441,173,53],[27,3367,177,55],[104,3343,4,3],[185,3339,5,3],[26,3337,78,11],[114,3267,92,82],[26,3267,83,69],[114,3200,85,47],[25,3200,84,48],[32,4774,7,3],[42,4773,163,27],[32,4717,7,3],[118,4711,8,3],[32,4710,7,5],[118,4707,8,3],[32,4687,5,6],[41,4685,178,69],[34,4647,7,3],[34,4643,8,3],[34,4639,8,3],[34,4616,7,3],[118,4601,8,3],[34,4599,185,67],[39,4526,174,54],[31,4526,84,20],[30,4445,171,62],[34,4393,77,6],[34,4389,74,3],[33,4369,83,19],[31,4353,191,73],[142,4352,11,3],[31,4276,210,57],[32,4197,188,60],[117,4122,94,56],[34,4121,82,56],[117,4043,84,60],[32,4043,88,60],[33,4000,173,24],[33,4000,86,10],[34,5594,66,6],[32,5571,167,29],[30,5493,182,59],[33,5448,83,27],[119,5426,83,49],[147,5422,9,3],[119,5403,73,18],[33,5403,84,43],[31,5383,60,3],[30,5374,83,8],[29,5325,204,61],[119,5268,112,38],[123,5260,55,5],[32,5256,9,8],[46,5254,28,10],[119,5212,9,12],[31,5183,7,3],[161,5181,13,3],[31,5176,187,59],[43,5086,177,70],[33,5030,5,3],[117,5022,101,45],[127,5018,13,3],[40,5011,89,23],[32,4964,7,7],[34,4931,10,6],[31,4929,186,63],[122,4897,7,13],[118,4874,9,3],[30,4852,185,58],[43,4800,188,33],[30,6327,190,54],[47,6260,7,3],[31,6255,187,53],[32,6176,167,60],[32,6095,186,62],[33,6008,170,68],[33,5932,168,57],[31,5860,83,52],[115,5833,110,80],[141,5829,11,3],[31,5829,82,30],[32,5796,83,14],[61,5792,3,3],[32,5744,195,66],[171,5673,5,3],[143,5673,6,3],[32,5658,211,67],[32,5600,172,38],[33,7162,172,38],[32,7090,181,53],[33,7050,82,20],[118,7045,97,26],[32,7015,169,34],[32,7014,82,10],[142,6947,13,3],[157,6943,8,3],[140,6943,13,3],[126,6943,10,3],[30,6938,182,58],[31,6863,192,56],[30,6780,176,65],[32,6707,179,54],[32,6635,200,54],[32,6549,176,67],[31,6473,190,57],[31,6400,196,54],[154,7964,15,3],[138,7964,15,3],[108,7963,86,37],[116,7954,61,9],[110,7954,13,3],[186,7930,11,3],[36,7923,68,11],[34,7912,69,10],[161,7907,8,3],[85,7903,8,7],[72,7903,8,7],[36,7903,28,7],[94,7884,9,7],[95,7871,8,3],[38,7867,17,3],[108,7866,80,67],[133,7866,8,3],[133,7855,12,3],[42,7855,5,3],[56,7854,17,4],[33,7852,98,54],[149,7843,35,11],[34,7843,37,5],[72,7839,76,9],[38,7839,12,3],[57,7838,22,4],[142,7837,21,5],[31,7794,109,24],[48,7788,44,4],[34,7788,12,3],[31,7766,169,19],[32,7688,216,59],[138,7658,39,12],[31,7612,169,58],[30,7584,82,9],[30,7530,183,62],[36,7465,16,3],[31,7456,191,55],[31,7414,83,23],[31,7382,175,29],[34,7350,179,14],[34,7313,179,41],[34,7313,83,10],[33,7234,170,61],[34,7200,168,16],[108,8000,84,9]],
	"pngs":[
		["pngs/txt/ARC-MUND-PUB-BULLETIN-IIB-8-1903-FASC-1_3.00000.png","pngs/opencv/ARC-MUND-PUB-BULLETIN-IIB-8-1903-FASC-1_3.00000.png"],
		["pngs/txt/ARC-MUND-PUB-BULLETIN-IIB-8-1903-FASC-1_3.00001.png","pngs/opencv/ARC-MUND-PUB-BULLETIN-IIB-8-1903-FASC-1_3.00001.png"],
		["pngs/txt/ARC-MUND-PUB-BULLETIN-IIB-8-1903-FASC-1_3.00002.png","pngs/opencv/ARC-MUND-PUB-BULLETIN-IIB-8-1903-FASC-1_3.00002.png"],
		["pngs/txt/ARC-MUND-PUB-BULLETIN-IIB-8-1903-FASC-1_3.00003.png","pngs/opencv/ARC-MUND-PUB-BULLETIN-IIB-8-1903-FASC-1_3.00003.png"],
		["pngs/txt/ARC-MUND-PUB-BULLETIN-IIB-8-1903-FASC-1_3.00004.png","pngs/opencv/ARC-MUND-PUB-BULLETIN-IIB-8-1903-FASC-1_3.00004.png"],
		["pngs/txt/ARC-MUND-PUB-BULLETIN-IIB-8-1903-FASC-1_3.00005.png","pngs/opencv/ARC-MUND-PUB-BULLETIN-IIB-8-1903-FASC-1_3.00005.png"],
		["pngs/txt/ARC-MUND-PUB-BULLETIN-IIB-8-1903-FASC-1_3.00006.png","pngs/opencv/ARC-MUND-PUB-BULLETIN-IIB-8-1903-FASC-1_3.00006.png"],
		["pngs/txt/ARC-MUND-PUB-BULLETIN-IIB-8-1903-FASC-1_3.00007.png","pngs/opencv/ARC-MUND-PUB-BULLETIN-IIB-8-1903-FASC-1_3.00007.png"],
		["pngs/txt/ARC-MUND-PUB-BULLETIN-IIB-8-1903-FASC-1_3.00008.png","pngs/opencv/ARC-MUND-PUB-BULLETIN-IIB-8-1903-FASC-1_3.00008.png"],
		["pngs/txt/ARC-MUND-PUB-BULLETIN-IIB-8-1903-FASC-1_3.00009.png","pngs/opencv/ARC-MUND-PUB-BULLETIN-IIB-8-1903-FASC-1_3.00009.png"],
		["pngs/txt/ARC-MUND-PUB-BULLETIN-IIB-8-1903-FASC-1_3.00010.png","pngs/opencv/ARC-MUND-PUB-BULLETIN-IIB-8-1903-FASC-1_3.00010.png"]
	]
}