{
	"name": "ARC-MUND-PUB-MONITEUR-PHOTOGRAPHIE-15121903",
	"blobs":[[21,744,82,56],[30,741,6,5],[21,700,77,43],[21,699,3,3],[8,675,5,4],[4,663,6,3],[14,623,9,3],[68,614,3,3],[5,614,95,83],[76,606,7,5],[22,603,9,5],[88,595,6,3],[18,575,81,30],[40,571,7,3],[85,569,4,3],[11,567,5,6],[8,561,6,3],[20,556,8,4],[35,555,34,13],[19,544,5,4],[10,540,4,4],[22,536,72,15],[14,530,6,3],[68,529,4,3],[11,444,88,87],[30,439,4,3],[14,437,4,4],[10,430,3,3],[21,429,60,10],[83,428,4,3],[13,414,3,3],[8,404,5,4],[18,372,105,58],[78,365,8,3],[20,363,5,4],[54,360,10,6],[79,358,5,3],[15,355,4,4],[20,354,9,9],[5,345,4,3],[9,283,3,3],[9,279,88,77],[18,272,54,6],[74,264,5,3],[21,258,42,11],[80,244,4,5],[20,244,40,15],[62,243,6,5],[24,242,4,3],[19,220,82,28],[21,216,50,12],[30,216,9,3],[74,213,8,3],[36,211,34,4],[20,211,3,3],[5,155,3,3],[14,144,4,3],[6,135,4,4],[7,126,123,85],[11,126,4,3],[64,77,7,3],[73,66,3,3],[14,65,80,59],[11,53,49,7],[8,47,4,4],[25,23,34,9],[26,19,37,3],[12,14,14,3],[24,10,21,5],[42,6,30,3],[11,6,29,3],[21,1558,78,42],[12,1546,75,7],[24,1542,28,3],[11,1500,77,38],[2,1459,4,3],[21,1448,77,47],[13,1429,81,13],[37,1425,10,3],[68,1424,4,3],[12,1386,77,37],[1,1362,3,3],[1,1352,3,3],[21,1321,79,60],[11,1263,76,52],[21,1251,71,7],[20,1209,76,40],[12,1179,77,25],[35,1174,11,3],[12,1160,90,12],[21,1154,14,3],[54,1149,3,3],[29,1149,18,6],[77,1122,4,3],[83,1111,3,3],[18,1069,87,75],[56,1062,3,3],[16,1061,8,3],[48,1060,4,3],[3,1055,11,11],[1,1049,4,3],[4,1045,4,3],[9,1034,4,3],[5,1005,4,4],[7,983,105,76],[79,977,5,3],[24,976,4,3],[43,975,3,3],[87,973,6,4],[49,951,42,20],[16,948,3,3],[19,912,110,57],[68,911,6,3],[12,905,4,4],[32,903,5,4],[59,901,4,3],[72,892,5,7],[74,887,7,3],[2,887,4,4],[6,882,6,3],[13,875,73,30],[73,873,4,3],[9,865,75,12],[2,862,6,5],[1,849,8,3],[43,836,8,3],[13,835,69,29],[70,833,4,3],[23,831,22,8],[13,830,8,4],[17,826,20,3],[65,821,6,3],[52,818,8,5],[23,800,80,20],[12,2352,78,48],[21,2302,81,45],[23,2287,48,9],[12,2222,77,50],[1,2205,4,3],[19,2124,88,93],[13,2072,84,47],[17,2058,50,9],[54,2039,29,4],[1,1997,5,4],[20,1994,86,44],[13,1976,74,12],[45,1970,12,5],[13,1942,75,33],[3,1927,3,3],[20,1900,75,36],[55,1893,7,6],[36,1893,18,6],[21,1886,80,8],[13,1835,88,46],[21,1775,85,55],[13,1752,77,18],[12,1718,76,30],[21,1664,75,49],[13,1610,85,49],[21,1600,77,5],[10,3198,6,2],[1,3195,4,3],[21,3172,88,28],[15,3144,103,30],[23,3144,4,3],[78,3137,6,4],[60,3136,8,3],[7,3134,4,6],[75,3132,4,4],[53,3131,6,3],[24,3129,5,4],[13,3125,9,6],[83,3121,3,3],[13,3114,44,13],[5,3111,6,4],[78,3109,4,3],[84,3107,5,4],[62,3106,3,3],[69,3105,5,4],[12,3102,49,5],[81,3101,6,3],[67,3097,11,6],[47,3096,10,6],[66,3091,5,5],[12,3072,94,26],[74,3071,3,3],[10,3069,4,4],[67,3068,4,3],[28,3067,31,4],[75,3065,5,4],[23,3057,4,4],[17,3044,6,4],[19,3023,4,3],[14,3005,8,6],[3,3005,4,9],[18,3000,4,3],[19,2984,84,82],[14,2982,6,4],[71,2980,6,4],[58,2976,3,4],[7,2969,12,4],[6,2952,6,16],[86,2946,6,3],[73,2946,10,3],[7,2946,7,3],[88,2942,3,3],[7,2934,5,11],[7,2904,3,5],[6,2891,89,87],[15,2886,6,4],[84,2882,4,3],[2,2875,4,4],[9,2871,4,3],[6,2849,4,4],[9,2838,4,4],[2,2828,3,3],[23,2826,91,62],[2,2822,7,3],[22,2808,85,20],[70,2802,6,3],[29,2801,8,3],[6,2791,76,13],[75,2785,6,3],[76,2770,3,3],[7,2765,73,20],[73,2756,6,3],[7,2740,3,3],[16,2737,51,10],[68,2731,14,9],[26,2720,9,5],[12,2603,82,74],[2,2537,4,3],[2,2527,4,3],[19,2472,86,126],[13,2400,83,68],[38,3867,21,4],[17,3832,10,26],[29,3830,53,29],[28,3826,36,6],[13,3793,6,5],[14,3729,82,69],[10,3718,6,3],[46,3716,7,4],[28,3716,4,3],[62,3715,3,4],[38,3714,6,3],[11,3713,4,3],[6,3678,7,3],[16,3668,4,4],[9,3656,8,3],[10,3647,4,4],[10,3643,6,3],[20,3631,4,3],[17,3629,91,86],[42,3622,10,7],[13,3621,5,4],[65,3617,6,3],[72,3615,3,3],[84,3613,3,3],[79,3604,5,3],[4,3602,66,25],[4,3562,5,4],[12,3556,80,49],[36,3550,4,3],[12,3542,3,3],[82,3495,6,3],[5,3493,3,4],[44,3487,4,3],[36,3486,7,3],[2,3485,4,4],[15,3458,80,95],[2,3456,4,4],[11,3452,4,3],[56,3451,3,3],[9,3448,4,3],[70,3447,3,3],[47,3447,7,3],[66,3435,6,3],[49,3433,8,3],[11,3426,4,3],[9,3418,4,4],[12,3417,97,37],[64,3416,4,3],[79,3415,4,3],[61,3378,17,5],[13,3378,71,40],[15,3377,9,4],[82,3376,3,3],[63,3373,5,3],[19,3371,42,5],[72,3365,3,3],[87,3364,6,3],[76,3362,5,4],[25,3361,6,3],[2,3339,4,3],[10,3325,7,3],[6,3315,4,4],[88,3303,4,4],[37,3287,4,4],[59,3286,4,3],[12,3285,4,3],[84,3284,6,3],[26,3284,8,4],[5,3283,4,3],[20,3282,4,4],[4,3270,4,4],[22,3264,63,8],[8,3249,3,3],[84,3241,3,3],[12,3219,71,38],[77,3213,10,5],[52,3212,3,3],[77,3209,6,3],[56,3206,9,8],[80,3205,4,3],[23,3200,78,12],[1,3200,4,3]],
	"pngs":[
		["pngs/txt/ARC-MUND-PUB-MONITEUR-PHOTOGRAPHIE-15121903.00000.png","pngs/opencv/ARC-MUND-PUB-MONITEUR-PHOTOGRAPHIE-15121903.00000.png"],
		["pngs/txt/ARC-MUND-PUB-MONITEUR-PHOTOGRAPHIE-15121903.00001.png","pngs/opencv/ARC-MUND-PUB-MONITEUR-PHOTOGRAPHIE-15121903.00001.png"],
		["pngs/txt/ARC-MUND-PUB-MONITEUR-PHOTOGRAPHIE-15121903.00002.png","pngs/opencv/ARC-MUND-PUB-MONITEUR-PHOTOGRAPHIE-15121903.00002.png"],
		["pngs/txt/ARC-MUND-PUB-MONITEUR-PHOTOGRAPHIE-15121903.00003.png","pngs/opencv/ARC-MUND-PUB-MONITEUR-PHOTOGRAPHIE-15121903.00003.png"],
		["pngs/txt/ARC-MUND-PUB-MONITEUR-PHOTOGRAPHIE-15121903.00004.png","pngs/opencv/ARC-MUND-PUB-MONITEUR-PHOTOGRAPHIE-15121903.00004.png"]
	]
}