{
	"name": "ARC-MUND-PUB-BULLETIN-IIB-1-1895-1896",
	"blobs":[[9,790,3,3],[121,770,68,7],[9,769,3,3],[168,764,7,3],[163,764,3,3],[117,750,87,7],[140,745,19,3],[159,739,4,3],[140,739,15,3],[136,739,3,3],[132,739,3,3],[117,731,27,3],[6,728,6,3],[0,728,3,3],[146,727,5,3],[143,722,11,3],[124,722,10,3],[120,662,79,44],[124,601,77,42],[122,538,87,45],[31,538,80,28],[148,467,9,3],[32,457,182,64],[150,437,50,3],[32,436,79,3],[168,431,50,3],[32,366,197,74],[117,309,110,40],[121,303,67,4],[141,297,14,3],[131,297,7,3],[114,264,76,6],[153,239,11,3],[136,239,16,3],[118,239,17,3],[32,238,83,3],[123,232,15,3],[141,228,4,3],[138,223,15,3],[112,223,12,3],[141,219,5,3],[129,214,17,3],[119,163,12,3],[130,159,37,13],[26,158,83,33],[26,153,82,4],[26,142,60,10],[25,114,75,6],[48,96,9,3],[63,90,11,3],[59,90,3,3],[28,90,30,3],[33,82,15,3],[50,78,4,3],[21,73,12,3],[47,70,15,6],[37,64,10,3],[119,1584,86,16],[119,1574,80,6],[33,1574,85,26],[122,1527,86,31],[121,1500,86,27],[34,1499,86,58],[36,1469,83,15],[36,1423,172,60],[36,1357,178,50],[35,1334,170,40],[34,1246,181,71],[124,1197,12,3],[119,1190,105,41],[31,1186,82,16],[31,1141,85,29],[55,1136,15,3],[66,1132,19,3],[36,1132,10,3],[47,1129,18,6],[121,1123,87,47],[32,1077,83,30],[50,1069,24,6],[121,1063,83,21],[33,1005,86,42],[121,1004,86,43],[119,943,83,44],[33,943,83,44],[34,891,83,33],[37,885,52,5],[118,880,84,43],[63,876,3,3],[119,870,83,12],[118,832,70,19],[151,826,15,3],[128,826,15,3],[158,819,16,3],[136,819,17,3],[120,819,12,3],[121,2373,81,27],[121,2364,83,8],[156,2356,11,3],[134,2353,19,6],[35,2346,76,54],[73,2272,19,3],[38,2272,184,57],[120,2190,83,64],[35,2190,73,65],[151,2158,12,3],[128,2142,34,26],[126,2135,4,3],[131,2132,37,6],[36,2129,89,44],[119,2105,76,6],[36,2039,171,73],[118,1959,87,13],[36,1959,170,63],[37,1880,177,62],[32,1792,181,72],[121,1738,89,37],[120,1714,87,23],[33,1714,87,60],[34,1651,174,47],[119,1623,88,11],[32,1600,174,35],[41,3179,172,21],[39,3107,172,54],[35,3034,178,54],[35,2960,179,56],[90,2907,5,3],[43,2902,43,10],[54,2902,10,3],[37,2892,173,49],[37,2870,77,3],[118,2867,22,6],[37,2863,76,3],[118,2858,97,11],[163,2857,4,3],[36,2817,167,42],[38,2742,191,56],[38,2662,188,62],[40,2584,176,59],[121,2518,53,6],[38,2509,169,56],[34,2463,80,29],[34,2426,174,66],[34,2425,82,13],[121,2400,92,9],[35,2400,73,8],[39,3956,167,44],[40,3892,165,46],[39,3853,165,41],[38,3778,186,57],[39,3691,188,69],[38,3598,172,74],[39,3524,171,55],[39,3487,192,18],[39,3456,168,29],[40,3361,168,77],[40,3307,179,35],[40,3251,166,58],[44,3230,48,3],[84,3218,20,3],[42,3200,168,33],[67,4785,3,3],[36,4728,171,54],[158,4659,16,3],[129,4659,6,3],[123,4659,5,3],[37,4653,179,57],[37,4558,173,73],[39,4463,170,76],[37,4381,182,64],[37,4292,190,71],[35,4209,175,65],[147,4130,10,3],[38,4130,172,60],[36,4031,189,81],[41,4000,173,13],[35,5585,158,15],[119,5584,81,6],[36,5558,168,8],[35,5514,173,47],[35,5435,183,60],[37,5361,183,55],[36,5268,170,75],[37,5186,174,63],[39,5116,171,51],[37,5035,182,62],[38,4953,171,63],[38,4878,181,57],[78,4842,26,3],[37,4806,180,53],[34,6382,85,18],[34,6377,74,3],[34,6356,169,38],[36,6322,175,16],[35,6275,170,49],[36,6207,172,50],[118,6135,81,15],[34,6135,95,53],[32,6034,180,82],[32,5963,181,52],[144,5963,3,3],[121,5896,98,48],[33,5896,85,48],[34,5827,179,50],[174,5806,3,3],[35,5752,171,56],[33,5670,195,63],[34,5600,173,52],[38,7174,168,26],[35,7088,183,68],[36,7013,181,57],[11,7005,3,3],[36,6938,178,58],[35,6902,60,16],[83,6895,12,3],[73,6895,9,3],[67,6895,5,3],[52,6895,12,3],[38,6895,10,3],[93,6890,3,3],[120,6889,89,30],[78,6889,13,4],[35,6889,42,4],[46,6885,14,3],[37,6885,8,3],[120,6881,89,10],[37,6875,58,4],[93,6868,3,3],[120,6858,90,25],[34,6857,62,14],[160,6854,15,3],[155,6854,4,3],[137,6854,15,3],[123,6854,12,3],[34,6847,75,9],[67,6843,13,3],[36,6843,15,3],[34,6770,182,56],[37,6719,80,3],[37,6716,175,37],[37,6667,172,51],[35,6609,171,40],[35,6588,84,31],[120,6583,85,25],[61,6583,11,3],[34,6513,181,52],[34,6437,174,58],[35,6400,178,19],[37,7994,76,6],[36,7977,166,23],[119,7953,81,3],[64,7902,12,3],[54,7896,30,5],[48,7896,5,3],[37,7891,168,67],[35,7866,4,3],[35,7857,4,6],[35,7835,81,37],[119,7831,85,34],[119,7825,4,3],[124,7822,71,10],[37,7822,62,11],[150,7800,3,3],[41,7752,19,7],[120,7742,82,12],[35,7742,168,51],[120,7699,58,24],[122,7693,72,5],[36,7686,86,37],[36,7669,78,16],[120,7668,85,24],[37,7640,4,3],[119,7637,24,5],[37,7626,62,22],[119,7617,4,5],[47,7617,50,8],[124,7605,15,4],[123,7599,74,49],[36,7599,85,17],[36,7513,173,66],[34,7481,84,14],[34,7443,83,37],[34,7437,80,8],[120,7436,97,57],[35,7380,178,37],[35,7371,84,8],[121,7348,90,48],[35,7347,85,22],[58,7286,21,3],[73,7279,19,3],[58,7279,12,5],[41,7279,16,3],[36,7279,4,3],[34,7270,173,58],[38,7200,181,53],[69,8792,45,3],[152,8759,16,5],[37,8753,167,47],[70,8670,13,5],[44,8670,28,7],[33,8664,169,70],[145,8643,3,3],[62,8643,3,3],[118,8615,78,9],[147,8610,3,3],[118,8594,6,3],[165,8590,12,3],[118,8590,79,14],[34,8590,79,22],[144,8567,3,3],[78,8566,24,3],[117,8519,88,18],[33,8518,171,50],[41,8450,41,5],[32,8449,173,50],[32,8400,83,30],[119,8397,85,29],[32,8390,79,5],[58,8386,12,3],[69,8380,22,5],[32,8380,35,7],[119,8375,80,24],[32,8296,183,61],[119,8270,33,7],[37,8207,176,65],[40,8159,21,3],[119,8152,87,36],[166,8145,10,3],[139,8145,24,6],[122,8145,14,3],[38,8141,82,20],[36,8064,81,9],[36,8063,176,58],[37,8000,175,43],[120,9595,80,5],[36,9594,80,6],[35,9517,173,58],[76,9449,15,3],[55,9449,24,7],[42,9449,10,3],[37,9443,184,54],[37,9372,177,51],[33,9299,179,54],[33,9222,186,57],[78,9200,3,3],[34,9185,81,9],[118,9138,97,55],[33,9138,84,46],[34,9064,170,55],[60,9064,11,3],[35,8995,173,50],[145,8926,11,3],[36,8926,157,50],[37,8828,189,79],[61,8828,10,3],[116,8800,97,9],[119,10386,81,14],[37,10377,162,23],[36,10331,69,7],[36,10306,189,51],[48,10305,51,5],[71,10301,10,3],[51,10301,15,3],[37,10216,172,66],[37,10159,26,6],[41,10154,17,3],[36,10154,4,3],[36,10139,190,58],[40,10054,194,65],[119,9982,76,54],[41,9982,76,52],[36,9888,171,74],[35,9808,177,61],[77,9748,17,3],[59,9748,14,5],[41,9748,15,3],[35,9748,5,3],[36,9742,175,46],[117,9713,97,9],[149,9687,34,4],[35,9667,169,55],[36,9600,168,48],[117,11190,87,10],[35,11163,179,37],[36,11163,78,6],[127,11090,11,3],[169,11089,7,16],[38,11086,174,58],[38,11051,176,16],[38,11045,78,5],[38,10998,170,55],[35,10919,179,59],[36,10836,183,64],[38,10747,177,70],[40,10678,180,50],[39,10612,77,5],[39,10603,170,56],[40,10532,61,9],[49,10532,10,3],[39,10531,173,53],[36,10457,171,55],[120,10427,95,10],[37,10400,165,37],[35,11969,169,31],[36,11894,173,57],[35,11817,169,58],[37,11743,179,55],[157,11681,12,3],[143,11681,11,3],[124,11681,15,3],[37,11674,172,50],[37,11600,173,55],[62,11553,15,3],[57,11553,4,3],[74,11548,15,3],[57,11548,16,3],[45,11548,10,3],[151,11530,19,3],[133,11530,15,3],[38,11525,172,56],[34,11487,54,7],[120,11469,76,7],[35,11461,167,45],[151,11412,13,3],[132,11412,15,3],[38,11395,185,46],[37,11320,167,57],[39,11243,175,57],[35,11200,187,24],[134,12792,5,3],[95,12771,6,3],[88,12771,6,3],[78,12771,9,3],[71,12771,6,3],[36,12766,102,34],[168,12726,7,3],[134,12716,5,3],[121,12716,5,3],[115,12716,5,3],[103,12716,11,5],[97,12716,5,3],[127,12715,6,6],[141,12709,5,3],[100,12708,40,4],[140,12699,4,3],[134,12699,5,3],[128,12699,5,3],[122,12699,5,3],[117,12699,4,3],[100,12699,5,3],[94,12699,5,3],[89,12699,4,3],[84,12699,4,3],[79,12699,4,3],[106,12698,10,4],[151,12693,5,4],[145,12693,5,4],[140,12693,4,4],[134,12693,5,4],[128,12693,5,4],[120,12693,7,4],[115,12693,4,4],[109,12693,5,4],[112,12686,5,3],[104,12686,7,3],[99,12686,4,3],[72,12686,4,3],[148,12681,7,3],[142,12681,5,3],[137,12681,4,3],[118,12681,18,10],[119,12681,5,3],[114,12681,4,3],[109,12681,4,3],[104,12681,4,3],[98,12681,5,3],[76,12681,22,8],[70,12681,5,3],[80,12676,6,3],[141,12668,5,6],[161,12661,5,3],[155,12661,5,3],[150,12661,4,3],[144,12661,5,3],[137,12661,6,3],[119,12661,17,6],[114,12661,4,3],[108,12661,5,3],[101,12661,6,3],[95,12661,5,3],[77,12661,17,6],[155,12652,5,3],[149,12652,5,3],[143,12652,5,3],[137,12652,5,3],[131,12652,5,3],[123,12652,7,3],[118,12652,4,3],[112,12652,5,3],[106,12652,5,3],[99,12652,6,3],[93,12652,5,3],[87,12652,5,3],[162,12642,5,3],[156,12642,5,3],[150,12642,5,3],[144,12642,5,3],[136,12642,7,3],[130,12642,5,3],[124,12642,5,3],[118,12642,5,3],[106,12642,11,3],[134,12633,3,3],[31,12622,136,107],[84,12622,6,3],[74,12622,6,3],[65,12622,6,3],[56,12622,6,3],[55,12616,96,24],[136,12607,7,3],[151,12601,5,3],[161,12585,3,3],[151,12585,9,3],[141,12578,6,3],[33,12567,134,43],[36,12476,179,56],[61,12421,12,3],[83,12415,10,3],[77,12415,5,3],[55,12415,21,5],[41,12415,13,3],[35,12415,4,3],[35,12407,180,49],[35,12339,178,49],[36,12267,177,53],[37,12196,175,52],[120,12136,57,9],[38,12128,173,50],[36,12051,176,58],[35,12010,74,11],[35,12000,170,32],[35,12000,79,9],[122,13595,80,5],[37,13594,76,6],[119,13549,88,27],[170,13542,9,3],[137,13537,17,3],[37,13529,129,19],[35,13451,172,59],[36,13381,62,7],[34,13374,176,59],[36,13303,176,52],[36,13249,73,22],[36,13225,182,60],[38,13154,164,53],[37,13077,186,58],[38,13002,173,56],[118,12977,92,6],[120,12969,78,3],[118,12960,83,7],[120,12955,77,3],[55,12948,62,34],[47,12931,4,4],[36,12931,10,22],[36,12920,8,5],[47,12918,4,5],[47,12911,4,5],[40,12908,5,10],[55,12906,168,48],[83,12906,19,3],[47,12906,4,3],[40,12895,4,7],[45,12889,9,13],[50,12883,5,3],[55,12879,158,29],[44,12867,155,14],[63,12864,11,3],[133,12833,4,3],[35,12812,159,34],[128,12800,7,2],[120,12800,7,2],[111,12800,8,2],[103,12800,7,2],[95,12800,7,2],[87,12800,7,2],[79,12800,7,2],[71,12800,7,2],[146,13905,3,3],[36,13905,170,47],[35,13811,178,75],[122,13737,90,55],[36,13736,83,56],[71,13675,14,3],[55,13675,11,3],[46,13675,8,3],[36,13667,182,51],[149,13613,35,5],[37,13600,169,48]],
	"pngs":[
		["pngs/txt/ARC-MUND-PUB-BULLETIN-IIB-1-1895-1896.00000.png","pngs/opencv/ARC-MUND-PUB-BULLETIN-IIB-1-1895-1896.00000.png"],
		["pngs/txt/ARC-MUND-PUB-BULLETIN-IIB-1-1895-1896.00001.png","pngs/opencv/ARC-MUND-PUB-BULLETIN-IIB-1-1895-1896.00001.png"],
		["pngs/txt/ARC-MUND-PUB-BULLETIN-IIB-1-1895-1896.00002.png","pngs/opencv/ARC-MUND-PUB-BULLETIN-IIB-1-1895-1896.00002.png"],
		["pngs/txt/ARC-MUND-PUB-BULLETIN-IIB-1-1895-1896.00003.png","pngs/opencv/ARC-MUND-PUB-BULLETIN-IIB-1-1895-1896.00003.png"],
		["pngs/txt/ARC-MUND-PUB-BULLETIN-IIB-1-1895-1896.00004.png","pngs/opencv/ARC-MUND-PUB-BULLETIN-IIB-1-1895-1896.00004.png"],
		["pngs/txt/ARC-MUND-PUB-BULLETIN-IIB-1-1895-1896.00005.png","pngs/opencv/ARC-MUND-PUB-BULLETIN-IIB-1-1895-1896.00005.png"],
		["pngs/txt/ARC-MUND-PUB-BULLETIN-IIB-1-1895-1896.00006.png","pngs/opencv/ARC-MUND-PUB-BULLETIN-IIB-1-1895-1896.00006.png"],
		["pngs/txt/ARC-MUND-PUB-BULLETIN-IIB-1-1895-1896.00007.png","pngs/opencv/ARC-MUND-PUB-BULLETIN-IIB-1-1895-1896.00007.png"],
		["pngs/txt/ARC-MUND-PUB-BULLETIN-IIB-1-1895-1896.00008.png","pngs/opencv/ARC-MUND-PUB-BULLETIN-IIB-1-1895-1896.00008.png"],
		["pngs/txt/ARC-MUND-PUB-BULLETIN-IIB-1-1895-1896.00009.png","pngs/opencv/ARC-MUND-PUB-BULLETIN-IIB-1-1895-1896.00009.png"],
		["pngs/txt/ARC-MUND-PUB-BULLETIN-IIB-1-1895-1896.00010.png","pngs/opencv/ARC-MUND-PUB-BULLETIN-IIB-1-1895-1896.00010.png"],
		["pngs/txt/ARC-MUND-PUB-BULLETIN-IIB-1-1895-1896.00011.png","pngs/opencv/ARC-MUND-PUB-BULLETIN-IIB-1-1895-1896.00011.png"],
		["pngs/txt/ARC-MUND-PUB-BULLETIN-IIB-1-1895-1896.00012.png","pngs/opencv/ARC-MUND-PUB-BULLETIN-IIB-1-1895-1896.00012.png"],
		["pngs/txt/ARC-MUND-PUB-BULLETIN-IIB-1-1895-1896.00013.png","pngs/opencv/ARC-MUND-PUB-BULLETIN-IIB-1-1895-1896.00013.png"],
		["pngs/txt/ARC-MUND-PUB-BULLETIN-IIB-1-1895-1896.00014.png","pngs/opencv/ARC-MUND-PUB-BULLETIN-IIB-1-1895-1896.00014.png"],
		["pngs/txt/ARC-MUND-PUB-BULLETIN-IIB-1-1895-1896.00015.png","pngs/opencv/ARC-MUND-PUB-BULLETIN-IIB-1-1895-1896.00015.png"],
		["pngs/txt/ARC-MUND-PUB-BULLETIN-IIB-1-1895-1896.00016.png","pngs/opencv/ARC-MUND-PUB-BULLETIN-IIB-1-1895-1896.00016.png"],
		["pngs/txt/ARC-MUND-PUB-BULLETIN-IIB-1-1895-1896.00017.png","pngs/opencv/ARC-MUND-PUB-BULLETIN-IIB-1-1895-1896.00017.png"]
	]
}