{
	"name": "ARC-MUND-PUB-IIB-25-2",
	"blobs":[[15,744,65,51],[20,739,61,3],[26,732,38,5],[62,726,19,4],[47,724,12,6],[26,678,100,39],[16,611,105,59],[21,548,104,55],[5,495,4,5],[21,483,107,57],[5,483,4,5],[24,413,110,61],[18,351,105,53],[61,348,16,3],[24,287,105,52],[19,242,100,35],[64,235,14,3],[19,233,40,5],[61,225,16,3],[23,190,86,26],[26,158,27,6],[41,154,8,3],[22,67,88,54],[29,52,46,6],[26,34,36,5],[30,28,41,5],[21,14,54,14],[21,14,16,3],[71,8,9,3],[55,7,15,3],[22,7,30,4],[22,1506,74,10],[23,1496,52,7],[52,1466,12,3],[77,1465,10,3],[33,1416,41,8],[22,1173,99,49],[1,1144,4,3],[1,1134,3,3],[62,1113,11,3],[17,1113,77,49],[32,1078,5,3],[32,1072,103,32],[32,1064,59,5],[52,1053,11,3],[32,1053,18,3],[16,1028,74,15],[26,1020,11,3],[38,1016,26,7],[73,1009,3,3],[57,1009,15,3],[54,994,5,3],[23,949,76,51],[67,942,13,3],[25,940,36,5],[93,937,3,3],[24,933,19,3],[4,922,6,9],[3,878,7,4],[5,872,4,3],[17,868,29,26],[4,867,4,3],[47,866,39,26],[22,803,65,54]],
	"pngs":[
		["pngs/txt/ARC-MUND-PUB-IIB-25-2.00000.png","pngs/opencv/ARC-MUND-PUB-IIB-25-2.00000.png"],
		["pngs/txt/ARC-MUND-PUB-IIB-25-2.00001.png","pngs/opencv/ARC-MUND-PUB-IIB-25-2.00001.png"]
	]
}