{
	"name": "ARC-MUND-PUB-MONITEUR-PHOTOGRAPHIE-01121904",
	"blobs":[[26,794,28,6],[13,790,8,3],[70,785,3,3],[28,784,29,9],[76,778,6,3],[39,778,4,3],[15,773,4,4],[19,719,83,60],[7,717,5,4],[30,715,30,3],[70,704,5,4],[44,704,6,7],[14,703,4,3],[78,684,4,4],[14,638,88,29],[18,529,84,106],[18,521,3,3],[23,520,51,8],[11,441,92,75],[77,434,4,3],[9,432,4,3],[9,416,3,3],[8,404,4,3],[5,393,5,4],[15,381,99,52],[16,369,5,4],[33,368,32,3],[87,363,3,4],[29,345,25,3],[14,324,11,4],[51,306,7,3],[19,306,6,3],[44,305,5,3],[14,305,3,3],[7,293,76,72],[23,286,3,3],[73,283,3,3],[83,278,4,4],[23,266,43,24],[10,251,6,4],[20,242,76,20],[28,235,9,3],[21,234,4,3],[27,230,46,12],[9,225,4,3],[85,216,4,3],[1,189,4,3],[10,181,104,46],[48,173,11,10],[46,172,3,3],[12,134,88,40],[57,111,14,3],[33,102,39,8],[13,96,77,36],[37,90,6,3],[32,50,13,3],[11,24,14,3],[38,19,8,3],[23,15,13,3],[10,7,84,86],[10,7,30,3],[14,1595,48,5],[17,1542,78,48],[13,1497,76,40],[37,1490,11,6],[18,1437,77,48],[11,1383,77,49],[17,1329,76,49],[11,1280,85,44],[24,1276,26,3],[36,1272,11,3],[16,1192,81,75],[57,1184,3,3],[11,1154,77,32],[12,1134,87,19],[21,1129,14,3],[36,1124,11,6],[30,1124,4,3],[11,1053,5,5],[17,1020,79,98],[14,1018,7,7],[39,1012,9,4],[70,1010,5,3],[14,1010,6,3],[63,1008,4,4],[29,1008,9,10],[46,1006,5,4],[24,1005,4,3],[7,989,9,3],[12,957,3,3],[11,935,94,72],[78,934,4,3],[10,929,3,3],[17,911,31,15],[21,905,16,3],[16,844,87,87],[62,838,5,3],[11,831,60,9],[73,829,5,4],[69,803,6,3],[12,801,75,31],[36,800,11,3],[11,2376,77,24],[33,2372,5,5],[36,2367,13,11],[53,2366,3,3],[12,2355,71,13],[8,2315,5,3],[19,2300,91,52],[26,2294,54,5],[19,2274,77,18],[10,2266,3,3],[3,2264,3,3],[77,2252,4,3],[7,2242,78,30],[65,2196,4,3],[54,2196,3,3],[23,2196,29,3],[16,2152,6,3],[21,2124,4,3],[23,2123,80,71],[5,2111,70,9],[6,2086,71,19],[16,2068,7,3],[7,2064,4,3],[69,2061,4,3],[25,2061,48,20],[1,2052,4,3],[1,2047,3,4],[19,2012,83,46],[40,2008,13,3],[18,2000,78,7],[10,1982,82,13],[35,1977,10,3],[11,1942,75,32],[1,1921,3,9],[17,1919,76,18],[16,1902,75,15],[16,1888,70,11],[11,1840,77,43],[12,1830,71,8],[1,1801,3,5],[16,1772,78,53],[13,1721,76,46],[17,1657,75,59],[0,1629,3,3],[11,1600,75,52],[12,3077,84,44],[13,3073,6,3],[32,3071,7,3],[12,3057,31,15],[45,3056,50,26],[11,3026,79,18],[69,3002,6,3],[12,2964,97,64],[21,2896,109,62],[27,2890,52,5],[34,2886,39,3],[38,2880,4,4],[46,2878,4,4],[0,2873,6,3],[50,2859,4,3],[11,2859,69,22],[60,2855,6,3],[79,2820,4,4],[4,2819,6,3],[65,2813,6,3],[12,2813,82,45],[17,2744,92,66],[42,2727,4,3],[1,2726,4,3],[64,2724,3,3],[8,2712,103,29],[2,2696,3,3],[4,2686,69,26],[58,2682,14,3],[41,2682,14,3],[25,2681,9,3],[12,2681,10,3],[57,2676,8,4],[17,2676,31,4],[28,2672,30,3],[73,2666,6,3],[81,2664,6,3],[27,2663,3,3],[5,2585,4,3],[15,2577,50,6],[75,2537,4,3],[65,2515,4,3],[7,2515,77,69],[81,2509,4,3],[13,2494,7,3],[21,2470,80,37],[24,2458,87,13],[21,2458,5,4],[10,2450,6,4],[83,2449,6,3],[27,2446,4,4],[72,2445,4,6],[66,2445,4,4],[43,2445,5,3],[53,2444,4,3],[77,2443,6,3],[58,2439,5,6],[41,2438,6,3],[9,2436,4,4],[50,2435,7,3],[31,2433,6,4],[25,2432,4,3],[75,2431,7,3],[57,2413,4,4],[12,2411,7,6],[7,2400,78,33]],
	"pngs":[
		["pngs/txt/ARC-MUND-PUB-MONITEUR-PHOTOGRAPHIE-01121904.00000.png","pngs/opencv/ARC-MUND-PUB-MONITEUR-PHOTOGRAPHIE-01121904.00000.png"],
		["pngs/txt/ARC-MUND-PUB-MONITEUR-PHOTOGRAPHIE-01121904.00001.png","pngs/opencv/ARC-MUND-PUB-MONITEUR-PHOTOGRAPHIE-01121904.00001.png"],
		["pngs/txt/ARC-MUND-PUB-MONITEUR-PHOTOGRAPHIE-01121904.00002.png","pngs/opencv/ARC-MUND-PUB-MONITEUR-PHOTOGRAPHIE-01121904.00002.png"],
		["pngs/txt/ARC-MUND-PUB-MONITEUR-PHOTOGRAPHIE-01121904.00003.png","pngs/opencv/ARC-MUND-PUB-MONITEUR-PHOTOGRAPHIE-01121904.00003.png"]
	]
}