{
	"name": "ARC-MUND-PUB-IIB-25-22",
	"blobs":[[111,798,3,2],[12,779,4,7],[12,769,4,9],[12,757,4,3],[35,750,5,6],[32,746,6,3],[12,740,4,4],[31,734,81,41],[105,725,3,3],[26,721,3,3],[70,720,3,3],[22,706,4,3],[21,676,7,3],[21,649,100,63],[34,632,9,3],[34,628,8,3],[33,614,9,6],[84,598,3,3],[34,598,95,41],[96,592,3,3],[22,531,84,49],[50,517,4,3],[12,504,4,3],[12,489,4,3],[12,472,3,3],[12,463,4,3],[39,448,80,63],[12,444,11,5],[112,441,3,3],[24,386,83,54],[39,326,81,49],[23,264,84,51],[39,203,83,49],[17,151,3,3],[20,150,75,42],[38,76,87,55],[24,57,61,8],[22,25,53,16],[39,18,28,6],[20,18,16,3],[21,11,63,4],[11,1593,4,3],[12,1589,3,3],[11,1558,3,5],[31,1554,81,46],[19,1494,74,48],[32,1452,77,29],[31,1438,63,13],[1,1421,9,6],[98,1419,3,3],[98,1408,3,3],[5,1400,3,3],[13,1391,4,3],[22,1389,6,17],[22,1383,4,5],[21,1374,6,4],[29,1361,94,45],[61,1353,3,3],[35,1317,7,18],[33,1311,81,40],[62,1307,10,3],[32,1306,4,3],[46,1305,12,3],[37,1305,7,4],[12,1301,3,9],[10,1292,7,3],[21,1249,4,3],[21,1245,5,3],[21,1238,86,52],[19,1238,7,3],[23,1211,19,13],[33,1205,7,6],[25,1204,3,3],[35,1195,8,9],[38,1188,5,6],[38,1182,5,5],[35,1177,7,3],[35,1169,6,3],[12,1167,3,7],[33,1163,81,64],[21,1140,7,10],[21,1092,77,59],[20,1092,7,5],[43,1084,4,3],[33,1031,74,51],[31,1031,9,20],[22,964,79,55],[101,950,4,3],[84,934,8,4],[12,917,4,4],[11,890,6,6],[11,879,6,4],[33,876,76,58],[104,867,3,3],[23,820,81,46],[21,820,4,3],[64,819,4,3],[59,819,3,3],[8,802,4,4],[22,2397,27,3],[38,2388,52,8],[22,2388,14,8],[22,2373,67,14],[19,2365,3,3],[30,2363,17,6],[60,2350,6,6],[97,2255,5,4],[97,2216,6,3],[61,2182,3,3],[33,2122,80,50],[19,2064,80,48],[76,2049,11,4],[35,2039,6,3],[31,1976,75,68],[19,1912,66,52],[32,1846,76,54],[6,1813,4,3],[19,1797,3,3],[20,1781,78,52],[98,1764,4,4],[11,1744,3,3],[92,1736,3,3],[32,1702,76,54],[102,1698,3,3],[99,1687,3,3],[5,1665,3,3],[23,1658,6,8],[6,1657,4,3],[5,1646,3,3],[23,1643,6,11],[5,1642,3,3],[23,1632,6,10],[23,1624,77,61],[19,1624,5,3],[5,1616,4,6],[35,1600,51,13],[36,3191,5,7],[34,3181,76,19],[19,3120,81,50],[9,3117,5,4],[63,3115,3,4],[37,3058,74,52],[35,3058,5,3],[107,3056,5,4],[99,3045,3,3],[19,3011,93,30],[19,3007,4,3],[98,3006,3,3],[69,3000,5,3],[19,3000,8,3],[25,2999,69,11],[7,2990,3,3],[10,2965,5,3],[35,2953,76,28],[19,2908,6,3],[19,2904,6,3],[20,2895,75,47],[19,2893,16,4],[42,2825,80,53],[5,2805,3,3],[6,2776,5,3],[6,2762,3,3],[28,2759,90,55],[99,2751,4,3],[4,2750,3,3],[46,2730,3,7],[46,2699,75,50],[1,2685,3,3],[98,2676,4,3],[16,2638,5,3],[28,2630,84,49],[12,2616,112,3],[42,2557,82,50],[7,2543,3,3],[2,2542,4,3],[98,2539,3,3],[6,2538,4,3],[6,2505,3,3],[27,2480,86,57],[1,2473,4,3],[72,2472,3,3],[82,2471,12,3],[42,2421,87,49],[27,2400,76,9],[23,3448,4,3],[22,3401,19,45],[23,3397,3,3],[23,3392,83,65],[27,3382,84,10],[21,3315,88,62],[25,3301,4,3],[10,3272,4,3],[9,3244,5,4],[108,3206,4,3],[34,3200,79,29]],
	"pngs":[
		["pngs/txt/ARC-MUND-PUB-IIB-25-22.00000.png","pngs/opencv/ARC-MUND-PUB-IIB-25-22.00000.png"],
		["pngs/txt/ARC-MUND-PUB-IIB-25-22.00001.png","pngs/opencv/ARC-MUND-PUB-IIB-25-22.00001.png"],
		["pngs/txt/ARC-MUND-PUB-IIB-25-22.00002.png","pngs/opencv/ARC-MUND-PUB-IIB-25-22.00002.png"],
		["pngs/txt/ARC-MUND-PUB-IIB-25-22.00003.png","pngs/opencv/ARC-MUND-PUB-IIB-25-22.00003.png"],
		["pngs/txt/ARC-MUND-PUB-IIB-25-22.00004.png","pngs/opencv/ARC-MUND-PUB-IIB-25-22.00004.png"]
	]
}