{
	"name": "ARC-MUND-PUB-IIB-25-6-1902",
	"blobs":[[28,767,57,6],[19,693,85,35],[65,688,10,3],[20,687,36,4],[28,625,72,51],[18,558,90,56],[31,544,10,3],[28,494,89,54],[21,469,8,3],[18,424,11,6],[20,421,95,64],[25,353,90,59],[24,326,8,18],[24,322,6,3],[19,314,10,5],[28,294,86,50],[40,289,12,3],[22,193,58,6],[20,168,57,14],[19,154,55,13],[18,149,60,4],[26,69,86,70],[27,53,57,6],[25,28,58,13],[27,14,51,12],[24,14,16,3],[23,9,60,4]],
	"pngs":[
		["pngs/txt/ARC-MUND-PUB-IIB-25-6-1902.00000.png","pngs/opencv/ARC-MUND-PUB-IIB-25-6-1902.00000.png"]
	]
}