{
	"name": "ARC-MUND-PUB-IIB-25-6-1905",
	"blobs":[[17,696,88,14],[25,691,9,3],[17,691,4,3],[17,670,4,19],[40,637,19,3],[15,624,89,74],[15,549,83,69],[27,494,72,49],[18,422,86,59],[13,410,4,3],[35,409,10,3],[35,402,9,5],[30,361,92,52],[19,289,11,7],[21,286,94,62],[83,218,3,3],[26,218,90,59],[75,205,3,3],[4,196,3,9],[23,185,8,21],[4,183,3,12],[23,179,5,3],[18,170,10,5],[4,169,3,3],[27,148,87,58],[39,144,13,3],[24,75,84,60],[19,60,61,8],[51,38,9,3],[34,38,11,3],[26,29,39,5],[19,17,53,10],[45,13,16,3],[16,13,16,3],[48,8,32,4],[17,8,29,4]],
	"pngs":[
		["pngs/txt/ARC-MUND-PUB-IIB-25-6-1905.00000.png","pngs/opencv/ARC-MUND-PUB-IIB-25-6-1905.00000.png"]
	]
}