{
	"name": "ARC-MUND-PUB-IIB-25-17-1905",
	"blobs":[[27,794,64,6],[37,731,76,52],[18,670,79,50],[29,620,4,3],[28,606,92,53],[19,568,78,27],[9,547,3,3],[23,546,82,20],[33,498,68,37],[36,494,15,3],[29,494,4,3],[26,474,7,3],[4,470,3,3],[18,435,7,6],[19,429,74,19],[31,398,6,3],[38,370,74,49],[29,361,54,4],[4,357,5,3],[17,328,6,3],[97,305,4,3],[46,300,3,3],[17,300,81,49],[36,237,74,49],[8,216,3,3],[8,208,3,3],[23,182,80,46],[20,178,16,3],[7,176,4,4],[29,145,80,16],[31,71,77,76],[38,70,11,3],[21,52,61,8],[70,47,3,3],[67,37,3,3],[20,37,46,7],[28,31,40,5],[17,16,17,3],[20,15,53,14],[18,10,68,4],[80,1595,8,3],[29,1595,48,5],[34,1587,10,3],[20,1547,94,39],[50,1546,3,3],[34,1489,97,40],[18,1433,97,47],[30,1376,98,48],[15,1309,93,56],[26,1269,5,3],[27,1247,95,51],[63,1230,3,3],[0,1230,8,6],[18,1197,5,3],[25,1173,91,51],[30,1134,5,3],[30,1114,92,48],[5,1102,4,3],[16,1038,97,55],[28,992,5,3],[7,990,4,4],[28,977,98,52],[19,916,94,51],[29,898,5,3],[7,859,4,3],[28,853,92,53],[8,853,3,5],[18,837,5,3],[25,800,70,44],[30,2382,4,3],[37,2381,87,19],[25,2351,75,20],[19,2351,4,3],[76,2325,13,3],[30,2321,5,7],[30,2296,4,3],[37,2295,84,39],[4,2275,3,3],[18,2264,7,3],[26,2254,72,16],[18,2254,7,8],[29,2231,7,3],[29,2218,7,3],[29,2196,80,48],[29,2196,7,8],[18,2176,7,3],[18,2152,7,6],[17,2143,86,47],[18,2143,7,3],[32,2120,7,3],[32,2115,7,3],[31,2110,7,3],[31,2105,7,3],[32,2086,73,46],[15,2062,5,3],[16,2052,5,3],[16,2038,8,3],[15,2025,81,50],[27,1992,7,3],[27,1985,7,3],[27,1979,7,3],[27,1963,81,52],[81,1950,7,3],[20,1903,11,10],[20,1890,76,51],[29,1868,9,8],[29,1863,7,3],[29,1853,9,9],[29,1831,79,48],[20,1798,7,3],[20,1783,7,3],[20,1778,77,48],[1,1776,3,3],[32,1766,4,4],[31,1750,5,3],[31,1743,7,3],[31,1713,85,46],[32,1713,7,3],[102,1705,3,3],[91,1704,9,3],[73,1701,4,3],[18,1688,7,3],[18,1676,7,3],[18,1667,7,7],[18,1662,7,3],[18,1651,8,9],[24,1646,71,47],[18,1646,5,3],[30,1629,7,3],[29,1616,7,11],[29,1610,7,3],[29,1600,77,37],[30,3194,74,6],[18,3157,7,3],[16,3134,104,50],[18,3134,7,3],[28,3120,5,3],[28,3089,5,3],[28,3075,88,49],[18,3057,5,3],[19,3014,83,51],[30,2955,77,49],[97,2941,3,3],[47,2941,3,3],[25,2941,6,3],[0,2941,5,3],[51,2886,11,3],[25,2886,69,46],[18,2886,4,3],[28,2848,5,3],[35,2827,86,41],[29,2827,5,3],[5,2809,4,4],[20,2807,7,6],[19,2799,5,3],[19,2787,5,3],[25,2774,79,43],[19,2774,4,3],[30,2733,8,6],[30,2720,77,37],[18,2664,77,47],[18,2664,4,3],[35,2637,67,12],[28,2637,6,3],[4,2594,3,3],[4,2578,3,5],[18,2577,94,51],[29,2521,4,3],[36,2520,85,48],[6,2500,4,5],[41,2467,4,4],[19,2448,5,3],[6,2439,7,3],[25,2437,69,18],[30,2421,5,3],[36,2400,71,27],[19,3377,4,3],[19,3370,4,3],[20,3329,3,4],[18,3307,94,80],[21,3228,81,74],[29,3200,75,21]],
	"pngs":[
		["pngs/txt/ARC-MUND-PUB-IIB-25-17-1905.00000.png","pngs/opencv/ARC-MUND-PUB-IIB-25-17-1905.00000.png"],
		["pngs/txt/ARC-MUND-PUB-IIB-25-17-1905.00001.png","pngs/opencv/ARC-MUND-PUB-IIB-25-17-1905.00001.png"],
		["pngs/txt/ARC-MUND-PUB-IIB-25-17-1905.00002.png","pngs/opencv/ARC-MUND-PUB-IIB-25-17-1905.00002.png"],
		["pngs/txt/ARC-MUND-PUB-IIB-25-17-1905.00003.png","pngs/opencv/ARC-MUND-PUB-IIB-25-17-1905.00003.png"],
		["pngs/txt/ARC-MUND-PUB-IIB-25-17-1905.00004.png","pngs/opencv/ARC-MUND-PUB-IIB-25-17-1905.00004.png"]
	]
}