{
	"name": "ARC-MUND-PUB-UAI-CONGRES-32-PROGRES-1913",
	"blobs":[[105,245,77,29],[18,245,79,44],[50,171,17,4],[53,162,3,3],[15,159,105,65],[50,158,3,3],[37,152,4,8],[50,151,3,3],[25,134,79,19],[50,128,6,6],[26,121,5,15],[42,113,5,10],[44,101,8,17],[39,92,5,11],[25,90,3,3],[20,86,3,6],[54,84,6,10],[39,81,3,3],[22,79,6,9],[59,78,3,3],[15,69,64,11],[47,64,3,3],[59,61,9,10],[43,60,3,3],[41,53,5,5],[54,52,3,3],[29,49,8,13],[41,48,3,3],[50,45,5,5],[27,44,3,5],[38,43,3,3],[34,34,3,3],[39,32,16,13],[29,24,48,10],[47,22,5,4]],
	"pngs":[
		["pngs/txt/ARC-MUND-PUB-UAI-CONGRES-32-PROGRES-1913.00000.png","pngs/opencv/ARC-MUND-PUB-UAI-CONGRES-32-PROGRES-1913.00000.png"]
	]
}