{
	"name": "ARC-MUND-PUB-IIB-25-1-1899",
	"blobs":[[15,792,77,8],[89,781,3,3],[19,765,76,12],[19,733,82,31],[14,678,78,47],[3,631,5,4],[18,626,82,48],[15,575,80,46],[19,527,80,43],[14,492,78,29],[15,483,55,6],[4,367,5,4],[15,346,88,46],[19,294,86,47],[16,285,10,3],[14,235,88,47],[18,183,80,46],[13,153,92,21],[18,142,38,4],[2,137,4,3],[34,131,10,3],[16,62,90,54],[29,50,41,5],[5,29,4,3],[22,26,66,10],[19,12,54,12],[19,12,16,3],[20,6,44,4],[89,1591,3,3],[90,1574,3,3],[14,1490,88,103],[15,1436,81,48],[20,1381,79,49],[48,1373,7,3],[16,1327,79,39],[26,1280,15,3],[21,1275,72,39],[89,1267,3,3],[2,1251,3,3],[2,1238,3,3],[2,1231,3,3],[16,1224,79,43],[91,1196,3,3],[19,1175,81,44],[3,1174,4,3],[1,1161,4,5],[14,1106,80,46],[19,1058,84,43],[2,1050,3,3],[2,1037,3,12],[5,1021,4,3],[14,993,82,53],[20,944,82,44],[14,887,86,49],[18,839,79,43],[15,800,75,33],[34,2160,44,7],[13,2112,74,12],[15,2102,52,7],[20,2057,75,18],[14,2007,82,44],[3,1985,5,3],[34,1983,4,3],[44,1980,6,3],[40,1977,3,3],[30,1967,3,3],[25,1964,3,3],[67,1957,23,8],[22,1957,80,41],[46,1955,8,4],[12,1902,88,47],[23,1849,82,47],[1,1837,6,4],[70,1801,3,3],[53,1800,6,5],[3,1793,3,3],[53,1786,14,3],[89,1782,3,11],[26,1780,3,3],[16,1780,8,3],[14,1777,84,49],[2,1776,4,3],[90,1770,6,3],[2,1721,4,7],[20,1704,82,27],[24,1693,58,6],[30,1679,33,12],[11,1656,84,24],[21,1600,89,47]],
	"pngs":[
		["pngs/txt/ARC-MUND-PUB-IIB-25-1-1899.00000.png","pngs/opencv/ARC-MUND-PUB-IIB-25-1-1899.00000.png"],
		["pngs/txt/ARC-MUND-PUB-IIB-25-1-1899.00001.png","pngs/opencv/ARC-MUND-PUB-IIB-25-1-1899.00001.png"],
		["pngs/txt/ARC-MUND-PUB-IIB-25-1-1899.00002.png","pngs/opencv/ARC-MUND-PUB-IIB-25-1-1899.00002.png"]
	]
}