{
	"name": "ARC-MUND-PUB-IIB-25-7-1909",
	"blobs":[[15,685,4,25],[15,661,4,22],[13,637,137,79],[74,632,4,4],[18,564,88,68],[70,505,8,3],[18,505,96,51],[30,490,8,6],[26,440,94,56],[22,402,6,3],[22,390,6,5],[22,385,5,4],[70,377,8,3],[22,377,91,54],[29,359,7,9],[96,338,7,4],[34,319,85,49],[24,302,7,6],[4,301,3,3],[22,267,8,3],[20,264,70,46],[88,256,6,3],[30,215,4,3],[26,210,98,47],[17,149,103,52],[17,149,4,3],[70,145,7,3],[42,145,8,3],[24,75,88,61],[23,59,65,8],[47,38,10,3],[79,37,3,3],[30,28,42,6],[24,17,54,10],[50,13,18,3],[19,13,16,3],[53,8,34,4],[21,8,29,4]],
	"pngs":[
		["pngs/txt/ARC-MUND-PUB-IIB-25-7-1909.00000.png","pngs/opencv/ARC-MUND-PUB-IIB-25-7-1909.00000.png"]
	]
}