{
	"name": "ARC-MUND-PUB-MONITEUR-PHOTOGRAPHIE-01071904",
	"blobs":[[10,794,4,4],[11,775,91,25],[83,774,3,3],[70,772,9,4],[19,771,17,5],[27,765,29,7],[62,764,17,5],[19,764,6,3],[64,758,12,3],[30,753,29,8],[13,704,97,47],[31,699,32,3],[21,694,5,3],[60,693,5,3],[74,691,4,4],[65,687,4,3],[2,686,4,3],[14,623,87,29],[14,557,4,3],[19,513,89,108],[22,512,3,3],[11,423,99,87],[2,398,6,3],[39,394,4,3],[17,382,25,34],[75,362,3,3],[71,359,3,3],[18,352,85,70],[37,348,37,3],[55,341,8,4],[12,303,9,6],[1,295,4,5],[15,292,69,37],[50,289,6,3],[17,289,6,3],[42,288,5,3],[12,288,3,3],[67,273,3,3],[25,272,30,3],[48,265,4,3],[27,257,5,3],[21,248,41,14],[81,243,4,3],[22,235,34,12],[20,217,77,18],[27,209,47,7],[30,209,9,3],[36,205,30,3],[2,182,6,3],[77,130,6,3],[70,129,3,3],[12,124,133,78],[86,123,3,3],[14,108,41,15],[12,64,99,57],[10,53,51,8],[11,32,58,5],[25,26,38,5],[77,13,4,4],[24,11,13,4],[1,9,3,4],[55,7,19,3],[42,7,9,3],[11,7,30,3],[1,1570,4,3],[12,1559,84,41],[1,1546,4,3],[1,1528,4,3],[18,1500,87,54],[13,1474,84,22],[42,1470,8,3],[34,1470,7,3],[13,1445,74,24],[1,1399,5,3],[18,1383,77,58],[13,1329,84,49],[1,1325,3,4],[20,1316,73,9],[32,1311,26,3],[1,1310,4,3],[1,1293,4,3],[1,1277,4,4],[19,1272,76,36],[1,1265,4,5],[12,1211,75,55],[19,1189,71,16],[43,1185,11,3],[19,1157,78,25],[13,1126,75,25],[13,1109,87,15],[23,1102,15,3],[37,1097,12,6],[31,1097,4,3],[66,1085,5,4],[16,1000,4,3],[17,999,105,88],[24,991,4,4],[70,914,4,3],[16,914,88,79],[10,853,6,3],[83,830,4,3],[21,829,89,81],[1,825,3,4],[62,822,6,4],[44,821,4,3],[33,820,6,3],[45,817,3,3],[24,817,6,5],[73,816,3,3],[14,814,7,4],[6,809,6,3],[15,800,62,16],[75,2398,6,2],[35,2398,9,2],[21,2398,5,2],[4,2385,3,3],[64,2364,4,3],[10,2364,79,34],[10,2358,4,3],[1,2336,5,4],[9,2326,4,3],[24,2309,88,51],[24,2283,79,25],[84,2246,3,3],[2,2207,97,74],[85,2204,4,4],[64,2203,4,3],[4,2203,52,10],[57,2194,4,4],[25,2128,73,72],[25,2127,4,3],[73,2122,6,3],[26,2122,5,3],[6,2114,80,10],[76,2090,7,3],[5,2087,73,27],[15,2070,7,3],[66,2063,7,3],[24,2063,49,18],[20,2021,75,39],[42,2016,15,3],[21,1997,69,17],[14,1989,67,3],[12,1941,78,46],[18,1848,80,88],[1,1803,4,3],[11,1792,89,51],[1,1742,4,3],[20,1724,76,62],[11,1675,77,44],[20,1660,86,10],[44,1655,10,3],[21,1630,78,23],[1,1624,5,3],[21,1618,83,10],[12,1600,84,13],[12,3068,101,44],[33,3063,7,3],[46,3049,49,24],[11,3049,34,18],[13,2969,98,69],[9,2946,4,3],[14,2921,5,3],[22,2894,91,69],[29,2889,53,4],[36,2885,34,3],[21,2879,3,3],[7,2863,6,3],[11,2858,74,15],[3,2858,4,3],[49,2854,4,3],[19,2854,3,3],[84,2853,6,3],[11,2852,5,3],[12,2817,86,35],[18,2808,51,8],[19,2758,85,48],[34,2721,37,3],[66,2714,5,5],[20,2712,6,4],[72,2710,5,4],[6,2690,3,4],[66,2653,9,6],[68,2643,4,3],[8,2643,107,69],[68,2635,12,6],[5,2634,3,3],[9,2618,6,3],[9,2612,6,3],[1,2607,11,4],[7,2602,4,3],[33,2565,4,3],[2,2551,6,3],[79,2536,3,3],[73,2522,7,3],[8,2499,79,67],[16,2461,85,35],[23,2436,94,26],[24,2433,4,3],[46,2427,3,3],[76,2425,3,3],[65,2421,3,4],[84,2419,5,4],[73,2417,4,3],[63,2415,3,3],[74,2412,4,3],[82,2408,4,3],[5,2408,50,15],[72,2406,5,4],[10,2402,17,3],[73,2400,4,4]],
	"pngs":[
		["pngs/txt/ARC-MUND-PUB-MONITEUR-PHOTOGRAPHIE-01071904.00000.png","pngs/opencv/ARC-MUND-PUB-MONITEUR-PHOTOGRAPHIE-01071904.00000.png"],
		["pngs/txt/ARC-MUND-PUB-MONITEUR-PHOTOGRAPHIE-01071904.00001.png","pngs/opencv/ARC-MUND-PUB-MONITEUR-PHOTOGRAPHIE-01071904.00001.png"],
		["pngs/txt/ARC-MUND-PUB-MONITEUR-PHOTOGRAPHIE-01071904.00002.png","pngs/opencv/ARC-MUND-PUB-MONITEUR-PHOTOGRAPHIE-01071904.00002.png"],
		["pngs/txt/ARC-MUND-PUB-MONITEUR-PHOTOGRAPHIE-01071904.00003.png","pngs/opencv/ARC-MUND-PUB-MONITEUR-PHOTOGRAPHIE-01071904.00003.png"]
	]
}