{
	"name": "ARC-MUND-PUB-BULLETIN-IIB-71-ANNUAIRE-BELGIQUE-1908",
	"blobs":[[111,747,81,53],[27,747,83,53],[110,678,84,49],[27,678,83,49],[38,635,52,18],[62,630,11,3],[42,630,18,3],[27,630,13,3],[110,619,84,38],[118,612,71,5],[110,598,94,10],[29,593,82,36],[25,515,172,59],[25,512,82,9],[133,511,11,3],[26,447,164,45],[110,380,80,47],[26,380,82,47],[109,314,82,46],[23,314,83,46],[113,285,93,9],[49,269,37,3],[113,259,82,24],[32,257,74,13],[129,252,14,3],[25,211,83,7],[23,200,71,10],[23,193,87,4],[144,183,10,3],[135,183,7,3],[122,183,11,3],[23,179,175,38],[109,149,61,5],[121,137,62,5],[96,133,3,3],[134,127,54,8],[30,123,95,4],[141,119,12,3],[106,113,25,9],[120,103,58,6],[98,78,11,3],[153,77,26,5],[132,53,13,3],[117,51,4,5],[96,44,18,12],[98,18,24,5],[155,17,39,7],[194,16,11,4],[117,1598,20,2],[27,1592,87,8],[27,1578,174,22],[29,1543,161,15],[28,1487,172,59],[28,1458,79,7],[28,1453,73,3],[28,1413,79,16],[28,1410,171,57],[28,1404,77,6],[28,1400,78,3],[109,1393,101,19],[123,1388,17,3],[114,1388,7,3],[28,1381,79,16],[27,1351,80,10],[27,1346,59,3],[27,1340,75,3],[27,1336,80,3],[27,1327,80,4],[27,1322,76,3],[27,1295,82,25],[110,1292,83,68],[163,1291,10,3],[27,1271,81,17],[110,1270,84,23],[27,1210,78,40],[34,1202,70,6],[110,1194,82,56],[111,1124,83,48],[27,1124,82,50],[112,1065,81,39],[122,1059,53,4],[26,1052,80,36],[113,985,86,47],[27,985,84,47],[27,948,82,17],[27,941,82,6],[27,934,77,3],[27,927,80,6],[112,923,83,42],[112,891,83,34],[27,891,80,31],[112,821,84,50],[27,821,83,50],[22,2363,183,37],[22,2282,183,61],[23,2199,175,62],[22,2113,179,65],[24,2080,73,6],[149,2075,44,3],[24,2075,70,3],[24,2069,172,24],[24,2068,47,6],[140,2060,42,3],[24,2004,180,66],[25,1926,174,57],[23,1864,79,8],[23,1841,5,3],[29,1840,43,7],[22,1833,181,73],[24,1754,175,58],[21,1677,178,57],[27,1637,172,19],[27,1606,174,36],[121,1601,14,3],[27,1600,83,17],[24,3178,174,22],[58,3112,38,3],[34,3112,17,3],[24,3092,178,66],[25,3092,78,19],[25,3014,176,58],[26,2950,176,45],[26,2940,75,8],[26,2929,171,23],[108,2868,88,40],[145,2861,5,3],[128,2861,13,3],[126,2852,55,3],[111,2852,10,3],[24,2852,72,25],[108,2793,92,38],[25,2786,80,23],[141,2783,27,6],[109,2783,27,7],[95,2776,4,3],[38,2776,56,3],[25,2776,4,3],[23,2697,177,58],[137,2696,17,3],[122,2696,14,3],[109,2696,4,3],[128,2629,25,3],[123,2621,60,3],[111,2621,5,3],[23,2620,175,56],[55,2566,42,3],[25,2566,28,3],[23,2560,177,40],[25,2560,15,3],[41,2557,58,6],[140,2556,5,3],[23,2533,173,25],[22,2457,175,56],[109,2433,8,3],[23,2433,85,4],[22,2400,177,36],[25,3980,176,20],[22,3955,77,4],[106,3950,83,9],[151,3946,40,3],[151,3924,6,3],[22,3876,181,77],[105,3873,82,6],[23,3865,76,4],[105,3861,85,14],[107,3861,11,3],[56,3861,33,3],[41,3861,14,3],[25,3861,11,3],[23,3835,79,5],[108,3774,9,3],[22,3774,177,67],[22,3699,176,54],[28,3634,20,3],[52,3632,44,9],[39,3625,24,4],[20,3622,179,56],[125,3617,55,3],[109,3617,9,3],[39,3617,58,3],[24,3617,8,3],[126,3555,27,4],[127,3548,55,3],[112,3548,5,3],[23,3546,177,50],[25,3502,64,4],[23,3476,182,52],[55,3469,47,3],[27,3469,25,3],[108,3453,88,30],[73,3447,5,3],[59,3447,13,3],[42,3447,16,3],[31,3447,10,3],[108,3443,90,12],[41,3441,59,3],[26,3441,8,3],[24,3363,181,58],[111,3363,11,3],[81,3363,4,3],[58,3363,16,3],[42,3363,14,3],[27,3363,11,3],[24,3333,81,9],[26,3327,27,3],[24,3292,177,49],[69,3285,29,5],[24,3284,44,7],[24,3271,85,12],[24,3267,76,3],[24,3251,175,55],[24,3251,85,8],[24,3200,179,31],[120,4789,55,3],[25,4789,90,11],[22,4712,176,56],[25,4615,178,76],[22,4570,175,25],[22,4565,32,3],[22,4529,177,43],[24,4456,189,53],[22,4421,70,6],[131,4369,13,3],[117,4369,13,3],[145,4367,9,5],[122,4359,55,3],[106,4359,10,3],[22,4358,177,77],[23,4358,12,3],[104,4290,47,3],[25,4290,29,3],[23,4274,175,64],[58,4248,25,3],[53,4248,3,3],[27,4248,24,3],[24,4186,72,5],[25,4182,91,3],[24,4174,182,79],[160,4170,4,3],[134,4170,17,3],[120,4170,13,3],[105,4170,11,3],[24,4170,78,8],[25,4129,70,6],[61,4122,24,3],[25,4122,23,3],[24,4077,181,72],[24,4000,179,56],[56,5598,40,2],[27,5598,20,2],[24,5537,170,63],[26,5537,12,3],[23,5449,175,67],[22,5360,171,68],[22,5277,175,62],[22,5195,183,62],[28,5154,24,3],[143,5133,6,3],[128,5133,11,3],[23,5122,173,53],[25,5078,56,12],[24,5047,178,55],[55,4981,35,4],[32,4981,15,3],[23,4965,176,61],[102,4871,11,3],[22,4871,177,73],[140,4802,5,3],[146,4800,11,2],[122,4800,17,5],[109,4800,10,2],[25,4800,173,50],[20,6361,176,39],[23,6315,27,3],[21,6307,76,5],[21,6278,174,62],[25,6215,18,3],[69,6206,6,3],[57,6206,9,3],[52,6206,4,3],[36,6206,13,3],[25,6199,180,58],[101,6184,90,17],[82,6184,5,3],[58,6184,16,3],[43,6184,14,3],[27,6184,11,3],[23,6112,180,52],[23,6037,174,54],[22,5954,176,62],[101,5887,8,3],[62,5887,9,3],[47,5887,13,3],[42,5887,4,3],[36,5887,5,3],[22,5874,177,59],[118,5874,13,3],[103,5874,11,3],[79,5874,5,3],[55,5874,16,3],[40,5874,14,3],[24,5874,11,3],[27,5817,22,3],[22,5792,175,62],[23,5707,178,64],[102,5633,12,3],[22,5633,178,53],[25,5600,174,12],[159,7198,5,2],[134,7198,18,2],[120,7198,13,2],[105,7198,10,2],[22,7159,173,17],[22,7117,173,45],[147,7056,5,3],[138,7056,8,3],[133,7056,4,3],[126,7056,6,3],[117,7056,7,3],[22,7047,173,47],[161,7045,5,3],[122,7045,30,3],[107,7045,8,3],[23,6992,165,30],[30,6985,18,3],[23,6960,172,34],[25,6888,165,50],[145,6881,9,3],[120,6881,21,3],[24,6870,95,32],[141,6794,44,3],[24,6794,173,53],[24,6794,31,3],[31,6782,20,3],[27,6776,162,21],[26,6776,13,3],[24,6742,83,3],[107,6738,20,3],[24,6735,81,6],[130,6672,31,5],[116,6672,13,3],[23,6671,178,82],[156,6597,5,3],[117,6597,31,3],[100,6597,14,3],[23,6597,177,54],[22,6522,175,55],[79,6522,5,3],[55,6522,16,3],[40,6522,14,3],[25,6522,12,3],[22,6495,80,7],[20,6446,173,56],[20,6400,173,26],[22,7964,172,36],[22,7895,77,22],[22,7876,169,66],[22,7876,75,16],[31,7799,12,3],[22,7792,173,62],[55,7792,24,6],[24,7792,30,6],[22,7694,172,75],[22,7694,83,6],[80,7616,5,3],[23,7616,175,55],[80,7538,5,3],[23,7538,173,56],[25,7455,175,61],[22,7368,179,64],[22,7291,175,55],[22,7215,174,54],[74,7214,4,3],[105,7211,20,5],[103,7201,88,11],[23,7201,73,12],[25,8786,156,14],[61,8780,6,3],[45,8780,12,3],[105,8771,86,17],[82,8771,5,3],[58,8771,16,3],[43,8771,14,3],[28,8771,11,3],[25,8691,177,57],[23,8614,176,56],[21,8547,176,45],[22,8540,74,13],[22,8525,176,20],[21,8449,177,54],[22,8430,177,22],[63,8365,5,3],[38,8365,24,3],[23,8357,181,52],[79,8355,5,3],[55,8355,16,3],[40,8355,14,3],[26,8355,7,3],[24,8284,174,48],[25,8242,79,3],[25,8202,174,59],[23,8122,174,58],[22,8046,174,54],[22,8000,167,23],[23,9569,172,19],[23,9523,168,50],[48,9523,10,3],[23,9523,5,3],[135,9469,11,3],[120,9469,14,3],[23,9447,183,54],[159,9444,5,3],[127,9444,10,3],[103,9444,4,3],[80,9444,5,3],[49,9444,10,3],[25,9444,5,3],[22,9361,179,61],[134,9325,13,3],[122,9325,10,3],[132,9288,15,3],[121,9288,10,3],[23,9285,176,54],[160,9280,5,3],[129,9280,10,3],[105,9280,4,3],[80,9280,5,3],[49,9280,10,3],[25,9280,5,3],[58,9215,15,3],[45,9215,12,3],[33,9215,10,3],[23,9199,177,59],[161,9198,5,3],[130,9198,10,3],[23,9113,175,63],[21,9015,177,75],[67,8940,15,3],[50,8940,13,3],[37,8940,11,3],[26,8940,10,3],[23,8932,190,60],[79,8929,7,3],[48,8929,10,3],[24,8929,5,3],[126,8861,19,3],[121,8861,3,3],[24,8852,178,55],[25,8800,176,29],[21,10356,175,44],[22,10276,180,57],[23,10196,173,58],[23,10136,177,39],[24,10112,177,26],[23,10029,179,61],[81,10027,5,3],[47,10027,15,3],[27,10027,3,3],[159,10026,5,3],[125,10026,15,3],[105,10026,3,3],[23,9941,176,64],[112,9866,47,3],[159,9853,7,3],[125,9853,15,3],[21,9853,175,65],[65,9782,19,3],[28,9782,36,3],[23,9782,4,3],[22,9773,182,57],[80,9773,5,3],[45,9773,15,3],[25,9773,3,3],[22,9688,187,62],[121,9618,15,3],[115,9618,3,3],[109,9618,4,3],[21,9610,177,56],[23,11123,171,55],[104,11093,82,7],[22,11042,177,59],[22,10945,185,75],[119,10854,24,3],[156,10849,5,3],[122,10849,15,3],[22,10849,182,73],[101,10798,92,28],[26,10773,3,3],[158,10772,5,3],[124,10772,27,3],[24,10772,176,25],[66,10740,19,3],[28,10734,25,3],[24,10683,172,66],[27,10634,25,4],[23,10607,171,54],[22,10527,173,57],[22,10460,177,45],[22,10440,168,22],[22,10400,174,17],[22,11920,179,60],[161,11828,5,3],[79,11828,5,3],[22,11828,179,69],[23,11752,176,54],[24,11672,174,58],[145,11608,8,3],[121,11595,46,3],[24,11595,172,54],[99,11535,99,37],[130,11528,23,3],[122,11528,5,3],[113,11526,8,3],[107,11526,3,3],[22,11516,88,15],[23,11444,167,49],[79,11444,5,3],[45,11444,15,3],[25,11444,3,3],[122,11363,25,3],[159,11358,5,3],[125,11358,15,3],[23,11357,177,64],[45,11317,22,3],[24,11281,175,54],[160,11200,5,3],[126,11200,15,3],[22,11200,175,59],[53,12776,42,6],[25,12776,25,6],[21,12751,174,49],[31,12687,47,3],[24,12676,181,52],[42,12676,49,3],[25,12676,7,3],[22,12601,181,53],[105,12553,96,26],[128,12547,13,3],[119,12538,32,6],[23,12527,94,19],[23,12451,178,54],[24,12375,179,55],[23,12334,172,15],[136,12297,9,3],[121,12297,13,3],[121,12284,46,3],[104,12284,5,3],[22,12284,175,52],[24,12230,31,4],[22,12185,178,76],[23,12091,175,71],[22,12003,172,65],[23,12003,81,8],[23,13569,175,31],[24,13489,173,57],[23,13408,177,60],[23,13332,176,53],[94,13306,4,3],[23,13247,179,54],[23,13173,174,51],[22,13086,175,64],[22,12998,175,66],[23,12915,182,61],[22,12836,174,56],[21,12800,179,14],[23,14361,174,35],[23,14352,77,16],[58,14343,20,3],[58,14337,8,3],[43,14337,14,3],[26,14337,15,3],[107,14328,88,30],[80,14328,5,3],[36,14328,39,3],[24,14328,5,3],[25,14273,70,4],[25,14266,68,3],[23,14257,74,5],[45,14251,15,3],[23,14247,175,58],[67,14243,5,3],[60,14243,5,3],[44,14243,11,3],[36,14243,5,3],[31,14243,3,3],[23,14243,5,3],[106,14234,89,15],[154,14208,4,3],[24,14156,179,54],[80,14156,5,3],[42,14156,24,3],[24,14156,9,3],[51,14078,29,4],[25,14078,25,4],[23,14077,178,58],[79,14072,5,3],[41,14072,24,3],[23,14072,9,3],[162,14071,5,3],[124,14071,24,3],[106,14071,9,4],[166,14067,3,3],[23,14021,165,28],[106,14013,81,10],[119,14007,41,4],[23,13999,87,22],[53,13937,42,3],[31,13937,15,3],[21,13908,177,69],[66,13863,16,3],[23,13862,41,4],[22,13853,83,5],[22,13819,180,67],[22,13742,183,55],[23,13678,181,42],[26,13670,75,6],[62,13666,14,3],[41,13666,10,3],[35,13666,5,3],[23,13666,9,3],[23,13656,180,24],[64,13601,8,3],[23,13601,40,3],[23,13600,180,34],[22,15152,183,48],[163,15146,5,3],[142,15146,8,3],[124,15146,16,3],[79,15146,5,3],[58,15146,8,3],[40,15146,16,3],[24,15146,3,3],[23,15109,75,14],[23,15068,165,45],[106,14995,81,51],[162,14990,5,3],[142,14990,8,3],[123,14990,16,3],[108,14990,3,3],[23,14990,82,56],[107,14934,81,34],[22,14918,82,49],[106,14914,86,19],[50,14889,3,3],[163,14881,4,3],[25,14829,172,54],[23,14793,73,14],[106,14790,77,17],[24,14776,89,4],[40,14769,29,5],[34,14769,3,3],[28,14769,4,3],[24,14762,168,30],[23,14731,81,5],[105,14679,14,3],[23,14679,174,55],[162,14673,5,3],[118,14673,39,3],[106,14673,5,3],[80,14673,5,3],[37,14673,39,3],[25,14673,5,3],[21,14625,175,25],[108,14616,24,6],[62,14612,19,3],[53,14612,8,3],[48,14612,4,3],[37,14612,9,3],[34,14608,17,3],[22,14608,9,3],[22,14586,174,45],[130,14520,11,3],[22,14517,175,46],[24,14472,37,3],[22,14467,175,24],[107,14458,45,11],[22,14424,175,41],[120,14419,58,5],[108,14419,5,3],[22,14418,84,29],[21,15969,166,31],[25,15895,166,51],[20,15809,171,63],[142,15783,33,4],[28,15783,26,3],[25,15710,174,76],[25,15710,83,28],[103,15680,77,5],[22,15616,169,71],[135,15547,14,3],[119,15547,10,3],[109,15547,7,3],[18,15540,164,53],[158,15512,4,3],[107,15454,87,26],[22,15454,89,60],[23,15381,181,51],[183,15350,5,3],[22,15301,178,58],[23,15227,182,52],[163,15223,7,3],[142,15223,8,3],[124,15223,16,3],[108,15223,3,3],[80,15223,5,3],[59,15223,8,3],[41,15223,16,3],[25,15223,3,3],[159,16733,20,3],[22,16733,45,3],[22,16729,168,65],[38,16729,8,3],[50,16727,41,9],[44,16725,5,3],[29,16699,5,3],[22,16679,171,53],[138,16652,33,5],[124,16652,13,3],[22,16556,172,101],[92,16523,3,3],[108,16478,82,10],[22,16471,21,6],[22,16455,77,4],[22,16443,81,11],[69,16431,8,3],[37,16429,25,5],[28,16429,7,3],[22,16418,173,116],[21,16365,85,31],[107,16362,82,21],[55,16361,16,3],[23,16361,13,3],[21,16354,79,6],[21,16347,85,5],[22,16339,83,7],[22,16328,75,9],[107,16317,85,47],[22,16316,67,11],[22,16236,176,57],[24,16148,170,65],[20,16055,164,71],[21,16024,77,9],[151,16018,5,3],[105,16000,83,33],[21,16000,84,21],[144,17164,3,3],[115,17149,111,14],[115,17135,84,5],[115,17121,111,13],[144,17116,3,3],[115,17108,85,4],[115,17093,111,14],[23,17092,88,62],[24,17060,77,9],[24,17048,78,11],[24,16968,170,102],[23,16916,175,29],[121,16914,10,3],[151,16910,19,3],[105,16910,21,6],[23,16910,8,4],[151,16906,12,3],[85,16906,17,3],[105,16904,45,9],[23,16899,102,19],[105,16821,28,3],[162,16817,5,3],[23,16817,169,86]],
	"pngs":[
		["pngs/txt/ARC-MUND-PUB-BULLETIN-IIB-71-ANNUAIRE-BELGIQUE-1908.00000.png","pngs/opencv/ARC-MUND-PUB-BULLETIN-IIB-71-ANNUAIRE-BELGIQUE-1908.00000.png"],
		["pngs/txt/ARC-MUND-PUB-BULLETIN-IIB-71-ANNUAIRE-BELGIQUE-1908.00001.png","pngs/opencv/ARC-MUND-PUB-BULLETIN-IIB-71-ANNUAIRE-BELGIQUE-1908.00001.png"],
		["pngs/txt/ARC-MUND-PUB-BULLETIN-IIB-71-ANNUAIRE-BELGIQUE-1908.00002.png","pngs/opencv/ARC-MUND-PUB-BULLETIN-IIB-71-ANNUAIRE-BELGIQUE-1908.00002.png"],
		["pngs/txt/ARC-MUND-PUB-BULLETIN-IIB-71-ANNUAIRE-BELGIQUE-1908.00003.png","pngs/opencv/ARC-MUND-PUB-BULLETIN-IIB-71-ANNUAIRE-BELGIQUE-1908.00003.png"],
		["pngs/txt/ARC-MUND-PUB-BULLETIN-IIB-71-ANNUAIRE-BELGIQUE-1908.00004.png","pngs/opencv/ARC-MUND-PUB-BULLETIN-IIB-71-ANNUAIRE-BELGIQUE-1908.00004.png"],
		["pngs/txt/ARC-MUND-PUB-BULLETIN-IIB-71-ANNUAIRE-BELGIQUE-1908.00005.png","pngs/opencv/ARC-MUND-PUB-BULLETIN-IIB-71-ANNUAIRE-BELGIQUE-1908.00005.png"],
		["pngs/txt/ARC-MUND-PUB-BULLETIN-IIB-71-ANNUAIRE-BELGIQUE-1908.00006.png","pngs/opencv/ARC-MUND-PUB-BULLETIN-IIB-71-ANNUAIRE-BELGIQUE-1908.00006.png"],
		["pngs/txt/ARC-MUND-PUB-BULLETIN-IIB-71-ANNUAIRE-BELGIQUE-1908.00007.png","pngs/opencv/ARC-MUND-PUB-BULLETIN-IIB-71-ANNUAIRE-BELGIQUE-1908.00007.png"],
		["pngs/txt/ARC-MUND-PUB-BULLETIN-IIB-71-ANNUAIRE-BELGIQUE-1908.00008.png","pngs/opencv/ARC-MUND-PUB-BULLETIN-IIB-71-ANNUAIRE-BELGIQUE-1908.00008.png"],
		["pngs/txt/ARC-MUND-PUB-BULLETIN-IIB-71-ANNUAIRE-BELGIQUE-1908.00009.png","pngs/opencv/ARC-MUND-PUB-BULLETIN-IIB-71-ANNUAIRE-BELGIQUE-1908.00009.png"],
		["pngs/txt/ARC-MUND-PUB-BULLETIN-IIB-71-ANNUAIRE-BELGIQUE-1908.00010.png","pngs/opencv/ARC-MUND-PUB-BULLETIN-IIB-71-ANNUAIRE-BELGIQUE-1908.00010.png"],
		["pngs/txt/ARC-MUND-PUB-BULLETIN-IIB-71-ANNUAIRE-BELGIQUE-1908.00011.png","pngs/opencv/ARC-MUND-PUB-BULLETIN-IIB-71-ANNUAIRE-BELGIQUE-1908.00011.png"],
		["pngs/txt/ARC-MUND-PUB-BULLETIN-IIB-71-ANNUAIRE-BELGIQUE-1908.00012.png","pngs/opencv/ARC-MUND-PUB-BULLETIN-IIB-71-ANNUAIRE-BELGIQUE-1908.00012.png"],
		["pngs/txt/ARC-MUND-PUB-BULLETIN-IIB-71-ANNUAIRE-BELGIQUE-1908.00013.png","pngs/opencv/ARC-MUND-PUB-BULLETIN-IIB-71-ANNUAIRE-BELGIQUE-1908.00013.png"],
		["pngs/txt/ARC-MUND-PUB-BULLETIN-IIB-71-ANNUAIRE-BELGIQUE-1908.00014.png","pngs/opencv/ARC-MUND-PUB-BULLETIN-IIB-71-ANNUAIRE-BELGIQUE-1908.00014.png"],
		["pngs/txt/ARC-MUND-PUB-BULLETIN-IIB-71-ANNUAIRE-BELGIQUE-1908.00015.png","pngs/opencv/ARC-MUND-PUB-BULLETIN-IIB-71-ANNUAIRE-BELGIQUE-1908.00015.png"],
		["pngs/txt/ARC-MUND-PUB-BULLETIN-IIB-71-ANNUAIRE-BELGIQUE-1908.00016.png","pngs/opencv/ARC-MUND-PUB-BULLETIN-IIB-71-ANNUAIRE-BELGIQUE-1908.00016.png"],
		["pngs/txt/ARC-MUND-PUB-BULLETIN-IIB-71-ANNUAIRE-BELGIQUE-1908.00017.png","pngs/opencv/ARC-MUND-PUB-BULLETIN-IIB-71-ANNUAIRE-BELGIQUE-1908.00017.png"],
		["pngs/txt/ARC-MUND-PUB-BULLETIN-IIB-71-ANNUAIRE-BELGIQUE-1908.00018.png","pngs/opencv/ARC-MUND-PUB-BULLETIN-IIB-71-ANNUAIRE-BELGIQUE-1908.00018.png"],
		["pngs/txt/ARC-MUND-PUB-BULLETIN-IIB-71-ANNUAIRE-BELGIQUE-1908.00019.png","pngs/opencv/ARC-MUND-PUB-BULLETIN-IIB-71-ANNUAIRE-BELGIQUE-1908.00019.png"],
		["pngs/txt/ARC-MUND-PUB-BULLETIN-IIB-71-ANNUAIRE-BELGIQUE-1908.00020.png","pngs/opencv/ARC-MUND-PUB-BULLETIN-IIB-71-ANNUAIRE-BELGIQUE-1908.00020.png"],
		["pngs/txt/ARC-MUND-PUB-BULLETIN-IIB-71-ANNUAIRE-BELGIQUE-1908.00021.png","pngs/opencv/ARC-MUND-PUB-BULLETIN-IIB-71-ANNUAIRE-BELGIQUE-1908.00021.png"]
	]
}