{
	"name": "ARC-MUND-PUB-BULLETIN-IIB-76-BCAISC-1906",
	"blobs":[[31,545,78,3],[119,455,66,3],[26,408,85,52],[25,368,111,21],[33,361,55,5],[110,348,87,30],[147,343,21,3],[121,341,25,5],[25,339,78,19],[25,290,82,27],[111,287,80,30],[163,285,12,4],[111,281,21,6],[25,280,79,6],[25,274,81,3],[111,251,79,31],[25,249,82,22],[25,182,83,48],[111,181,86,49],[32,156,73,3],[19,148,3,3],[29,146,11,5],[74,143,11,6],[52,140,20,8],[81,134,4,3],[46,134,3,3],[36,134,5,3],[75,128,16,4],[23,114,170,44],[142,102,53,8],[22,101,83,10],[72,74,9,4],[20,74,47,4],[43,56,47,7],[47,44,4,3],[53,41,22,6],[19,41,22,6],[47,37,12,3],[19,37,14,3],[28,21,90,9]],
	"pngs":[
		["pngs/txt/ARC-MUND-PUB-BULLETIN-IIB-76-BCAISC-1906.00000.png","pngs/opencv/ARC-MUND-PUB-BULLETIN-IIB-76-BCAISC-1906.00000.png"]
	]
}