{
	"name": "ARC-MUND-PUB-UAI-CONGRES-31-OI-DOC-LEGISLATIVE-1913",
	"blobs":[[21,571,113,48],[105,489,77,43],[19,489,179,59],[17,433,81,26],[17,411,78,21],[17,409,170,58],[19,361,78,14],[19,356,76,3],[19,328,80,25],[19,323,168,64],[105,314,78,11],[19,313,76,9],[19,230,164,62],[140,226,13,3],[118,226,7,3],[19,226,79,14],[126,223,13,6],[19,198,71,4],[106,192,49,9],[19,178,77,13],[38,167,50,3],[24,167,11,3],[19,155,75,10],[19,149,71,6],[106,144,97,50],[19,137,77,11],[106,117,81,25],[19,116,75,17],[15,57,86,34],[49,52,3,3],[53,50,8,9],[59,43,10,9],[15,23,72,22]],
	"pngs":[
		["pngs/txt/ARC-MUND-PUB-UAI-CONGRES-31-OI-DOC-LEGISLATIVE-1913.00000.png","pngs/opencv/ARC-MUND-PUB-UAI-CONGRES-31-OI-DOC-LEGISLATIVE-1913.00000.png"]
	]
}