{
	"name": "ARC-MUND-PUB-UAI-CONGRES-PROSTITUTION-1910",
	"blobs":[[112,235,83,13],[24,234,85,46],[109,162,85,50],[22,162,85,51],[112,95,83,48],[26,94,82,49],[57,56,13,3],[14,56,81,17],[18,56,21,3],[14,43,62,9],[18,28,56,10],[69,21,5,3],[60,21,7,3],[16,21,21,5]],
	"pngs":[
		["pngs/txt/ARC-MUND-PUB-UAI-CONGRES-PROSTITUTION-1910.00000.png","pngs/opencv/ARC-MUND-PUB-UAI-CONGRES-PROSTITUTION-1910.00000.png"]
	]
}