{
	"name": "ARC-MUND-PUB-UAI-CONGRES-23-STATUT-JURI-AI-1913",
	"blobs":[[104,540,77,20],[17,540,82,46],[103,465,78,53],[17,465,80,54],[104,435,78,9],[103,392,81,42],[18,392,81,52],[104,316,80,55],[18,316,80,54],[104,236,79,58],[17,236,80,59],[104,163,81,51],[17,163,79,52],[17,95,80,46],[105,93,91,49],[18,54,77,18],[18,41,62,12],[34,35,34,5],[24,35,8,3],[14,22,71,11]],
	"pngs":[
		["pngs/txt/ARC-MUND-PUB-UAI-CONGRES-23-STATUT-JURI-AI-1913.00000.png","pngs/opencv/ARC-MUND-PUB-UAI-CONGRES-23-STATUT-JURI-AI-1913.00000.png"]
	]
}