{
	"name": "ARC-MUND-PUB-IIB-3",
	"blobs":[[21,601,64,30],[4,590,4,3],[3,579,3,3],[19,534,103,54],[3,527,4,5],[91,522,7,7],[24,485,38,38],[96,482,4,5],[3,468,3,3],[22,427,46,52],[94,413,3,3],[28,372,40,48],[53,362,43,3],[0,360,48,5],[19,311,46,38],[3,309,3,3],[40,306,15,3],[28,306,8,3],[70,289,3,3],[94,265,3,3],[26,200,40,6],[34,188,11,3],[38,178,15,3],[22,178,8,3],[16,166,24,3],[53,153,15,3],[20,153,32,6],[26,54,40,7],[50,43,4,3],[35,43,12,3],[38,33,15,3],[22,33,8,3],[16,21,24,3],[20,7,33,7]],
	"pngs":[
		["pngs/txt/ARC-MUND-PUB-IIB-3.00000.png","pngs/opencv/ARC-MUND-PUB-IIB-3.00000.png"]
	]
}