{
	"name": "ARC-MUND-PUB-UAI-CONGRES-26-OI-SYST-METRIQUE-1913",
	"blobs":[[22,775,159,25],[25,751,33,3],[22,706,158,49],[20,670,161,15],[110,669,9,3],[128,668,9,3],[21,643,70,3],[20,613,156,57],[19,545,164,48],[25,518,54,5],[24,478,78,4],[23,475,161,49],[24,474,76,3],[24,468,73,4],[24,463,75,4],[103,459,72,17],[25,447,75,3],[24,442,157,19],[128,440,7,3],[27,439,69,5],[24,370,158,49],[102,305,81,46],[23,302,79,49],[104,273,75,10],[22,232,79,51],[102,230,80,42],[23,206,163,4],[23,163,158,42],[20,95,163,47],[17,54,78,19],[44,49,15,3],[21,36,71,12],[14,23,76,10],[18,1444,80,4],[18,1402,160,41],[19,1331,163,49],[22,1297,68,3],[21,1281,69,3],[22,1276,67,3],[21,1272,77,3],[21,1256,75,3],[21,1224,165,86],[101,1158,81,46],[22,1158,78,46],[22,1088,157,49],[20,1018,159,50],[22,970,68,3],[22,967,157,31],[22,963,72,3],[100,961,4,3],[114,958,11,11],[155,957,7,3],[22,953,72,3],[22,927,157,41],[20,844,166,64],[22,800,158,24]],
	"pngs":[
		["pngs/txt/ARC-MUND-PUB-UAI-CONGRES-26-OI-SYST-METRIQUE-1913.00000.png","pngs/opencv/ARC-MUND-PUB-UAI-CONGRES-26-OI-SYST-METRIQUE-1913.00000.png"],
		["pngs/txt/ARC-MUND-PUB-UAI-CONGRES-26-OI-SYST-METRIQUE-1913.00001.png","pngs/opencv/ARC-MUND-PUB-UAI-CONGRES-26-OI-SYST-METRIQUE-1913.00001.png"]
	]
}