{
	"name": "ARC-MUND-PUB-IIB-25-13-1905",
	"blobs":[[24,747,12,6],[37,743,70,13],[27,738,9,3],[18,699,5,12],[17,694,7,4],[17,665,97,80],[5,656,3,3],[20,584,82,74],[99,574,3,3],[65,532,3,3],[29,521,60,42],[19,481,5,3],[61,461,11,3],[43,461,11,3],[18,461,97,50],[18,461,5,3],[71,456,8,3],[35,456,22,3],[19,344,7,3],[72,341,7,3],[29,341,86,21],[28,288,67,43],[72,233,8,3],[20,233,92,45],[58,173,14,3],[28,173,95,50],[20,129,101,34],[20,129,7,3],[71,112,5,3],[25,112,72,16],[18,112,5,3],[69,108,13,3],[48,108,14,3],[32,108,14,3],[27,40,87,57],[25,19,49,11],[48,15,18,3],[19,15,16,3],[24,10,62,4]],
	"pngs":[
		["pngs/txt/ARC-MUND-PUB-IIB-25-13-1905.00000.png","pngs/opencv/ARC-MUND-PUB-IIB-25-13-1905.00000.png"]
	]
}