{
	"name": "ARC-MUND-PUB-IIB-25-27-1904",
	"blobs":[[37,774,42,26],[19,700,70,62],[35,632,59,55],[5,601,4,4],[22,552,65,68],[98,542,3,3],[13,516,4,3],[13,511,3,3],[34,510,77,31],[12,493,5,4],[37,485,50,24],[12,481,5,5],[99,472,3,3],[6,463,3,6],[99,461,3,3],[99,439,3,3],[99,433,3,3],[99,423,3,8],[22,416,74,52],[7,412,4,3],[104,402,3,3],[12,376,5,3],[35,371,9,3],[13,369,5,4],[12,360,6,8],[37,348,70,56],[12,348,4,4],[12,344,5,3],[1,335,5,3],[7,332,4,3],[99,318,3,8],[1,310,4,3],[99,306,3,11],[99,291,3,7],[99,285,3,5],[6,283,3,3],[20,279,9,3],[7,272,3,3],[20,271,70,57],[99,263,5,3],[38,243,7,18],[25,237,3,3],[34,204,89,57],[25,182,67,11],[7,175,3,3],[86,169,3,3],[25,156,52,24],[29,150,11,3],[20,150,6,3],[34,72,88,56],[27,54,61,8],[23,33,3,5],[26,17,54,21],[23,17,16,3],[24,10,64,4],[9,1558,4,3],[29,1555,5,6],[28,1545,5,8],[23,1535,74,57],[6,1534,6,3],[39,1518,5,3],[33,1468,76,57],[29,1451,5,3],[23,1401,76,54],[34,1333,76,56],[6,1318,3,3],[98,1306,3,3],[91,1285,4,3],[98,1283,3,8],[98,1267,3,14],[98,1262,3,4],[24,1262,57,57],[98,1257,3,3],[24,1248,3,3],[37,1217,43,22],[13,1204,4,8],[13,1194,7,7],[37,1185,51,31],[97,1171,3,3],[99,1147,3,5],[21,1131,57,34],[18,1099,86,34],[14,1050,4,3],[35,1049,64,49],[8,1034,4,4],[9,1025,4,4],[52,975,3,3],[18,975,91,52],[39,910,82,54],[18,843,59,55],[40,800,55,31],[33,2394,81,6],[19,2327,88,61],[15,2313,4,3],[15,2303,4,4],[15,2299,4,3],[14,2291,5,7],[8,2277,4,3],[8,2265,4,3],[18,2213,42,17],[106,2194,4,3],[16,2186,3,4],[58,2169,16,3],[37,2169,60,32],[15,2169,6,8],[41,2160,7,5],[38,2150,87,16],[20,2086,69,51],[104,2055,4,3],[38,2025,63,49],[5,1993,4,3],[5,1978,5,3],[17,1951,73,62],[105,1898,4,4],[104,1890,4,3],[37,1876,74,64],[95,1826,4,10],[17,1808,98,56],[33,1747,72,50],[22,1670,75,66],[32,1603,73,56],[27,2455,4,3],[37,2450,6,3],[25,2400,85,64]],
	"pngs":[
		["pngs/txt/ARC-MUND-PUB-IIB-25-27-1904.00000.png","pngs/opencv/ARC-MUND-PUB-IIB-25-27-1904.00000.png"],
		["pngs/txt/ARC-MUND-PUB-IIB-25-27-1904.00001.png","pngs/opencv/ARC-MUND-PUB-IIB-25-27-1904.00001.png"],
		["pngs/txt/ARC-MUND-PUB-IIB-25-27-1904.00002.png","pngs/opencv/ARC-MUND-PUB-IIB-25-27-1904.00002.png"],
		["pngs/txt/ARC-MUND-PUB-IIB-25-27-1904.00003.png","pngs/opencv/ARC-MUND-PUB-IIB-25-27-1904.00003.png"]
	]
}