{
	"name": "ARC-MUND-PUB-UAI-CONGRES-ADHERENTS-1910",
	"blobs":[[27,795,66,5],[115,784,73,15],[27,783,72,11],[113,702,81,59],[27,701,80,62],[111,670,69,10],[26,612,77,70],[111,611,79,58],[112,542,82,50],[28,542,77,50],[26,513,73,9],[112,459,78,63],[26,459,77,53],[116,385,81,53],[27,385,77,53],[113,314,80,51],[25,313,81,50],[27,241,79,53],[114,240,83,53],[113,218,17,3],[29,153,74,45],[113,149,75,36],[57,149,6,3],[53,149,3,3],[28,123,53,3],[114,84,73,45],[114,60,64,23],[114,43,70,16],[28,42,74,80],[22,20,17,3],[115,948,80,33],[27,948,84,45],[114,871,84,56],[26,870,79,58],[115,800,76,51],[28,800,82,50]],
	"pngs":[
		["pngs/txt/ARC-MUND-PUB-UAI-CONGRES-ADHERENTS-1910.00000.png","pngs/opencv/ARC-MUND-PUB-UAI-CONGRES-ADHERENTS-1910.00000.png"],
		["pngs/txt/ARC-MUND-PUB-UAI-CONGRES-ADHERENTS-1910.00001.png","pngs/opencv/ARC-MUND-PUB-UAI-CONGRES-ADHERENTS-1910.00001.png"]
	]
}