{
	"name": "ARC-MUND-PUB-BULLETIN-IIB-6-1901",
	"blobs":[[170,783,9,3],[60,759,36,3],[38,759,16,3],[85,753,10,3],[26,740,178,51],[26,740,69,18],[112,683,114,40],[137,679,31,3],[37,676,73,27],[144,675,9,3],[111,611,76,47],[34,611,73,47],[90,577,3,3],[107,564,80,32],[136,556,66,7],[36,555,26,3],[30,554,69,27],[179,527,4,3],[89,518,3,3],[179,516,4,3],[171,490,4,3],[119,477,26,3],[28,475,158,56],[28,471,80,17],[114,425,81,28],[136,421,25,3],[133,414,32,6],[115,407,60,6],[118,380,76,5],[139,362,20,3],[159,354,9,3],[155,354,3,3],[141,354,11,3],[123,354,15,3],[124,345,15,3],[143,343,4,3],[115,337,12,3],[141,334,15,6],[130,329,10,3],[68,297,6,3],[207,289,13,3],[235,274,24,3],[278,267,48,3],[272,267,5,3],[37,264,234,43],[309,259,25,3],[38,252,270,11],[32,216,83,12],[66,212,3,3],[55,212,7,3],[188,175,12,3],[165,171,18,3],[32,161,206,67],[127,161,10,3],[186,128,4,3],[122,122,63,20],[163,118,13,3],[118,113,16,6],[140,110,11,3],[168,109,4,3],[140,104,10,3],[22,70,76,5],[63,43,9,3],[59,43,3,3],[45,43,11,3],[27,43,15,3],[29,34,15,3],[48,31,4,3],[19,26,12,3],[45,23,15,6],[35,18,10,3],[25,1576,85,16],[25,1535,168,57],[143,1533,10,3],[57,1533,10,3],[27,1461,170,55],[59,1460,10,3],[143,1459,10,3],[85,1408,12,3],[162,1393,18,3],[26,1390,175,52],[110,1346,86,26],[27,1315,163,57],[109,1259,81,37],[87,1257,11,3],[29,1240,173,55],[60,1239,11,3],[126,1166,43,8],[24,1166,171,56],[113,1091,95,58],[25,1091,85,57],[86,1030,10,3],[171,1019,9,3],[113,1017,89,57],[27,1017,82,56],[110,948,84,52],[25,948,84,52],[27,877,87,54],[113,876,90,55],[170,826,16,3],[87,817,8,3],[28,808,173,51],[60,808,10,3],[82,2383,16,3],[25,2342,169,53],[55,2341,10,3],[142,2340,10,3],[110,2286,81,38],[110,2275,75,10],[156,2273,7,3],[109,2265,88,11],[25,2263,83,61],[141,2262,10,3],[160,2224,22,3],[8,2192,3,3],[25,2191,169,53],[7,2182,4,3],[82,2168,12,3],[168,2131,12,3],[110,2122,104,52],[25,2122,80,52],[25,2099,74,5],[49,2068,24,4],[24,2054,188,50],[24,2054,86,13],[170,1983,15,3],[24,1980,7,3],[24,1978,177,57],[111,1935,92,25],[166,1931,17,3],[80,1920,15,3],[111,1903,80,31],[24,1902,81,57],[26,1828,191,56],[166,1778,21,3],[111,1778,87,33],[23,1756,170,55],[21,1683,80,55],[112,1682,77,55],[115,1640,84,25],[114,1612,84,27],[25,1611,83,53],[145,1610,10,3],[58,1609,12,3],[96,3196,5,3],[182,3172,5,3],[28,3170,73,30],[28,3158,69,11],[161,3155,8,3],[114,3143,75,57],[28,3143,72,10],[114,3082,120,42],[153,3077,21,3],[125,3077,25,3],[167,3009,10,3],[25,3003,196,48],[109,3002,84,18],[24,2928,170,56],[24,2859,177,51],[111,2834,79,7],[25,2786,180,55],[110,2784,85,11],[57,2783,10,3],[24,2727,88,39],[110,2712,93,54],[24,2712,79,14],[142,2710,9,3],[56,2710,11,3],[25,2673,82,20],[112,2640,89,52],[24,2639,85,33],[143,2638,10,3],[111,2591,83,29],[82,2589,10,3],[170,2563,12,3],[111,2563,81,27],[23,2562,82,56],[143,2561,11,3],[55,2560,10,3],[85,2533,11,4],[111,2490,87,50],[151,2488,3,3],[143,2488,7,3],[24,2488,83,54],[25,2413,169,57],[33,3984,78,16],[116,3980,81,20],[147,3952,8,3],[118,3913,83,38],[33,3913,81,48],[118,3877,80,18],[34,3842,81,53],[117,3841,80,35],[33,3806,79,17],[33,3779,79,22],[119,3776,79,47],[119,3760,79,18],[33,3760,82,15],[31,3717,77,24],[121,3695,80,47],[32,3695,82,21],[33,3658,78,19],[120,3630,89,47],[33,3630,79,27],[32,3563,81,49],[32,3553,77,6],[119,3549,82,63],[153,3547,3,3],[145,3547,7,3],[34,3546,70,5],[119,3501,84,27],[119,3494,74,6],[119,3480,84,12],[132,3480,9,3],[29,3475,81,53],[103,3432,5,3],[187,3428,6,3],[28,3417,79,40],[176,3393,5,3],[28,3392,75,24],[114,3391,82,65],[103,3360,6,3],[98,3318,3,3],[114,3313,84,60],[27,3312,81,60],[187,3279,5,3],[102,3272,6,3],[100,3242,5,3],[115,3239,80,56],[29,3239,77,56],[98,3206,6,3],[114,3200,72,20],[28,3200,72,21],[142,4798,11,2],[60,4798,13,2],[36,4770,5,8],[36,4764,7,3],[36,4757,5,3],[36,4732,9,16],[47,4721,50,6],[36,4721,8,6],[36,4712,9,5],[119,4711,7,5],[47,4710,70,8],[36,4709,185,71],[37,4677,7,14],[36,4664,7,12],[36,4659,5,4],[36,4651,4,6],[43,4638,8,3],[36,4632,178,59],[54,4632,38,9],[177,4576,14,3],[33,4569,143,45],[141,4568,11,3],[121,4546,5,3],[44,4540,61,8],[74,4536,10,3],[52,4536,19,3],[120,4529,7,14],[119,4497,102,53],[35,4496,80,43],[39,4419,169,60],[34,4387,8,14],[33,4350,3,3],[33,4348,189,54],[31,4281,179,50],[36,4259,5,3],[121,4227,4,7],[37,4222,24,5],[121,4208,5,4],[57,4207,16,5],[34,4206,188,58],[120,4167,74,5],[158,4151,31,4],[35,4151,77,38],[122,4148,34,6],[148,4144,39,6],[121,4133,79,15],[35,4132,77,15],[118,4065,79,49],[34,4065,80,49],[33,4021,161,26],[33,4000,164,23],[38,5574,69,9],[115,5569,81,31],[116,5553,81,18],[37,5546,74,22],[35,5502,72,29],[111,5478,75,53],[34,5478,72,19],[174,5460,3,3],[111,5429,75,25],[135,5424,35,3],[119,5424,10,3],[5,5416,3,3],[135,5415,64,7],[30,5345,81,47],[114,5344,77,47],[77,5293,19,13],[70,5293,7,13],[63,5293,5,13],[31,5275,69,16],[31,5257,166,70],[114,5191,81,48],[30,5191,78,48],[30,5141,82,16],[31,5137,52,3],[117,5121,85,53],[31,5116,79,19],[33,5053,83,46],[117,5052,82,47],[92,5003,3,3],[73,5003,6,3],[63,5003,3,3],[115,4996,82,37],[84,4993,4,3],[116,4989,75,6],[75,4988,3,3],[123,4978,5,3],[116,4969,69,12],[62,4968,3,3],[31,4968,91,37],[119,4940,11,3],[76,4936,6,3],[36,4933,22,3],[143,4932,9,12],[79,4929,4,3],[204,4927,16,3],[198,4927,5,3],[175,4927,22,3],[140,4920,45,19],[145,4916,6,4],[35,4910,8,3],[164,4904,61,3],[160,4904,3,3],[156,4904,3,3],[152,4904,3,3],[148,4904,3,3],[144,4904,3,3],[140,4904,3,3],[136,4904,3,3],[148,4899,5,3],[132,4899,15,3],[114,4899,25,40],[35,4899,14,3],[154,4898,35,4],[76,4898,5,3],[114,4894,11,3],[165,4890,19,3],[44,4888,12,5],[114,4887,9,3],[87,4887,7,3],[35,4887,70,58],[167,4874,8,5],[139,4865,20,5],[35,4864,122,25],[35,4824,8,21],[35,4800,185,46],[119,6377,79,9],[32,6377,81,23],[57,6373,10,3],[34,6345,80,11],[56,6342,32,3],[50,6341,4,3],[56,6338,15,3],[33,6309,80,29],[120,6307,79,48],[34,6255,81,35],[117,6242,80,48],[33,6242,78,11],[117,6191,80,33],[160,6178,12,3],[73,6176,31,5],[33,6176,72,33],[135,6175,24,6],[119,6175,14,3],[33,6168,78,7],[163,6146,22,4],[151,6145,7,4],[79,6141,19,6],[31,6139,47,5],[117,6138,59,7],[79,6134,7,6],[70,6133,7,3],[168,6131,5,5],[31,6131,38,5],[80,6128,8,4],[71,6127,5,3],[168,6126,5,4],[151,6126,6,4],[116,6126,45,10],[116,6121,29,3],[31,6118,52,12],[168,6117,5,3],[151,6117,6,3],[72,6117,5,3],[80,6113,6,4],[72,6111,5,4],[63,6111,5,9],[116,6109,71,6],[78,6109,20,3],[117,6101,30,3],[116,6097,32,3],[35,6093,36,22],[163,6084,21,3],[31,6083,46,12],[80,6080,7,5],[72,6079,3,3],[115,6069,71,18],[71,6069,27,9],[74,6055,31,7],[31,6052,5,6],[34,6048,43,34],[115,6047,75,11],[172,6027,3,3],[165,6017,5,3],[156,6016,5,3],[171,6014,7,3],[163,6010,7,3],[154,6009,7,3],[158,6004,11,4],[161,5998,24,3],[117,5997,40,22],[127,5993,17,3],[117,5992,9,4],[155,5989,14,4],[153,5983,8,4],[32,5971,81,45],[129,5970,56,22],[36,5903,69,5],[33,5898,172,54],[31,5835,79,44],[116,5834,77,25],[118,5773,109,43],[121,5773,5,3],[31,5767,80,47],[32,5734,79,15],[32,5721,79,11],[32,5717,21,3],[32,5692,82,23],[118,5688,81,61],[143,5686,11,3],[32,5685,76,5],[116,5620,81,47],[31,5620,81,47],[115,5600,70,3],[117,7153,84,36],[122,7146,49,6],[34,7141,79,20],[119,7072,80,52],[35,7072,80,52],[77,7008,11,3],[35,7008,80,31],[38,7008,14,3],[35,7002,163,53],[77,6982,3,3],[123,6938,4,3],[39,6937,5,4],[34,6928,10,8],[47,6927,58,14],[173,6926,8,3],[36,6926,183,59],[120,6905,5,3],[39,6899,7,8],[39,6893,5,5],[120,6889,5,3],[121,6883,6,4],[39,6883,7,9],[121,6871,6,5],[121,6859,6,5],[203,6856,4,3],[39,6856,66,24],[119,6842,8,9],[46,6839,169,70],[39,6838,68,15],[34,6838,8,6],[36,6778,9,37],[36,6771,8,6],[172,6759,8,3],[35,6759,173,61],[61,6758,8,3],[118,6717,8,23],[38,6713,69,11],[38,6705,51,5],[52,6701,28,3],[40,6697,6,3],[50,6696,56,4],[40,6691,6,3],[50,6689,41,5],[50,6682,57,6],[40,6682,6,6],[117,6675,4,3],[172,6672,7,3],[118,6672,104,69],[34,6672,74,9],[39,6619,9,5],[35,6600,173,54],[39,6553,8,8],[34,6523,184,59],[163,6502,3,3],[34,6487,10,5],[118,6467,8,3],[123,6461,6,3],[123,6455,6,3],[123,6445,6,3],[33,6442,37,6],[119,6441,10,3],[33,6438,177,59],[55,6438,12,3],[33,6438,7,3],[33,6400,80,21],[116,7979,81,21],[36,7978,65,22],[70,7955,9,5],[115,7902,72,58],[35,7902,74,58],[45,7898,3,3],[114,7832,63,53],[33,7832,69,53],[143,7766,11,3],[32,7766,86,48],[115,7693,72,55],[34,7693,69,52],[114,7621,7,7],[33,7619,154,57],[117,7566,115,35],[159,7561,6,3],[137,7561,7,3],[147,7560,11,4],[161,7557,10,3],[131,7557,18,3],[119,7557,8,3],[37,7552,77,17],[118,7515,83,20],[37,7481,193,54],[37,7431,80,32],[118,7410,122,54],[37,7410,78,19],[118,7367,80,25],[145,7360,20,3],[138,7360,6,3],[128,7360,8,3],[162,7353,13,3],[122,7353,28,3],[36,7344,81,11],[34,7274,82,51],[116,7273,84,51],[117,7207,82,48],[35,7206,82,48],[37,8765,74,4],[37,8762,162,38],[36,8757,78,3],[36,8749,77,7],[117,8748,79,16],[37,8671,164,60],[36,8603,80,50],[117,8602,81,50],[34,8581,3,3],[89,8577,12,4],[37,8577,13,3],[37,8570,79,4],[129,8569,3,3],[129,8560,3,3],[37,8560,19,3],[37,8555,73,3],[137,8554,15,4],[137,8550,5,3],[128,8550,4,3],[128,8544,4,5],[137,8542,12,7],[134,8541,69,42],[166,8536,6,4],[140,8529,5,7],[147,8520,3,7],[129,8512,16,9],[142,8505,11,3],[37,8504,81,49],[118,8454,81,32],[145,8447,11,3],[139,8447,4,3],[127,8447,7,3],[34,8376,78,40],[34,8362,69,12],[56,8362,5,3],[116,8358,87,26],[61,8358,11,3],[32,8292,67,48],[113,8275,63,58],[32,8275,58,16],[115,8204,75,53],[32,8204,82,53],[34,8182,7,3],[34,8132,72,54],[114,8128,79,58],[62,8128,11,3],[115,8099,31,12],[71,8099,35,12],[37,8099,27,12],[71,8095,35,3],[148,8084,47,27],[115,8052,73,46],[36,8052,75,46],[172,8010,8,3],[70,8000,123,34],[36,8000,32,33],[146,9586,10,3],[35,9584,152,16],[35,9578,108,12],[117,9551,64,8],[35,9547,163,38],[142,9546,11,3],[27,9470,180,59],[120,9469,70,10],[61,9468,11,3],[118,9446,100,4],[27,9387,185,62],[138,9321,24,6],[37,9318,189,52],[36,9258,173,42],[162,9255,17,5],[36,9234,168,23],[36,9153,172,62],[37,9095,168,40],[36,9067,166,30],[143,9065,13,3],[36,9064,78,8],[34,8978,176,68],[79,8913,8,3],[63,8913,9,3],[58,8913,4,3],[41,8913,10,3],[36,8908,173,53],[117,8841,81,22],[35,8841,81,49],[38,8800,155,24],[37,8800,79,9],[118,10321,76,21],[118,10257,83,45],[119,10194,85,44],[8,10139,3,3],[119,10131,80,44],[120,10100,75,12],[122,10094,70,5],[169,10090,17,3],[120,10082,68,11],[120,10070,71,11],[122,10066,68,3],[173,10062,9,3],[120,10062,20,3],[123,10050,75,5],[143,10038,11,3],[155,10034,15,3],[131,10034,22,3],[34,10027,88,75],[36,9936,80,9],[36,9932,80,3],[118,9923,110,83],[136,9917,35,5],[127,9917,7,3],[36,9913,82,17],[32,9885,77,9],[32,9871,71,17],[119,9852,86,43],[142,9846,13,3],[118,9835,72,7],[33,9834,76,43],[75,9832,22,5],[118,9830,76,4],[33,9821,71,12],[118,9814,77,15],[33,9813,69,8],[33,9781,81,15],[117,9778,78,18],[33,9773,61,7],[117,9765,78,12],[33,9762,73,10],[33,9753,64,7],[117,9744,80,20],[34,9740,77,11],[117,9733,68,10],[34,9731,75,13],[116,9718,73,15],[34,9718,81,12],[130,9696,62,3],[118,9696,11,4],[118,9679,79,16],[34,9664,80,36],[35,9659,36,4],[72,9658,30,4],[117,9655,82,23],[51,9653,31,3],[35,9653,15,4],[83,9649,16,7],[67,9649,16,3],[51,9649,15,3],[35,9641,62,11],[70,9635,34,3],[117,9633,79,23],[92,9630,3,3],[72,9630,17,3],[93,9625,3,3],[82,9625,10,3],[67,9625,12,3],[35,9625,34,16],[116,9624,76,12],[120,9600,103,6]],
	"pngs":[
		["pngs/txt/ARC-MUND-PUB-BULLETIN-IIB-6-1901.00000.png","pngs/opencv/ARC-MUND-PUB-BULLETIN-IIB-6-1901.00000.png"],
		["pngs/txt/ARC-MUND-PUB-BULLETIN-IIB-6-1901.00001.png","pngs/opencv/ARC-MUND-PUB-BULLETIN-IIB-6-1901.00001.png"],
		["pngs/txt/ARC-MUND-PUB-BULLETIN-IIB-6-1901.00002.png","pngs/opencv/ARC-MUND-PUB-BULLETIN-IIB-6-1901.00002.png"],
		["pngs/txt/ARC-MUND-PUB-BULLETIN-IIB-6-1901.00003.png","pngs/opencv/ARC-MUND-PUB-BULLETIN-IIB-6-1901.00003.png"],
		["pngs/txt/ARC-MUND-PUB-BULLETIN-IIB-6-1901.00004.png","pngs/opencv/ARC-MUND-PUB-BULLETIN-IIB-6-1901.00004.png"],
		["pngs/txt/ARC-MUND-PUB-BULLETIN-IIB-6-1901.00005.png","pngs/opencv/ARC-MUND-PUB-BULLETIN-IIB-6-1901.00005.png"],
		["pngs/txt/ARC-MUND-PUB-BULLETIN-IIB-6-1901.00006.png","pngs/opencv/ARC-MUND-PUB-BULLETIN-IIB-6-1901.00006.png"],
		["pngs/txt/ARC-MUND-PUB-BULLETIN-IIB-6-1901.00007.png","pngs/opencv/ARC-MUND-PUB-BULLETIN-IIB-6-1901.00007.png"],
		["pngs/txt/ARC-MUND-PUB-BULLETIN-IIB-6-1901.00008.png","pngs/opencv/ARC-MUND-PUB-BULLETIN-IIB-6-1901.00008.png"],
		["pngs/txt/ARC-MUND-PUB-BULLETIN-IIB-6-1901.00009.png","pngs/opencv/ARC-MUND-PUB-BULLETIN-IIB-6-1901.00009.png"],
		["pngs/txt/ARC-MUND-PUB-BULLETIN-IIB-6-1901.00010.png","pngs/opencv/ARC-MUND-PUB-BULLETIN-IIB-6-1901.00010.png"],
		["pngs/txt/ARC-MUND-PUB-BULLETIN-IIB-6-1901.00011.png","pngs/opencv/ARC-MUND-PUB-BULLETIN-IIB-6-1901.00011.png"],
		["pngs/txt/ARC-MUND-PUB-BULLETIN-IIB-6-1901.00012.png","pngs/opencv/ARC-MUND-PUB-BULLETIN-IIB-6-1901.00012.png"]
	]
}