{
	"name": "ARC-MUND-PUB-IIB-25-31",
	"blobs":[[35,794,7,3],[43,775,75,25],[20,713,84,51],[33,691,7,3],[33,653,94,48],[21,585,77,56],[23,570,7,3],[106,550,4,3],[32,501,86,71],[4,466,4,5],[20,444,15,5],[19,426,85,64],[27,408,4,4],[36,407,11,3],[36,378,11,4],[36,373,9,3],[36,358,8,3],[35,354,78,60],[21,336,10,3],[21,322,12,10],[22,307,10,7],[19,267,79,75],[35,248,7,5],[31,244,8,3],[31,232,83,23],[32,217,74,14],[41,204,75,12],[63,151,14,3],[19,149,4,3],[25,148,78,45],[28,135,5,4],[42,75,84,57],[25,57,61,7],[21,35,84,8],[21,35,3,3],[62,17,12,3],[21,17,55,17],[22,11,66,4],[21,1596,8,3],[21,1569,4,3],[29,1558,79,42],[107,1544,4,3],[70,1534,7,3],[33,1529,15,3],[36,1498,9,5],[33,1486,80,36],[23,1427,80,47],[20,1427,13,6],[42,1412,6,3],[103,1411,4,3],[106,1405,4,3],[36,1392,7,3],[36,1341,77,55],[22,1322,10,4],[19,1311,9,6],[5,1303,3,3],[22,1299,7,5],[5,1293,3,3],[5,1285,3,3],[22,1284,7,3],[22,1278,7,4],[18,1265,8,3],[22,1264,77,65],[106,1233,3,3],[36,1221,7,5],[33,1209,10,10],[35,1203,81,49],[34,1203,8,3],[20,1188,7,3],[4,1183,4,4],[20,1182,7,5],[20,1177,7,3],[5,1176,3,6],[21,1131,9,5],[17,1123,95,69],[18,1123,10,3],[103,1108,6,4],[36,1037,7,10],[33,1030,80,80],[21,1012,7,7],[18,961,87,58],[14,926,4,4],[37,896,81,53],[21,840,78,45],[37,807,8,21],[38,800,72,28],[32,2356,82,44],[21,2340,6,3],[21,2310,7,6],[21,2304,8,5],[21,2300,7,3],[21,2296,7,3],[29,2292,72,52],[19,2292,10,3],[82,2284,4,3],[44,2283,8,3],[37,2276,6,3],[37,2271,7,3],[36,2250,7,13],[36,2239,9,8],[36,2234,9,4],[36,2230,6,3],[45,2227,88,55],[22,2156,95,59],[34,2077,79,67],[76,1999,4,3],[20,1999,80,66],[13,1998,3,3],[44,1991,4,4],[33,1944,4,3],[35,1933,81,57],[8,1918,3,3],[6,1878,3,3],[20,1850,84,62],[108,1836,3,3],[32,1806,4,3],[37,1767,3,3],[41,1766,80,63],[20,1752,4,3],[21,1703,89,52],[44,1694,7,3],[104,1690,3,3],[58,1689,4,3],[36,1688,3,3],[17,1687,14,3],[33,1664,12,8],[37,1646,7,3],[33,1625,78,51],[20,1600,72,14],[13,3177,4,3],[13,3172,3,3],[32,3160,82,40],[57,3145,9,3],[20,3084,81,50],[44,3074,6,3],[35,3012,78,61],[22,2991,6,3],[23,2984,7,3],[23,2972,7,9],[22,2963,5,3],[5,2960,3,3],[2,2953,3,3],[19,2948,6,3],[3,2948,3,3],[27,2941,75,58],[19,2941,7,3],[44,2931,4,4],[103,2882,4,7],[35,2881,79,49],[100,2876,5,4],[42,2867,4,3],[34,2867,6,3],[12,2865,21,5],[19,2807,84,48],[44,2796,4,4],[34,2755,81,40],[91,2745,6,4],[21,2739,9,5],[5,2714,6,4],[19,2686,94,58],[35,2623,80,51],[22,2604,6,3],[30,2587,81,24],[33,2557,3,3],[37,2535,7,10],[33,2516,80,59],[5,2502,3,3],[23,2476,7,3],[4,2453,4,7],[20,2439,89,56],[44,2430,5,4],[103,2423,8,6],[36,2403,8,7],[34,2400,78,22],[36,2400,6,2],[5,3986,4,7],[31,3933,68,30],[20,3933,11,30],[103,3918,3,3],[96,3918,4,3],[37,3900,10,6],[34,3882,8,3],[34,3852,86,59],[21,3798,8,7],[18,3780,81,61],[103,3765,5,3],[72,3764,4,3],[37,3707,8,3],[37,3697,77,51],[20,3678,8,6],[20,3672,7,5],[17,3644,11,23],[25,3623,75,62],[17,3623,7,3],[43,3604,10,7],[40,3571,79,40],[5,3520,6,3],[19,3503,80,56],[37,3434,80,57],[22,3371,6,4],[18,3369,81,54],[35,3352,6,3],[35,3301,77,57],[0,3287,8,3],[24,3267,8,4],[24,3263,7,3],[22,3257,8,3],[21,3223,91,53],[44,3214,4,4],[39,3200,77,13],[27,4790,88,10],[18,4790,7,3],[35,4749,7,3],[35,4740,7,8],[35,4728,78,51],[33,4728,9,11],[20,4708,7,8],[20,4700,7,6],[21,4688,6,3],[21,4684,7,3],[21,4679,6,3],[21,4665,9,3],[21,4661,8,3],[21,4656,78,61],[19,4656,10,4],[33,4578,87,66],[18,4541,83,26],[4,4533,3,10],[24,4520,71,20],[19,4520,5,3],[34,4470,6,3],[31,4464,8,3],[34,4441,79,65],[32,4441,10,7],[95,4421,3,3],[1,4415,7,14],[22,4383,9,7],[19,4360,81,54],[35,4341,6,3],[32,4333,9,7],[35,4291,7,3],[31,4289,84,59],[23,4261,6,3],[20,4219,82,58],[72,4205,3,3],[34,4168,10,4],[36,4164,6,3],[36,4141,76,52],[18,4072,85,58],[19,4072,8,3],[86,4022,3,3],[41,4021,4,3],[37,4005,82,55],[33,4005,7,3],[39,5579,75,21],[34,5579,5,3],[23,5562,5,5],[23,5557,5,3],[23,5532,77,35],[106,5517,3,4],[34,5458,88,50],[4,5443,4,3],[5,5439,3,3],[5,5428,3,3],[5,5424,3,3],[5,5420,3,3],[18,5381,80,65],[104,5362,5,7],[36,5298,78,65],[20,5274,8,12],[21,5249,7,4],[22,5233,6,3],[21,5227,77,59],[36,5204,8,9],[33,5158,77,56],[21,5077,82,68],[32,5012,87,53],[33,5012,10,13],[4,4997,3,3],[4,4980,3,3],[4,4975,3,3],[22,4970,5,6],[22,4966,5,3],[22,4947,6,6],[22,4943,6,3],[18,4935,81,63],[19,4935,8,5],[34,4919,5,3],[84,4909,9,6],[105,4903,4,7],[34,4856,78,67],[32,4856,10,7],[21,4803,6,3],[21,4800,75,45],[22,6394,10,5],[20,6371,79,29],[104,6356,5,3],[34,6290,78,55],[22,6260,7,17],[22,6254,6,3],[5,6254,3,3],[5,6248,3,5],[98,6247,3,4],[22,6227,89,51],[106,6182,3,6],[27,6176,4,4],[32,6158,80,58],[5,6144,3,3],[22,6121,7,19],[22,6091,78,49],[19,6091,7,3],[35,6065,7,13],[35,6058,7,6],[35,6019,80,59],[34,6019,10,4],[14,6013,3,3],[0,6005,3,3],[5,6002,3,3],[23,5968,9,9],[21,5939,97,60],[32,5919,9,6],[34,5857,75,70],[75,5812,7,3],[21,5780,70,66],[37,5706,76,62],[34,5706,7,3],[27,5641,90,54],[33,5600,87,29],[98,7179,3,3],[20,7157,76,34],[37,7098,5,5],[36,7082,80,63],[5,7066,3,4],[22,7044,5,7],[23,7034,5,5],[23,7023,7,8],[23,7017,6,5],[20,7013,83,47],[78,7005,5,3],[62,7004,7,4],[107,6999,3,3],[36,6959,6,3],[36,6944,10,14],[33,6924,80,68],[96,6917,5,4],[20,6860,93,54],[107,6843,3,3],[39,6827,4,3],[48,6773,66,26],[19,6699,81,62],[107,6684,3,3],[69,6684,6,3],[33,6618,79,53],[22,6600,9,5],[22,6594,5,3],[98,6593,4,3],[98,6573,4,4],[23,6557,7,5],[20,6551,79,56],[104,6536,4,3],[37,6507,9,18],[36,6480,8,23],[35,6468,79,57],[18,6431,8,5],[22,6420,6,3],[62,6400,26,2],[20,6400,77,56],[21,7993,7,7],[28,7983,70,17],[32,7914,83,58],[25,7898,6,3],[6,7873,4,3],[21,7865,7,3],[24,7850,79,52],[107,7835,3,3],[33,7825,59,4],[37,7801,7,7],[12,7797,4,3],[37,7791,7,9],[37,7786,7,4],[12,7777,3,16],[45,7773,66,35],[34,7773,10,12],[21,7708,84,53],[38,7652,6,10],[38,7648,77,48],[35,7648,7,3],[71,7639,7,3],[0,7629,26,8],[4,7623,4,5],[23,7577,7,14],[23,7573,76,53],[19,7573,8,3],[28,7564,12,3],[16,7564,5,3],[14,7559,8,3],[62,7558,3,3],[54,7558,3,3],[106,7508,3,3],[38,7499,74,51],[19,7438,81,49],[68,7423,4,3],[36,7415,10,3],[35,7356,77,62],[23,7322,6,3],[23,7306,8,4],[23,7299,8,6],[22,7283,76,62],[76,7274,7,4],[63,7274,7,4],[53,7274,4,3],[36,7274,4,3],[34,7266,10,3],[35,7260,8,5],[35,7251,7,8],[35,7244,5,3],[14,7225,3,3],[14,7216,3,3],[32,7204,82,68],[33,7204,5,3],[27,8338,4,3],[37,8332,6,3],[26,8311,5,7],[27,8284,18,23],[25,8280,87,67],[28,8280,3,3],[31,8265,85,18],[18,8199,85,59],[59,8184,3,3],[20,8158,7,3],[20,8145,7,3],[23,8136,84,32],[15,8089,3,3],[37,8071,82,54],[6,8056,3,5],[20,8000,75,48]],
	"pngs":[
		["pngs/txt/ARC-MUND-PUB-IIB-25-31.00000.png","pngs/opencv/ARC-MUND-PUB-IIB-25-31.00000.png"],
		["pngs/txt/ARC-MUND-PUB-IIB-25-31.00001.png","pngs/opencv/ARC-MUND-PUB-IIB-25-31.00001.png"],
		["pngs/txt/ARC-MUND-PUB-IIB-25-31.00002.png","pngs/opencv/ARC-MUND-PUB-IIB-25-31.00002.png"],
		["pngs/txt/ARC-MUND-PUB-IIB-25-31.00003.png","pngs/opencv/ARC-MUND-PUB-IIB-25-31.00003.png"],
		["pngs/txt/ARC-MUND-PUB-IIB-25-31.00004.png","pngs/opencv/ARC-MUND-PUB-IIB-25-31.00004.png"],
		["pngs/txt/ARC-MUND-PUB-IIB-25-31.00005.png","pngs/opencv/ARC-MUND-PUB-IIB-25-31.00005.png"],
		["pngs/txt/ARC-MUND-PUB-IIB-25-31.00006.png","pngs/opencv/ARC-MUND-PUB-IIB-25-31.00006.png"],
		["pngs/txt/ARC-MUND-PUB-IIB-25-31.00007.png","pngs/opencv/ARC-MUND-PUB-IIB-25-31.00007.png"],
		["pngs/txt/ARC-MUND-PUB-IIB-25-31.00008.png","pngs/opencv/ARC-MUND-PUB-IIB-25-31.00008.png"],
		["pngs/txt/ARC-MUND-PUB-IIB-25-31.00009.png","pngs/opencv/ARC-MUND-PUB-IIB-25-31.00009.png"],
		["pngs/txt/ARC-MUND-PUB-IIB-25-31.00010.png","pngs/opencv/ARC-MUND-PUB-IIB-25-31.00010.png"]
	]
}