{
	"name": "ARC-MUND-PUB-IIB-25-15",
	"blobs":[[5,794,3,3],[16,780,86,20],[99,767,4,3],[29,743,5,3],[7,743,3,3],[7,737,3,3],[7,726,3,6],[29,710,98,60],[19,646,85,54],[5,638,5,6],[28,586,94,51],[98,580,5,5],[20,527,87,51],[28,467,81,51],[20,405,90,52],[27,344,82,52],[5,321,4,12],[18,279,100,51],[61,212,23,3],[27,212,81,56],[25,197,10,4],[19,171,57,17],[19,158,104,11],[19,150,3,3],[26,147,35,9],[33,72,85,55],[17,55,61,7],[16,16,53,23],[14,16,16,3],[15,9,63,4],[28,1555,74,45],[6,1530,3,11],[6,1524,3,4],[14,1481,71,64],[98,1449,7,10],[26,1417,79,54],[5,1378,3,3],[5,1364,4,3],[73,1351,10,3],[15,1351,72,56],[99,1332,6,3],[99,1302,3,4],[24,1289,71,51],[7,1272,4,3],[8,1246,4,9],[2,1233,3,3],[2,1229,6,3],[16,1210,74,68],[25,1136,86,64],[5,1098,3,4],[97,1095,3,6],[74,1070,9,3],[16,1070,68,56],[98,1057,3,3],[16,1051,3,3],[99,1030,4,5],[6,1019,3,4],[24,1003,69,52],[75,931,9,3],[16,931,74,62],[25,890,88,31],[26,860,69,28],[74,846,21,4],[98,845,3,3],[98,831,4,8],[16,818,6,3],[98,812,3,3],[98,807,3,3],[16,800,87,41],[21,800,5,3],[96,2394,5,6],[25,2378,62,22],[18,2324,110,44],[23,2319,5,3],[30,2316,51,7],[95,2295,6,4],[95,2283,4,3],[32,2280,8,11],[26,2245,98,46],[14,2215,7,6],[13,2205,7,3],[73,2176,6,3],[13,2176,75,59],[24,2109,61,58],[4,2085,5,11],[4,2055,3,3],[17,2041,68,59],[98,1990,3,3],[23,1972,73,59],[6,1955,3,4],[18,1906,80,57],[6,1876,4,4],[29,1875,7,5],[29,1866,7,3],[29,1837,72,59],[15,1794,7,5],[15,1766,80,61],[23,1697,73,59],[98,1685,3,3],[98,1673,4,3],[43,1663,8,3],[98,1654,4,3],[98,1647,6,3],[19,1626,77,57],[100,1612,3,5],[28,1600,66,13],[97,3195,5,5],[25,3178,61,22],[2,3138,5,5],[18,3118,63,51],[26,3055,66,54],[17,3042,11,4],[2,3039,6,4],[79,3012,4,3],[2,3009,6,10],[3,2991,4,3],[16,2990,62,56],[25,2952,65,28],[98,2949,6,5],[26,2925,64,27],[95,2827,9,5],[94,2802,3,3],[27,2779,67,53],[94,2778,5,3],[3,2736,4,3],[11,2730,3,3],[3,2726,3,3],[16,2716,69,53],[97,2692,3,13],[97,2658,3,3],[27,2647,70,59],[3,2605,3,3],[2,2601,3,3],[16,2582,69,56],[96,2540,3,3],[5,2530,3,5],[26,2519,62,54],[1,2493,7,8],[3,2487,4,3],[18,2486,11,5],[2,2477,5,7],[3,2455,6,19],[18,2442,65,68],[4,2403,6,4],[96,2401,6,24],[25,2400,64,33],[27,3983,102,17],[33,3968,23,6],[3,3963,5,8],[19,3922,78,52],[4,3918,6,6],[98,3903,4,7],[3,3830,4,7],[16,3809,20,21],[35,3804,47,26],[97,3760,4,15],[25,3738,69,57],[2,3700,4,7],[13,3674,67,54],[96,3636,4,6],[25,3613,65,51],[2,3570,9,5],[16,3545,66,58],[25,3480,68,55],[17,3462,12,5],[0,3462,32,9],[68,3458,10,9],[17,3457,16,4],[17,3453,12,3],[38,3452,27,15],[17,3448,11,4],[5,3448,3,3],[3,3440,5,6],[6,3433,3,3],[3,3428,5,3],[3,3424,5,3],[16,3417,66,40],[6,3413,3,3],[16,3391,66,31],[94,3374,4,7],[100,3372,3,10],[93,3357,12,12],[97,3351,6,5],[94,3346,3,3],[100,3337,4,3],[97,3332,6,3],[100,3321,3,6],[25,3319,65,55],[4,3306,4,3],[3,3291,3,8],[1,3286,5,4],[2,3272,5,6],[17,3252,66,58],[97,3237,4,6],[96,3200,7,5],[24,3200,63,38],[27,4770,80,30],[4,4757,3,4],[4,4741,7,11],[5,4735,3,3],[5,4712,7,9],[19,4702,89,57],[26,4629,87,63],[19,4569,103,50],[28,4511,96,48],[17,4446,93,54],[7,4437,5,4],[27,4383,78,53],[19,4318,77,55],[6,4293,3,3],[28,4255,82,53],[3,4202,5,7],[18,4190,86,55],[6,4166,3,3],[28,4124,85,56],[5,4110,6,3],[1,4107,3,3],[5,4105,3,4],[18,4059,83,52],[98,4044,3,4],[98,4034,4,4],[27,4000,66,38],[27,5575,83,25],[18,5519,83,46],[20,5515,4,3],[29,5514,14,4],[2,5499,3,3],[38,5444,88,54],[28,5444,8,5],[20,5415,11,3],[20,5404,10,9],[20,5382,96,52],[30,5335,7,7],[28,5315,6,6],[39,5314,87,58],[20,5297,4,3],[74,5248,4,3],[19,5248,98,56],[79,5235,4,3],[98,5233,3,4],[32,5213,8,6],[32,5209,8,3],[32,5204,8,4],[32,5190,7,3],[29,5178,92,54],[23,5154,11,4],[71,5116,8,3],[18,5116,90,52],[17,5103,3,3],[68,5073,4,3],[11,5066,3,3],[36,5062,90,10],[28,5040,82,20],[85,5027,3,3],[17,4972,80,50],[29,4959,3,3],[74,4956,6,3],[27,4901,81,55],[5,4885,4,7],[16,4849,104,43],[17,4845,50,3],[62,4839,15,3],[42,4839,10,3],[99,4826,3,4],[27,4800,84,23],[72,6390,14,10],[33,6390,19,10],[24,6390,8,10],[27,6373,4,3],[24,6352,3,9],[24,6327,74,51],[1,6312,9,4],[4,6282,5,9],[17,6260,73,44],[23,6260,5,3],[29,6251,89,8],[4,6250,3,3],[91,6236,11,3],[76,6233,3,3],[29,6184,10,8],[42,6181,28,11],[21,6158,8,3],[21,6148,8,9],[20,6138,8,4],[20,6130,7,4],[20,6121,5,3],[61,6120,8,4],[28,6120,87,52],[28,6071,98,33],[5,6043,3,6],[19,6001,100,60],[16,5963,3,3],[39,5929,82,63],[27,5929,10,3],[20,5876,96,44],[28,5872,13,3],[21,5872,4,3],[28,5850,7,3],[5,5836,4,6],[36,5831,81,23],[27,5831,7,3],[21,5777,5,3],[29,5765,89,57],[5,5715,3,3],[5,5710,3,3],[29,5698,93,58],[27,5698,12,8],[4,5684,5,3],[25,5678,7,10],[25,5673,7,4],[25,5668,7,4],[32,5658,79,30],[21,5658,8,3],[19,5636,81,20],[28,5600,87,26],[80,6899,6,3],[20,6823,103,79],[16,6758,92,61],[24,6723,5,20],[82,6719,7,3],[29,6717,68,31],[4,6700,3,3],[17,6656,68,50],[98,6633,5,12],[24,6606,4,17],[29,6590,67,50],[30,6590,8,3],[18,6546,4,17],[27,6539,6,3],[27,6535,6,3],[5,6535,4,3],[27,6531,6,3],[68,6527,18,52],[25,6526,36,53],[68,6512,6,3],[30,6454,66,46],[4,6437,3,3],[18,6410,5,18],[23,6400,61,43]],
	"pngs":[
		["pngs/txt/ARC-MUND-PUB-IIB-25-15.00000.png","pngs/opencv/ARC-MUND-PUB-IIB-25-15.00000.png"],
		["pngs/txt/ARC-MUND-PUB-IIB-25-15.00001.png","pngs/opencv/ARC-MUND-PUB-IIB-25-15.00001.png"],
		["pngs/txt/ARC-MUND-PUB-IIB-25-15.00002.png","pngs/opencv/ARC-MUND-PUB-IIB-25-15.00002.png"],
		["pngs/txt/ARC-MUND-PUB-IIB-25-15.00003.png","pngs/opencv/ARC-MUND-PUB-IIB-25-15.00003.png"],
		["pngs/txt/ARC-MUND-PUB-IIB-25-15.00004.png","pngs/opencv/ARC-MUND-PUB-IIB-25-15.00004.png"],
		["pngs/txt/ARC-MUND-PUB-IIB-25-15.00005.png","pngs/opencv/ARC-MUND-PUB-IIB-25-15.00005.png"],
		["pngs/txt/ARC-MUND-PUB-IIB-25-15.00006.png","pngs/opencv/ARC-MUND-PUB-IIB-25-15.00006.png"],
		["pngs/txt/ARC-MUND-PUB-IIB-25-15.00007.png","pngs/opencv/ARC-MUND-PUB-IIB-25-15.00007.png"],
		["pngs/txt/ARC-MUND-PUB-IIB-25-15.00008.png","pngs/opencv/ARC-MUND-PUB-IIB-25-15.00008.png"]
	]
}