{
	"name": "ARC-MUND-PUB-IIB-25-33",
	"blobs":[[25,766,76,34],[19,694,82,61],[29,626,90,63],[27,626,7,3],[13,606,4,4],[17,565,85,52],[98,546,11,10],[25,521,4,3],[28,495,79,33],[20,475,8,4],[4,474,4,12],[4,464,3,5],[17,419,81,61],[35,411,3,3],[21,408,4,3],[30,394,8,9],[31,363,76,40],[27,363,5,3],[35,345,76,17],[23,281,79,55],[33,216,78,56],[20,166,78,41],[29,162,14,3],[23,158,21,3],[28,97,88,46],[59,60,6,4],[22,51,62,6],[22,35,52,8],[28,29,41,5],[21,14,54,14],[18,14,17,3],[19,9,63,7],[4,1593,4,6],[21,1592,7,8],[4,1585,3,3],[18,1552,80,48],[99,1540,4,3],[6,1506,3,4],[5,1498,7,6],[28,1474,78,65],[4,1439,7,6],[62,1410,16,3],[17,1410,84,54],[46,1395,5,4],[25,1337,3,3],[27,1333,76,51],[77,1274,6,3],[59,1269,3,3],[17,1268,84,55],[95,1264,5,7],[28,1221,6,3],[27,1197,79,62],[91,1192,3,3],[83,1185,27,3],[71,1185,11,4],[14,1185,20,3],[1,1183,9,4],[21,1148,7,5],[21,1137,7,10],[18,1122,80,49],[34,1110,6,3],[6,1089,4,5],[6,1084,3,3],[26,1045,78,63],[9,1028,4,4],[4,996,3,3],[96,986,8,10],[96,976,3,3],[96,971,3,3],[19,966,83,70],[0,961,3,3],[28,905,80,53],[94,899,3,3],[3,880,4,14],[20,836,64,24],[98,817,5,10],[99,812,3,3],[29,800,83,20],[82,2398,4,2],[4,2396,4,3],[23,2386,5,3],[3,2377,3,3],[3,2371,3,3],[23,2367,78,33],[71,2355,3,3],[28,2350,7,3],[5,2302,4,9],[11,2299,4,3],[25,2297,81,56],[1,2279,6,8],[22,2242,10,4],[22,2223,90,58],[83,2211,3,3],[52,2211,8,3],[48,2211,3,3],[25,2211,3,3],[97,2209,5,5],[29,2194,9,5],[29,2182,9,3],[6,2152,4,4],[6,2147,3,3],[27,2140,81,61],[6,2137,4,6],[4,2126,5,8],[4,2122,3,3],[52,2081,15,3],[19,2081,84,47],[98,2056,5,9],[29,2043,10,3],[29,2012,88,34],[26,2012,7,3],[4,1995,4,9],[4,1982,3,6],[21,1948,12,8],[19,1942,79,53],[29,1929,9,3],[25,1882,85,51],[22,1867,7,3],[22,1855,9,3],[22,1849,5,5],[22,1831,6,3],[23,1824,8,3],[22,1823,79,50],[25,1789,4,3],[27,1782,8,3],[27,1761,80,54],[97,1706,3,3],[18,1702,82,51],[18,1702,7,3],[91,1697,4,3],[32,1690,23,4],[8,1680,6,3],[30,1676,8,3],[25,1655,4,3],[30,1643,7,3],[30,1632,6,7],[27,1629,83,56],[4,1616,4,5],[18,1610,10,6],[3,1603,5,7],[21,1602,7,5],[29,1600,72,18],[24,3159,94,41],[4,3139,4,10],[23,3111,8,3],[23,3104,10,3],[23,3085,82,56],[1,3079,4,3],[31,3037,12,3],[31,3033,79,44],[72,3020,10,4],[5,3002,5,3],[4,2949,3,3],[16,2948,80,62],[75,2947,6,3],[10,2946,3,5],[7,2941,3,3],[25,2880,81,59],[24,2865,10,6],[4,2839,3,3],[23,2822,82,49],[31,2814,43,7],[21,2814,9,7],[61,2803,5,3],[43,2803,8,3],[17,2803,25,5],[31,2740,78,53],[72,2727,5,3],[23,2670,82,57],[55,2658,5,3],[45,2658,3,3],[35,2658,8,3],[14,2658,4,3],[25,2594,91,54],[85,2581,12,4],[69,2581,13,3],[12,2581,17,3],[17,2514,79,22],[13,2505,6,3],[31,2503,12,5],[21,2503,4,3],[95,2502,8,4],[6,2477,4,5],[25,2457,7,3],[8,2455,5,4],[25,2438,82,52],[23,2412,11,4],[23,2406,11,4],[23,2400,76,29],[22,3975,7,3],[18,3940,85,57],[30,3880,82,50],[19,3840,10,7],[17,3806,79,65],[9,3761,4,3],[28,3741,85,55],[101,3731,4,4],[93,3692,4,4],[17,3668,78,64],[76,3655,16,3],[71,3655,3,3],[63,3655,4,3],[56,3655,3,3],[29,3655,5,3],[23,3655,3,3],[31,3618,10,3],[31,3603,11,4],[28,3587,82,56],[20,3540,11,3],[20,3525,11,3],[18,3515,84,63],[95,3503,5,3],[44,3502,12,3],[29,3487,3,3],[31,3436,79,58],[36,3424,4,3],[18,3364,80,60],[16,3364,8,3],[38,3354,6,3],[30,3350,11,3],[17,3350,10,5],[27,3329,7,10],[28,3288,80,51],[2,3275,4,4],[25,3246,10,7],[25,3238,11,3],[25,3224,9,4],[25,3220,78,57],[27,3200,76,11],[32,4782,73,18],[28,4782,8,3],[15,4723,83,48],[17,4723,7,3],[30,4711,3,3],[28,4651,9,3],[28,4650,82,53],[23,4650,4,4],[19,4631,7,9],[3,4605,4,3],[19,4602,10,3],[72,4594,4,3],[17,4580,85,61],[8,4540,3,3],[8,4535,3,3],[28,4525,77,46],[35,4511,78,13],[23,4442,78,60],[5,4425,6,8],[5,4400,6,13],[5,4392,10,7],[5,4385,9,3],[26,4373,81,47],[62,4371,10,3],[31,4371,13,3],[24,4371,4,3],[24,4331,76,21],[27,4322,7,3],[24,4269,84,54],[93,4264,4,5],[20,4247,8,4],[24,4235,6,3],[20,4209,83,51],[21,4209,5,3],[9,4201,3,3],[27,4194,7,3],[28,4143,82,54],[21,4120,8,13],[22,4109,7,3],[5,4096,4,4],[22,4077,8,10],[21,4073,77,60],[30,4057,8,5],[30,4030,8,3],[30,4025,9,3],[27,4012,84,51],[40,5595,52,5],[28,5595,10,4],[4,5595,5,4],[19,5542,6,3],[17,5529,81,59],[26,5466,80,54],[12,5429,4,3],[22,5419,5,3],[19,5388,96,69],[3,5346,4,3],[25,5314,79,65],[21,5295,9,7],[21,5288,7,3],[21,5282,9,3],[21,5277,8,3],[22,5261,9,3],[22,5246,9,8],[22,5238,8,6],[21,5236,79,68],[25,5191,3,3],[6,5191,4,14],[30,5171,85,54],[22,5133,6,5],[22,5122,75,35],[18,5122,7,3],[7,5098,3,3],[4,5089,4,3],[27,5069,5,3],[27,5056,80,56],[17,5035,7,11],[17,4995,83,52],[32,4975,7,10],[29,4934,88,51],[19,4915,10,7],[19,4852,78,71],[18,4851,11,6],[32,4823,10,3],[24,4807,5,3],[31,4800,79,41],[15,6369,81,31],[27,6322,5,3],[24,6311,7,3],[22,6299,4,3],[23,6292,95,67],[25,6292,9,17],[3,6291,4,3],[21,6263,7,3],[24,6249,6,3],[20,6218,82,65],[32,6189,12,8],[25,6179,17,9],[33,6175,8,3],[33,6171,9,3],[33,6162,9,6],[32,6150,79,59],[30,6150,10,4],[18,6135,13,4],[18,6125,13,8],[18,6120,11,3],[18,6107,11,4],[15,6087,80,54],[5,6069,4,4],[23,6059,4,3],[25,6028,76,50],[24,6028,7,3],[23,6010,7,7],[23,5999,7,10],[20,5959,86,59],[22,5881,81,68],[70,5870,4,3],[19,5807,81,50],[19,5807,5,3],[32,5748,76,45],[13,5698,15,5],[15,5692,10,5],[12,5681,80,58],[29,5645,9,13],[4,5645,9,27],[4,5641,6,3],[5,5635,4,3],[5,5626,7,8],[5,5622,3,3],[3,5613,8,4],[5,5609,9,3],[40,5603,57,10],[5,5603,4,3],[48,5600,8,2],[30,5600,78,61],[71,7115,3,3],[17,7102,7,9],[15,7076,82,35],[3,7076,3,3],[3,7072,3,3],[29,7064,8,6],[29,7056,6,3],[26,7016,81,54],[26,7016,9,7],[75,6966,5,3],[19,6959,8,3],[49,6955,25,3],[19,6954,76,53],[19,6954,5,3],[83,6950,5,4],[70,6943,3,3],[63,6936,6,3],[31,6899,7,12],[31,6894,7,4],[31,6888,7,5],[28,6878,84,58],[3,6836,5,4],[18,6835,11,3],[19,6828,6,4],[18,6808,79,61],[16,6808,7,3],[25,6794,5,3],[4,6763,4,3],[98,6749,3,4],[22,6734,80,64],[22,6734,5,3],[78,6721,8,4],[23,6704,7,3],[23,6694,7,9],[11,6672,4,4],[23,6668,7,24],[23,6664,7,3],[23,6660,6,3],[31,6655,73,53],[20,6655,11,3],[30,6642,5,4],[6,6626,3,3],[31,6589,81,55],[28,6589,7,3],[35,6576,6,3],[42,6575,17,5],[16,6560,5,3],[16,6520,7,6],[13,6512,76,51],[96,6508,4,3],[18,6501,4,4],[31,6479,7,11],[31,6474,5,3],[32,6454,6,3],[30,6435,80,56],[15,6400,84,26],[18,7963,87,37],[5,7947,5,9],[34,7913,6,5],[70,7891,3,3],[32,7891,86,29],[19,7834,84,47],[16,7834,5,3],[97,7821,3,3],[8,7811,4,6],[30,7803,4,3],[29,7778,77,44],[27,7778,5,3],[71,7766,6,3],[19,7741,75,20],[23,7716,70,24],[24,7692,5,3],[25,7658,79,48],[23,7628,5,3],[27,7627,84,22],[21,7599,78,27],[24,7541,81,52],[47,7528,17,3],[26,7483,76,36],[23,7483,5,3],[97,7466,4,5],[24,7463,92,19],[33,7416,92,37],[35,7404,71,9],[16,7359,6,3],[16,7348,6,8],[14,7342,84,52],[28,7320,3,3],[37,7279,73,53],[35,7279,5,3],[16,7246,74,24],[16,7230,62,14],[59,7222,7,3],[37,7222,17,5],[19,7222,12,5],[13,7222,4,3],[85,7201,4,3],[22,8108,8,11],[20,8066,7,7],[22,8042,94,79],[18,8000,85,37]],
	"pngs":[
		["pngs/txt/ARC-MUND-PUB-IIB-25-33.00000.png","pngs/opencv/ARC-MUND-PUB-IIB-25-33.00000.png"],
		["pngs/txt/ARC-MUND-PUB-IIB-25-33.00001.png","pngs/opencv/ARC-MUND-PUB-IIB-25-33.00001.png"],
		["pngs/txt/ARC-MUND-PUB-IIB-25-33.00002.png","pngs/opencv/ARC-MUND-PUB-IIB-25-33.00002.png"],
		["pngs/txt/ARC-MUND-PUB-IIB-25-33.00003.png","pngs/opencv/ARC-MUND-PUB-IIB-25-33.00003.png"],
		["pngs/txt/ARC-MUND-PUB-IIB-25-33.00004.png","pngs/opencv/ARC-MUND-PUB-IIB-25-33.00004.png"],
		["pngs/txt/ARC-MUND-PUB-IIB-25-33.00005.png","pngs/opencv/ARC-MUND-PUB-IIB-25-33.00005.png"],
		["pngs/txt/ARC-MUND-PUB-IIB-25-33.00006.png","pngs/opencv/ARC-MUND-PUB-IIB-25-33.00006.png"],
		["pngs/txt/ARC-MUND-PUB-IIB-25-33.00007.png","pngs/opencv/ARC-MUND-PUB-IIB-25-33.00007.png"],
		["pngs/txt/ARC-MUND-PUB-IIB-25-33.00008.png","pngs/opencv/ARC-MUND-PUB-IIB-25-33.00008.png"],
		["pngs/txt/ARC-MUND-PUB-IIB-25-33.00009.png","pngs/opencv/ARC-MUND-PUB-IIB-25-33.00009.png"],
		["pngs/txt/ARC-MUND-PUB-IIB-25-33.00010.png","pngs/opencv/ARC-MUND-PUB-IIB-25-33.00010.png"]
	]
}