{
	"name": "ARC-MUND-PUB-UAI-CONGRES-82-FACULTE-INT-PEDOLOGIE-1913",
	"blobs":[[18,519,80,42],[17,445,163,53],[19,377,195,47],[20,293,205,63],[20,223,78,49],[106,221,83,51],[29,143,3,4],[12,137,124,63],[22,125,10,4],[22,124,87,18],[49,121,6,3],[49,117,5,3],[52,108,6,4],[37,104,8,22],[45,94,5,12],[17,93,3,3],[25,91,3,4],[49,89,5,4],[17,88,3,3],[45,86,3,4],[26,84,3,4],[49,83,3,3],[47,78,3,3],[19,75,7,10],[47,73,3,3],[51,72,5,8],[14,68,5,6],[32,67,3,3],[12,57,64,12],[32,56,3,3],[43,53,3,3],[55,51,5,7],[28,49,3,4],[43,48,3,3],[30,44,3,4],[59,41,7,9],[37,37,10,6],[31,30,6,9],[27,23,50,13],[42,22,3,3]],
	"pngs":[
		["pngs/txt/ARC-MUND-PUB-UAI-CONGRES-82-FACULTE-INT-PEDOLOGIE-1913.00000.png","pngs/opencv/ARC-MUND-PUB-UAI-CONGRES-82-FACULTE-INT-PEDOLOGIE-1913.00000.png"]
	]
}