{
	"name": "ARC-MUND-PUB-IIB-25-3-1904",
	"blobs":[[29,794,63,6],[19,784,3,3],[17,740,91,44],[65,726,4,3],[5,692,4,4],[26,671,66,46],[18,615,94,48],[19,601,4,4],[23,552,98,51],[20,495,93,46],[33,437,33,3],[24,437,93,47],[23,380,91,46],[20,380,8,3],[26,360,7,9],[24,321,75,46],[21,261,98,49],[23,205,94,45],[20,141,92,53],[16,141,4,3],[31,75,90,54],[22,59,60,7],[17,36,4,6],[22,30,58,12],[21,17,52,12],[18,17,16,3],[19,10,64,5],[19,1593,62,7],[3,1579,3,3],[76,1527,4,3],[23,1525,80,56],[20,1462,82,52],[26,1404,84,48],[18,1342,71,51],[13,1309,4,3],[26,1283,68,49],[20,1214,67,58],[24,1158,95,44],[7,1145,4,3],[18,1099,94,47],[34,1039,95,50],[19,979,93,48],[26,922,90,46],[63,907,6,4],[20,855,71,49],[70,800,14,2],[27,800,93,45],[84,1970,3,3],[18,1966,4,3],[17,1903,88,72],[17,1838,88,61],[18,1709,79,38],[24,1653,85,46],[21,1600,63,41]],
	"pngs":[
		["pngs/txt/ARC-MUND-PUB-IIB-25-3-1904.00000.png","pngs/opencv/ARC-MUND-PUB-IIB-25-3-1904.00000.png"],
		["pngs/txt/ARC-MUND-PUB-IIB-25-3-1904.00001.png","pngs/opencv/ARC-MUND-PUB-IIB-25-3-1904.00001.png"],
		["pngs/txt/ARC-MUND-PUB-IIB-25-3-1904.00002.png","pngs/opencv/ARC-MUND-PUB-IIB-25-3-1904.00002.png"]
	]
}