{
	"name": "ARC-MUND-PUB-IIB-58F",
	"blobs":[[70,760,4,3],[10,752,75,48],[20,697,69,50],[10,636,67,53],[0,630,3,3],[52,624,28,5],[8,619,4,7],[7,602,7,14],[7,587,7,14],[19,579,64,52],[7,577,4,4],[71,574,3,3],[54,574,9,3],[26,574,12,3],[11,513,81,45],[20,441,84,67],[11,382,90,54],[19,318,82,57],[12,286,82,25],[17,271,64,9],[11,253,81,19],[20,195,84,53],[11,149,111,40],[21,36,53,13],[80,26,4,4],[79,11,7,3],[17,8,42,4],[21,1584,67,16],[11,1570,80,9],[17,1552,70,8],[11,1535,82,16],[67,1528,3,3],[36,1528,25,6],[16,1528,15,6],[20,1465,73,50],[11,1393,76,66],[5,1384,5,3],[20,1313,83,71],[10,1250,69,57],[37,1243,10,3],[89,1233,3,3],[19,1233,4,3],[5,1225,10,12],[7,1218,15,7],[7,1188,4,3],[10,1180,4,3],[7,1176,4,3],[22,1171,19,22],[50,1170,26,22],[6,1167,5,3],[11,1114,68,52],[8,1092,4,5],[21,1055,56,54],[10,1010,66,40],[10,997,76,12],[7,972,11,17],[7,968,6,3],[8,963,4,4],[8,956,4,4],[87,942,4,4],[8,936,3,3],[6,930,5,3],[20,924,67,58],[10,868,69,51],[0,862,3,3],[20,811,70,52],[12,800,71,5],[22,2343,64,51],[12,2288,68,50],[21,2230,69,53],[11,2169,84,53],[22,2109,83,54],[9,2048,76,56],[21,2000,77,43],[45,1996,12,3],[36,1996,4,3],[66,1983,7,3],[10,1924,91,44],[22,1860,86,59],[10,1791,94,63],[21,1719,89,67],[10,1689,82,25],[15,1674,63,8],[10,1655,82,18],[5,1647,4,3],[21,1611,84,30],[21,1600,67,10],[19,3130,76,70],[10,3051,92,74],[19,2959,78,84],[1,2918,3,3],[10,2887,84,67],[16,2875,4,4],[22,2816,82,54],[80,2797,4,4],[69,2795,9,3],[61,2794,5,3],[71,2764,3,3],[67,2752,7,3],[9,2742,28,38],[39,2741,39,38],[53,2721,23,14],[23,2686,25,49],[49,2684,29,36],[1,2641,3,3],[9,2626,63,53],[23,2570,73,51],[0,2547,4,3],[0,2543,5,3],[0,2517,4,3],[8,2512,71,53],[24,2455,70,49],[9,2400,70,50],[19,3803,136,14],[7,3704,80,74],[60,3667,49,32],[45,3636,3,3],[49,3635,10,4],[8,3558,81,72],[17,3483,76,67],[9,3405,99,70],[18,3308,88,92],[10,3215,85,86],[20,3200,79,10]],
	"pngs":[
		["pngs/txt/ARC-MUND-PUB-IIB-58F.00000.png","pngs/opencv/ARC-MUND-PUB-IIB-58F.00000.png"],
		["pngs/txt/ARC-MUND-PUB-IIB-58F.00001.png","pngs/opencv/ARC-MUND-PUB-IIB-58F.00001.png"],
		["pngs/txt/ARC-MUND-PUB-IIB-58F.00002.png","pngs/opencv/ARC-MUND-PUB-IIB-58F.00002.png"],
		["pngs/txt/ARC-MUND-PUB-IIB-58F.00003.png","pngs/opencv/ARC-MUND-PUB-IIB-58F.00003.png"],
		["pngs/txt/ARC-MUND-PUB-IIB-58F.00004.png","pngs/opencv/ARC-MUND-PUB-IIB-58F.00004.png"]
	]
}