{
	"name": "ARC-MUND-PUB-IIB-48",
	"blobs":[[18,794,79,6],[41,777,5,3],[10,764,3,3],[27,720,89,55],[8,707,3,3],[16,658,88,51],[28,595,108,53],[13,534,83,51],[61,506,5,3],[37,485,3,3],[11,438,3,3],[1,436,8,8],[5,428,4,3],[27,426,4,3],[87,425,4,3],[58,424,3,3],[4,420,5,7],[32,417,5,4],[84,415,6,4],[27,409,19,3],[5,407,3,4],[12,359,5,4],[99,349,4,3],[99,344,3,3],[12,315,6,3],[29,304,67,70],[98,298,5,17],[91,259,8,5],[18,231,67,64],[22,179,86,43],[38,174,26,4],[65,172,5,4],[25,156,62,6],[31,136,40,7],[22,132,4,3],[20,117,53,18],[19,110,72,4],[28,64,79,36],[79,33,3,3],[24,33,48,12],[52,29,21,3],[21,20,58,12],[21,9,70,5],[17,1462,72,32],[67,1444,4,3],[26,1390,80,48],[18,1326,81,54],[48,1314,4,3],[26,1261,82,52],[80,1248,4,3],[1,1239,4,3],[18,1194,102,52],[11,1193,5,3],[93,1177,4,4],[27,1121,80,54],[2,1107,4,4],[72,1100,3,4],[5,1092,3,4],[18,1054,77,55],[26,995,82,49],[73,927,3,3],[18,925,92,60],[75,922,5,3],[28,862,74,50],[12,840,3,3],[16,800,87,52],[19,2364,78,36],[26,2303,81,50],[14,2285,5,3],[20,2240,82,52],[10,2203,3,4],[9,2189,4,6],[20,2186,3,3],[9,2184,4,3],[26,2174,82,56],[20,2111,86,53],[9,2081,6,5],[9,2070,4,7],[38,2048,41,3],[27,2048,79,53],[19,1990,79,48],[9,1949,4,7],[28,1944,80,35],[29,1935,55,7],[38,1923,41,3],[28,1923,5,3],[19,1860,87,53],[9,1821,7,8],[29,1796,80,54],[5,1761,3,6],[17,1733,99,53],[29,1669,81,54],[33,1654,5,4],[16,1620,88,35],[17,1610,13,3],[34,1607,31,6],[21,1600,41,6],[26,3167,78,33],[18,3105,86,51],[10,3074,4,4],[27,3038,81,57],[18,2982,84,52],[27,2931,80,41],[37,2923,41,3],[27,2923,5,3],[20,2875,72,37],[58,2871,15,3],[25,2871,14,3],[74,2866,5,3],[43,2866,28,3],[54,2851,11,4],[28,2801,86,38],[17,2742,79,48],[28,2680,81,52],[42,2667,7,3],[17,2617,83,51],[26,2555,81,51],[18,2493,80,52],[11,2478,4,4],[10,2459,3,5],[26,2420,86,53],[18,2400,81,9],[80,3998,4,2],[18,3982,5,4],[28,3945,97,53],[18,3885,91,49],[11,3853,4,5],[28,3838,77,36],[38,3824,44,3],[28,3824,5,3],[47,3810,10,3],[19,3754,77,21],[28,3695,83,49],[1,3679,6,3],[18,3674,74,10],[27,3673,13,3],[42,3672,54,4],[18,3665,11,3],[53,3664,37,7],[43,3648,58,14],[44,3642,16,8],[65,3641,23,5],[74,3636,6,3],[29,3636,42,3],[27,3559,92,66],[5,3542,6,3],[4,3534,3,3],[18,3490,90,59],[68,3453,3,3],[28,3435,78,41],[39,3431,41,3],[29,3431,6,3],[43,3417,7,4],[60,3416,6,3],[17,3363,88,28],[35,3347,60,6],[89,3334,3,11],[42,3333,35,13],[23,3304,81,31],[5,3284,3,4],[5,3273,4,9],[74,3235,6,3],[19,3235,89,58],[99,3214,5,11],[10,3209,3,3],[71,3204,14,3],[27,3200,93,22],[15,4701,91,86],[26,4633,81,56],[17,4557,77,65],[27,4492,108,54],[18,4430,80,52],[27,4378,78,42],[38,4370,40,3],[27,4370,4,3],[72,4357,3,3],[19,4303,79,23],[28,4238,109,55],[14,4221,4,3],[24,4219,53,8],[19,4174,76,27],[74,4170,5,3],[28,4170,45,3],[46,4155,31,4],[37,4094,54,3],[28,4094,5,3],[6,4080,3,3],[37,4064,32,3],[20,4054,6,3],[38,4038,30,3],[19,4011,76,8],[18,5557,76,40],[8,5529,9,7],[25,5484,76,63],[5,5459,3,9],[5,5452,3,3],[19,5403,80,70],[9,5371,4,11],[26,5336,87,56],[5,5319,5,6],[19,5269,81,54],[99,5253,4,5],[8,5215,6,7],[28,5201,77,50],[19,5137,79,53],[27,5073,110,53],[5,5024,6,6],[19,5006,91,55],[28,4939,105,56],[74,4874,4,3],[18,4874,111,53],[27,4800,82,63],[18,6362,87,19],[60,6353,20,7],[19,6353,34,7],[89,6345,3,3],[18,6344,32,5],[36,6340,8,3],[16,6319,3,3],[54,6312,6,4],[54,6288,4,3],[28,6251,83,14],[2,6233,3,3],[6,6228,4,4],[18,6196,83,45],[68,6180,5,3],[29,6130,83,45],[99,6121,9,4],[18,6107,88,9],[34,6099,4,3],[7,6094,3,3],[17,6068,81,28],[101,6032,3,3],[26,6002,80,51],[18,5946,82,46],[27,5899,78,36],[44,5892,43,4],[28,5892,14,3],[29,5884,62,3],[20,5871,4,3],[17,5820,90,51],[27,5762,79,44],[5,5747,3,4],[18,5690,82,56],[26,5642,80,37],[31,5637,42,3],[47,5632,13,3],[32,5625,58,3],[19,5604,83,10],[11,7189,65,11],[10,7183,10,8],[16,7148,76,40],[85,7071,3,3],[31,7071,99,70],[74,7069,4,4],[32,7054,4,3],[30,7036,108,35],[32,7036,3,3],[74,7034,8,4],[66,7034,3,3],[13,7033,7,4],[24,6962,5,6],[92,6959,6,3],[25,6959,100,62],[72,6958,4,3],[22,6921,7,3],[20,6909,3,3],[33,6908,5,3],[25,6905,3,3],[33,6896,4,3],[33,6874,97,75],[30,6874,8,6],[11,6805,4,3],[4,6804,6,3],[56,6794,9,3],[20,6793,106,71],[16,6788,6,6],[29,6787,6,3],[22,6780,6,3],[15,6778,4,3],[71,6666,5,4],[1,6659,4,3],[15,6610,82,70],[69,6606,4,3],[28,6603,21,6],[68,6591,6,3],[55,6583,3,3],[69,6577,6,3],[32,6542,4,3],[28,6427,60,16],[73,6418,4,3],[39,6416,8,4],[62,6409,9,3],[18,7981,90,19],[29,7915,14,10],[33,7905,75,66],[19,7884,4,3],[22,7870,8,6],[22,7843,9,9],[19,7825,102,70],[40,7823,12,3],[33,7801,8,3],[33,7780,9,6],[24,7749,4,3],[92,7739,6,3],[23,7736,5,3],[30,7721,92,92],[29,7721,11,4],[97,7710,4,3],[65,7706,3,3],[11,7704,6,3],[24,7696,5,3],[7,7669,4,4],[11,7660,6,3],[18,7642,98,62],[16,7629,6,3],[92,7619,6,4],[97,7615,9,4],[31,7589,3,3],[31,7567,90,57],[11,7551,5,3],[11,7544,6,3],[81,7519,4,4],[9,7518,4,4],[18,7514,3,3],[73,7513,18,4],[57,7512,9,3],[74,7506,4,3],[23,7493,5,4],[14,7492,4,3],[73,7481,8,3],[54,7481,17,3],[22,7481,89,76],[20,7467,4,3],[23,7458,5,3],[74,7441,9,3],[19,7433,8,3],[28,7395,100,76],[24,7381,6,3],[13,7380,6,3],[1,7377,4,4],[9,7368,8,7],[76,7338,6,3],[24,7326,5,3],[24,7321,93,61],[3,7321,3,3],[83,7320,4,3],[34,7306,5,3],[34,7267,5,4],[28,7266,4,3],[24,7258,3,3],[34,7257,92,57],[30,7257,9,5],[92,7255,3,3],[97,7254,3,3],[21,7200,108,47],[22,7200,6,2],[31,8794,5,3],[27,8753,95,47],[25,8739,5,3],[12,8731,5,3],[72,8728,3,3],[25,8724,6,13],[25,8716,6,4],[24,8706,10,7],[25,8690,5,6],[24,8683,6,5],[73,8676,8,3],[32,8676,91,67],[15,8662,6,4],[76,8659,4,4],[32,8648,8,10],[32,8601,88,57],[24,8583,5,6],[72,8555,7,3],[20,8540,69,51],[25,8527,4,3],[38,8480,89,45],[30,8480,7,5],[53,8476,8,3],[79,8463,4,3],[23,8455,6,5],[24,8445,5,8],[20,8401,4,3],[73,8398,7,3],[20,8398,102,65],[44,8384,6,3],[29,8338,92,38],[26,8333,4,3],[23,8274,92,55],[30,8214,99,50],[22,8201,5,3],[5,8177,4,8],[19,8141,90,58],[36,8113,6,3],[34,8106,9,5],[27,8058,94,73],[30,8058,13,3],[5,8024,4,13],[21,8011,10,6],[21,8000,91,47],[21,9546,106,54],[29,9486,6,3],[29,9471,105,64],[21,9406,106,54],[52,9401,27,5],[29,9382,6,3],[55,9335,3,3],[29,9335,106,55],[6,9314,3,3],[6,9292,5,3],[19,9288,99,36],[20,9279,52,5],[5,9271,3,6],[51,9270,28,6],[10,9242,8,17],[9,9228,5,5],[8,9207,7,4],[29,9187,84,65],[104,9177,3,3],[50,9170,38,4],[5,9170,4,3],[3,9165,6,4],[5,9151,5,5],[22,9147,59,8],[4,9142,6,3],[24,9131,57,11],[94,9127,5,6],[35,9111,12,3],[48,9106,5,3],[40,9077,3,3],[50,9060,4,3],[45,9034,4,3],[7,8990,3,7],[24,8973,91,53],[24,8973,4,3],[77,8969,4,3],[44,8969,11,3],[36,8954,4,3],[24,8954,7,4],[74,8953,4,3],[46,8953,6,3],[19,8950,4,3],[23,8946,4,3],[14,8945,5,3],[35,8943,5,3],[91,8908,4,3],[34,8893,98,59],[51,8889,13,3],[24,8868,6,11],[19,8865,4,5],[73,8817,8,3],[20,8817,96,62],[38,8800,82,7],[31,8800,6,7],[19,10390,13,10],[42,10385,39,15],[45,10330,3,3],[28,10322,63,52],[70,10275,14,36],[19,10275,48,36],[63,10268,6,3],[58,10268,4,3],[28,10268,14,3],[32,10263,23,8],[51,10254,31,5],[37,10240,4,3],[31,10239,5,4],[98,10195,3,3],[9,10193,4,7],[98,10180,7,3],[8,10179,6,10],[10,10171,4,3],[58,10170,39,29],[28,10166,29,38],[97,10158,4,3],[7,10157,56,6],[19,10103,65,53],[29,10048,68,45],[31,10043,62,3],[38,10036,38,5],[29,10028,24,6],[7,9983,3,3],[19,9972,76,46],[30,9907,72,54],[47,9893,3,3],[6,9851,9,3],[19,9845,76,41],[53,9840,20,3],[20,9840,14,3],[38,9836,18,7],[32,9836,7,3],[50,9827,28,6],[30,9788,6,3],[30,9773,101,43],[3,9742,3,3],[7,9704,3,3],[20,9699,103,62],[30,9629,103,59],[94,9615,3,3],[7,9614,3,3],[29,9600,90,10],[88,11130,8,3],[64,11129,3,3],[72,11125,6,4],[33,11113,6,3],[78,11099,3,3],[21,11098,30,4],[28,11020,77,44],[17,10968,74,40],[59,10963,10,3],[24,10963,14,3],[42,10959,15,7],[32,10959,7,3],[42,10952,33,5],[11,10937,3,3],[29,10881,107,26],[6,10867,3,3],[19,10809,104,56],[14,10759,3,3],[28,10748,80,50],[59,10734,4,3],[20,10693,105,36],[92,10687,3,3],[20,10686,61,6],[42,10677,4,3],[49,10675,28,5],[25,10660,4,4],[29,10623,5,3],[10,10604,3,4],[29,10596,87,41],[93,10581,3,3],[6,10580,3,3],[20,10557,4,3],[19,10533,79,41],[61,10527,7,3],[30,10524,27,6],[51,10518,26,5],[98,10503,5,4],[59,10496,5,6],[59,10490,5,5],[28,10455,77,50],[72,10448,12,3],[30,10448,24,3],[55,10446,16,5],[29,10434,24,5],[70,10400,11,22],[19,10400,47,23],[58,11990,32,10],[6,11962,5,3],[21,11959,65,12],[51,11950,30,7],[6,11946,3,10],[52,11940,44,9],[6,11940,3,3],[19,11893,75,68],[0,11883,3,3],[69,11878,4,3],[58,11875,5,4],[50,11873,4,3],[99,11872,7,8],[100,11862,4,3],[29,11810,80,64],[89,11806,4,3],[89,11798,6,6],[12,11789,4,4],[19,11729,73,67],[26,11649,77,63],[76,11626,3,3],[32,11623,5,7],[50,11608,35,20],[50,11608,7,3],[4,11581,8,18],[19,11551,81,74],[21,11534,3,3],[11,11532,3,3],[29,11460,79,76],[6,11437,3,6],[80,11436,4,3],[6,11431,3,3],[6,11416,5,13],[6,11405,5,9],[17,11359,76,79],[47,11339,9,3],[21,11332,6,3],[29,11300,81,41],[70,11286,4,3],[41,11284,6,3],[14,11245,80,41],[56,11239,17,6],[20,11232,37,10],[18,11232,7,3],[18,12755,71,45],[25,12674,75,64],[90,12644,6,3],[84,12621,7,5],[18,12581,83,70],[45,12570,4,3],[15,12522,7,4],[22,12491,97,74],[85,12470,4,3],[4,12469,3,3],[14,12466,4,3],[88,12437,5,4],[19,12407,70,64],[90,12384,7,3],[20,12376,6,5],[28,12323,66,67],[88,12303,6,3],[82,12299,5,4],[84,12256,6,4],[17,12234,75,76],[86,12204,4,5],[25,12148,88,77],[10,12142,4,3],[6,12126,6,4],[21,12071,75,69],[96,12037,5,3],[45,12022,10,7],[53,12018,4,3],[26,12011,77,44],[58,12000,45,9],[26,12000,31,15],[29,13579,88,21],[34,13554,4,4],[20,13553,3,5],[13,13487,85,68],[24,13419,91,57],[68,13403,3,3],[16,13363,79,41],[17,13352,55,10],[34,13249,4,3],[23,13248,4,3],[21,13230,81,19],[5,13218,3,3],[75,13214,3,3],[19,13213,43,12],[4,13211,4,4],[57,13208,9,3],[28,13208,23,5],[43,13204,3,3],[70,13091,13,14],[21,13084,47,22],[101,13028,5,4],[101,13024,3,3],[101,13017,3,3],[101,13008,3,8],[31,13004,81,63],[70,13004,7,3],[69,12982,24,5],[14,12919,77,65],[30,12915,6,3],[47,12897,6,6],[29,12897,17,6],[21,12872,4,5],[28,12828,74,75],[19,12800,63,18],[2,14343,6,3],[20,14342,85,58],[48,14328,11,4],[14,14328,14,4],[22,14310,5,4],[29,14303,85,27],[14,14301,7,4],[100,14300,5,3],[30,14268,82,20],[14,14242,77,15],[18,14232,73,9],[45,14223,7,5],[17,14213,70,9],[25,14199,37,6],[26,14149,69,41],[26,14137,80,11],[84,14132,3,3],[75,14122,4,3],[45,14121,6,3],[14,14119,4,4],[67,14118,4,3],[13,14104,3,3],[18,14064,87,57],[47,14046,6,5],[92,14045,6,3],[70,14044,4,3],[60,14043,4,3],[33,14041,5,4],[86,13992,6,3],[24,13989,91,51],[24,13975,7,3],[20,13937,94,36],[23,13927,46,5],[67,13909,31,3],[28,13873,85,33],[68,13868,16,3],[34,13868,32,3],[26,13862,4,3],[35,13861,48,5],[3,13832,3,3],[19,13830,114,11],[10,13824,3,3],[15,13801,4,3],[19,13784,81,42],[92,13767,5,4],[98,13765,6,3],[21,13764,7,4],[22,13727,6,3],[16,13720,5,6],[20,13715,7,3],[25,13707,88,59],[26,13693,5,4],[18,13641,83,47],[28,13600,88,23],[0,15004,7,3],[0,14982,79,28],[48,14970,4,3],[32,14970,3,3],[0,14954,71,18],[8,14919,85,25],[0,14916,21,4],[0,14896,83,22],[34,14881,57,5],[12,14675,6,3],[78,14671,6,3],[18,14634,77,36],[44,14629,8,4],[38,14606,55,12],[27,14604,6,7],[98,14603,4,3],[92,14602,3,3],[98,14584,3,4],[13,14584,3,3],[86,14580,6,3],[99,14555,3,3],[29,14553,16,51],[92,14551,4,4],[1,14522,117,6],[1,14517,5,5],[110,14508,5,3],[111,14497,4,3],[14,14494,3,3],[113,14490,4,3],[0,14489,64,21],[60,14485,4,3],[49,14484,7,5],[34,14463,53,6],[44,14445,7,4],[34,14439,56,8],[102,14432,6,3],[31,14430,5,4],[34,14423,50,7],[84,14416,6,3],[31,14410,67,6]],
	"pngs":[
		["pngs/txt/ARC-MUND-PUB-IIB-48.00000.png","pngs/opencv/ARC-MUND-PUB-IIB-48.00000.png"],
		["pngs/txt/ARC-MUND-PUB-IIB-48.00001.png","pngs/opencv/ARC-MUND-PUB-IIB-48.00001.png"],
		["pngs/txt/ARC-MUND-PUB-IIB-48.00002.png","pngs/opencv/ARC-MUND-PUB-IIB-48.00002.png"],
		["pngs/txt/ARC-MUND-PUB-IIB-48.00003.png","pngs/opencv/ARC-MUND-PUB-IIB-48.00003.png"],
		["pngs/txt/ARC-MUND-PUB-IIB-48.00004.png","pngs/opencv/ARC-MUND-PUB-IIB-48.00004.png"],
		["pngs/txt/ARC-MUND-PUB-IIB-48.00005.png","pngs/opencv/ARC-MUND-PUB-IIB-48.00005.png"],
		["pngs/txt/ARC-MUND-PUB-IIB-48.00006.png","pngs/opencv/ARC-MUND-PUB-IIB-48.00006.png"],
		["pngs/txt/ARC-MUND-PUB-IIB-48.00007.png","pngs/opencv/ARC-MUND-PUB-IIB-48.00007.png"],
		["pngs/txt/ARC-MUND-PUB-IIB-48.00008.png","pngs/opencv/ARC-MUND-PUB-IIB-48.00008.png"],
		["pngs/txt/ARC-MUND-PUB-IIB-48.00009.png","pngs/opencv/ARC-MUND-PUB-IIB-48.00009.png"],
		["pngs/txt/ARC-MUND-PUB-IIB-48.00010.png","pngs/opencv/ARC-MUND-PUB-IIB-48.00010.png"],
		["pngs/txt/ARC-MUND-PUB-IIB-48.00011.png","pngs/opencv/ARC-MUND-PUB-IIB-48.00011.png"],
		["pngs/txt/ARC-MUND-PUB-IIB-48.00012.png","pngs/opencv/ARC-MUND-PUB-IIB-48.00012.png"],
		["pngs/txt/ARC-MUND-PUB-IIB-48.00013.png","pngs/opencv/ARC-MUND-PUB-IIB-48.00013.png"],
		["pngs/txt/ARC-MUND-PUB-IIB-48.00014.png","pngs/opencv/ARC-MUND-PUB-IIB-48.00014.png"],
		["pngs/txt/ARC-MUND-PUB-IIB-48.00015.png","pngs/opencv/ARC-MUND-PUB-IIB-48.00015.png"],
		["pngs/txt/ARC-MUND-PUB-IIB-48.00016.png","pngs/opencv/ARC-MUND-PUB-IIB-48.00016.png"],
		["pngs/txt/ARC-MUND-PUB-IIB-48.00017.png","pngs/opencv/ARC-MUND-PUB-IIB-48.00017.png"],
		["pngs/txt/ARC-MUND-PUB-IIB-48.00018.png","pngs/opencv/ARC-MUND-PUB-IIB-48.00018.png"]
	]
}