






















                            C O N G R È S  M O N D I A L
                                      D E S
              A S S O C I A T I O N S  I N T E R N A T I O N A L E S  N°   12
                        Deuxième  session :  GANG-BRUXELLES,  15-18  juin  1913
                  Organisé  p a r  l ' U n i o n  des  Associations  I n t e r n a t i o n a l e s
                       Office  central  :  Bruxelles,  3bis,  rue  de  la  Régence
                                                                        1913-05
              Actes  d u  C o n g r è s .  —  D o c u m e n t s  préliminaires.




                  Réponse     de  l'Association    Internationale      pour

                     la  Protection      légale   des   Travailleurs      au
                     questionnaire      de   l'Union    des   Associations

                     Internationales      ( I )



                                         [ 3 5 i . 8 3  (o63)  (  00)]




                  I .    C O O P É R A T I O N ,  E N T R E P R I S E S  C O M M U N E S

                                      A.  —  Coopération.

                    1.  L'Association  Internationale pour  la  Protection  légale  des
                  Travailleurs  (A.  I .  P.  L.  T.)  coopère  avec  les  associations  sui-
                  vantes  :
                    Comité  permanent  des  Assurances  sociales  (objets  :  Economie
                  des  frais  de  composition  d'imprimerie et  de  traduction de  cer-



                    (1)  Cette  réponse  est  l'une  des  plus  complètes  faites  au  ques-
                  t i o n n a i r e  de  l ' U n i o n ,  q u i  a v a i t  p o u r  b u t  de  préparer  les  discussions
                  du  Congrès.  E l l e  m o n t r e  que  toutes  les  questions,  o u  à  peu  près  toutes,
                  p e u v e n t  concerner,  p a r  quelque  aspect,  toutes  les  Associations  inter-
                  nationales.  E l l e  fait  c o m p r e n d r e  aussi  c o m m e n t  dans  l a  réalité  d'une
                  association,  elles  s'enchaînent  et  se  précisent.  C'est  p o u r q u o i  i l  a  p a r u
                  u t i l e  de  l a  p u b l i e r  i c i  in  extenso.  Cette  réponse  constitue  u n  t y p e  q u i
                                                                 l
                                                       l
                  p o u r r a aider  les  autres  associations  à  rédiger a leur, ou  à a  préparer  pour
                  les  discussions  orales.
                                                                             d






















                                               —  2  —                                                                              —   3  —

                    taines  lois  sur  les  assurances.  Statistique  internationale  des                 damnables.   Quelquefois  une  association  internationale  peut
                    accidents  peut-être  aussi  de  la  mortalité  et  morbidité).                       réussir,  par  les  méthodes  qu'elle  emploie, là  où  une  autre  a
                      Association  Internationale  pour  la  Lutte  contre  le  chômage                   échoué.
                                                                                                                                                             i
                    (objet  : Protection  légale  des  emigrants).                                          S'il  est  à souhaiter  de voir « coordonner  des  efforts  », l est  aussi
                      Office  international  du  Travail  à  domicile.  (Objet  :  Propa-                 à  redouter qu'une grande  concentration, dans  un domaine  comme
                    gande  pour  les  Comités  de  salaires  minima.)                                     le  nôtre,  qui  touche  à  la  politique n'amène  à  la  création  d'orga-
                      Union  des  Associations  Internationales.  (Objet  : Organisation                  nismes  dangereux  parleur  parti-pris  ou  leur  exclusivisme. Notre
                                                                             (
                    générale.  Statut  juridique  des  Associations  Internationales) i ) .               Association  a  ce  privilège  de  grouper  des  hommes  de  bonne
                      2.  Les  hygiéniste  de  notre Association  collaborent surtout avec                volonté  appartenant  à  tous  les  partis  et  à  toutes  les  confessions.
                                                                                                                                           t
                    le  Congrès  international des  maladies  professionnelles.  Plusieurs                La  « concentration » s'y  est  opérée out  naturellement ; mais  elle
                    de  nos  membres  sont  membres  de  l'Institut  international  de                    n'aspire  nullement  au  monopole  et  le  voisinage  d'autres  associa-
                    Statistique,  de  l'Institut  international  de  droit  comparé,  du                  tions  dans  le  très  vaste  domaine  de  la  politique  sociale  est  par
                    Bureau  international de  la  paix.  Nous  sommes  en  relation pour                  elle  considéré  comme  une  bonne  fortune.
                    la  question  de  la  protection  des  ouvriers  de  chemins  de  fer  avec
                    le  Congrès  international des  chemins  de  fer.  Nos  présidents  sont                           B.  —  V œ u x ,  P u b l i c a t i o n s ,  Code.
                    membres  de 'Union interparlementaire.
                                l
                                                                                                            1.  Les  vœux  et  résolutions  de  notre  Association  se  trouvent
                      3.  Les  relations  entre  les  organisations  internationales  offi-               publiés  en  français,  en  allemand  et  en  anglais  dans  les
                    cielles  et  les  organisations  libres  s'établissent par des  renseigne-            comptes  rendus  de  ses  assemblées.  (Publications de  l'Association
                    ments  réciproques.  Nous  sommes  de  cette  façon  en  relation avec                internationale,  n  o s  1-8.)  U n  essai  de  codification  se  trouve  dans
                    les  bureaux  officiels  de  Berne.  Nous  échangeons  également  nos                 le  rapport  présenté  au  Congrès  mondial  des  Associations  Inter-
                    documents   et  renseignements  avec  l'Institut  international                       nationales,  Bruxelles,  1910,  p.  48-78.
                    d'Agriculture  à  Rome.
                                                                                                            2.  La  question  de  la  méthode  de  codification n'a  pas  été  dis-
                      4.  Nos  vues  sur  la  coopération  entre  Associations  Internatio-
                    nales  ressortent  des  réponses  données  sous  les  n°  5  1,  2,  3.  Une           cutée.
                               t
                    division  du ravail  ne  peut  se  produire que  sur  les  questions  dans              3.  Parmi  les  résolutions  on  peut  distinguer  :
                    lesquelles  une  parfaite  unité  de  vues  a  été  établie  ou  pour  des                a)  1.  Mesures pratiques relatives à l'organisation  (Finances,
                    tâches  purement  techniques  ou  des  questions  financières :  pour                             publications, extension, relations avec d'autres  Asso-
                    la  propagande  collective  ;  pour  l'écoulement  des  publications ;                         •  ciations  internationales,  bibliothèque,  prochaines
                    pour  une  action collective  auprès  des  pouvoirs  publics.                                     assemblées,  etc.)  ;
                      5.  A  notre  connaissance  des  doubles  emplois  d'organismes                             2.  Résolutions  s'adressant aux  gouvernements  :
                    internationaux  n'existent  pas  dans  notre  domaine.  Quelques                                   a)  Pour  obtenir des  mesures d'ordre international  ;
                    tentatives  d'établir  des  associations  rivales  ont  régulièrement                              b)  Pour  obtenir des  mesures d'ordre national.
                    échoué.  Ces  doubles  emplois  ne  sont  pas  du  reste  toujours  con-
                                                                                                                  3.  Résolutions  s'adressant aux  sections  nationales  :
                                                                                                               b)  Conclusions  et  principes  en  matière  de  législation
                                                                                                                    sociale  ;
                      (1)  Cfç.  :  C o l l a b o r a t i o n  de  l ' A .  I . P.  L .  T .  avec  d'autres  Associations
                    internationales.  R a p p o r t  présenté  par  M .  Ernest  M a h a i m .  P u b l i c a t i o n  c)  Problèmes  et  desiderata  proposés  à  l'étude  des  sec-
                    de  l ' A s s o c i a t i o n  I n t e r n a t i o n a l e  p o u r  l a  P r o t e c t i o n  légale  des  T r a v a i l -  tions,  du  Conseil  permanent  d'hygiène  sociale,  des
                    leurs,  n °  8,  p .  208.                                                                      sous-commissions  d'experts,  du bureau  et  des  sections.






















                                               —  4  —

                       4.  I l est  désirable  que  les  associations,  par  une  sage  économie
                     de  leurs  forces  concentrent  leurs  efforts  sur  les questions  les plus           4.  Les  Associations  officielles  constituées  uniquement  de  fonc-
                    urgentes  et  les  mieux  préparées.                                                  tionnaires  sont  liées  par  des  traités  et  par  leur  organisation  à
                                                                                                          une  réserve  qui  leur  rend  assez  difficile  la  collaboration  avec
                       5.  Une  codification  générale  des  résolutions  et œux  des                     des  Associations  libres.  Tel  n'est  pas  le  cas  des  Associations
                                                                       v
                     associations  serait  utile  du  point  de  vue  de  l'économie  de  travail         mixtes  dont  la  représentation  comprend  des  délégués  des  Gou-
                     et  du  point  de  vue  historique  (changement  d'attitude,  dévelop-               vernements  et  de  groupements  nationaux  privés  et  auxquels  des
                     pement  des  revendications).
                                                                                                          subsides  des  pouvoirs  publics  sont  alloués  sans  autre  condition.
                       6.  Les  méthodes  indiquées  en  b.  c.  d.,  avec  un  index  chrono-              5.  a)  Oui.
                    logique,  nous  paraissent  très  recommandables.
                                                                                                             b)  On  pourrait  attribuer  à  toutes  les  Associations,ayant  un
                       7.  Les  limites  indiquées  en  a  et  c  sont  désirables  ;  celles ndi-        but  analogue  et  qui  collaborent, une  représentation  proportion-
                                                                            i
                    quées  en  b ne  le  sont  pas.                                                       nelle  au  nombre  de  leurs  délégués.  On  donnerait une  voix  à  cha-
                       8.  I l ne  nous  paraît  pas  possible  de  proposer  comme  un  modèle           cune  des  autres  associations.
                    général  à  suivre,  une  codification  quelconque  existante.  Celles                  c)  Idem.
                    citées  (p.  5  de  l'Enquête-Referendum)  ne  conviennent nullement                    dj  I I est  peu  probable  qu'une  corporation  se  soumette  à  l'ar-
                    à  notre  Association.                                                                bitrage  d'un  tiers  pour  se  fusionner  avec  une  autre  association
                                                                                                          dont  les  méthodes,  les  buts  et  les  moyens  d'action  sont  dispa-
                       9.  L'exposé  sommaire  des  points,  thèses,  et  principes  fonda-
                                                                                                                                                             l
                    mentaux   se  trouve  dans  la  monogarphie citée  sous le point B.  1.               rates.  Ce  serait  une  bien  dangereuse  tentative,  pour 'Union  de
                    et  dans  l'ouvrage  de  M.  E.  Mahaim,  Le  Droit  international  du                s'offrir  comme  médiatrice  ou arbitre en  vue  d'amener  des  fusions
                     Travail,  Paris,  1913.                                                              d'Associations  Internationales. D'après notre expérience,  celles-ci
                                                                                                          sont  des  organismes  extrêmement  délicats,  auxquels  i l est  même
                       10.  La  publication  des  conventions  internationales  du  tra-                   malaisé  de  paraître  donner  des  conseils.
                    vail  et  des  assurances  s'effectue  dans  le  Bulletin  de  l'Office  Inter-          Il  faut  toujours des  preuves  d'un avantage  supérieur librement
                    national  du  Travail,  revue  mensuelle  publiée  en  allemand,  en                  accepté  pour obtenir une concentration pareille.
                    français  et  en  anglais.

                                                                                                                               Centre  international.
                          C.  —  U n i o n  des  Associations  I n t e r n a t i o n a l e s .
                         Centre  I n t e r n a t i o n a l .  —  P a r t i c i p a t i o n  des  États.      1.  • Une  Association  mixte ne  peut  disposer  des  moyens  finan-
                                                                                                           ciers  qui lui parviennent  en  grande  partie de  la  part  des  gouver-
                                Union  des  Associations  Internationales.                                nements   en  faveur  d'une  autre  Association,  sauf  pour  des
                                                                                                           abonnements  aux  publications  ou  leur  échange,  mais  elle  peut
                       1.  Nous  n'avons  pas  d'observations  à  faire  ni de modifications
                                                                                                               l
                    à  proposer  en  ce  qui concerne  les  statuts.                                       bien ui consacrer  des  travaux  et  des  renseignements.
                                                                                                             2.  I l nous  semble  que  le  Centre  international devrait  obte-
                       2.  Voir  sous I ,  C,  1  a.
                                   I
                                                                                                           nir  les  moyens  pour  développer  la  documentation  internatio-
                      3.  Une  fédération  des  Associations  Internationales  ne  peut  à                 nale.
                    notre  avis  qu'être  composée  de  membres  délégués  de  ces  asso-
                    ciations.  Les  personnes  avec  voix  consultative,  n'appartenant                      3.  Pour  obtenir  un  optimum  sous  ce  rapport,  i l  s'agirait
                    à  aucun  organisme  international,  seront  en  général  insuffisam-                  plutôt  de  créer  des  sections  internationales  sur  chaque  genre  de
                    ment  préparées  et  ne  feront  qu'obstacle  ; ce sont dans la règle  des             questions  de  science  et  de  technique  rattachées au Centre  inter-
                    congressistes  amateurs.                                                               national  et  non  pas  des  sections  nationales.























                                              —  6  —                                                                                —  7 —
                                                                                                          ver  les  formules  juridiques.  En  général,  elle  se borne a émettre  les
                                       Participation  des  États.                                         principes  de  la  réglementation  dont  elle  s'inspire.  Le  Gouverne-
                                                                                                          ment  suisse  les  propose  par  circulaire  et  par  voix diplomatique
                      i .  Les  Etats  seraient  invités  à  déléguer  leurs  représentants
                    aux  sections  précitées.                                                             comme   base  de  discussion  aux  Conférences  officielles  interna-
                                                                                                          tionales  et  c'est  ainsi  plutôt  que  par  des  contrats-types  interna-
                                                                                                          tionaux  qu'il  convient  de  réaliser  les  buts internationaux.
                          I I .  —  R É G L E M E N T A T I O N ,  L É G I S L A T I O N                    2.  Ces  projets  et  contrats  contribuent  à  développer  le  droit
                                                                                                          international  social  à  l'étude  duquel  se  livre  les  Associations
                    A .  —  R é g i m e  j u r i d i q u e  des  Associations  Internationales.           nommées  sous  I ,  A,  i .
                      1-6.  D u  point  de  vue  de  notre  Association  (mixte),  le  besoin               3.  a)  Convention  de  Berne  du  26  septembre  1906,  sur  l'inter-
                    d'un  statut  juridique  ne  s'est  pas  fait  sentir  jusqu'à  présent.  Le          diction  de  l'emploi  du  phosphore  blanc  (jaune)  dans  l'industrie
                    seul  cas  concevable  dans  lequel  i l  y  aurait  avantage  d'obtenir              des  allumettes.
                                                                                                                                                             t
                                                                                                                                             l
                    le  droit  d'ester  en  justice  s'offrirait  lorsqu'une  section  nationale             b)  Convention  internationale sur 'interdiction  du ravail  de
                    pendant  plusieurs  années  aurait  obtenu  des  publications  sans                   nuit  des  femmes  employées  dans  l'industrie,  de  la  même  date.
                    payer  la  cotisation.  Dans  un  cas  analogue,  le  gouvernement  du                   c)  Traités  bilatéraux  (trois)  concernant  le  traitement  des
                    pays  auquel  appartient  cette  section u i est  venu  en  aide  ;  c'est            ouvriers  étrangers  en  matière  d'assurance  sociale.
                                                       l
                    un  procédé  infiniment  préférable  à  une  poursuite  judiciaire. Le                   d)  Nomination  d'une  Commission  internationale  pour  la
                    haut  contrôle  financier a  par  courtoisie été  accordé  au pays  dans              réforme  de a  statistique  de  l'inspection u  travail.
                                                                                                                     l
                                                                                                                                                d
                    lequel  l'Association  a  son  siège  (Département  fédéral  suisse  de                  c)  Interdiction  de  l'emploi des  enduits  à la  céruse  à l'intérieur
                                                                                                                                                              l
                    l'Industrie).  Les  Etats  ont  en  acceptant  le  règlement  de  l'Office            des  bâtiments  privés  en  France  et  en  Autriche,  et  de a  céruse
                    International  du  Travail, reconnu  cette  institution  quasi  comme                 dans  les  travaux  publics  en  Belgique,  France,  Basse-Autriche,
                                                                        l
                    un  établissement  d'utilité  publique  internationale sans ui  attri-                 dans  l'administration  fédérale  suisse  et  dans  trois^  cantons
                    buer  toutefois  les  droits mentionnés  sous  6,  a,  b,  c et  d.                    suisses.
                                                                                                             / )  Prescriptions s'inspirant  des  principes  énoncés  par  les  péti-
                      Remarque  de  M.  Mahaim  :                                                          tions  de  l'Association  :  Autriche  (fonderies  de  plomb,  impri-
                      Cette  question  du  régime  juridique  des  Associations  Inter-                    meries)  ;  Grande-Bretagne  (fabriques  d'accumulateurs)  ;  Pmsse
                    nationales  est  extrêmement  complexe.  Personnellement,  je  ne                      (confection  de  franges,  fabrication de limes).
                    suis  pas  l'adversaire  de  l'étude  d'un  régime  juridique  supra-                    E n  préparation  :
                    international  ; mais  celui-ci  ne  pourrait  jamais  s'établir  que  par
                    convention  entre  les  Etats.  Le  besoin  ne  s'en  fait  pas  sentir                  Interdiction  du  travail  de  nuit  des  jeunes  gens  dans l'indus-
                    pour  notre  Association,  surtout  parce  que  son  siège  ne  quitte                 trie  ;
                    pas  la  -Suisse.  I l  en  serait  différemment  si  nous  changions  de                Journée  maxima  de  dix  heures  pour  les  femmes  et  les  jeunes
                    territoire.                                                                            ouvriers  employés  dans  l'industrie.
                                                                                                             Equipe  de  huit  heures  pour  les  ouvriers  de  la  grosse  métal-
                                                                                                           lurgie  du fer  et  de  l'acier  ;
                                                       c
                            B . —  D r o i t  i n t e r n a t i o n a l onventionnel.
                                                                                                             Semaine  maxima  de  56  heures  dans  la  verrerie.
                                                                                                                                                             t
                      i .  Notre  Association  a  préparé  des  projets  de  Conventions                     Journée  maxima  de  dix  heures  et  interdiction  du ravail  de
                                                                                                                    l
                    internationales  (traités  de  travail)  et  de  réglementation  d'indus-              nuit  dans a  broderie  à  fil  continu.
                    tries  dangereuses,  en laissant  le soin aux  gouvernements  de  trou-                  Restriction  de l'emploi des  composés  de plomb dans  l'industrie
                                                                                                           céramique.























                                             —   8  —                                                                                -  9  —
                     Prescriptions  internationales  ponr  combattre  l'ankylosto-                          2.  Nous  ne  croyons  pas  qu'il  faille  donner  une  signification
                   miase  pour  les  ouvriers  des  mines  et  des  tunnels.                              différente  aux  expressions  internationales,  universelles,  mon-
                     Semaine  anglaise  dans  l'industrie.                                                diales.  Evidemment  une  société  nationale qui  a  quelques  corres-
                      4
                     . .  Les procédés mis en œuvre pour obtenir ces  réalisations sont :                 pondants  étrangers  n'est  pas  une  Association  Internationale par
                     a)  Enquête  de  l'Office  international  du  Travail et  des  sections              ce  seul  fait.
                           nationales  basées  sur  les  questionnaires  élaborés  par  des                 3.  I l  y  a  lieu  de  distinguer  entre  les  Association  mixtes  et
                           experts  ;                                                                     les  Associations  privées.  Ces  dernières  sont  définies  sous  la
                      b)  Projet  d'un  mémoire  soumis  à  une  sous-commission  de                      lettre  a).  Les  Associations  mixtes  sont  de  facto  des  conseils
                           5  membres  ;                                                                  consultatifs.  Tant  que  le  principe de  la  représentation  politique
                      c)  Refonte  de  ce  mémoire  et  projet  de  résolution  de  la  sous-             subsiste,  tant  que  le  droit  électoral  n'est  pas  attaché  à  une  cor-
                           commission  ;                                                                  poration,  ces  associations  ne  pourront  pas  former  des  corps
                     d)  Discussion  par  une  commission  spéciale  ;                                    représentatifs.
                      c)  Discussion  par  l'assemblée  générale  ;
                      f)  Rédaction  des  résolutions  de  l'assemblée  générale  par  le                   4.  Notre  Association  se  considère  comme  un conseil  consul-
                           Bureau  et  la  Sous-Commission  et  pétition  au  Conseil                     tatif  libre  dans  le  domaine  de  la  législation  ouvrière.
                           fédéral  suisse  lui  demandant  de  convoquer  une  confé-                      5.  Nous  croyons  qu'à  l'heure  actuelle  un  conflit entre le  corps
                           rence  internationale  ;                                                       des  fonctionnaires  d'Etat  qui  ont  la  responsabilité  de  l'exécu-
                      g)  Demande  de  propagande  aux  sections  nationales.                             tion  des  conventions  internationales  et  un  nouvel  organisme
                                                                                                          officiel  permanent  qui  se  superposerait  à  eux  et  aux  associations
                      5.  Dans  les  Conventions  précitées  on  s'est  plutôt  inspiré  des
                   textes  les  plus  clairs  des  lois nationales  ouvrières  que  de  conven-           aboutirait  à  une  fin  de  non  recevoir.
                   tions  existantes  dans  d'autres  domaines.  La  forme  extérieure  du
                   traité  de  Bruxelles  1904,  concernant  l'abolition  des  primes  dans
                   l'industrie  sucrière,  a  été  d'une  certaine  utilité.  Mais  au  fond,les             I I I .  —  U N I F I C A T I O N  DES  S Y S T È M E S  D ' U N I T É S
                   conventions de Berne  sont complètement nouvelles  et  sui  generis.
                                                                                                             1-4.  En  matière  d'unification  notre  Association  n'a  rien
                                                                                                          réalisé.
                    C.  — C o n c e p t i o n  et  rôle  des  Associations  Internationales.
                      1.  a)  La  définition  nous  paraît  exacte.                                            I V .  —  O R G A N I S A T I O N  D E S  A S S O C I A T I O N S
                      b)  I l convient  d'exclure  la  coexistence  d'organismes  distincts                                   E T  D E S  C O N G R È S
                   pour  les  seuls  motifs  de  race,  de  nationalité  et  de  religion,  mais
                    on  ne  peut  pas  demander  l'unicité,  puisque  les  mêmes  questions               A .  —  Moyens  divers  d'accroître  l'unité  et  le  rendement
                    peuvent  être  traitées  sous  différents  points  de  vue  par  diffé-                    des  Associations  Internationales et  des  Congrès  I n t e r -
                    rentes  Associations  Internationales.  I l vaudrait mieux  préconiser                     nationaux.
                   la neutralité  ethnique, religieuse  et  politique.  Dans  ce  cas  seraient              1.  Notre  Association  est  une  fédération  de  sections  natio-
                    exclues les  Associations,  telles  que  celle  des  Sionistes,  des  Pansla-         nales  ;  celles-ci  possèdent  des  secrétariats  généraux  et  des  sièges
                   vistes,  etc.,  qui ne  sont  au  fond  que  des  associations  nationales             permanents  qui  obtiennent  des  cotisations  des  sections  et  quel-
                    établies  sur  un  terrain  mondial  ;                                                quefois  des  subsides  de  leurs  Etats.  Les  sections  nationales  sont
                      c)  O u i ;                                                                         priées  par  le  Bureau  de  former  des  sous-commissions  pour  les
                      d)  N o n ;                                                                          questions  techniques,  le Bureau  s'adresse  à  des  experts  ou  à  des
                      e)  Non.























                                             —  10  —                                                                                —  11  —

                    correspondants.  La  propagande  se  poursuit  dans  les  pays                         Sections  nationales  par  la  voie  de  pétitions,  par  des  conférences
                    nouveaux  par  ces  derniers.  Les  délégués  des  sections  se  réunis-               et  des  expositions  ;  dans  les  pays  nouveaux  par  des  correspon-
                    sent  tous  les  deux  ans  an  Suisse.  L'Association  a  le  droit  de  con-         dants  et  par  des  conférences  de  propagande.
                    voquer  des  Congrès  ; elle n'a  jamais  fait  usage  de  ce  droit.                    5.  Des  communiqués  sont  adressés  tantôt  directement  aux
                      2.  Notre  Association  a  entrepris  des  travaux  scientifiques                    journaux  les  plus  influents  dans  chaque  pays,  tantôt  par  les
                    en  collaboration ;  elle  publie  mensuellement  le  Bulletin  Interna-               agences  télégraphiques.  U n  bon  service  de  correspondance  reste
                    tional  de  l'Office  du  Travail  ; elle  vise  à la  comptabilité  des  statis-      encore  à  organiser.  Les  différentes  agences  de  coupure  sont  éga-
                    tiques  du  travail  ;  elle  a  obtenu  un  encouragement  sous  forme                lement  peu  satisfaisantes  et  nous  avons  renoncé  à  leur  sendee.
                    de  prix  à  distribuer aux  auteurs  des  meilleures  ouvrages  sur  le
                    saturnisme  ;  elle  entretient  une  bibliothèque,  publie  une  biblio-                         C.  —  Règlement  type  des  Congrès.
                    graphie,  soutient  la  propagande  par  des  sections  et  participe
                    de  temps  à  autre  à  des  expositions  d'économie  sociale.                           1.  Notre  Association  possède  un  règlement  pour  ses  assem-
                      3-4.  L'Office  international  du  Travail  représente  ce  centre.                  blées  générales.
                    Le  règlement  pour  l'Office  international  du  Travail  se  trouve                    3.  Notre Association  ne  formule que  des  résolutions,  soit pour
                    page  45  de  la  monographie  de  l'Association  internationale pour                  entreprendre  une  action  internationale,  soit  pour  obtenir  une
                                                                              d
                    la  Protection légale  des  Travailleurs, et  l'Office  international u                mesure  d'ordre  national,  soit  enfin  pour  inviter  les  sections
                    Travail,  Bruxelles,  1910.                                                            nationales  et  l'Office  international à  entreprendre  des  enquêtes
                                                                                                           d'ordre  scientifique.
                      5.  Toutes  les  Associations  Internationales  sauront  gré  à
                    l'Union  internationale  si  elle  organisait  un  mouvement  pour
                    obtenir  une  réforme  radicale  du  système  des  échanges  interna-                  D . —  P a r t i c i p a t i o n des  Etats  et  des  diverses  nationalités.
                    tionaux  des  publications  officielles  dont  les  retards  sont  insup-                1. —  1.  La participation officielle des États  a été obtenue d'abord
                    portables  et  constituent  une  véritable  parodie  du  mouvement                     par  pétition  de  la  section  suisse  et  du  comité  provisoire interna-
                    international  du  X X  e  siècle.  I l vaudrait  mieux  abolir  ce  service           tional  au  Conseil  fédéral  suisse  ; par  des  démarches  personnelles
                    inutile  et  obtenir  à  sa  place  une  réduction  des  tarifs  de  la  poste,        du  Bureau  auprès  du Gouvernement  de la  République  française  ;
                    du  télégraphe  et  des  libres  parcours  de  chemin  de  fer  sous  cer-             ensuite  par  des  pétitions  des  sections nationales  belge,  allemande,
                    taines conditions.                                                                     autrichienne,  hollandaise,  italienne,  etc.,  auprès  de  leur  gou-
                                                                                                           vernement  respectif.  Dans  les  pays  sans  section  nationale,  par
                             B .  —  Réalisation  des  v œ u x  d u  C o n g r è s .                       des  démarches  personnelles  et  des  pétitions  réitérées  du  Bureau.

                                                                        I
                      1-2.  Cette  question  a  déjà  obtenu  une  réponse  sous I ,  B,  4,                 2.  Le  rôle  de  l'Etat  où  l'Association  a  son  siège  est  d'ins-
                    page  8.                                                                               truire  ses  représentants  à l'étranger  du  caractère  de  l'Association
                                                                                                                l
                                                                                                           et  de ui faciliter ainsi  l'obtention des  renseignements  aux  pays
                      3.  Notre  Association  ne  dispose  que  d'une  seule  sanction  :
                    Celle  de  l'opinion  publique  représentée  par  7,000  membres,                      auprès  desquels  ils  sont  accrédités.
                    parmi  lesquels  les  membres  corporatifs  représentant  8  mil-                        I I .  —  1.  La  participation  des  Etats  à  leur  représentation  dans
                    lions  d'ouvriers  syndiqués  et  parmi  lesquels,  d'autre  part,  se                 notre  comité  avec  voix  deliberative,  ou,  si  les  gouvernements
                    trouvent  des  membres  de  parlements  appartenant  à  tous  les                      le  préfèrent,  avec  voix  consultative,  en  est  la  conséquence.
                    partis.
                                                                                                             2.  Nous  possédons  la  représentation  proportionnelle  aux
                      4.  La  propagande  de  notre  Association  est  organisée  par  les
                                                                                                           cotisations  pour  les  sections  nationales,  combinée  avec  un























                                            —   12  —                                  *                                             —  T3  —
                                                                                                             2.  Pour  des  motifs  d'économie  de  place  dans  les  biblio-
                                             i
                   maximum   de  dix  délégués  ; l  y  a  représentation  égalitaire  pour                thèques,  i l y  aurait  intérêt  à  unifier  les  formats,  en  adoptant
                   les  États.  Les  subsides  des  Etats  ne  sont  pas  basés  sur  un  sys-             peut-être,  ceux  recommandés  par  l'Association  « Die  Brùcke  ».
                   tème  conventionnel.  Les  grands  pays  industriels  et  le pays  du                   Nos  formats  du  Bulletin  de  l'Office  international  du  Travail
                   siège  social  accordent  naturellement  des  subsides  bien  supé-                     sont  conformes  à  ceux  du  Bulletin  de  l'Office  du  Travail  du
                   rieurs.                                                                                 Gouvernement   français  qui  lui  a  servi  de  modèle.  La  Revue
                                       E.  —  Budget  idéal.                                               belge  du  Travail,  le  Bulletin  américain,  la  Soziale  Rundschau
                                                                                                           autrichienne  ont  le,  même  format.  Pour  tous  ceux  qui  tra-
                     1.  Notre  budget  actuel  s'élève  à  88,450  francs,  dont
                   66,250  francs  sont  couverts  par  des  subsides  des  gouvernements.                 vaillent  ^dans  le  même  domaine,  cette  unité  des  formats  est
                   Les  sections  versent  une  contribution  annuelle  de  1,000  à                       d'un  certain  intérêt.
                   1,500  francs  chacune  et  de  15,000  francs  au  total.  Le  produit                   3.  a)  Répondu  sous  1.
                   de la vente  de nos publications s'élève annuellement à 4,000 francs.                     b)  La  publication  de  Standard  Works,  dans  notre  domaine
                                                                                                           par  exemple,  d'un  code  international comparé  du  droit  ouvrier,
                     2.  Un  budget  idéal  de  100,000 francs  a  été  proposé  au  début
                   de  la  formation  de  l'Association  Internationale. Nous  espérons                    dépend  surtout  des  moyens  financiers,  dont  disposent  les  Asso-
                   arriver  en  quelques  années  à  une  augmentation  des  recettes  de  la              ciations.  Certains  Standard  Works  ont  été  publiés  par  la  collabo-
                   part  des  pays  américains  et  des  colonies  anglaises,  ainsi  que  des             ration  internationale des  gouvernements  eux-mêmes,  tel  que  le
                   pays  balkaniques.  Ces  ressources  financières  permettraient  de                     Répertoire  technologique  des  professions,  œuvre  franco-  anglo-
                   donner  plus  d'étendue  au  Bulletin  de  l'Office  international  du                  allemande.
                   Travail,  dont  l'espace  ne  permet  plus  d'imprimer  in  loto  les                     c)  Les  périodiques  internationaux publiés  par  les  Associations
                                                             t
                   grandes  codifications  des  lois protectrices  du ravail  ;  d'organiser               Internationales  doivent  être  :  exacts,  complets  et  rapides.
                   peut-être  des  publications spéciales  pour  les  pays  de  langue  espa-
                   gnole  ;  de  disposer  de  sommes  suffisantes  pour  des  publications                                   B.  —  D o c u m e n t a t i o n .
                   spéciales,  rapports  comparatifs  sur  l'inspection  du  travail,  sur
                   le  droit  ouvrier ui font  actuellement  défaut.  Le  rôle  du  mécénat                  1.  Notre  bibliographie  répond  aux  besoins  de  la  documen-
                                  q
                   serait  utile  surtout pour  :  a)  l'achat  des  publications  et  leur dis-           tation  par  les  divisions  :
                   tribution  aux  bibliothèques  centrales  du  monde  ;  b)  octroi  de                    a)  Publications  officielles  ;  b)  Publications  privées  d'ordre
                   prix  pour  concours  à  organiser  par  des  Associations  Internatio-                 documentaire.
                   nales  ; c)  l'octroi  de  bourses  de  voyage  pour  la  propagande  et                  Chacune  de  ces  grandes  divisions  est  classée  en  livres  et
                   pour  les  enquêtes.                                                                    articles  de  revue.  Le  système  de  classification  d'après  lequel
                                                                                                           ces  dernières sont  subdivisées  a  été  créé par  l'Office  international
                                                                                                           du  Travail. Ce  système  de  bibliographie sert  de  base  à  notre  sys-
                      V .  —  D O C U M E N T A T I O N  E T  P U B L I C A T I O N S                      tème  bibliothéconomique.  Bien  que  les livres d'ordre privé  soient
                              E X P O S I T I O N  E T  E N S E I G N E M E N T                            rangés  dans  l'ordre  alphabétique  et  les  publications  officielles
                                                                                                           d'après  les  pays  des  auteurs,  xm. catalogue  classé  dans l'ordre  de
                      A.  1.  Nous  possédons  deux  genres  de  publications  :  I  o  celles             notre  bibliographie permet  de  travailler  selon  les  matières.  Les
                   de  l'Association  Internationale —  publications  qui  visent  direc-                  catalogues  alphabétiques,  ainsi  que  celui  d'après  des  matières,
                    tement  à  l'action  —  ;  2  0  celles  de  l'Office  international                   sont  rangés  en  cartothèques.  Les  dossiers sont  rangés  d'après  les
                    du  Travail, publications  d'ordre  technique  et  scientifique  ayant                 questions  à  préparer  pour  chaque  assemblée  dans  des  classeurs
                    un  caractère  documentaire.                                                           Zeiss  et  Stolzenberg  « Progrès  ».






















                                             —  14  —                                                                                —  15  —

                     2.  Notre  Association  est  disposée  à  accepter toute  améliora-                   Un  mouvement   pareil  de  reconstruction  ne  se  fait  que  par,
                   tion  de  son  outillage  technique,  pourvu  que  des  réformes  pa-                   étapes.  Nous  laissons  de  côté  les  questions  d'organisation  (par
                   reilles s'adaptent,  à  ses  besoins,  à  ses  moyens  et  au  personnel dont           exemple  des  congrès  périodiques,  introduits  dans  certaines  Uni-
                   elle  dispose.                                                                          versités  américaines).  Nous  nous  bornons  qu'à  certaines  remar-
                                                                                                           ques  qui  s'appliquent  aux  sciences  sociales  :
                               D . —  Université  et  enseignement.
                                                                                                             a)  Institution  d'un  centre  international pour  dresser  la  liste
                     1.  Notre  Association  compte  parmi  ses  169  délégués,  52  pro-                  des  personnalités  appelées  à  professer  avec indication  de  leurs
                   fesseurs  d'économie  politique  et  d'hygiène  sociale.  C'est  donc                   ouvrages,  de  leurs  succès  antérieurs,  de  leurs  connaissances  des
                   en  bonne  partie  aussi  une  association  internationale  du  corps                   langues ;
                   enseignant.  Plusieurs  de  ces  membres  ont  donné  des  conférences                    b)  Quant  aux  étudiants,  outre  des  annonces  dans  les  insti-
                   à  des  Universités  étrangères.                                                        tutions  d'enseignement  supérieur,  des  bourses  de  voyage  de-
                                                                                                                                                   i
                                                                                                           vraient  être  instituées  pour  réaliser  ce  but  ; l faudrait  également
                     2.  Les  membres  nommés  sous  1  ont  déjà  donné  des  cours
                   de  droit  ouvrier  international et  d'hygiène  sociale.  Notre  Asso-                 s'adresser  aux  organisations  ouvrières  et  coopératives  pour  la
                   ciation  peut  contribuer  à  la  propagnade  de  ces  cours  (encartage                sélection  de  leurs  meilleures  intelligences  ;
                   du  Bulletin  en  trois  langues),  et  s'adresser  sur  demande  à  ses                  c)  On  peut  combiner  une  faculté  de  science  sociale  avec  des
                   membres  pour  collaborer  à  une  œuvre  pareille.                                     cours  supplémentaires  d'hygiène,  d'histoire,  de  biologie  et  de
                                                                                                           psychologie  ;
                     3.  Le  projet d'une  Université  mondiale ne  peut  être  développé                    d)  I l faut  combiner  selon  les  circonstances  des  cours,  des  con-
                   que  conformément  à  l'évolution  universitaire  historique.  L a                      férences  et  tâcher  d'en  former  un  ensemble  ;
                   facultas  ubique  docendi  accordée  par  Grégoire  I X  en  1233,  a  offi-              e)  Le  point  de  vue  comparatif international  doit  prédominer
                   ciellement  confirmé  le  caractère  international de  la corporation                   sans  exclure  des  cours  sur  des  sujets  exclusivement  nationaux ;
                   universitaire  du  moyen  âge.  A  Paris,  les  étudiants  organisés  par               et  le  choix  des  langues  dépend  des  circonstances  locales  et  du
                   nations  ayant  marqué  des  préférences  pour  leurs  compatriotes,                    choix  personnel  du  professeur  ;
                   Robert  de  Sorbonne  les  exhorta  de  ne  pas  aller  solum  ad  magis-                 f)  Une  organisation  internationale  tâchera  probablement
                   tros  compatriotas  (voir  D É N I F L É ,  Geschichte  der  Universitäten              d'obtenir  une  organisation  fédérative  entre  les  universités
                   im  Mittelalter,  1885).  Ce  caractère  international manque  aux                      existantes,  en  offrant  à  celles  qui  veulent  y  appartenir  ses  ser-
                   Universités  depuis  leur  étatisation  et  le  réveil  des  nationalités.              vices  de  correspondance  et  de  renseignements.  I l n'est pas impos-
                   L'Université  souffre  tantôt  des  interventions de  la  raison  d'Etat,               sible  que plus ard l'une ou l'autre des grandes  universités  organise
                                                                                                                       t
                   tantôt  de  l'influence  des  intérêts  particuliers  des  comités  diri-               complètement  son  enseignement,  la  méthode  de  la nomination
                   geants  dans  les  Universités  privées,  tantôt  de  l'étroitesse  per-                des  professeurs,  l'établissement  des  programmes,  en  vue  des
                   sonnelle  et locale  des  facultés  autonomes.  Dans  plusieurs  sciences,              besoins  internationaux.  Le  courant  actuel  qui  souvent  vise  à
                   lorsque  ces  phénomènes  s'accentuent,  le  progrès  de  la  pensée                    l'exclusion  des  étudiants  étrangers,  ne  permet  pas  d'entrevoir
                   s'accomplit  en  dehors  des  Universités.  Nous  croyons  que                          une  réalisation  pareille  comme  prochaine.
                   l'échange  des  professeurs  et  des  étudiants  n'est  qu'un  faible
                   commencement   d'un  mouvement   qui  donnera,  par  l'interna-                               E .  —  U t i l i s a t i o n  des  Expositions  universelles.
                   tionalisation  de  certaines  activités  universitaires,  plus  d'indé-
                   pendance  au  corps  enseignant,  qui  activera  la  pénétration  de                      1.  Notre  Association  n'a  pas  encore  organisé  des  expositions.
                   méthodes  nouvelles  et  qui  fortifiera  le  jugement  personnel  des                    2.  Notre  Association  a  pris part  à  l'exposition internationale
                   étudiants  et  facilitera  le  choix  de  leur  carrière  intellectuelle.               de  l'Union  des  Associations  Internationale.  Quelques  sections






















                                              —  i6  —
                                                                                                                                —  17  —
                    nationales  ont  exposé  à 'Exposition  internationale  d'hygiène
                                            l
                    sociale  de  Dresde  et  de  Rome,  1912  ;  l'Office  international               en  allemand,  en  anglais,  en  français  et,  par  courtoisie,  en  italien,
                    exposera  à l'Exposition nationale  suisse  à  Berne  en  1914  et  peut-          et  en  espagnol.
                    être  à l'Exposition universelle  à  San  Francisco  en  1915.                       3.  Nous  avons  répondu  au  Secrétariat  de  l'Entente  scienti-
                      3.  Chaque  fois  qu'une  demande  de  participation nous  arrive                fique  internationale  pour  l'adoption d'une  langue  auxiliaire par
                                                                             l
                    de  la  part  d'un  comité  d'une  exposition  internationale, nous ui             lettre  du  25  mars  1913,  conçue  en  ces  termes  :
                                                                                                                                               d
                    recommandons   d'admettre  les  représentants  de  nos  sections                     «  Nous  sommes  convaincus  que  l'emploi u  français,  de l'alle-
                    nationales, surtout  les  présidents  et  les  secrétaires  dans  le  comité       mand  et  de  l'anglais  suffit  pour  le  moment  aux  relations  inter-
                    dirigeant  de  la  section  d'économie  sociale.  Quant  aux  congrès,             nationales.  Nos  expériences  prouvent  que  même  des  ouvriers
                    notre Association  a organisé  à Zurich en  1912,  la première  semaine            allemands  ont  appris,  dans  l'intérêt  de  la  solidarité  sociale,  les
                    sociale  internationale.                                                           rudiments  du  français  et  que  des  délégués  français  à  leur  tour,
                                                                                                      ont  appris  à  comprendre  des  discours  allemands.  La  plus  grande
                      4.  Nous  approuvons  la  création  d'une  section  internationale
                    au  sein  des  expositions  universelles.                                         difficulté  linguistique  existe  encore  pour  les  délégués  des  pays
                                                                                                      anglo-saxons.  C'est  plutôt  des  préférences  de  ces  pays  que
                                                                                                      dépendra  le  choix  d'une  langue  auxiliaire.  Ces  préférences  ne
                    V I .  —  L A N G A G E  S C I E N T I F I Q U E  E T  T E C H N I Q U E          sont  pas  encore  perceptibles.  I l serait  donc,  à  l'heure  qu'il  est,
                                                                                                      absolument  inadmissible  de  se  livrer  à  des  pronostics  sur  un
                                                                                                             f
                                A .  —  T e r m i n o l o g i e ,  N o m e n c l a t u r e .          accord utur  en  faveur  d'une  seule  de  ces  langues.  Actuellement,
                                                                                                      l'extension  de  chacune  dans  le  monde  se  poursuit  presque  pari
                      i .  Un  certain  principe  de  nomenclature  a  été  établi  dans  le           passu.
                    Bulletin  de  l'Office  international  du  Travail  (par  exemple  :  pro-           »  Dans  les  relations  entre  les  bureaux  des  Associations  Inter
                    tection  ouvrière  générale  ;  protection  ouvrière  professionnelle).           nationales,  l'usage  actuel  comporte  l'emploi  quasi  exclusif  du
                    Dans  notre domaine,  le  besoin  d'une  unification  de  la  classifica-          français.  I l  est  évident,  que  nous  correspondrions  en  allemand
                    tion  professionnelle  se  fait  sentir  davantage  que  celle  de  la            avec  un  Office  international  ayant  son  siège  à  Berlin  et  en
                    nomenclature.  Au  lieu  de  construire  une  classification  nouvelle,           anglais  avec  un  Institut  international  à  Londres.  La  langue
                    nous  avons  adopté  la  classification  allemande.  Puisque  chaque              auxiliaire  s'impose  dans  tous  ces  cas  pour  des  raisons  d'économie
                    administration  aime  à  construire  une  classification  différente,             de  temps,  de  frais  et  de  courtoisie  réciproque.
                    un  pareil procédé  est  plus  économique  qu'un  autre.                             »  Quant  aux  langues  artificielles, l nous  paraît  douteux  que
                                                                                                                                         i
                                                                                                      l'effort  intéressant  des  adeptes  de  chacun  des  multiples idiomes
                                  B . —  E m p l o i  des  langues.                                   rivaux  aboutisse  à  une  résultat  appréciable  dans  nos  rangs,
                                                                                                      d'ici  à  dix ans.  Nous  préférons  concentrer  nos  énergies sur  l'unité
                      1 .  Notre Association  admet  l'usage  de l'allemand, de  l'anglais
                                                                                                      sociale  des  peuples,  d'élargir  les  frontières  intérieures  qui  les
                    et  du  français.                               *                                 séparent,  de  combattre  la  xénophobie  des  institutions,  plutôt
                      2.  a)  Ses  publications  ont  paru  dans  trois  éditions  dans  les          que  d'épuiser  nos  efforts  dans  une  unification  des  manifestations
                    trois  langues  différentes.                                                      extérieures.  En  effet,  i l  est  préférable  de  sacrifier  aux  habitudes
                       b)  Les  discussions  et  congrès  sont  traduits succinctement  par           nationales,  plutôt  que  de  perdre  l'appui  de  l'opinion  publique
                    des  interprètes  ;  en  commission  on  se  borne  quelquefois  par              dans  tous  les  pays par l'adoption d'une  langue  exclusive.
                    courtoisie  à  l'allemand ou  au  français.                                          '> Mieux aut  s'entendre  que  se comprendre. »
                                                                                                                v
                      c)  La  correspondance  administrative  et  scientifique  se  fait

