










                         Institut InternatLonal de      Bibliographie
                     PUBLICATION N' 25             INDICE BIBLIOGRAPHIQUE [02S .,]
                                                                           •


                    CLASSIFICATION               BIBLIOGRAPHlijUE



                                       DEC1MALE

                                              .. ?.-
                                             -
                          TABLES GENERALES REFONDUES

                                   etablies  en vue de la publication du
                      REPERTOIRE       BI BLIOGRAPH    IQU  E  UN IVERSEL




                                  EDITION      FRANQAISE
                                        publh!e avec Ie concours du
                              BUREAU BIBLIOGRAPHIQUE DE PARIS



                               ,FASCICU            E·N°       19
                                      Tables de la division [I]

                      PHILOSOPHIE.         QUESTIONS MORALES













                             INSTITUT INTERNATIONAL DE BIBLIOGRAPHIE

                      BRUXELLES,  I,  rue du Musee.    PARIS, 44,  rue de Rennes.
                                      ZURICH, 38, Eidmattstrasse.

                                              1905











                                 MANuEL DU REPERTOIRE BIBLIOGRAPHIQUE
                                                    UNIVERSEL
                                                 DE I:IX-STlTUT IXl'ER:\Al'lO)lAL DE J31BLlOGRAPHlE-]
                                     [PUB'UCATlON  1\" 63
                               Cette publication resume  et condense  en  un seul volume mis  a Jour
                                                                          International de
                             les diverses publications fragmentaires que  l'Institut
                             Bibliographie  a fait paraltre jusqu'a  ce jour  sur  son organisa ion,  ses
                             methodes et ses travaux, Elle corrtient les matieres detaillees ci-apres.
                                                               de 2,OQO pages, relie .en pleine
                                                un volume de plus
                                        com porte
                               L'ouvrag e
                             percaline, avec disposition speciale d'ongletsfacilltant sa consultation. Le
                             prix de souscription est fixe a 30 francs par exemplaire, port  en plus. Les
                             tables de classification reproduisent  in extenso les tables publiees separe­
                             ment dans la publication  nO  S.
                             ORGANiSATION)   TRAVAUX,   METHODES
                               OrganisatIon.
                                    I. Le Repertoire bibliographique  universel de l'Institut Interna­
                                       tional de Bibliographie.
                                    II. Statistique genefale des services et des  ravaux.
                                   III. Actes officiels, statuts, etc.
                               Catalogue des travaux.
                                   IV. Catalogue  du Repertoire bibliographiqne  universel. (Prototype
                                        du manuscrit.,
                                    V. Catalogue de la « Blbliographia  Universalis », (Contributions
                                        imprimees.)
                                   VI. Catalogue  des publications  diverses.
                               Regles  et methodes.
                                  VII. Etablissement des repertoires  sur  fiches  : Repertoires  des
                                        matieres, repertoires des auteurs, autres repertoires.
                                 VIII. Redaction des notices bibliographiques.·
                                   IX. Publication des  notices bibliographiques  en recueils  et  sur
                                        fiches.
                                    X. Modes divers de cooperation  au Repertoire bibliographique
                                        universe!'    .
                                   XI. Organisation des diverses collections de documents.
                                  XII. Materiel et accessoires a l'usage des repertoires.
                              TABLES DE   CLASSIFICATION BIBLIOGRAPHIQUE
                                       Expose et regtes de la Classification de clmale  ,
                                       Table principale.
                                       Tables auxiliaires.
                                       Index a lphabetique general.


                                                 MANUEL ABREGE
                                DU REPERTOIRE BIBLIOGRAPHIQUE             UNIVERSEL
                                      lPUBTJCAl'JON ?" 65  DE r.'L?Srt1·UT INTERNATIONAL  DE BIDLIOGRAPIIlE]

                                Ce Manuel abrege comprend  les memes matieres que le Manuel com­
                              plet (publication  nO 63) decrlt ci-dessus, sauf pour les Tables de Classification
                              bibliographique, qui  sont Iimitees  aux divisions principales (environ mille
                              rubriques).  En souscription, 3 francs.  eventuellement completer
                                Les souscripteurs  au Manuel abrege pourront
                              cet ouvrage par l'acquisition des fascicules des Tables de classification
                              relatifs  aux branches qui les interessent. Pour la vente de ces fascicules, .  .
                              voir ci-apres Classification bibliograPhique  decimale (publication  nO 25).






















                  I   PHILOSOPHIE                      ET      QUES­
                                 TIONS MORALES



                     Divisions generctles.

                            II  Metaphysique  et Cosmologie.
                            13  Rapports  de l'ame avec le corps.
                            14  Systerries et doctrines philosophiques.
                            15  Psychologie.
                            16  Logique.
                            17  Morale. Questions  morales.
                     1J'Iatieres connexes, References et concordances.


                            21   Theolog ie naturelle. Theodicee.
                            301   Philo sophie des sciences sociales. Sociologie.
                            34·01  Philosophie du Droit.
                            701  .Philosophie de l'Art.  Esthetique.
                            901   Philo sophie  de l'Histoire.

                     Observations gene1·ales.

                            A.  Bases de la division.  -  11 y a lieu de distinguer  :
                            Les diverses  branches  de la  Philosophie. (Ex.  : logique,
                          morale, psychologie, etc.);
                            Les questions philosophiques  en particulier. (Ex.  :  cause,
                          volonte, etc.);
                            Les systernes philoso phiques. (Ex. kantisme,monisme, etc.);
                                                        :
                            Les philosophes et les eccles  philosophiques. (Ex.  :  Aristote,
                          Descartes, Cartesiens, etc.);
                            L'histoire g enerale de la  Philosophie ;
                            L'etude des questions philosophiques, Iirnitee a un lieu et a
                          une epoque. (Ex.  : L'idee de cause chez les philosophes fran-
                           cais elu xvme siecle};
                                                                           .
                            Les questions qui ne rentrent pas dans les cadres de la Philo­
                           sophie proprement dite,  mais qui, tout  en relevant d'autres
                           sciences, sont traitees au point de vue ele la Philosophie. (Ex.  :
                           Philo sophie  du Droit.)













                                        B. Branches et questions speciales  ,  -  Les diverses branches
                                       de la Philo sophie  et les questions particulieres sont classees
                                       sous les divisions II a. 17 (division 14 exceptee) .. Ex.  :
                                           15  Psychologie.
                                           [59  Volonte,
                                        Lorsqu'une etude est Iimitee a. l'examen de la question dans
                                      un systerne philosophique determine,  on la classe  en ordre
                                      principal  a. la matiere speciale, suivie du nombre  propre a. ce
                                      systeme, par division de relation. Ex. :
                                           159: 149.222  La volonte  -  dans Ie kantisme.
                                           I22  : 149.915  L'idee de cause  -  dans le monisme ..
                                           122  : 149.916  L'idee de cause  -  dans I'evolutionisme.
                                        Lorsque la matiere est limitee a. l'examen de la question,
                                      dans un pays ou a une epoque donnee, ou chez un philosophe
                                      determine, on la divise par les subdivisions de lieu, de temps ou
                                      de nom propre.  Ex. :
                                           [22 (51)  L'idee de cause  -  chez les philosophes chinois.
                                           I22  « 17  l)  L'rdee de cause  -  chez les philosopbes du XVIII' siecle,
                                           122 (Aristote)  L'idee de cause  -  chez Aristote.
                                        C. Systeme s philosophiques.  -  Les systemes philosophiques
                                      generaux sont classes sous les divisions respectives de 14. L'on
                                      reunit la tout ce qui conceme l'expose des systemes,  leur histoire,
                                      leur critique,  etc. Les systernes d'idee d'un philosophe  ou de
                                      son ecole sont classes comme il est dit sous D.
                                        Les subdivisions de lieu et de temps  sont applicables  aux
                                      divisions' par systemes. Ex. :
                                          147 «'II»  Le pantheisme au xu- siecle,
                                        Facultativement et par duplicata, on peut classer sous chaque
                                      systeme, par les divisions de relation i  , l'application du systerne
                                      a une branche de la Philo sophie ou a une question deterrninee.
                                      Ex.
                                          147 :  122  Le pantheisme  -  et la causalite,
                                        D. Philosophes et ec o les.  -  Tout ce qui concerne  un philo­
                                      sophe determine,  sa vie, ses ceuvres,  ses doctrines generales,
                                      les ecrits ernanant de lui et ceux dont lui-meme et ses ceuvres
                                      ont ete l'objet,  est classe  sous  I (A-Z), pourvu quil s'agisse
                                      d'ecrits traitant de l'ensemble de l'ceuvre du philosophe  ou de
                                      .I'une de  ses  ceuvres qui traite de la Philo sophie  en general.
                                      Lorsque  ces ecrits concernent  une question speciale de philo­
                                      sophie,  ils sont classes  sous cette question, ainsi qu'il est dit
                                      sous I'observation B. On classe sous chaque philosophe tout ce
                                      qui  concerne les eccles qui  se rattachent directement a. lui et
                                      que I'on peut regarder comme continuant son ceuvre. Ex.  :
                                          I (Aristote)  Les aristoteliciens ou l'ecole peripateticienne  ,
                                                  .
                                        Facultatiuement ei par dl.tplicata, on peut classer sous la division
                                      propre a chaque philosophe  leurs travaux personnels  ou les












                         travaux qui  les concernent relatifs a une question speciale. On
                         se sert a cet effet des divisions de relation. Ex.  :
                              I (Aristote)  :  122  Aristote  -  et la theor ie de la cause.
                              r (Aristote)  : [59  Aristote  -.  et la theor ie de ia volonte.
                           Les ecrits  sur les philosophes d'un pays  ou (l.'une epoque
                         sont classes sous la division I suivie des subdivisions de lieu ou
                         de temps correspondantes.  Ex.  :
                              r (44)  Les philosopbes francais.
                              I  « 17  »  Les philosophes du XVIIre siecle.
                              r (44)  « r7  »  Les philosophes francais du XVIIl· siecle.
                           E. Histoire de la Philosophie.  -  L'histoire de la Philosophie,
                          d'une de  ses branches ou de' questions philosophiques parti­
                          culieres ctudiees  en general  ou  limitees i  un pays  et a une
                          epoque est classee a la division correspond ante, subdivisee par
                          la subdivision commune correspondante. Ex.  :
                              r (09)  Histoire generate  -  de la Philosophie.
                              1 (44)  Histoire de la Philosophie  -  en France.
                              1 (44)  « [6»  .Hiatuire de la Philosophia  -  en France  -  au xvn- siecle.
                              15 (09)  Histoire generate  -  de Ia Psycholog'ie;
                              15  « 14  »  La Psychologie an  _.  XlV" siecle,
                              159 (09)  Histoire generale  -  des doctrines sur la volonte.
                              159 (51)  La tbecrie de la volonte  -  chez les ph i losophes de In Chine.
                            F.  Matl eres etrangeres it la Philosophie.  -  Les etudes a  un
                          point de  vue philosophique des diverses questions qui  ne figu­
                          rent pas  dans  la  classification de la Philosophic, mais qui
                          relevent d'autres sciences, sent classees  avec chaque matiere
                                  soit  sous  un nombre special,  soit  sous le nombre
                          speciale ,
                          propre a l'une de ces sciences, suivi de la subdivision commune
                          (OI) Philosophie de ... Ex.  :
                                    Philosophie du Droit.
                                    Philosophie des mathematiques.
                                    Philosophie de l'Art et du Beau ou Esthebique.
                            Facultatiuement ei par dztplicata, et en se servant des subdivisions
                          par relation t  ,  on pourra reunir sous les divisions du I tous les
                          travaux  sur Ies questions quelconques dont le siege des  rna­
                          tieres est ailleurs, mais qui sont envisagees  au ·point de vue des
                          doctrines et theories philosophiques.
                            G. Terminologie de la Philosophie.  Synonymie.  -  La ter­
                          minologie de la Philosophie est loin d'etre fixe e.  Un grand
                          nombre de termes  ont  une signification speciale d'apres les
                          eccles et suivant les epoques, Pour faciliter le classement, le
                          contenu des rubriques  a ete precise par l'indication des termes
                          les plus 'usites dans l'histoire de Ia Philo sophie  et chez les
                          philosophes contemporains. Les synonymes out ete distingues
                          les  uns des autres, et de nornbreuses references ont Me faites
                          d'une division a l'autre lorsqu'une meme question est traitee
                          sous divers chapitres et a des points  de  vue differents,  par
                          exerrrple,  en Psychologie,  en Logique et en Morale.'



                                    \  -


                                                                  -?--.;:,;,."








                                         H. Resume.  -  En resume, par l'application des combinai­
                                       sons de divisions qui viennent cl'etre exposees,  on dispose du
                                       moyen de classer, soit l'ensemble de la  Philosophie, soit une
                                       branche particuliere de la Philosophie, soit  une matiere philo­
                                       sophique speciale, aux  quatre points de vue differents du lieu,
                                       du temps, d'un systerne, d'un philosophe ou de son ecole.
                                         La recapitulation des exemples cites  montrera l'ordre  de
                                       succession des rubriques cornbinees comme il vient d'etre dit  :
                                            I r09)      Histoire generale  -  de la Philosophie.
                                            I (44)      La Philosophie  -  en France.
                                            I (Aristote)  La Philosophie  -  d'Aristote.
                                            I  « 16 l)  La Philosophie  -  au XVII" siecle,
                                            122         Cause.
                                            I22: '49,9,5  L'idee de cause  -  dans Ie monisme.
                                           I22 (5I)     L'idee de cause  -  chez les Chinois.
                                            122 (Aristote)  L'idee de cause  -  chea Aristote.
                                            I47 (44)    Le Pantheisme  -  en France.
                                            '47 (44\ «II  »  Le Pantheisme  -  en France  -  au XII' siecle,
                                            I5 (09)     Histoire generale  -  de la Psychologie.
                                            ,5 (44)     Les etudes de Psychologie  -  en France.
                                            15(44?«I6])  La Psychologie  -  en France  -  au xvn- siecle.
                                            IS: 149.222  La Psychologie  -  au point de vue du kantisme.
                                            IS 'Aristote]  La Psychologie  -  d'Aristote.
                                           ,59 (Sri     La volonte  -  d 'apres les philosophes chinois.
                                            159  « 1"6  »  Les idees sur la volonte  -  au xvn- siecle.
                                           159  : 149.222  La volonte  -  dans Ie kantisme.
                                           159: 149.222  « IS))  La theor ie de Ia volonte  -  chez les philosaphes kantiens
                                                           -  du XIXe siecle,
                                           I59 (Aristote)  La theorie de Ia volonte  -  chez Arlstote.


                               I  [:, (),  «  )), A-Z]  Generalia.
                                         Les subdivisons de relation, de forme, de temps,  de  nom de
                                       personnes sont employees  comme il a ete dit  aux observations
                                       generales.
                                         Les divisions de (0)  sont empruntees a la table I,  Subdivi­
                                       sions communes de gerieralites et de forme. Elles peuvent etre
                                       combinees avec une division quelconque des tables  de  Philo­
                                       sophie. Ex.  :
                                              I (02)  Traite de Philosophie.
                                              I6 (02)  Traite de Logique.
                                              1 (05)  Revue de Philosophie.
                                              ,6 (05)  Revue de Logique.


                               II   Metaphysique.
                                           Voiraussi 21  Theologie naturelle.
                               III   Ontologie.
                                       Etre. Possible. Reel. Existence. Essence,
                                  .r
                                  • 2  Attributs transcendantaux de I'etre, Unite. Verite ontologique  .
                                         Bonte. Perfection. Mal  physique.  Beaute. Identite, Totalite.
                                           Voir aussi 157.1  Psychologie du Beau  .
                                                  • 7.01  Philosophie des Beaux-Arts. Esthetique  ,












                  III.3  Substance. Nature. Individu. Monade. Perscnne. Hypostase.
                           Principe d'Indivlduation.
                                Voir aussi  I I 3  Cosmologie  .
                     . 4  Accident. Qualite.  Faculte. Mode. Figure. Fonction.
                                Voir aussi 1Ir.3  Substance,
                                      Ill.5  Relation.
                                      I I3  Cosmologie generate  .
                    . 5  Relation. Rapport,  Relativisme. Phenomene, Attributs. Appa-
                           rences. Hypothetique.  Absolu.  Noumene.  Chose  en  soi.
                           Inconnaissable. Antinomie.
                              Voir aussi 111.3  Substance.
                                    165  Certitude .
                     . 6  Acte et puissance  .
                     . 7  Immateriel. Esprit pur.
                              Voir aussi lSI  Arne.
                  IJ2  Methodologie generate. Classification philosophique des
                         sciences.
                              Voir aussi 025.4  Classification bibliographique.

                  II3  Cosmologie generale.
                           Lois de la nature et morrde physique  au point de vue philo­
                          sophique. Transformation et corruption substantielle.
                              Voir aussi  I I 7  La matiere et Ia forme.

                  II4  Espace. Lieu. Dimension. Vide.
                              Voir aussi II9  Etendue, nombre.
                                    152.8  Perception de l'espace.
                  IIS  Temps. Duree. Eternite.
                              Voir aussi 152.8  Perception du temps.
                  II6  Mouvement.   Mobile.  Action transitive, immanente, a
                          distance.  Devenir.
                              Voir aussi 152.8  Perception du mouvement.
                  II7  Matiere. Forme. Corps.  Cause materielle et formelle.
                          Entelechie,
                  IIS  Force. Energie.

                  IIg  Quantite,  Etendue. Continuo Nombre. Grandeur. Masse.
                                Voir aussi 152.8  Perception de I'eteudue.



                 I2  Autres matieres de      metaphysique.

                [  121  Theorie de la connaissance. Origine et limite.    ]
                            Classer a 15r.2.


                                                ·-------?- .. ?-            .......  -  -  .__









                                     Causalite, Principes. Cause efficiente.  Condition. Effet,
                                        Occasion.
                                            Voir aussi Il7  Causes materielle et formelle.
                                                  124  Causes finales.
                                      Liberte et necessite. Contingence.  Futurs contingents.
                                              Voir aussi I?9.I  Liberte et determinisme, en psychologie.
                                                     233.7  Liberte, en theologie.
                                                     234.9  Predestination.

                                124   Teleologie. F'inalite. Causes finales. Ordre. Norme. Ha-.
                                       sard, Destinee. Cause exemplaire. Ideal. Type.  Arche­
                                       type.  Valeur.
                                125   Infini. Fini. Iridefini , Univers.


                                126   Conscience. Personnalite,
                                               Classer a 153.7.

                                127   Inconscience. Automatisme.
                                               Classer a 153.8.

                                128   L'ame,
                                               Classer a 151 4.

                                129   Origine de l'arne iridi'viduelle.
                                               Clusser a ISt.5  .
                                   . I  Creatianisme,
                                               Classer a ISr. 51.
                                   .2   Traducianisme.
                                               Classer a lSI. 52 .
                                   . 3  Preexistence.
                                               Classer a 151.53  .
                                   . 4  Migration. Palingenesie.
                                               Classer a 151.54  .
                                   . 5  Emanation.
                                               Classer a r5r.55
                                               Voir aussi J47  Pantheisme philosophique.
                                                     2i2  Pantbeisme theologique.




                                13   Rapports   du   corps  et  de  l'esprit. Anthropo­
                                      logie philosophique.
                                             Voir aussi 15  Psychologie
                                                   57  Biologie.
                                                   576  Origine de la vie, en biologie.
                                                   6r2  Physiologie.












                   131   Physiologie  et hygiene  de l'esprit.
                               Voir 613.8  Hygiene du systeme nerveux.

                   132   Troubles de l'esprit.
                             Maladies mentales. Psychoses. Psycho-nevroses-  Delires.
                                                              Psycho-patholog1e.
                           Obsessions.  Tics  intellectuels.  Manies. Alienation mentale.
                           Psychologie  teratologique. Psychiatrie.
                               Voir aussi 343.963  Folie et eriminalite.
                                      616.8  Maladies mentales,  en medecine .
                      . 1  Folie. Insanite. Alienation mentale .
                      • 2  Irnbecillite. Idiotie  .
                       . 3  Melancolie  .
                           Catalepsie. Epilepsie. Hysterie.
                       . 4
                               -Voir aussi I34  Hypnotisme  .
                       . 5  Extase.
                                Voir aussi :c33.2  Extase, en sciences occultes  .
                       . 6  Manies criminelles. Cleptomanie.
                                Voir aussi 343.9 Anthropologie·criminelle  .
                           Manies vicieuses. Dipsomanie.
                       . 7'
                                Voir aussi 178  Alcoolisme.

                    133   Etudes psychiques.  Sciences occultes.
                              Esoterisme- Xenolcgie. Tclepathie.  Mediumnite.
                              Un grand  nombre de questions que  l'on fait parfois  rentrer
                            dans le cadre des sciences occultes sont classees au siege prin­
                            cipal de ces matieres, dans les autres parties  de la classification,
                            notamment avec la Philo sophie  et la Religion.
                                 "Voir aussi  I25  Fini et infini.
                                        I49·3  lYlysticisme philosophiq ue.
                                        I49·918  Theosophie.
                                        I5r.54  lYIetempsycose.
                                        164   Symbolique en general.
                                        246   Symbolique religieuse.
                                        398   Croyances et traditions populaires.
                                        6I2.8  Psycho-physiologie.
                                        6,3.26  Vegetarianisme.

                              Les questions morales, religieuses,  sociales et scientifiques,
                             envisagees  au point  de  vue de l'occultisme, sont classees par
                             division de relation SOllS 133  :. On classera ainsi notamment :

                                133  : 51  L'Occultisme et les mathernatiques.
                                          Mystique des nombres. Kabbales. Quatrieme dimension. Les
                                         trois plans  .
                                . 133  52  L'Occultisme et l'Astronomie.
                                           Astrologie. Corps astral.
                                           Classe precedemmen t a 52.0< et 133.5 Astrologie.












                                         133  53  L'Occultisme et la Physique.
                                                    Physiq ue transcendantale ou occulte. Rayonsinconnus, Spectre
                                                  universel. Action a distance. Xenophysique cosmique.
                                          133  54  L'Occultisme et la Chimie.
                                                    Chimie  transcendantale.  Alchimie,  pierre  philosophale  ,
                                                   Grand ceuvre.
                                         133  57  L'Occultisme et la Biologie.
                                                    Generatio cequivoca. Elixir de longue vie et d'immortalite  ,
                                                   Vis format.iva. Sixieme sens. Monstruosites. Exteriorisation de
                                                   Ia sensibilite et de In. motricite,
                                          133  : 59  L'Occultisme et la Zoologie.
                                                    Animaux fabuleux. Andrordes.
                                          133  : 61  L'Occultisme et la Medecine,
                                                     Prieres pour recouvrer la sante. Cures sympathiques. Mede­
                                                   cine spagyrique. Hermetisme.
                                          133  : 92  Hommes curieux.et etrang es.

                               133.1  Apparitions. Esprits.
                                         Etres surnuturels,  spectres, esprits,  revenants, 'fantomes,  vampires, loups­
                                        garous Maisons hantees, lutins, farfadets, Iycanthropes.
                                            .
                                           Voir aussi  133.9  Spirifisme.
                                                  23r.7  Apparitions.
                                                  235   Anges, diables, demons.
                                                  398.4  Fees. Elfes.
                                 .2   Hallucinations. Illusions. Visions et extases religieuses. Illumi-
                                        nisme.
                                           Voir aussi 132.5  Extase au point de vue psychiatrique.
                                                 398.3  Croyances et superstitions populaires.
                                  .3  Devination. Predictions.
                                          Art devinatoire, presages, signes celestes, prodiges, augures, horoscope. Oracle,
                                        sorts, baguette devinatoire. Sibylles. Enigmes. Explication  des songes. Double
                                        vue.  Somnambulisme  extra-lucide  .  Inspiration, prophetisme .. prediction, pro­
                                        nostie. Bonne aventure. Cartomancie, tireurs de cartes, interpretes du  marc de
                                        cafe, du verre d'eau, etc. Ceomanoie.
                                           Voiraussi  003  Graphologie.
                                                  r33.6  Chiromancie.
                                                   224  Propheties bibliques.
                                                  228   A pocaJypse.
                                                   23r.7  Miracle et prodige.
                                                   398.7  Livres de songes.
                                  :4  Magie et sorcellerie.
                                          Demonclogie. Tbeurgie, sanatisme, necrornancie. Magie noire, magie blanche.
                                        Fascination.  Evocation.  Enchantement,  enscrcel lement,  Exorcisme  .  Mauvais
                                        ceil, envoutement,  rnalefices. Talisman, charrnes,  amu lettes, mauvais  conseils,
                                        Tarot,  grimoires,  livres  noirs,  bibliomancie.  Animaux  incubes  et  succubes.
                                        Instruments de magie, metaux magiques. messes noires.
                                           Voir aussi  235  Anges et demons.
                                                   149.9,8  Escter'isme.
                                                   263.1  Sabbat  .
                                                   272.8  Persecutions.













                 [  I33.5  Aslrologie.    : 52  .                           ]
                               A classer 50115 I33
                      . 6  Chiromancie.
                              Chirologie. Chirognomonie. Physiologie de la main. Art de lire dans la main,
                      . 7  Charlatanism e.
                                Voir aussi 398.3  Croyances et superstitions populaires  .
                      . 9  Spiritisme. Recherches psychiques.
                              Tables tournantes. Dons et mauvais esprits. Forces occultes. Mediumnite. Exte­
                             riorisation de sensations.
                                Voir aussi 235  Demonologie,
                                      289.4   Eglise sw?de?borgienIle.
                                      612.82I.7IS  Spiritisme et sciences connexes, en physiologie.

                    134  Hypnotisme.
                              Suggestion. Magnetisme. Magnetisme animal. Mesmerisme. Lethargie. Faki­
                             risme. Clairvoyance. Lucidite. Transmission de la pensee. Telepathie.
                                Voir aussi 343.64  Hypnotisme,  en droit penal.
                                      612.821.711  Hypnctisme, en physiologie.
                                      621.821.7'4  Lucidite et telepathie, en physiologie.
                    135  Sommeil et veille.
                             Reves. Somnambulisme,
                                Voir aussi 612.S2I.7  Sommeil, en physiologie.

                    136  Caracteres mentaux.
                             Psychologie genetique, individue11e et sociale.
                                Voir aussi 6I2.8.n.303  Intelligence selon les races, les indi vidus, les ages et
                                               les professions  .
                           Influence du sexe : hommes et femmes. Psychologie sexueUe.
                       . I
                                Voir aussi 376.2  Capacite mentale des femmes .
                       . 2  Influence du milieu physique.
                                Voir aussi 573.4  Histoire naturelle de l'homme .
                       . 3  Influence de I'heredite et de I'evolution. Influence ancestrale.
                                Voir aussi 233.3  Heredite spirituelle.
                                      575.I  Evolution  .
                       . 4  Influence de la  race.  Psychologie ethnique. Psychologie des
                             peuples.
                                Voir aussi 572  Ethnologie  .
                       . 5  Influence de l'age  : adolescence et vieillesse.
                                Voir aussi r36.7  Influence de I'enfance .
                       . 6  Influence de l'organisme. Teratologic  .
                       . 7  Influence de l'enfance. Psychologie infantile. Pedologie.
                                Voir aussi 37  Education.
                                      37'  Pedagogic  .
                       . 8  Influence du milieu social, de la collectivite, des classes sociales.
                             Psychologie collective des professions, des foules, des groupes.
                                Voir aussi 343,95  Psychologie des criminals.
                                      343.974  Crime des foules.


       J?====?==?????=-?'?==?????-???--?/                                                             ?


       ?L




                              137  Temperament.   Caractere.  Psychologie  individuelle  ou
                                     differentielle. Idiosyncrasie.
                                         Voir aussi r36. I  Psychologie sexuelle.
                                                138  Physiognomonie.
                              138  Physiognomonie.
                                       Mimique, signes revelateurs du caractere, expression des
                                      emotions.
                                        Voir aussi 003  Graphologie.
                                               IS7  Emotion, sympathie.
                              139  Phrenologic. Localisations cerebrales,
                                        Voir aussi 152  Sens.
                                               612.825.1 Localisation cerebrate, en physiologie.



                             14 Systemes     et doctrines   philosophiques.
                                       Expose, historique, critique, etc., des divers systemes  et
                                      doctrines.
                                          Voir observation sous I D.
                                          Voir aussi SOllS 2 les doctrines religieuses.

                              141  Idealisme.
                                       Transcendantalisme. Subjectivisme.  Phenomenisme. Philo­
                                      sophie de I'identite,

                              142  Philosophie critique.
                                       Criticisme, Critique du jugement. Critique de la raison  pure.
                                          Voir aussi 165. I  Verite logique.
                              q3    Intuitionalisme.
                              144   Empirisme.

                              145   Sensualisme.
                              I46   Materialisme. Positivisme.
                                       Naturalisme Religion de I'Humanite,
                                                 ,
                                          Voir aussi 176.7  Naturalisme dans I'art.
                              147,  Pantheisme, Panentheisme.
                                          Voir aussi 149.915  Monisme.
                                                212   Pantbeisme  religieux, en theologie,
                              148   Eclectisme. Syncretisme.

                              149   Autres systemes philosophiques  .
                                 . I  Nominalisme. Conceptualisme  .
                                 . 2  Realisms.
                                          Voir aussi 146  Materialisme,













                     149·3   Mysticisrne philosophique.
                             Associationalisme.
                        ·4
                        . 5  Optimisme.  Meliorisme  .
                        . 6  Pessimisme  .
                                 Voir aussi 216  Le mal, en theologie  .
                        . 7  Agnosticisme philosophique.
                                 Voir aussi 273.8  Agnosticisme religicux .. en theologie  .
                        . 8  Nihilisme .
                        . gl I  Rationalisme. Intellectualisme. Innatisme. Inneisme. N ativisme.
                                    Voir aussi 2II  Rationalisme, en religion  .
                         g12
                        .    Scepticisme. Sophistique  .
                        . g13  Fatalisme.
                                    Voir aussi 2f4  Providence,  en tlieologie  .
                        . 914  Spirrtualisme  .
                        . g15  Monisme et dualisme. Parallelisme, Harmonie preetablie. Ani­
                               misme .
                        . g16  Evolutionisme. Evolution des especes. Transformisme.
                                    Voir aussi 575  Evolution, en biologie .
                        . 917  Atomisme et dynamisme. Mecanicisme. Energetique  .
                        . 918  Theosophie. Philosophie. Esoterique.
                                    Voir aussi 133  Sciences occultes.
                                          294  Bouddhisme .
                        . gIg  Scolastique  .
                        . g2I  N eo-scolastique  .
                        . g22  Kantisme .
                        . g23  N eo-kantism e. N eo-criticisme
                        .924  Occasionalisme .
                        . g25  Liberalisme  .
                        . g26  Dogmatisme  .
                        . 927  Traditionalisme. Fideisme  .
                        . g28  Pragmatisme  .
                        . 929  Polyzoisme  .
                        . 930  Volontarisme.



                     IS  .  Psychologie.

                             Etude des facultes mentales.
                               La psychologie comparee des races, des groupes, des ages et
                             des  sexes est classee SOllS 136.
                               La psychologie physiologique,  comme son nom l'indique, releve a
                             la fois de la Psychologie IS et de la Physiologie 612. Elle a ete
                             classee  avec detail  sous 612.82. On  se reportera done a cette
                             division, mais il sera loisible de classer ici, sous IS, par duplicata,
                             toute la psychologie physiologique, en y rattachant par Ie signe
                             de  relation..:....,  les divisions de 612.82. Ex. :
                                    6r2.lh5.2  Localisation cerebrale,
                                 15  : 6r2.825.2 Lo?alisation cerebrate, en psychologie.


                                              oF








                                      Les divisions ci-apres sont plus specialement  consacrees aux.
                                    travaux d'ordre philosophique. En regard des divisions,  on  a
                                    rappele les divisions correspondantes propres a la Physiologie.
                                        Voir aussi 343.95  Psychologie des crimi nels.
                                               612.82!.303  Psychologie comparee des a.ges, des  sexes, des indi­
                                                       vidus, des professions et des races.
                                               612.52[.31  Psychologie comparee des animaux.

                            151  Arne. Connaissance.
                                    Acti vite psychique. Espece intentionnelle. Cognition.
                                        Voir aussi r3I.7  Esprit pur.
                                               r52  Ccnnaiesance" sensible .
                               . r  Genie. Talent d'invention.
                                        Voir aussi 612.821.302. en physiologie .
                               • 2  Theorie de la connaissance. Origines et limites de la connais-
                                                     -
                                      sance. Ideologie.
                                        Classe precedemment a IZI.
                                        Voir aussi 152  Sens.
                                               153  Intelligence  .
                               . 3  Connaissance, arne, intelligence, instinct des animaux. Psycho-
                                      logie animale Oil comparee.
                                        Voir aussi 6X2.82r.3r  Instinct des animaux.
                                               6X2.82t.32  Intelligence des animaux, en physiologie.
                                               636.044  Dressage des animaux domestiques.
                                    Nature  et siege de l'ame. Unite, spiritunlite,  individualite
                                      et personnalite, etc.
                                        Classe precedemment a. 128.
                                        Voir aussi r5r.6  Immortalite de l'arne.
                                               153.7  Pereonnalite.
                                               218  Immortal ite,  en theolcgie.
                                               237  Etat futur, en eheclogie .
                               . 5  Origine de I'ame. Theories cliverses.
                                        Classe precedemment it 129  .
                               . 5r   Creatianisme.
                                        Voir aussi 231  Creation .
                               . 52  Traducianisme. Transmission de I'ame par heredite.
                                        Voir aussi 136.3  Heredite mentale, en psychologie.
                                              233.3  Heredite spirituelle, en theologie.
                                               575.1  Evolution .
                               . 53   Preexistence de l'ame .
                               . 54   Migrations. Transmigrations. Palingenesie  .. Reincarnation.
                                        Meternpsycose  .
                               . 55   Emanation des ames.
                                        Voir aussi 147  Pantheisme.
                                               212  Tbeologie naturelle .
                               . 6   Vie future. Immortalite de l'ame. Survivance.
                                        Voir  aussi 218  Vie future,  en theologie  .






                      .
                      _












                     152  Sens.
                              Faculte passive  ou receptive. Perception et representation
                             sensible. Sensation. Sensibilite. Impression. Connaissance  sen­
                             sible. Psycho-physique. Psychologie physiologique. Synes­
                             thesie. Anesthesie, Hyperesthesie.
                                 Voir observation SOllS IS.
                                 Voir aussi 6u.8  Anatomie du cerveau et du systeme ncrveux,
                                       612.8  Physiologie du systeme nerveux  .
                        • 1  Vision.  Sens visuel. Daltonisme. Images consecutives. Con-
                              traste.
                                 Voir aussi 612.84_
                       .2   Audition. Sens auditif. Audition coloree,
                                 Voir aussi 612.85  .
                        . 3  Olfaction. Sens olfactif. Odorat.
                                 Voir aussi 6r2.86 .
                            Gustation. Gout.
                        . 4
                                 Voir aussi 6I2.S7  .
                       . 5  Toucher. Sensibilite tactile.
                                Voir aussi 612.88 .
                       . 6  Sens musculaire, Effort musculaire. Position. Station. Equilibr e.
                              Vertige.
                                Voir aussi 612.885 .
                       . 7  Psycho-physique. Psychometrie.  Esthesimetrie. Quantite des
                              sensations. Lois de Weber et de Fechner.
                       .8   Obj ectivation, exteriorisation, localisation des sensations. Signes
                              locaux. Perception de l'etendue, du mouvement, de l'espace,
                              du temps.
                                                .
                                Voir aussi 133.9  Exteriorisation,  en sciences occultes.        I ?

                    153   Intelligence. Raison. Entendement.
                              Faculte active ou pensante. Connaissance intellectuelle. In­
                            tellect. Pensee, Intuition.
                                Voir aussi 16  Logique.
                                       612.8zI'.30r •
                       . 1  Conception. Concept. Idee. Notion.  Attention. Aperception.
                              Apprehension. Attente. Selection.
                                Voir aussi I6!.I  Concept,  en logique.
                                       124  Ideal.
                                       612.821.2 .
                       • 2  Association.
                                Voir aussi 6t2.82"I.22  .
                       . 3  Abstraction. Abstrait.
                                Voir aussi r6r.!  Universaux .
                       . 4  Reflexion .
                       . 5  Jugement.
                                Voir aussi 162  Deduction et induction.












                             153.6  Raisonnement.
                                         Voir aussi 168  Raisonnement ,  en logique  .
                               . 7  Conscience. Personnalite. Identite personnelle,  Moi. Deper-
                                       sonnalisation.
                                         Classe precederument a 126.
                                         Voir aussi 151.4  Individualite et personnalite de l'ame .
                               . 8  Inconscience, Subconscience. Automatisme.
                                         Class" precedemment it 127.
                             154  Memoire.
                                      Faculte reproductrice. Souvenir. Reminiscence. Amnesie.
                                         Voir aussi 612.821.23
                                    Mnemonique. Mnemotechnique. Methodes pour developper la
                                .1
                                      memoire.
                             155   Imagination. Images. Sens internes.
                                      Faculte creatrice, cogitative, estimative. Sens commun,
                                         Voir aussi 135  Reves.
                                               6I2.821 .26.
                                   Raison.
                                         Classer it 153.                             ]

                             157   Sentiments. Emotions.
                                       Affections. Passions. Etats ernotifs. Plaisir. Douleur. Peine.
                                     L'agreable et le desagreable. Amour. Desir apathique, Phobie.
                                     Peur. Pitie. Sympathie. Antipathie. Concupiscence. Sensibilite
                                     emotionnelle. Patholcigie des sentiments.
                                         Voir aussi 138  Expression des emotions.
                                               612.821.32  Emotions  .
                                . r  Psychologie du Beau. Emotion. Esthetique. Sublime.
                                         Voir aussi 612.821.27'
                                                7.or  Esthetique. Philcsophie des Beaux-Arts  .
                                . 2  Rire. Comique. Humour.

                             158   Appetit sensible.
                                       Instincts. Mouvements et actes reflexes, spontanes, automa­
                                     tiques. Appetition.  Inclination. Tic. Motricite. Volition sensible,
                                     Tendance. Geste. Conation. Impulsions. Inhibition.
                                         Voir aussi 132.6  Manies criminelles.
                                                132.7  Manies vicieuses.
                                                153.8  Automatisme .
                                • 1  Travail. Fatigue. Ergographie. Dynamogenese  .
                                . 2  Imitation. J eux, Orientation .
                                . 3  Parler. Langage  interieur, Aphasie. Alexie. Chant.
                                          Voir aussi 4,)I  Origine du langage.












                   r58·4   Ecriture. Dessin. Agraphie. Graphologie.
                      . 5  Marche. Locomotion. Ataxie  .
                   159   Volonte. Volition. Efforts.
                             Velleite, Aboulie  .
                      . r  Liberte de la volonte. Choix. Alternative. Attente. Decision.
                              Deterrninisme. Indeterrninisme. Imputabilite  .
                           Action humaine. Execution. Pratique.
                      . 2
                               Voir aussi 123  Liberte et necessite,  en metaphysique.
                                      17 I.9Il  Responsabilite, en morale.
                                      343.969.5  Respcnsabilite, en anthropologie criminelle.
                                      343.222  Responsabilite,  en droit penal .
                      . 3  Habitude. Accommodation et adaptation.
                               Voir aussi !II.4  Faculte et puissance, en metaphysique  .
                           Intentions. Mobiles. Motifs.
                      . 4
                                          Intention morale.
                               Voir aussi 171.4

                   I6  Logique. Dialectique.
                             Doctrine canonique (Epicure).
                             Consulter aussi les divisions de la Psychologie relatives aux
                           questions suivantes.

                   161  Analyse. Synthese  .
                      . r  Concept. Terme. Predicat.  Predicaments. Categoric. Catego-
                             Ierne. Genre. Univoque. Methode d'immanence.
                               Voir aussi 153.1  Concept, en psychologic.
                                      153.3  Abstraction  .
                      • 2  Jugement. Proposition. Affirmation. N eg ation. Equipollence.

                   162  Deduction.  Induction. Methode experimentale,
                             Methode  des  variations  concomitantes,  des differences.
                           Experimentation.  Observation.

                   163  Temoignage. Foi. Certitude morale, historique. Argument
                          d'autorite,
                                Voir aussi 165.1  Verite logique.
                                      234.2  Foi, en theologie.
                   164  Symbolique. Algebrique. Logique mathematique, Logr­
                           que atgorithmique.
                    165              Certitude.
                        Criteriologie..
                               Criterium. Critique de la connaissance. Sources d'erreurs.
                             Sophismes.  Prejuges,  Epistemologie,  Evidence.  Paralo­
                             gisme. Antithese,












                              I65.I  Verite logique. Etats de l'esprit (certitude, erreur, doute, opinion).
                                          Voir aussi 163  Foi  .
                                . 2  Certitude (objectivite) de l'ordre ideal. Objectivite des princi pes.
                                       Axiomes. Notions premieres. Principes. Principe de contra­
                                       diction, d'identite .
                                . 3  Certitude (objectivitel du monde interne,  du  moi.  Certitude
                                       de conscience. Experience interne.
                                 ·4  Certitude (objectivite] du concept, du monde exterieur, de I'indi­
                                       viduel.  Experience externe. Connaissance du concreto Trans­
                                       cendant.                                                  r
                                          Voir aussi 152.8  Objectivation des sensations.
                              166  Syllogismes. Entymene.

                              167  Hypotheses.  Postulats.
                              168  Raisonnement. Argumentation.  Persuasion. Demonstra­
                                     tion. Generalisation. Le General.
                                          Voir aussi 153.3  Abstraction.
                                                ] 53.6  Raiscnnemeut, en psychologie.
                                                101. I  Universaux.
                                                162  Deduction et induction,
                                                166  Syllogisme  .
                                 . 1  Definition  .
                                 . 2  Division. Classification .
                                 . 3  Science. Systerne,
                              169  Analogie. Arguments probables. Exemples.   Calcul des
                                     pro babilites et  statistique  au point de vue de la logique.
                                     Paradoxe.




                             I7  Morale.   Ethique. Questions     morales.

                                       On classera ici la morale theorique et la morale appliquee
                                      aux diverses  questions.  de la vie pratique, ainsi que la morale
                                     naturelle  ou  seientifique, ind ependante de toute metaphysique
                                      et de tout dogme religieux.
                                       La morale  en  general,  ou  une question particuliere de la
                                     morale, envisagee au point de vue d'un systerne philosophique
                                      ou d'une doctrine religieuse, est classee iei SOllS la subdivision
                                      de relation correspondant  au systerne  ou it fa doctrine envi­
                                      sagee, Ex.  :
                                          17 : 149.916  La morale de l'evolutionisme  ,
                                          17  :  2  Morale religieuse ou theclogique' en general.
                                          17': 222.16  Morale du Decalogue.
                                            : 282  Morale catholique. Commandements de l'Eg+ise catholique,
                                          17
                                          17  : 2?4·2  Morale calviniste.













                   171  Theories morales. Bases et philosophie de la morale.
                            Morale indivicluelle .
                      . 1  Autorite, loi, regle,  norme morale. Maxime.  Irnperatif catego-
                            rique. Volonte divine, base de la morale. Morale religieuse,
                            morale chretienne, morale naturelle, morale independante.
                            Autonomic. Anarchie morale. Heteronomie  .
                      . 2  Sentiment moral. Raison pratique. Obligation morale. Devoir.
                            Morale intuitive.
                     :3
                          Perfection, ideal, bien et mal moral. L'honuete. Acte humain ,
                            Action morale. Peche. Merite et demerite, Sanction. Punition .
                      . 4  Bonheur.  Beatitude.  Hedonisme.  Fin de l'homme. Destinee
                            humaine. Intention morale. Vie morale. Mceurs.
                               Voir aussi 159,4  Intention, en psychologie  .
                      . 5  Utilitarisme. Eudernonisme  .
                      . 6  Conscience morale. Probabilisme. Casuistique. Synderese,
                               Voir aussi r53.7  Conscience, en psychologie.
                                     172.3  Liberte de conscience, en morale .
                      . 7  Morale basee  sur I'education et morale basee  sur I'evolution.
                            Education morale  .
                      . 8  Altruisme. Solidarite. Charite .
                      . 9  Egoisrne.  Interet. Incliviclualisme  .
                      . 9Il  Responsabilite morale. Irnputabilite en morale.
                               Voir aussi 159. I  Liberte,  en psychologie.
                          Devoirs de l'homme envers Dietl.
                      .912
                                 Voir aussi 217 .
                      . 913  Devoirs de l'homme envers lui-meme,
                                Devoirs de conservation,  amour du travail, devoir de s'instruire. Dignite
                               personnelle.

                   172  Morale sociale.
                            Toutes les matieres juridiques et sociales pouvant etre etudiees
                           au point  de vue du droit naturel, ou peut c1asser, facultativement
                           et par duplicata, les travaux de cette espece a Ia morale sociale
                           par le signe de  relation..:...,  suivi du nombre classificateur propre
                           a chaque matiere .
                      . I  Rapports  de l'individu et de l'Etat.
                                Morale civique. Devoirs civiques. Devoirs des citoyens. Patriotisme. Cosme­
                               politisme. Amour et defense de la patrie. Courage civique. Respect aux lois et
                               autorites. Humanitarisme .
                      . 2  Devoirs des autorites publiques  et des gouvernants  .
                      . 3  La religion et l'Etat.
                                Liberte de conscience. Tolerance. Intolerance. Persecution, suppression de la
                               religion. Respect des croyances.
                                  Voir aussi 26I.7  L'Eglise et l'Etat, en theologie.
                                        322  L'Eglise et l'Etat, en pclitique.
                                        348.7  L'Eglise et l'Etat, en droit civil ecclesiastique.









                                                                                                    ,1


                                    Morale internationale. Paix et guerre.
                                            Voir aussi 341  Droit international.
                             173   Morale familiale.
                                         Voir aussi 343.55  Infractions centre l'ordre des families,  en droit penal.
                                               347.6  Mariage, en droit prive  .
                                . 1
                                     Mariage et divorce .
                                . 2  Polygamie et monogamie. Communaute des femmes.
                                         Voir aussi 298  .  n1ormonisme._
                                               343.552  Polygamie, en droit penal  .
                                . 25  Amour libre  .
                                . 3  Devoirs des epoux,.
                                         Voir aussi 176.6  Adultere  .
                                . 4  Infanticide.
                                         Voir aussi I79. 2  Cruaute envers les enfants.
                                               343.622  Infanticide, en droit penal.
                                . 5  Devoirs des parents envers les enfants  .
                                .6   Devoirs des enfants  envers les parents. Devoirs des enfants les
                                       uns envers les autres. Respect, obeissance, assistance.
                                ·7   Vie familiale. Solidarite de la famille.
                                . 8  Devoirs des maitres et des serviteurs .
                                         Voir aussi 331.78  Domesbiques,  en sociologie.
                                                647  Domeatiques,  en economie menagere,

                             174   Morale des diverses professions et  occupations.
                                       Deontologie. Vocation. Occupation. Emploi de la vie. Choix
                                     d'une profession ou d'une carriere.
                                       A subdiviser par division de relation, d'apres la profession ou
                                     l'occupation s'iln'existe une division speciale. Voir aussi, sous
                                     chaque sujet, subdivision commune (069) Deontologie de ...
                                . 1
                                     Clerg e .
                                . 2  Medecins .
                                 . 3  Avocats.
                                          Voir aussi 347.965.3  .
                                 . 4  Morale en affaires  .
                                 . 5  Speculation  .
                                 . 6  jeu
                                          Voir aussi 175.9  Paris.
                                                343.56  Lejeu,  en droit penal.
                                 .7  Contrat. Promesse au point de vue moral.
                                 .8  Relations entre employeurs et employes, au point de vue moral.
                                          Voir aussi 173.8  Devoirs des maitres a l'egard des serviteurs,

                              175  La morale et les amusements et recreations.
                                       A subdiviser par division de relation comme 79 Amusements
                                      et recreations:
                                 .8  Lecture des romans  .
                                 . 9  Paris.












                   176  La morale et les relations sexuelles.
                             (Vita sexualis.)
                               Voir I'1USSl 157  Amour,  en psychologie  .
                      . r  Chastete  .
                      • 2  Celibat.
                               Voir aussi 254  Celibat du clcrge .
                      . 3  Continence  .
                      . 4  Perversions sexuelles. Actes centre nature. Inversion sexuelle.
                             Bes tialite  ,
                                            Psychopatliie sexuelle, en droit penal.
                      .5   Prostitution.
                             Ars amatoria. Erotica. Bacchanales. Myster es d'Eleusis. Licence des rues. Vie
                           ga.lante. Proxenetisme. Trai te des blanches. Moralite publique, etc.
                               Voir aussi 173.25  Amour libre.
                                     343.344  Prostitution,  en droit penal.
                                     351.764  Police des mceurs, en droit administratif .
                      . 6  Adultere,
                               Voir aussi 343.551  Adultere,  en droit penal.
                      .7  La morale et l'art. N aturalisme dans l'art .
                      . 8  La morale et la litterature.  Pornographie.
                                            Porncgraphie, en droit penal.


                   177  La morale et les relations  privees  ou sociales. Morale
                          sociale .
                            . Devoirs envers les hornmes en general.
                      .r  Courtoisie.
                               Voir aussi 395  Etiquette. Politesse. Savoir-vivre .
                      . 2  Conversation, bavardage, commerag e  .
                      . 3  Sincerite.
                                Mensonge. Flatterie. Medisance, Calomnie. Diffamation, Respect de l'hon­
                               neur et de la reputation d'autrui  .
                      . 4  Luxe. Lois sornptuaires. Toilette. Faste .
                      . 5  In.egalite sociale. Esprit de caste et de classe. Richesse et rang
                            social.
                      .6  Amitie. Affection. Coquetterie  .
                      . 7  Philanthropie.  Humanite,  Pitie,  Devouement  et  sacrifice.
                            Charite,
                               Voir aussi 146  Religion de I'Humanite  .
                      . 8  Misanthropie  .
                      . 9  Devoirs de justice envers autrui.
                               Respect de la propriete, vol et fraude. Respect de la liberte individuelle.

                   178  La morale et la temperance.
                            Stimulants et narcotiques. Alcoolisme. Intemperance. I vresse.
                           I vrognerie. Abus des boissons alcooliques.



                                                                                                     \
                                                                                                    ,






                                       On classe ici, comme siege principal  des matieres, tout  ce
                                     qui concerne la  temperance en general  et l'usage des stimulants
                                     et  narcotiques.
                                         Voir aussi 343.57  Intemperance,  en droit penal.
                                                6r3.3  Usage des boissons en hygiene.
                                                6J 3.8  Hygiene du syeteme ncrveux.
                                                612.82I.44  Alcool au point de vue physiologique.
                                                603. r  Boissons alcooliques, fabrication.
                              178.1  Boissons enivrantes. Usage medical.
                                . 2  Abstinence totale ou temperance  .
                                . 3  Boissons prises  en societe, a table  .
                                ·4   Commerce des boissons enivrantes. Licence.
                                         A classer sous 38  : 663.r.
                                                                                      ]
                                         Voir aussi 335.26  Impots.
                                . 5  Prohibition du commerce des boissons enivrantes  .
                                         A classer SOllS 351.768 •
                                . 6  Reforrnatoires. Asiles pour buveurs, etc.
                                         Voir aussi 362.13  .
                                . 7  Tabac  .
                                . 8  Stimulants et narcotiques divers.
                                        Opium, hashich, chloral, ether, etc.
                                ·9   Gourmandises et  intemperances diverses.                         /
                              179  Questions  diverses de morale .

                                . I  Moralite de la presse  .
                                . 2  Cruaute envers les enfants. Enfants martyrs.
                                          Voir aussi 173.4  Infanticide.
                                                33r.3  Travail de" enfants.
                                                362.74  Protection de l'enfance en general  .
                                . 3  Cruaute envers les animaux. CEuvres en faveur des animaux,
                                          Voir aussi 343.58  Mauvais traitement des animaux,  en droit penal.
                                                351:765  Protection des an imaux, en droit administratif.
                                     Vivisection.
                                 . 4
                                          Voir aussi 612.0I2  Vivisection. (Physiologie.)
                                                614.22  Vivisection. (Medeciue publique.l
                                 .5  Serment. [urons  .
                                 . 6  Heroisme, bravoure, courage, poltronerie.
                                 ·7  Vie, duel, suicide. Homicide .. Legitime defense. Respect de la
                                       vie d'autrui.
                                          Voir aussi 394.8  Coutumes  .
                                                343.6[3  Duel, en droit penal.
                                                343.6I4  Suicide, en droit penal.
                                 .8  Vices et defauts divers.
                                          Orgucil, cupidite, envie, colere, paresse, jalousie, baine, etc .
                                 . 9  Vertus et qualites diverses.
                                          Humilite, liberalite, douceur, prudence, patience, amour du travail, diligence,
                                         modestie, ordre, economie, etc.













                    18 et  19    Concotdances.

                                     Pour memoire, on a. reproduit ci-apres les divisions qui avaient ete
                                   attribuees en pro pre a un certain nombre de philosophes  et d'ecoles
                                   philosophiques dans les editions anterieures des tables de classifica­
                                   tion. Voir observation sous I D.


                    18  Philosophes    anciens.


                    18'[
                         Philosophes orientaux .
                       . r  Chinois. (Confucius, Mencius.)
                       . 2  Egyptiens  .
                       .3   Juifs. (Kabale, Philo, Maimonides.)
                            Indie'ns. (Gymnosophistes, Nirvana.)
                       ·4,
                                Voir aussi 2 [8  Annihilation.
                       ,5   Persans. Suffisme.
                       . 6  Chaldeens .
                       ·7   Sabeistes.
                       . 8  Pheniciens  .
                       ·9   Autres philosophes orientaux. Syriens, etc.

                    182  Philosophes grecs en general. Philosophes antesocra­
                           tiques  .

                       . r  Ioniens. (Thales, Anaximandre, Anaximene. Ecole mate-
                              rialiste. )
                       .2   Italiques ou Pythagoriciens. (Ecole mi-idealistes.)
                       .3   Eleates. Ecole idealiste. (Xenophanes, Parrnenides. Zeno,
                              Melissus.)
                       .4   Heraclite .
                       . 5  Ernpedocle  .
                       . 6  Atomisme .
                       7    Democrite .
                       .
                       . 8  Anaxagore  .
                       . 9  Autres philosophes grecs -de la periode ancienne.
                    183  Sophistes.  Ecole socratique  .

                       . 1  Sophistes. (Protagoras, Gorgias, Prodicus, Hippias.)
                       .2   Socrate.
                       . 3  Ecole, socratique  .
                       ·4   Ecole cynique. (Antisthene, Diogene, Crates, etc.)
                       .5   Ecole cyrenaique. (Aristippe, Hegesias, etc.)
                            Ecole de Megarc. (Euclide, Eubulides, Diodore, etc.)
                  _I   :?   Ele ens, Eretriens.  (Phedon, Menedemus, etc.)  I













                               184  L'ancienne academic. Ecole platonicienne  .
                                  . r  Platon .
                                  . 2  Speusippe  .
                                  . 3  Xenocrate,

                               185  Aristoteliciens. Le  lycee, Peripateticiens  .

                                  . r  Aristote  .
                                  • 2  Theophraste  .
                                  . 3  Eudeme .
                                  . 4  Straton.

                               186   Pyrrhoniens,  N ec-Platoniciens  .
                                  . r  Pyrrhoniens. Sceptiques. (Pyrrho. Timon.)
                                  .2   Nouvelle Academie, (Arcesilas, Carneade , Plutarque.)
                                  .3   Eclectiques. (Ciceron.)
                                       Ecole d'Alexandrie. Neo-Platoniciens. (Philon, Plotin, Pro-
                                  .4
                                         clus, Porphyre, Jamblique.)
                               187   Epicuriens. (Epicure, Lucrece.)

                                188  Stoiciens.
                                  . r  Zenon .
                                   . 2  Cleanthe .
                                   . 3  Chrysippe  .
                                   ·4  Pansetius.
                                   . 5  Posidonius  .
                                   . 6  Seneque  .
                                   ·7  Epictete.
                                   . 8  Marc-Aurele .

                                189  Premiers chretiens et  philosophes du moyen age.                I
                                   • I  Gnostiques  et byzantins  .
                                            Voir aussi 273. (  Basi lides, Marcion.
                                                  273.2  Manicheisme.                                I
                                   .2  Peres de l'Eglise. Patr istique. (Tertullien, Augustin, Clement,
                                                                  "
                                         Origene.]                                                   I
                                   .3  Philosophes arabes et asiatiques. (Avicenne.]
                                       Les  scolastiques.  (Duns Scott,  saint  Thomas d'Aquin,
                                   ·4
                                         saint Anselme, Abelard.)                                    I
                                   .5  Mystiques. (Reuchein, Cornelius, Agrippa, Paracelse, Servet,  I
                                                                                                     I'
                                         Bohm, etc.)
                                                                                                     !
                                   . 6  Theosophes  .
                                                                                                     i
                                   ·7  Averrois tes.                                                 l
                                   . S  Pantheistes et autres antiscolastiques  .
                                   ·9   Philoso phes de la Renaissance.














                    19 Philosophes     modernes.

                    191  Philosophes americains.
                       . r  Jonathan Edwards  .
                       . 2
                            O. A. Brownson .
                       . 3
                            Ralph Waldo Emerson .
                       ·4   Laurens P. Hickock.
                       . 5
                            J ames Mac Cosh .
                       .6   N oah Porter.
                       ·7   Francis Bowen.
                       . 8  William T. Harris  .
                       ·9   Autres philosophes americains,
                    192  Philosophes anglais.
                       . r  Bacon .
                       • 2  Locke .
                       . 3  Berkeley  .
                            Hume,
                       ·4
                       . 5  Reid  .
                       . 6
                            Dugald Stewart .
                       ·7   J ohn Stuart Mill.
                       .8   Spencer.
                       ·9   Autres philosophes anglais.
                    193  Philosophes allemands.

                       . r  Leibnitz .
                       . 2  Kant .
                       . 3  Fichte  .
                       ·4   Schelling.
                       .5   Hegel.
                       . 6  Schleiermacher .
                       ·7   Schopenhauer.
                       . 8  Lotze .
                       ·9   Autres philosophes allemands.

                    194  Philosophes francais.
                       . r  Descartes  .
                       • 2  Malebranche .
                       . 3  Condillac .
                       ·4   Rousseau.
     I                 . 5  \  Diderot .
     i                 . 6  Lamennais .
     -I                     Cousin.
     ,.                ·7
                       . 8  Comte .
                       ·9   Autres philosophes francais,
                  --'-













                                195  Philosophes italiens.

                                196  Philosophes espagnols.

                                197  Philosophes slaves.

                                198  Philosophes scandinaves.

                                199  Autres philosophes modernes.









                      CLASSTFICATION BIBLIOGRAPHIQUE           DECIMALE
                                    N" 25  DR r.Txsrrrur INTERNATIO:X?\L  J)U EtnLIOGRAPHIB]
                           (PUBLlCATIO:-..'
                     NOTICE.  -  La Classification bibliographique  declmale est universelle,
                    intema tionale, encyclopedique,  a la fois particuliere et g enerale ; elle est
                    documentaire, elle s'exprime  en une notation concise, elle est fort etendue
                    (environ 25,000 divisions) et indefiniment extensible. Les bases en ont ete
                                                                      et en 1897
                    iJ:doptees par le Congres  international de Bibliographie  en 1'8g5
                                                             une large application,
                    a Bruxelles  et  en 'l:goo a Paris, et elle  a deja recu
                                                                        '
                    tanr  n Europe que dans le Nouveau Mende.
                      CeUe classification oorrsiste en une vaste table systematique  des 1 atieres,
                    dans Iaquelle tous Ies siijets de connaissances sont rejiartis par classes,
                                                      .              du tout a la
                    sons-classes  t dhvisicms,  ell pa sa-nt.chl glh  ral au parliculier,
                    partie,  du genre a 1'esp?ce.
                     'Chacune des rubriques de Get e, table est representee par  un nornbre
                                       d'un ou de plusieurs chiffres, suivant le degrc  de
                    classificateur compose,
                    gerieralite. Ces nombres sont decirnaux; en ce sens que chaque  chiffre vel'S
                    la droite clu nombre ne modifie pas la valeur ordinale des chiffres prece­
                    dents, mais correspond a. une subdivision de Ia matier e representee par  les
                    chiffres precedents.  L'ordre clans lequelles  nombres se suivent est aussi
                    l'ordre decimal.
                      La table systematique est completee par  un index alphabetique des
                    matieres,  clans lequel toutes les rubriques  de la premiere table  sont
                                                     et sout suivies du nombre c1assi­
                    rangees  en  un seul orelre alphabetique
                    ficateur correspondant. Exemples  :
                                              '
                                                 Economie fina nciere      332
                    'Philosophie.                                          33
                     ?  2  Religion.            ?  Economie politique
                    .!!" 3  Sciences sociales.  ,gMonnaie                  332·4
                                                                           1
                    ]  31  Statistique.         :g Philo sophie            331
                    ;;:; 32  Politique.         .[ Politique, question "dn travail
                    , E  33  Economie financiere,  '" Religion,            2
                    ? 33r     Questions  du travail.  ? Sciences sociales  3
                    ? 332     Econornie politique. IStatistiquc            31
                                                                           331
                      332.4    Monnaie.          Travail
                      L'Indexation  suivant  ces tables,  ou inscription  sur  les documents a
                    classer du numero classificateur correspondant ala matiere principale dont
                    ils traitent, pennet  donc de former des, collections de documents rangees
                     dans un ordre methodique parfait  et susceptibles  d'accroissements et cl'in­
                     tercalations continuels.
                      D'une maniere g enerale,'  comme classification des matieres uniforme et
                    internationale, la classification bibliographique  universelle est susceptible
                                                               dedocuments et des
                     d'etre appliquee,  au' c1assement des diverses especes
                     materiaux dont les travailleurs intellectuels ont a se servir, et elle fournit,
                     a cet effet, des cadres tout prets,  traces d'avance  : c1assement des reper­
                     toires bibliographiques  et des catalog-ues;  classernent des ouvrages eux­
                                             classernent des notes, observations, extraits
                     memes dans les bibliotheques ;
                     et documents divers destines a des etudes et :it des travaux personnels;
                     c1assement des tables de matiere des recueils periodiques ; classement de
                     documents graphiques, illustrations et photographies,  de  cliches,  de
                                       de catalogues industriels, de circulaires  commer­
                    'brevets, de specimens,
                     ciales et toutes autres applications a la documentation, prise dans Ie sens
                     le plus large.
                       Le jour OU la classification documentaire universelle se sera repandue,
                     OIl son application aura ete generalisee,  au lieu d'avoir a  se familiariser
                     avec vingt des differentes,  variant d'apres  les institutions qui  conservent
                     et qui  classent les documents, l? 'public des chercheurs pourra, a l'aide
                     d'une seule cle,  c'est-a-dire d'une meme table de classification des matieres,
                     se faire ouvrir les tresors de tous les depots  de documents. Une economie
                     considerable de temps pourra etre realisee ainsi, et le chercheur benefi­
                     ciera des avantages de Ia connexion etroite etablie entre toutes les sources
                     documentaires  de  110S  connaissances. La classification bibJiographique
                                      enfin de creer l'entente et la cooperation dans les
                     universelle permettra
                     travaux. Au point de  vue des collaborations internationales, elle pourra
                     jouer  un role similaire a celui qu'on  attend de la langue internationale,
                     qui ne cherche pas a contrarier les langues particulleres  ni i s'y substituer,
                     mais bien i servir d'auxiliaire et de complement pour  les relations exte­
                     rieures.







                           FASCICULES.   -  Cette  edition de la  classification bibliographique
                          decimale reunit les diver?s. editions fragmentaires parues jusqu'a  ce
                         jour. Elle a ete publiee par fascicules. La souscription  a cette publication
                          est close, rnais les personnes desireuses de recevoir les fascicules relatifs
                          a  une branche deterrninee peuvent souscrire aces fascicules  aUK prix
                          indiques  au tableau ci-apres.
                           Doreriavant, pour recevoir en entier les Tables diveioppees, il y aura lreu
                          de souscrire au Mauuel dt: Repertoire biblio!;1·aphique nuiuersel (voir publication
                          no  63), dans lequel elles ont ete  incorporees.
                                                     III
                                            :n.t.[ .A.. T I ::E R E                    PRrx
                                                                                       EN
                             INDICE                                                   !i'I(ANCS
                          lllBI.IOGRAl)ljIQUE         D.ENQilJI?ATIO?

                               »        Expose et regles de la Classification decimale  .  I  »
                         [(.), =, «»,:, A-Z]  Table des subdivisions communes.  .  ..  2  »
                              [53]      Sciences physiques (Mecanique  rationnelle et Phy-
                                         sique).  .  '.  .  .  .  .  .  .  .  .  .  .  .  .  I  »
                     4        [77]      Sciences photographiques  .  '                 I  »
                     6       [629.1]    Industries de Ia Locomotion (Locomotion  par
                                         terre et par eau, Aerostation)..  ..      8   I  »
                     7        [79]      Sports (Tourisme, Cyclisme, Automobilisme)  10  I  »
                     8        [34]      Droit.                                   132   2  »
                     9        (615]     Therapeutique..                           26   I  »
                    10        l616]     Pathologie interne                        28   I  »
                    II        [617J     Pathologie externe                        14   I  »
                    12        [612]     Physiologie.                              38   I  »
                    13      [618+619]   Gynecologie. Pediatrie. Medecine comparee  12  I  »
                    14        [35]      Administration  .  .  .  .  .  ..  .      44   I  »
                    15        [9]       Histoire. Geographic. Biographie. Genealog ie  .  100  2  »
                     16        »        Resume des tables. Tables generales methodiques
                                        J. abregees. Index alphabetique general abrege  .  44  I  »
                              [0]       Generalites. Bibliographie. Blbliotheconomie. So-
                                         cietes savantes, etc.              .  .  52   2  »
                     18       [3]       Sciences sociales. Statislique. Economic politique
                                         Enseignement. Assistance. Folklore  •  .  .  .. .  !  68  2  »
                    19        [I]     I Philosophie. "Questions morales  ,  .  .  '.'  .  .  28  I  »
                    20        [63]      Agriculture Agronomie. Sciences agricoles  46  I  »
                                                 ..
                    21        [2]       Sciences religieuses  .           .  ,    68  2  »
                    22       [4+8]      Philologie et Litteraiure                 45   2  »
                                                           .
                    23     [355+623]    Sciences militaires                       33   2  »
                    24      151+52]     Mathematiques et Astronomic               18   I  »
                    25    [548+549+ 55]  Mineralogie. Cristallographie. Geologie  22   I  »
                    26   [56+57+58+59]  Sciences biologiques. Paleontologic. Anthropo-
                                         logie. Botanique. Zoologie  .            74   2  »
                       .'
                    27        [6II]     Anatomie                                  31     »
                    28      [613+614]   Hygiene 'privee et Hygiene publique  .    22     »
                    29        [7]       Beaux-Arts  : Architecture. Sculpture. Peinture.
                                         Photographie. Gravure. Musique           96     »
                    30      l64+65]     Sciences appliquees  diverses : Economie domes­
                                         tique. Stenographic. Imprimerie  et edition. Tran­
                                         sports. Comptabilite.  .                      I  »
                    31                  Sciences de I'ingenieur  : Mecanique, Electricite
                                         industrielle. Mines. Ponts et chaussees. Che­
                                         mins de fer et tramways. Travaux maritimes et
                                         hydrauliques. Technologie sanitaire. Locomo­
                                         tion en general.                        II3   3  »
                    32      [54+66]     Sciences chimiques  :  Chimie  pure.  Industries  223
                                       I  chimiques. Metallurgie  .                   4  »
                    33    [67+68+69]    Industries diverses. Professions et metiers divers.
                     34        »         Construction.  .  .  .  .  .            lI8   3  »
                     35        »        Index alphabetique general..        .  .  350  3  »
                                        Organisation, travaux, methodes de l'Institut Inter-
                                         national de Bibliographie               176   2  »
                                                    NOllIIlRE  TOTAL  DES  PAGES  2259

