

















               Épreuves                                                  F A S C .  7.

                      1910-05-7.






                                   CONGRES          M O N D I A L


                                                 DES
                       ASSOCIATIONS             I N T E R N A T I O N A L E S


                                       B R U X E L L E S ,  9-11  MAI  1910





                    Tableau      de   l'Organisation         Internationale




                                   ELEMENTS        EXISTANTS



                    O R G A N I S M E S ,  —  O E U V R E S ,  U N I F I C A T I O N  E T  S Y S T È M E  D ' U N I T É S .
                       T E R M I N O L O G I E  E T  N O M E N C L A T U R E .  —  D O C U M E N T A T I O N .



                             I.  —  ORGANISMES      INTERNATIONAUX


                    E N S E M B L E  D E S INTÉRÊTS  SOCIAUX.  J U S T I C E .
                       Conférence  internationale  de  La  Haye.
                       Cour  permanente  d'arbitrage.
                       International  Bureau  of  the American  Republics.
                       Central  american  court  of  justice.
                        International  central  American  Bureau.
                        Cour internationale  des  prises.
                        Union  interparlementaire.

                    P A I X .
                        Bureau  international permanent  de  la  paix.
                        Conciliation  internationale.
                        Ligue  internationale  de  la  paix  et  de  la  liberté.





















                                                                                                                                           -  3  —
                             Comité  Nobel (de la  Paix).                                                          Alliance  universelle  des  unions chrétiennes  de jeunes  gens.
                             Musée  international  de  la guerre et de la  paix.                                   Conférence  Internationale  des  missions.
                             Association  médicale  internationale  pour aider a  la  suppression  de  la guerre.   Fédération  internationale  des  libres  penseurs.
                             Comité  permanent du congrès  de la  fédération  européenne.
                                                                                                               S C I E N C E S  E T ACTIONS  SOCIALES
                          B U T S  GÉNÉRAUX.
                                                                                                                   Institut  international  de  sociologie.
                             Association  internationale  des  académies.                                          Institut  international  de  statistique.
                             Congrès  mondial  des  associations  internationales.                                Associations pour la protection  des  travailleurs.
                             Office  central  des  institutions  internationales.                                 Institut  internalional  pour l'élude  du  problème  des  classes  moyennes.
                             Congrès  international  scientifique  américain.                                     Association  internationale  pour la répression  de la traite  des  blanches.
                             Nobelstiftelsen.
                                                                                                                  Congrès  internationaux  contre l'abus des  boissons  alcooliques.
                             Association  internationale  des  catholiques pour le  progrès  de  la science.      Fédéraiion  internationale  de  la Croix-Bleue, Genève.
                             Alliance  scientifique  universelle.                                                 Conférences  internationales  des  ligues sociales d'acheteurs.
                             Société  d'études  et de  correspondances  internationales.                          Fédération  internationale  pour l'observation du dimanche.
                             Cosmopolitan  correspondence  club.                                                  Congrès  international  des  habitations  à bon  marché.
                             Fédération  internationale  des  comités  permanents d'expositions.                  Alliance  coopérative  internationale.
                                                                                                                  Fédération  internationale  de  la mutualité.
                          PUBLICATIONS.  B I B L I O G R A P H I E .  DOCUMENTATION.                              Congrès  internationaux  de  l'assistance publique  et  privée.
                             Bureau  central  des  associations  de  presse.                                      Association  internationale  de  la Croix-Houge, Genève,  Coraterie,  24.
                             Congrès  international  de la  presse  périodique.                                   Union  internationale  des  amies  de la jeune  tille.
                             Congrès  international  des  éditeurs.                                               Association  catholique Internationale  des  œuvres  de protection  de la jeune  fille.
                             Institut  international  de  bibliographie.                                          Congrès  internationaux  des  accidents du travail  et des assurances  sociales.
                             Office  international  de  documentation aéronautique.                               Congrès  international  des  assurances.
                             Office  international  de  documentation de  la chasse.                              Congrès  international  des  représentants  d'assurance.
                             Office  international  de documentation de  la  pêche.                               Comité  permanent des  congrès  internationaux d'actuaires.
                             Concilium  Bibliographicum.                                                          Conseil  internalional  des  femmes.
                             International  catalogue of scientific  literature.                                  Alliance  internationale  pour le  suffrage des  femmes.
                             Institut  international  de  bibliographie  sociale.                                 Secrétariat  international  des  fédérations  syndicales nationales.
                             Répertoire  bibliographique  international  des  sciences  mathématiques.            Congrès  de  la ligue du coin  de  terre  et du foyer insaisissable.
                             Congrès  international  des  archivistes et des  bibliothécaires.                    Congrès  international  de  l'assistance aux aliénés.
                             Comité  de jonction  des  Congrès  internationaux  de  sténographie.                 Union  internationale  pour la protection  de  l'enfance du premier  âge.
                                                                                                                  Union  internationale  des  œuvres  de  protection  de  l'enfance.
                          P H I L O S O P H I E .  Q U E S T I O N S  MORALES.                                    Société  universelle  de  la Croix-Blanche.
                                                                                                                  Projet  de  création d'un office  international  de  statistique  présenté  à  la  session
                             Congrès  international  de philosophie.
                             Congrès  international  de  psychologie.                                               de  1909 de  l'Institut  international  de  statistique.
                             Union  internationale  des  sociétés  éthiques.                                   D R O I T .
                             Association  internationale  pour la  répression  de  la traite  des  blanches.
                             Bureau international  du  Congres  contre la littérature  immorale.                  Institut  de  droit  international.
                             Fédération  internationale  de  la Croix-Bleue.                                      Association  de  droit  international.
                             Bureau  international  contre l'alcoolisme.                                          Association  internationale  de  philosophie juridique  et  économique.
                             Union  internationale contre la vivisection.                                         Bureau  international  de  l'union  pour  la  protection  des  œuvres  littéraires  et
                             Fédération  abolitionniste  internationale.                                           artistiques.
                                                                                                                  Association  littéraire  et artistique  internationale.
                          CONGRÈS  INTERNATIONAL  POUR  L ' É T U D E  D E S  RELIGIONS.                          Bureau  international  de  l'union  pour la protection  de la propriété  industrielle,
                             International  Council  of  unitarian  and  other  liberal  religions  thinkers  and  Association  internationale  pour la protection  de la propriété  industrielle.
                               workers.                                                                           Union  internationale  du droit  pénal.
                             Comité  permanent international  des  Congrès eucharistiques.                        Congrès  international  d'anthropologie criminelle.























                             Union  internationale  des  patronages.                                              Société  internationale  de  dialectologie romane.
                             Commission  pénitentiaire  internationale.                                           Universalaj  kongresoj  de esperanto, esperantista centra oficejo.
                             Comité  maritime  international.                                                     Internaciona  scienca  asocio esperantista.
                             Congrès  international  des  sociétés  par actions et des  sociétés  coopératives.   Internacia  societo de  esperantistaj  juristaj.
                             Congrès  international  des  sciences  administratives.                              Association  universelle  de  médecins esperantistes.
                              Bureau  permanent international  des  secrétaires communaux.                        Délégation  pour l'adoption  d'une langue universelle  internationale.
                             Congrès  international  des  secrétaires communaux.
                             Association  internationale  des  avocats.                                       S C I E N C E S  MATHÉMATHIQUES,  PHYSIQUES  E T  N A T U R E L L E S .
                              Congrès  international  des  candidats notaires et clercs  de  notaires.
                                                                                                                  Congrès  international  des  mathémathiciens.
                                                                                                                  Association  internationale  pour promouvoir l'étude  des  Quaternions.
                           COLONISATION.
                                                                                                                  Commission  internationale  de  l'enseignement mathématique.
                              Institut  colonial  international.                                                  Congrès  national  et international  des  géomètres.
                              Congrès  international  pour le  perfectionnement du  matériel  colonial.           Union  internationale  pour la coopération  dans  les  recherches solaires.
                              British  and anti-slavery  society.                                                Comité  international  permanent pour  l'exécution  de  la  carte photographique
                              Bureau  de  la répression  de  la  traite.                                           du  ciel.
                              Association  internationale d'agronomie  tropicale.                                Comité  météorologique  international.
                                                                                                                  Bureau  international  des  poids  et mesures.
                           INTÉRÊT  ÉCONOMIQU  *.                                                                Bureau central  de  l'Association géodésique  internationale.
                                                                                                                 Société  internationale  des  électriciens.
                              Congrès  international  du libre  échange.                                         Commission  internationale  de  photométrie.
                              Union  économique  internationale.
                              Commission  hoilando-belge pour  l'étude  des  questions  économiques  relatives   Congrès  international  de la radiologie et de  l'électricité.
                               aux  deux  pays.                                                                  Congrès  international  de chimie appliquée.
                              Union  internationale  pour  la publication  des  tarifs douaniers.                Commission  internationale  pour  l'étude  de  la  question  de  l'unification  des
                                                                                                                   méthodes  d'analyse  des  denrées  alimentaires.
                                                                                                                 Association sismologique  internationale.
                           ENSEIGNEMENT.
                                                                                                                 Congrès  international  de  géologie.
                              Bureau  international  des  fédérations  d'instituteurs.                           Conférence  internationale  agrogéologique.
                              Congrès  international  de  l'enseignement primaire.                               Bureau  international d'ethnographie.
                              Congrès  international  d'éducation  populaire.                                    Permanent  international  Council  for  the sea  exploration.
                              Congrès  internationaux  de  pédologie.                                            Congrès  international  de botanique.
                              Comité  international  de  psychologie  pédagogique.                               Association  internationale  des botanistes.
                              Congrès  international  d'éducation  familiale.                                    Congrès  international  de  zoologie.
                              Congrès  international  d'hygiène  scolaire.                                       Congrès  international  d'entomologie.
                              Congrès  international  d'éducation physique-.                                     Comité ornithologique  international.
                              Congrès  international  des  instituteurs  d'aveugles.
                              Société  internationale  pour  le  développement  de  l'enseignement commercial.   M É D E C I N E .  H Y G I È N E .
                              Commission  internationale  pour  l'enseignement  des  sciences  mathématiques.
                              Commission  internationale  pour l'enseignement des  langues modernes.             Association internationale  des anatomistes.
                              Commission  internationale  de  l'enseignement agricole.                           Comité  central  pour l'étude  du cerveau.
                              Fédération  universelle  des  étudiants  chrétiens.                                Congrès international  de physiologie.
                                                                                                                 Association  internationale  de  l'Institut  Marey.
                                                                                                                 Laboratoire  international  de  physiologie du Mont-Rose.
                           L A N G U E .
                                                                                                                 Office  international  d'hygiène  publique.
                              Bureau  international  de  renseignements  des  congrès  internationaux  des       International  Sanitary  Bureau.
                               langues  vivantes.                                                                Congrès  international  d'hygiène  alimentaire  et de  l'alimentation  rationnelle  de
                              Mezzofantibund.                                                                      l'homme.
                              Association  phonétique  internationale.                                           Congrès  international  des  maladies professionnelles.
                              Fédération  internationale  pour l'extension et la culture  de  la  langue  française.  Congrès  d'hygiène  et de  démographie.



















                                                     —  G  —                                                                               -  7  -

                             Comité  permanent  international  des  Congrès  médicaux  des  accidents  du         Congrès  international  des  associations agricoles  et de démographie  rurale.
                               travail.                                                                           Commission  internationale  de  l'enseignement agricole.
                             Congrès  végétarien  international.                                                  Associaiion  scientifique  internationale  d'agronomie coloniale.
                             Congrès  international  de  la crémation.                                             Union  internationale  des  stations  de  recherches  forestières.
                             Congrès  international  de sauvetage.                                                 Congrès  international  de  l'élevage et de  l'alimentation.
                             Congrès  international du service d'incendie et des  mesures  préventives  contre     Fédéralion  internationale  d'aviculture.
                               le feu.                                                                             Fédération  internationale  de  laiterie.
                             Secrétariat  international  pour l'unification  des  pharmacopées.                    Congrès  international  d'apiculture.
                             Congrès  international  de pharmacie.
                             Association  internationale  des  médecins  experts des  compagnies  d'assurances.  INDUSTRIE.  COMMERCE.
                             Congrès  international  de  physiothérapie.                                           Commission  internationale  permanente des  sucres.
                             Congrès  international  de  recherches  sur le  cancer.                               Congrès  international  du  pétrole.
                             Association stomatologiquc  internationale.                                           Congrès  de  la fédération  internationale  cotonniôre.
                             Association  internationale  contre  la tuberculose.                                  Fédération  internationale  des  filaleurs  de lin et  d'étoupe.
                             Société  internationale  de  chirurgie.                                               Congrès  international  de brasserie.
                             Fédération  dentaire  internationale.                                                 Congrès  international  de  l'industrie du  bâtiment.
                             Congrès  international de gynécologie  et  d'obslétrique.
                             Congrès  internationaux  de médecine  vétérinaire.                                B E A U X - A R T S .
                             Associaiion  internationale  de  la  (tresse médicale.
                                                                                                                   Congrès  international  d'architecture.
                                                                                                                   Institut  inlernational  d'arl  public.
                          T E C H N I Q U E .
                                                                                                                   Congrès  inlernational  de  numismatique  et  de  l'art  de  la  médaille  contempo-
                             Congrès  international  des  mines, de  la métallurgie,  de  la mécanique  appliquée   raine.
                               et  de géologie  pratique.                                                         Fédération  internationale  de l'enseignemenl du dessin.
                             Association  internationale  pour l'essai  des  matériaux.                            Union  internationale  de photographie.
                             Commission  électrotechnique  internationale  de  standardisation.                   Institut  inlernational  de photographie.
                             Association  internationale  du froid.                                               Congrès  international  de photographie.
                             Union  internationale  des  stations  électriques.                                   Union  internationale  de photographie.
                             Association  des  ingénieurs,  architectes et hygiénistes  municipaux.               Société  internationale  de musique.
                             Congrès  international  de  l'enseignement technique supérieur.                      Commission  internationale  d'éludés  orphéoniques.
                             Congrès  international  des  associations d'inventeurs et d'artistes  industriels.
                                                                                                               S P O R T S  E T  C U L T U R E  PHYSIQUF.
                          COMMUNICATIONS.  TRANSPORTS                                                             Comité olympique international.
                             Bureau  international  de  l'Union  postale  universelle.                            Fédération  européenne  de gymnastique.
                             Bureau  international  des  administrations  télégraphiques.                         Ligue  internationale  des  associations  touristes.
                             Office  central  des  transports  internationaux.                                    Union  cycliste  internationale.
                             Association  internationale  du Congrès  des  chemins de fer.                        Fédération  aéronautique  internationale.
                             Union  internationale  des  tramways  et chemins  de  fer  d'intérêt  local.         Association  automobiliste  internationale.
                             Association  internationale  permanente des  congrès  de  navigation.                Union  internationale  de patinage.
                             Commission  centrale de  la navigation  du Rhin.  (Commission  internationale.)
                             Congrès  international  de  la  roule.                                            L E T T R E S .
                             Comité  permanent des  Congrès  internationaux  des  chambres  de  commerce.         Associaiion  internationale  des  auteurs  et compositeurs.
                             Congrès  international  des  voyageurs et représentants  de  commerce.
                                                                                                               H I S T O I R E .
                          A G R I C U L T U R E .  H O R T I C U L T U R E .
                                                                                                                  Congrès  international  des  sciences  historiques.
                             Institut  international  d'agriculture.                                              Congrès  internationaux  d'archéologie.
                             Congrès  international  d'agriculture.                                               Congrès  international  des  Américanistes.
                             Congrès  inlernational  d'horticulture.                                              Congrès  pan-celtic international.




















                                                      — s —
                                                                                                                                             -  9  -
                          GÉOGRAPHIE.
                                                                                                                    Vocabulaire  philosophique  en élaboration  par la Société  fançaise  de  philo-
                              Congrès international de géographie.                                                    sophie.
                              Association  internationale des  explorateurs  polaires.                              Travaux  du  Congrès international de psychologie  sur  la terminologie,  la nota-
                              Institut  polaire international.                                                        tion  de  l'âge  de  l'enfant,  la  détermination  mathématique  des  résultats
                                                                                                                      numériques  des  expériences,  l'étalonnage  des couleurs.
                                                                                                                    Mesures de la  personnalité.  (Testes de Binet et  Simon.)
                               II.  —  SYSTÈMES     D'UNITÉS,    TERMINOLOGIE,                                      Notation  universelle de la logique.  (Algèbre de la  logique.)
                                         CLASSIFICATION,     NOTATION.
                                                                                                                 S C I E N C E S  SOCIALES.
                           E N S E M B L E  D E S  CONNAISSANCES.                                                   Travaux de l'Institut  international de sociologie.  (Novicow,  von  Lilienfeld.)
                                                                                                                    Travaux  de J . Garnier,  d'A. Piche  et de Ch.  Arendt  sur la nomenclature des
                              Travaux  généraux  des logiciens  sur  la terminologie  et la nomenclature.  (Voir,     sciences économiques et sociales. — Travaux  sur  la terminologie  des tarifs
                                notamment,  Stuart  Mill. 6 e  edit., 2 e  vol.,  cliap.  VI.) — Travaux  élaborés  par  douaniers  réalisés  par le Bureau  international des républiques  américaines.
                                les  auteurs  des grands  dictionnaires  et  des  grandes  encyclopédies  des         Étude de celte question  au  Congrès d'expansion  économique mondiale,  Mons
                                diverses  langues.  —  Travaux  généraux  sur  la nomenclature  entrepris par         1903.
                                l'Association  scientifique  espérantiste  internationale.  —  Vocabulaire  du
                                langage  convenu  publié  par  le  Bureau  international  des  administrations   S T A T I S T I Q U E .
                                télégraphiques (30,000  mots).
                                                                                                                    Travaux  sur la terminologie  de la statistique par l'Institut  international de
                           B I B L I O G R A P H I E .                                                                statistique.  Paris  1909.
                                                                                                                    Travaux  réalisés  en vue de l'unification des méthodes  de la statistique par
                              Signes qui servent  dans  toutes  les parties de la science  au  bon  agencement  des   l'Institut  international de statistique.
                                ouvrages ou mémoires, à leur  distribution,  à leur  disposition.                   Travaux  de l'Institut  international de statistique  sur  la définition  et la tech-
                              Système  complet  d'unité  et de standardisation  élaboré  par  l'Institut  interna-    nique  du  tableau  statistique, des diagrammes  et  cartogrammes.
                                tional  de bibliographie  (code  des règles de la bibliographie  et de la docu-     Répertoire universel de statistique, concentration  des données de la  statistique
                                mentation)  comprenant  les types  de répertoires  à  établir,  le  format  des       dans  des  répertoires établis à l'instar du  Répertoire bibliographique  univer-
                                fiches,  les règles à suivre  pour  la rédaction  des  notices de manière  à rendre   sel  : Travaux  à ce sujet  à l'Institut  international de statistique  (1907  et à la
                                possible leur fusion,  la  classification  des  matières.
                                                                                                                      Conférence  internationale de bibliographie  et de documentation,  1908.
                              Anglo-american  Cataloguing  Mules.
                              Table  de la classificalion  bibliographique  universelle  (classification  décimale)  D R O I T .
                                établie  par l'Institut  international de bibliographie.  Table  de  classification
                                bibliographique  établie  par  1' «  International Catalogue  of scientific  littera-  Droit  international  public.
                                tur  » .                                                                             Codification.  (Vœux de la Conférence  panaméricaine  1901.)
                               Terminologie  unifiée  sur la base  universelle  des tables  de la  classification    Projet de codification  du droit international par l'Institut de droit international.
                                bibliographique.  Terminologie  propre  à la  catalographie  arrêtée à l'occasion    Cour  permanente  d'arbitrage.  (Convention.)
                                des  anglo-american  Calaloguing  Rules.  — Vocabulaire  technique  en prépa-        Codes  internationaux  exprimant  sous  forme  de règles  les principes  du  droit
                                ration  par le Congrès international des éditeurs.                                    international  et ses desiderata  publiés  par Bluntschli, Pasquale,  Fiore et
                               Notations  bibliographiques  des rubriques  de classement résultant  des  classifi-    Duley  Field.
                                cations  en usage.  Signes  conventionnels  internationaux  en matière  biblio-      Recueil  général des conventions  et traités internationaux.
                                graphique.
                                                                                                                     Travaux de l'Institut de droit international.
                                                                                                                     Recueils.
                            P H I L O S O P H I E .
                                                                                                                     Recueil  général de jurisprudence  internationale.
                               Rapports  sur la terminologie  psychologique  au  V I e  Congrès  international de    Pasicrisie  internationale ou recueil des sentences arbitrales.
                                 psychologie,  1909,  reprenant  des  travaux  indiqués  dès  le Congrès  de Paris,
                                 1900  (Ed.  Clarapède, J. M. Baldwin). — Travaux  sur  la terminologie  générale  Protection  des races  inférieures  et des  faibles.
                                 de  la philosophie  au Congrès  international de  philosophie,  au Congrès de       Traite  des  esclaves.  (Convention.)
                                 l'American  philosophical  association,  1908  (1. Husic).                          Trafic  des  armes  en Afnque.  (Convention.)
                                                                                                                     Trafic de l'alcool  sur  la  mer  du  Nord et en Afrique.  (Convention.)
                                                                                                                     Traite  des  blanches.  'Convention).



















                                                                                                                                              -  I l  -
                                                        -  1 0
                                                                                                                     Droit  maritime.
                              Moyens  de  communication.                                                              Convention  et  projet  de  l'Institut  de  droit  international  et  de  l'Association
                                Chemins  de  fer. (Convention.)                                                         maritime  internationale.
                                Protection  des  câbles sous-marins.  (Convention.)
                                Poste.  (Convention )                                                                Procédure.
                                Télégraphe. (Convention.)                                                             Traité  de  Montevideo 1889.
                                Radio-télégraphie. (Convention.)                                                      Traité  de  La Haye 1896.
                                Règles de  routes à la mer et phares. (Convention.)                                   Travaux  sur l'unification  des  symboles  des quantités  physiques et des  abrévia-
                                Signaux  en mer. (Convention.)                                                          tions  de  ces  unités  du Congrès  international  des  ingénieurs  à Chicago, 1893
                                Phares. (Convention.                                                                  Notation  de  la physique.
                               Droil  de  guerre.
                                                                                                                   POIDS  E T  MESURES.
                                Ouverture  des  hostilités, lois et coutumes  de  la guerre. Moyens licites  de  nuire  Convention  internationale  du mètre, 1875. (Adoption  internationale du  système
                                 à l'ennemi,  sièges  et  bombardements.  Blessés et malades neutres durant  la         métrique  : longueur, masse.  Adoption  des  unités  de  mesures  des  gemmes,
                                 guerre.  Prises  maritimes.  (Codification  faite  par  la  Conférence  de  La Haye
                                 en  1907.)                                                                             le  carat,  en  1907.
                                                                                                                      Système  du centimètre, gramme, seconde.  C.  G  S.  adopté  en 1881.
                                                                                                                      Projet  de  division  décimale  du jour,  de  la circonférence,  des  angles.
                               Droit  pénal.
                                                                                                                      Vœu  en  faveur  de  l'emploi  du  degré  centigrade.  Congrès  international  de
                                Convention  sud-américaine  d'extradition.                                              géographie.)

                               Droit  civil.                                                                       CHIMIE.
                                En  général  :  traité de Montevideo 1889.                                            Nomenclature  de  la chimie proposée  dès 1887 par Moreau, Lavoisier,  Bertholet
                                Mariage.  (Convention.)                                                                 et  de  Foorvoy. — Nomenclature  de  la  chimie organique  arrêtée  en  1889 et
                                Divorce  et séparation  de  corps. (Convention.)                                        en  1892 par les congres  internationaux  de chimie.  —  Travaux  de nomencla-
                                Tutelle  des  mineurs. (Convention.)                                                    ture indus  dans  le  Dictionnaire  de  chimie organique  de  Beilstein,  continué
                                Succession  et  testament et  donation  à  cause de  mort.  (Projet, Conférence  de     par  Richter  et publié  sous  les auspices  de la Société  chimique de  Berlin.
                                 La  Haye, 18915.)                                                                    Notation  de  la  chimie.
                                Droits  et devoirs des époux.  (Projet, Conférence  de La  Haye.  1896.)              Comité  international  pour  la  publication  annuelle  de  tables  des  constantes
                                Personnes  morales étrangères.  (Projet de  l'Institut  de  droit  international.)      physico-chimiques  constitué  par  le  Congrès  de  chimie  appliqué  (Londres
                                Régime  juridique  des  associations  internationales.  (Projet  de  loi  déposé  au    19Ô9).
                                 Parlement  belge.)
                                                                                                                   MINÉRALOGIE.
                               Droit  intellectuel.
                                                                                                                      Nomenclature  minéralogique  proposée par le professeur Mous.
                                Propriété  industrielle,  invention  et marque de commerce.  (Convention  créant      Système  de  notation  de la minéralogie  (Miller-Bravais).
                                 une  Union  internationale  et  le  Bureau  international  dfl  Berne  1880 à  1909.)
                                Propriété  artistique  et  littéraire.  Convention  1884  à  1909  créant  une  Union  G É O L O G I E .
                                 internationale  et le  Bureau  international  de  Berne, i
                                                                                                                      Nomenclature  votée  en  1883  par le Congrès  international  de  géologie.
                                                                                                                      Travaux  des  congrès  internationaux  de  géologie  sur  l'unification  des  caries
                               Droit  commercial.
                                                                                                                        géographiques.
                                En  général  : Convention de  Montevideo  1886.                                       Commission  de nomenclature subocéanique.
                                Lettre  de  change.  (Projet.)
                                Chèque.  (Projet.)                                                                 SISMOLOGIE.
                                Faillite.  (Projet, La Haye  1896.
                                Sociétés  par actions. (Projet de  l'Institut  de  droit  international.)             Code pour les  télégrammes  internationaux  de  sismologie.
                                Titre au porteur.  (Projet de  l'Institut  de  droit  international.)



















                                                     -  12  -                                                                              —  13  —

                          ANTHROPOLOGIE.                                                                           Systèmes  divers  proposés  pour  l'unification  du  point  typographique,  projet
                                                                                                                     de  classement  international  des  caractères  d'imprimerie.
                             Nomenclature allemande de l'anthropologie (Emile  Schmidt).                           Unité  photographique arrêtée  par les  Congrès  internationaux  de  photographie
                                                                                                                     de  1891,1900,  1907.
                                                                                                                   Proposition, au sein des  Congrès  des  Inventeurs  et de la propriété  industrielle,
                          B O T A N I Q U E .
                                                                                                                     d'une  Commission internationale  d'examen  préalable  des brevets d'invention
                             Kègles  et  nomenclature arrêtées  par  le  Congrès  international  de  botanique,      et  d'un  brevet d'invention  international.
                               Paris  1878.  —  Travaux  de  revision  commencés  au Congrès  de  Vienne, 190Ö,    Projet  d'élablissement  d'un  répertoire  international  de  classement  des  mar-
                               continués  au Congrès de Bruxelles, 1910. — Index Kewensis, relevé d'environ          chandises. (Congrès  de  législation  douanière,  1900.)
                               soixante  mille  noms  génériques  et  spécifiques  de  plantes.  Commencé  à       Classification  uniforme  des  produits  dans  les  statistiques douanières.  —  (Vœux
                               l'instigation  de  Darwin  et terminé  par Benjamin,  Dayson, Jackson,  i l  fournit  du  Congrès  international  des  Chambres  de  commerce;  Conférence  diplo-
                               la  clef de  la littérature  des  phanérogammes  pendant cent  cinquante  années.     matique  internationale  en  préparation.)
                              Proposition  au  Congrès  international  de  botanique  de  1910  d'un vocabulaire   Méthode  employée  en  calcilating  boiler trials made  under the A. S. M. E. Code.
                               international  polyglotte donnant la synonymie des  expressions  phytogéogra-       Ministère  de  l'Agriculture  de  France;  Office  de  renseignements  agricoles.
                               phiques accompagnée  d'une  courte  explication.                                    '  Vocabulaire  usuel  des  termes  employés  dans  les  principales  langues  en
                             Notation  internationale  des  formules  florales.                                      agriculture  et dans le commerce  de  ses  produits.
                                                                                                                   Unification  des  signes  et  symboles  dans  le  dessin  mécanique.  (3 e  Congrès
                                                                                                                     artistique  international  pour  le  développement  du  dessin et l'enseignement
                          ZOOLOGIE.
                                                                                                                     de  l'art  et leur  application  à l'industrie.  Londres, 1908.
                              Règles  de  nomenclature zoologique  arrêtées  par  le  Congrès  international  de   Travaux  de  l'Union  internationale  des  tramways  sur  l'unification  interna-
                               zoologie,  1904. —  Index des  noms  zoologiques  établis  par Agazziz, Marschall,    tionale  de  la comptabilité  et  des rapports  d'exploitation.
                               Scudder;  Waterhouse a enregistré  les noms  des  oiseaux;  H. G.  Itronn,  John    Usages  internationaux  en  matière  de  correspondance  commerciale.
                               Morris  et  plus  récemment  R.  Etheridge  ont  dressé  des  listes  des  espèces
                               fossiles.  -  C.  Dävies,  Sherborn,  a  entrepris  un  tel Index  pour  toutes  les
                               branches  de  la  zoologie  actuellement  déposé  en  manuscrit  au  Muséum      S C I E N C E S  MÉDICALES.
                               d'histoire  naturelle  de  Londres. —  Listes des  espèces  nouvelles  publiées  en  Anatomie  : Nomenclature adoptée  par le Congrès international  des anatomistes.
                               annexe  à  l'International  catalogue  of  scientific  littérature.  —  Liste  des
                               espèces  nouvelles publiées  sur  fiches  par le Concilium  Bibliographicum.
                                                                                                                P H Y S I O L O G I E .
                           T E C H N I Q U E .  INDUSTRIE.                                                         Classification  des  sciences physiologiques.  Travaux  de  la Commission  spéciale
                                                                                                                     du  Congrès  international  de physiologie.
                              Travaux  préparatoires  des  dictionnaires  et  vocabulaires  internationaux,        Le  Congrès  international  de  physiologie a constitué,  en  1898, une Commission
                               notamment  le Technolexicon  de  la Deutsche  Ingemeure Verein,  rillustrierle
                               technische  Wörterbuch  de  Deinhard  et  Schloman,  le dictionnaire  technique       pour  l'étude  des  moyens  de rendre comparables  entre  eux  les divers  inscrip-
                               international  de                                                                     teurs  physiologiques  et,  d'une  façon  générale,  d'uniformiser  les  méthodes
                              Projet  de  notation  électrique  en  préparation  par  l'International  electrotech-  employées  en physiologie.
                               nical  association.                                                                 L'Institut  international  Marey a pour but une  telle unification.  (Voir  Annuaire.)
                              Classification  des  méthodes  d'essai  à  l'Association  internationale  pour  l'essai  Nomenclature  internationale  des  médicaments  actifs.  Pharmacopée  arrêtée
                               des  matériaux.                                                                       par  convention internationale  entre  les États.
                              Travaux  sur  la  Standardisation  de la  fabrication  industrielle  par le  Slandard  Unité internationale  de  mesure  de  l'activité  des  sérums  antidiphtériques.
                               Engineering  Comiltee  de  Londres.  —  Système  international  des  vis  et        Travaux  du  Congrès  international  de  la  répression  des  fraudes  alimentaires
                               filetage.  —  Travaux du Comité  électrotechnique  international.  —  Unités  des      Croix-Bleue) sur la dénomination  et la définition  des  aliments  purs.
                               verres  d'optique (dioptrie)  et des  verres de montres.                            Travaux  sur la définition  officielle de  la  stomatologie  par  l'Association stoma-
                              Entente  internationale  pour  l'unité  technique  en  matière  de  chemin  de  fer  :  tologi  ¡ue  internationale.
                               écartement  des  voies,  gabarit  des  voitures,  etc.                               L'Association  stomatologique  internationale  a  nommé  une  Commission  pour
                              Desiderata  des  Congrès  professionnels  concernant  l'unification  des  pointures    fixer  des  types universels de  toutes les  mesures générales  à la stomatologie,
                               des  objets  d'habillement,  chaussures, linge,  etc.                                 la jauge, etc.  sur le type décimal.



















                                                        -  w  -
                                                                                                                                             —  1. f i
                             ENSEIGNEMENT.
                                                                                                                  MÉCANIQUE.
                                Projets  divers  pour la création  des services  internationaux  des  universités.
                                 Échange  de  professeurs,  bureaux  de  renseignements,  unification  des           Système de notation de la mécanique  (rouleaux).
                                 méthodes,  reconnaissance  internationale  des  diplômes,  unification  des      P H Y S I Q U E .
                                 temps de vacances  (voir  Rapport n° 40).                                           Système  des unités  cinématiques,  des unités  mécaniques,  des unités  qu i  se
                                                                                                                       rapportent à la chaleur, à l'électricité.
                             COMMUNICATION.                                                                          Unification  internationale  de l'unité  d'intensité  lumineuse  (projet du comité
                                                                                                                      . français).
                                Unification  des tarifs  postaux  par l'Union  postale  internationale.  (Principe  :
                                 la  distance  n'est  qu'un  élément  secondaire  eu égard  au coût  de la  manu-    Commission  internationale  chargée  de présenter  u n projet  d'étalonnage des
                                 tention.)                                                                             couleurs, nommée  par le Congrès  international de physiologie. Genève, 1909.
                                Unification  des signaux en mer.                                                  B E A U X - A R T S .
                                                                                                                     Codification  internationale  des termes  usités  dans  l'enseignement du dessin
                             P H I L O L O G I E .  É C R I T U R E .                                                  étudiée  au I I e  Congrès  artistique  international  pour le développement du
                                                                                                                               I
                                                                                                                       dessin  (Londres,  1908'.  Dictionnaire  musical  des locutions  étrangères de
                                Alphabet  latin.
                                                                                                                       Rougnon.
                                Travaux  sur l'établissement  d'alphabet  international.  —  Systèmes  sténo-        Notation  internationale  de la musique.  Projet  de  réforme  de la  notation
                                 graphiques  internationaux.  —  Alphabet  télégraphique  international.  —
                                 Alphabet  international  des aveugles.                                                musicale.
                                Travaux  sur la notation  nouvelle des sons  phonétiques.                         UNIFICATION.
                                                                                                                     Calendrier  sportif  international.
                            MATHÉMATIQUE.
                                                                                                                  S C I E N C E S  HISTORIQUES.
                               Classification  bibliographique  des  sciences  mathématiques  établie  par le        Travaux  des congrès  internationaux d'archéologie  sur les notations universelles
                                 Congrès  international  des mathématiciens.                                           à employer dans les cartes  archéologiques.
                               Classification  bibliographique des sciences  exactes  (mathématique,  physique et    Travaux  des  congrès  des sciences  historiques  sur la publication  des cartes de
                                 naturelle) servant à l'International  catalogue of scientific  literature.            géographie  historiques uniformes (Pirenne).
                               Notation  mathématique  :  signes  de nombre ou quantité  (chiffres),  signes de      Notations et signes en usage  dans la numismatique.
                                 calcul.  Notation  particulière  de la géométrie  pure,  de la géométrie  analy-
                                 tique, des mathématiques  appliquées.                                               Notation  des  figures  héraldiques.
                               Travaux  de terminologie  résultant  de la classification  des sciences  mathéma-  GÉOGRAPHIE.
                                 tiques  arrêtée par le Congrès  international  des mathématiciens.                   Règles  internationales  relatives à la transcription des noms  géographiques.
                               Notation  universelle des formules d'actuaires.                                        Discussions relatives à l'unification  des symboles  et signes  conventionnels de
                                                                                                                       la  cartographie.  (Congrès  international de géographie.)
                            ASTRONOMIE.                                                                               Notation de la topographie.
                               Nomenclature  internationale  arrêtée  au Congrès  de Baie de 4895. — Nomen-
                                 clature  lunaire  élaborée  par la Commission  internationale  nommée par                 III.  —  BIBLIOGRAPHIE,      INFORMATION
                                 l'Association  internationale des Académies.
                               Notation  de l'astronomie fsignes des constellations, de zoologie,  des planètes).                    ET  DOCUMENTATION.
                               Unification  du calendrier sur la base du calendrier grégorien.  Vœu du congrès
                                 des  chambres  de commerce  en faveur  de la  fixité  du jour  de  Pâques.        A.  —  Organismes  a y a n t  pour  objet  spécial  l a  bibliographie,
                                 Entente  internationale de l'heure : fuseaux  horaires,  numérotage  des heures                l'information  et  l a  documentation.
                                 du  jour de 1 à 24.
                                                                                                                      Institut  international  de bibliographie,  services  et offices  divers  de  biblio-
                                                                                                                       graphie et de documentation établis en connexion avec  l u i pour les sciences
                            GÉODÉSIE.
                                                                                                                       naturelles (Concilium  bibliographicum),  pour la technique, pour les chemins
                               Notation de la géodésie  (systèmes divers de projections).                              de  fer, pour la géologie,  pour la chasse,  la pèche,  l'horticulture,  l'aéronau-
                                                                                                                        tique,  les études  polaires, les questions  féminines.  (Répertoire  bibliogra
                                                                                                                        phique  universel.)




















                                                                                                                                           —  17  -
                                                     —  16  —
                                                                                                                          De  recueillir  autant  que  possible  les  jugements  rendus  par  voie
                             Congrès  international  de  bibliographie  et  de  documentation  (1910)  faisant         d'arbitrage  entre  nations  et  de  les  résumer  de  manière  à  constituer  une
                               suite  aux conférences  internationales de  bibliographie.                              sorte  de jurisprudence  pratique  en  cette  matière;
                             Union  officielle  pour la documentation  (la négociation).                                h)  De tenir  à jour une bibliographie  des  publications  relatives  à la  paix.
                             Catalogue  international  de  la littérature  scientifique (Londres).                                                                      [1714]
                             Instituts  bibliographiques  (de  Berlin)  pour  les  sciences  sociales,  la technique   Ligue  internationale contre l'abus  des  boissons spiritueuses.
                                                                                                                                  —
                                                                                                                                    8t
                                                                                                                                                   à
                                                                                                                                                               but
                                                                                                                                      La ligue
                                                                                                                                                            son
                                                                                                                                                     atteindre
                                                                                                                                                                  par la
                                                                                                                        STATUTS
                                                                                                                                                                       création
                               et  la médecine.                                                                        d'une  agence I I . neutre de  travail  cherche renseignements avec caractère  scien-
                                                                                                                                             et
                                                                                                                                                de
                             Services  internationaux  des  échanges  littéraires.                                     tifique  sous  forme  d'un  office  international  contre  l'alcoolisme.  —  (Le
                             Ententes  internationales  relatives  au prêt des  livres  et des  manuscrits.            Bureau  international  contre  l'alcoolisme,  qui  a  son  siège  à  Lausanne,
                                                                                                                       réalise  cet objet.)                               117J
                                                                                                                    L'Institut  international  des  classes  moyennes.
                          fi.  —  Associations nternationales  a y a n t  l'organisation,  l'infor-                     Art.  3.  —  L'Institut  recueille tous les faits  et  documents  concernant  les
                                            i
                            mation,  l a  bibliographie  et  l a  documentation  dans  l e u r                         classes moyennes  dans  le but  d'en  faire  la  matière  de  ses  études  collec-
                            domaine  propre.                                                                           tives  et de  faciliter  les  études  personnelles  de  chacun de  ses  membres.
                                                                                                                        Art.  18.  —  Chaque  délégué  est  chargé  de  réunir,  pour  son  pays,  les
                                                                                                                       documents  législatifs  statistiques  et  autres  intéressant  l'Institut,  de  les
                             Associations  internationales  des  académies.
                                                                                                                       communiquer  au secrétariat.  11 signalera de  même  les  institutions  et  les
                                  Son  patronage  a  l'International  Catalogue  of  scientific  literature            faits  pouvant faire  l'objet d'une  discussion ou d'une  publication.
                                Ses  publications  documentaires : encyclopédie  de  l'Islam.  Les  études sur           Les  membres  peuvent emprunter  les  ouvrages de  la bibliothèque.  I l est
                                le  prêt international  des  manuscrits.            [ogj                               formé  des  dossiers  d'observations à consulter sans  déplacement.  [3J
                             Comité Nobel. (Prix  internationaux.)                                                  Institut  international  de  statistique.
                                  STATUTS.  —  Art.  7.  -  L'Institut possède  une bibliothèque, une collection         STATUTS.  —  Art. 14.  —  L'Institut  publiera  un  bulletin  contenant  :
                                de  périodiques  et une salle de lecture.          [ooij                               d)  un résumé  des  ouvrages  récents  et les  plus importants sur la statistique;
                                                                                                                       c) une  bibliographie  internationale  de  statistique  donnant le répertoire  des
                             Congrès  international  de la presse  périodique.
                                                                                                                       publications  récentes,  le contenu des  revues, annuaires, le  bulletin  pério-
                                  Étude  des  questions relatives  à la documentation.  [07]                           dique de  statistique  Les congrès ont étudié l'institution d'une  bibliothèque
                                                                                                                       et  d'archives internationales  pour la statistique.
                             Congrès  de  la  presse.
                                                                                                                         TRAVAUX.  —  L'Institut  international  de  statistique  s'est  occupé  de
                                  Vœux  en  faveur  de  la  création d'un répertoire international  des  articles      bibliographie  à  diverses reprises. A la suite  d'un  rapport  de  M. Cheysson
                                de la presse  (1904).                              JQ7J
                                                                                                                       sur  les  publications  statistiques  de  chaque  pays, l'Institut  international  a
                             Congrès  international  de philosophie.                                                   décidé  que  pour chaque  congrès  de  l'Institut  international  un  rapporteur
                                                                                                                       sera  chargé  de  rendre  compte  du  mouvement  statistique  dans  chaque
                                 Vœu émis  de voir la commission permanente assumer  u n service  biblio-              pays depuis le congrès  précédent il891  : Compte rendu  VI, 1, p. 308). A la
                                graphique  et se  transformer  en un organe  d'information.  [ l j                     suite d'un rapport de  11. Nicolaï  sur l'échange  des  publications  statistiques,
                                                                                                                       l'Institut  a  constitué  un  comité  pour  l'échange  régulier  des  publications
                             The  international  Union  of Ethical  Societies.
                                                                                                                       statistiques entre les différents pays. ( 1895 : Compte rendu IX, 2). Sir Rawson
                                               I
                                 STATUTS.  —  A r t . I I ,  2.  G.  —  To  maintain  an  international  Ethical       a présenté, en  1887, un projet  de  classification  de  sujets  sur  lesquels  on
                                Library.                                                                               peut  baser  la bibliographie  des  principales  branches  de  la  statistique  de
                                                                                                                       chaque  pays.  L'Institut  constitua  un  comité  spécial  pour  élaborer  une
                             Société du bureau  international  permanent de  la  paix.                                 classification  bibliographique sur la  base  de  ce  projet. (Compte rendu  I I ,  I ,
                                 STATUTS.  —  Art.  4.  — La société  a spécialement  pour objet  :  a)  de  ren-      pp.  315  et  358  )  En  1889,  Sir  Rawson  présenta  à  l'Institut  u n  plan  de
                                seigner sur les  questions  relatives  à  la  propagande  et  à  la  défense  des      bibliographie  statistique.  (Compte rendu  IV, 2,  p. 115.) En 1895, M. Troï-
                                idées  communes  les  institutions,  les  associations  et  les  personnes  qui        nitskv  présenta  à  l'Institut  un  essai  de  bibliographie  statistique  russe.
                                travaillent  à l'œuvre  de la paix  et a faciliter  les  relations  entre  elles;      (Compte  rendu IX, 2,  LXXIX  )
                                 <L> De classer  et de  conserver  les  archives des  congrès,  des  conférences
                                et  autres réunions  internationales  ainsi  que  toutes  l'es  pièces  qui lui sont   Institut colonial  international.
                                confiées  et  tout  ce  qui peut  intéresser  le  mouvement  de  la  paix  et  de        STATUTS.  —  Art.  1. —  3°  L'Institut  a pour  but  d'organiser le  plus
                                l'arbitrage;                                                                           rapidement  possible  un  bureau  international  de  renseignements,  qui
                                                                                                                       réunira,  classera  et  conservera  ce  qui se  publie  de  meilleur  et surtout  les
                                 e)  De  constituer  une  bibliothèque  de  toutes les  publications  relatives  à
                                la  paix  en collectionnant autant  que  possible  les  articles  de  journaux  et     documents  officiels,  à la fois  sur - l'administration  et le droit  des  colonies,
                                                                                                                                                            l
                                les  revues  périodiques,  ainsi  que  les  publications  officielles  des  divers     et  se  mettra  en  état de fournir  les informations qui ui  seraient demandées.
                                gouvernements  ayant  trait  à  des  questions  qui  intéressent  la  paix  entre                                                          131]
                                les nations ;
                                                                                                                                                                      2



















                                                      -  1 8  -                                                                             -  19  -

                              Conférence  internationale  des  syndicats ouvriers.                                      États de  l'Union  ou  dans  une  de  ses  colonies,  cet  État  adressera  autant
                                   La  mission  principale  du  secrétariat  syndical  ouvrier  international  est      d'exemplaires  de  ce  document au  bureau  international  qu'il  en  faudra  à
                                 de  réunir  îles  renseignements de  toute nature,  aussi complet que  possible,       celui-ci  pour en envoyer  un exemplaire à  chacun  des  États contractants et
                                 sur  le mouvement syndical dans  les  divers pays.  [331 ]                             pour  en conserver  deux  exemplaires dans  les  propres archives. Le bureau
                                                                                                                                                                            l
                                                                                                                        international  procédera  sans  retard  à  la répartition  des  documents qui ui
                              Union  monétaire.                                                                         seront  ainsi  adressés.  I l sera,  en  outre,  envoyé  autant  que  possible  au
                                                                                                                        bureau  international,  un  exemplaire  de  tous  les  documents  parlemen-
                                   Convention  monétaire  du 6 mars  1885.  Art. 11. —  Le Gouvernement de
                                 la  République  française  accepte  la  mission  de  centraliser tous  les  docu-      taires qui seront publiés  dans  les  États de  l'Union sur les matières susmen-
                                 ments  administratifs  et statistiques  relatifs  aux  émissions  de  monnaies, à      tionnées.                                       [347.77]
                                 la  production et à la consommation des  métaux  précieux,  Si la  circulation
                                 monétaire,  à la contrefaçon  et  à  l'altération  des  monnaies.  11 les commu-   Association  artistique et littéraire  internationale.
                                 niquera  aux  autres gouvernements, et les  pays  contractants aviseront  de            Congrès de  1895. Vœu en faveur du répertoire  bibliographique  universel.
                                 concert,  s'il y  a lieu,  aux mesures  propres  à donner  à  ces  renseignements                                                      [347.78]
                                 toute  l'exactitude désirable  comme  à  prévenir  les  contrefaçons  et  altéra-       Congrès  de  1908.
                                 tions  de  monnaies  rt à en assurer la répression.  [332]                              Le  congrès  émet  le vœu  que  le  bureau international  de  Berne recueille
                                                                                                                        tons  les  documents  relatifs  à  la  reproduction  illicite  dont  les  œuvres
                              Alliance  coopérative  internationale.                                                    littéraires  et  artistiques  font  l'objet  dans  les  divers  pays  du  monde  et
                                   Bibliographie  coopérative  internationale  publiée  par les soins du bureau         qu'il  soit institué  dans cette ville  une sorte  de  bibliothèque  ou  musée  de
                                 directeur.                                         [3331                               la  contrefaçon.
                              Bureau  socialiste  international.                                                    Congrès  international  des  sciences  administratives.
                                   Décision  du  Congrès  de  Paris  :  le  secrétaire  général  est  chargé  de         Le  congrès  des  sciences  administratives  a  une section de  bibliographie
                                 procurer  les  informations  nécessaires.          [334|                               et  de  documentation.  I l a indiqué  comme  règle que les rapports  et commu-
                                                                                                                        niqués  doivent  donner  les  principaux  renseignements bibliographiques
                              Bureau  international  pour la traduction  des  tarifs douaniers.
                                                                                                                        concernant  les questions  traitées.               [35]
                                   L'article  8  de  l'Union  énumère  tout  un  ensemble  de  documents  à
                                 envoyer  aussitôt  à Bruxelles.                    [337]                           Fédération  internationale  de  la mutualité, 1906.
                                                                                                                         STATUTS.  —  Art.  21.  —  Le Bureau  permanent international  d'études  et
                              Bureau international  des  républiques  américaines.
                                                                                                                        de  statistique  a pour mission :
                                  Centre  de  documentation,  de  traductions  et de  publications.  [341]
                                                                                                                         1 0  De  rassembler  les  données  existantes  sur  les  institutions  de  pré-
                              Union  interparlementaire.                                                                voyance  du monde  entier;
                                  STATUTS.  — Art.  16.  —  3.  Le  secrétaire  soigne  les  archives et réunit  les     2°  De publier  directement,  ou  à l'aide  d'autres  institutions  sociales,  les
                                 documents  relatifs  à l'arbitrage  international.  [341]                              documents qui exigent une difiusion  immédiate;
                                                                                                                         3°  D'établir  la bibliographie  internationale  de  la  mutualité  avec  l'Insti-
                              Commission  pénitentiaire  internationale.                                                tut  international  de  bibliographie.
                                           A
                                  STATUTS. — rt.  1 e r .  —11  est créé une commission pénitentiaire  internatio-       Statuts  du  Bureau  international  permanent (art. 7).
                                 nale qui aura  pour  mission de  recueillir  les  documents  et renseignements          Afin  de remplir cette mission, le Bureau  établit une bibliothèque centrale
                                 relatifs  à la répression  des  crimes ainsi qu'au régime  pénitentiaire,  à  l'effet  réunissant  les  lois  et  arrélés  relatifs  à  la  mutualité  et  les  publications
                                 d'éclairer  les  gouvernements  sur  les  mesures  générales  à  prendre  pour         officielles  et  statistiques  qui  la  concernent.  11 dépouille,  avec  l'aide  des
                                 prévenir  les  infractions  à la loi pénale  et  assurer  leur  répression,  tout  en  correspondants  des  divers  pays, les  livres,  les  revues  principales et  les
                                 amendant  les  coupables.                        [343.8]                               documents  parlementaires concernant la  matière.
                                                                                                                         11 publie un bulletin  trimestriel.
                              Union  de Berne pour la propriété  industrielle.                                           11  peut  éditer  des  mémoires  sur  des  questions  mutualistes  ou  sur  la
                                  TRAITÉ NTERNATIONAL.  —  Art. 12.  —  Chacune  des  hautes  parties  con-             situation  de  la mutualité  dans  les divers pays.
                                        I
                                 tractantes  s'engage  à établir  un service  spécial  de  la propriété  industrielle    Il  prépare,  de  concert  avec  l'Office  international  de  bibliographie,  la
                                 et  un  dépôt  central  pour  la  communication  au  public  des  brevets  d'inven-    publication  de  la documentation de  la mutualité.  [3681
                                 tion,  des  dessins  ou  modèles  industriels  et  des  marques de fabrique ou  de
                                 commerce.  (Propriété  industrielle  12.)                                           Congrès  international  d'éducation  familiale.
                                  4 e  protocole,  13  avril  1891.                                                      Section  de  documentation créée  au  sein du Congrès.  [37]
                                           l
                                  Dès qu'une oi, un règlement,  une  convention  ou  tout  autre  document           Congrès  international  des  chemins de fer.
                                officiel  se  rapportant  à la protection des  brevets  d'invention,  des  dessins
                                ou  modèles  industriels, des  marques de  fabrique ou  de commerce, du nom              Publication de la bibliographie internationale des chemins de fer. Service
                                commercial  ou  des  indications  de  provenance  aura  été  publié  dans un  des       de  bibliographie  et bibliothèque  au siège  central.  [3851




















                                                     —  -20  -                                                                               -  21  —
                             Congrès international  des  mathématiciens.                                             Union  internationale  de photographie.
                                  Résolution  du  Congrès  international  des  sciences  mathématiques  à                 Section  de  documentation créée  au  sein  du  Congrès.  Congrès  interna-
                                 l'égard  des  règles  de bibliographie  scientifique.                                  tional  de  documentation photographique, organisé  à  Marseille,  en 1906,
                                  Publication  de  la bibliographie  des  mathématiques.  [511                           par  l'Union.  —  Institut  international  de  photographie  documentaire,
                                                                                                                         organisé  à Bruxelles  en connexion  avec  l'Institut  international  de  biblio-
                             Congrès  international  de  géologie.                                                       graphie.
                                  Travaux  relatifs  à la bibliographie.            [55]                                                                                    [77]
                                                                                                                     Congrès international  des  sciences  historiques.
                             Congrès  international  de sismologie.                                                       Section  de  bibliographie  organisée  au sein du Congrès.  [9]
                                  Projet  de  bibliographie.                      [55.14]                             Congrès  international de  géographie.
                                                                                                                          Patronage  de  la  Bibliograpliia  geographica.
                              Congrès  international  de botanique.
                                                                                                                          Projet  de  création  d'un  bureau  international  de  consultation  géogra-
                                  Section  de  documentation créée au sein du  Congrès.  Code des  règles  de            phique  au  profit du commerce  (1908).  Unification  des  signes  et  symboles
                                 bibliographie  botanique.                          [581                                 de  la  cartographie.  Règle  de  nomenclature  géographique.  Projet  de
                                                                                                                         répertoire  graphique des  progrès  de l'exploration  du monde (1908).  [91]
                              Congrès  international  de  zoologie.
                                  Patronne la bibliographie  zoologique  éditée  par le Concilium  bihliogra-         Institut  polaire  international.
                                 phicum.                                            [59]                                   Formation  de collections documentaires.
                              Congrès  international  de physiologie.
                                  Règle  de  bibliographie  physiologique  préparée  par une Commission du
                                 Congrès  international  de  physiologie.            [1]
                              Société  universelle  de  la Croix-Blanche.
                                   STATUTS.  —  Art.  2.  —  Elle  organise  des  services  de  statistique  inter-
                                 nationale  comportant  une  action  générale  de  manière  à  permettre  une
                                 connaissance  minutieuse  et  constante  des  mouvements  nosologiques
                                 suivant un formulaire  universel.  Elle  en constitue et en  tient  les archives.
                                                                                      i
                                                                                   [61 |
                              Fédération  aéronautique  internationale.
                                   Décisions  en  faveur de  l'office de  documentation aéronautique.  [629.2]
                              Institut  international  d'agriculture.
                                  Institution d'une  bibliothèque  internationale  d'agriculture et d'un service
                                 bibliographique,  en connexion de  méthode  avec l'Institut  international  de
                                 bibliographie.                                     [63J
                              Congrès  international  de  cultures tropicales.
                                   Section  de  documentation créée au sein du Congrès.  [631
                              Congrès  international  des  Associations agricoles.
                                   Section  de  documentation créée  au sein du Congrès.  [631
                              Congrès  international  d'horticulture.
                                   Relation  avec l'Office international  et documentation horticole.  [6351
                              Congrès  international  d'alimentation  et  d'élevage.
                                   Section  de  documentation créée  au sein du Congrès.  [636|

                              Congrès  international  des  stations  forestières.
                                   Projet  de bibliographie  forestière.            [639]

