






























































                                    CONGRÈS       M O N D I A L
                                               DES
                   A S S O C I A T I O N S     I N T E R N A T I O N A L E S
                                Deuxième ession  : AND-BRUXELLES, 5-18 uin  1913
                                      s
                                                         1
                                                            j
                                             G
                       Organisé  par 'Union  des  Associations  Internationales
                                    l
                               Office  central  :  Bruxelles,  3 b ' s ,  rue de la  Régence
                   Journal               du     Congrès.                 -    N'     I









                         H O R A I R E  D E  L A  JOURNÉE  D U 16  J U I N

                     A  9 heures i  /2 : Réunion  des Sections au Palais des  Académies.
                     I.  — Première  et  Quatrième    commissions    réunies  :
                  Coopération  et  Coordination.
                     Président  :  M .  STEPHAX  B A U E R ,  directeur de  l'Office  Interna-
                            T
                  tional  du ravail  à  Bâle.
                    ( V o i r  Résolutions  q u i o i v e n t servir de base  à  l a discussion,  p .  29 à 33
                                      d
                  d u  Rapport  général.)
                         Liste  des rapports spéciaux  en  discussion,  page  58
                                   du  même  Rapport général.
                    1.  Constitution  de la section.
                    2. Examen  comparé  de l'organisation  interne  des  Associations
                   Internationales  ainsi  que des moyens  d'accroître  leur  utilité  et
                  le  rendement  de leurs  services.
                    II.  —  Deuxième   commission.    —   Statut  juridique  des
                  Associations.
                    Président  :  E D M O N D  P I C A R D ,  ancien  bâtonnier  de  l'Ordre  des
                  Avocats.
                    ( V o i r  Résolutions  q u i  d o i v e n t  servir de  base  à  l a discussion,  p .  1 4  d u
                  Rapport  général.)
                        Liste  des rapports spéciaux en  discussion,  page  57
                                    du  même  Rapport général.
                    1.  Constitution de la  section.
                    2.  Convention  Internationale  pour  fixer  le  Statut  juridique
                  des  Associations  Internationales.


































































                          I I I .  — Troisième  commission  :  Systèmes  internationaux                                        SÉANCE     I N A U G U R A L E
                       d'unités.                                                                                La  séance  est  ouverte  à  10  h. 3/4,  sous  la  présidence  de
                          Président  :  Général  SEBERT.                                                      M.  Cooreman,  ancien  président  de  la  Chambre  des  Représen-
                          ( V o i r  Résolutions  q u i  d o i v e n t servir de base  à a  discussion,  p . 21  à  24  tants.  A u bureau  prennent  place,  conformément  à 'installation
                                                                l
                                                                                                                                                              l
                       d u  Rapport  général.)
                                                                                                              des  Congrès  Internationaux, les organisateurs  du Congrès  et  les
                                                           d
                              Liste  des rapports  spéciaux  en iscussion,  page  58                          délégués  des  Etats  réprésentés.  Le  discours  inaugural  est  pro-
                                         du même  Rapport  général.                                           noncé  par  M.  Cooreman.  On reproduira  dans  le  numéro  de
                         1.  Constitution de la  section.                                                     demain  les passages  essentiels de ce  discours.
                          2.  Moyens  de  rattacher  à  un système  général  les  systèmes                      Le  général  Sébert, au nom de la  France,  et  M.  Muddre, au
                       particuliers  d'unifications  et  d'unités  réalisés  par  les  Associa-               nom  de l'Angleterre, assistant  au Congrès,  formulent des  vœux
                        tions  Internationales  : a)  unités  scientifiques.-                                 de  bonne  réussite  au Congrès  qui  vient  de s'ouvrir.

                         I V .  — Cinquième  et Sixième  commissions  réunies  : Do-
                       cumentation  et  -Langage.                                                               SUPPLÉMENT       A  L A  L I S T E  D E S  A S S O C I A T I O N S
                                                                                                                        I N T E R N A T I O N A L E S  ADHÉRENTES
                         Présidents  :  G A R I E L  et  W I L M O T T E .
                                                                                                              Alliance  Universelle  des Unions  de Jeunes  Filles.
                         ( V o i r  Résolutions  q u i o i v e n t  servir  de  base  à  l a discussion,  p . 33 à  41
                                            d
                       d u  Rapport  général.)                                                                Association  Internationale de Perfect,  scientifique  et médical.
                                                                                                              Association  Internationale des Clubs  Cosmopolites.
                           Liste  des rapports  spéciaux en  discussion,  pages, 59 et 60                     Assoc. ntern,  pour la Protection de la  propriété industrielle.
                                                                                                                     I
                                        du  même  Rapport  général.
                                                                                                              Association  Stomatologique  Internationale.
                         1.  Constitution de  la  section.                                                    Bureau  Internat,  de  Renseign  des Cong.  Intern,  de  langues  viv.
                         2.  Mesures  q u i incombent  aux  Associations  Internationales                     Bureau  Socialiste  International.
                            l
                       pour a diffusion  des informations et  des connaissances  :  Publi-                    Carnegie  Endowment  for International  Peace.
                       cations,  Documentation, Exposition,  Enseignement.
                                                                                                              Commission  Socialiste Interparlementaire.
                         A  2 heures  1 ¡2 : au Palais  des Académies.                                        Comité  International  pour  l'Unification  de la  terminologie  du
                                                                                                                potentiel  et  de l'élasticité.
                                        ASSEMBLÉE      P L É N I È R E                                        Comité  International  pour  l'exécution  de la Carte photographi-
                                                                                                                que  du ciel.
                         Organisation  de  la  Vie  Internationale.  Rôle  des  Associa-
                       tions,  etc.                                                                           Commission   Internat,  des  Tables  annuelles  de  constantes  de
                                                                                                                chimie et de physique ;
                         ( V o i r  Résolutions  proposées,  p . 45  à  50  d u  Rapport  général.  Wir  r a p -
                                                                                                              Commission  Intern,  permanente  de l'Education  physique.
                       p o r t s  présentés,  p. 60  d u  m ê m e  Rapport  n  0 3  4,  11,  24, 32, 37,  45, 50, 52,
                                                                                                              Commission  permanente  des  Congrès  Internationaux  de  l'En-
                       53.  5-1.  5 6 -  6 2 > 3 , 64,  68.)
                                    6
                                                                                                                seignement  technique.
                         A  11  heures  1/4  :  Réunion  des adhérents  d'après  leurs  préoc-                Commission  permanente  Internationale  d'Aéronautique.
                       cupations  professionnelles,  sociales etc.  : Examen  des moyens  de                  Conciliation Internationale.
                       coopération  et  de  création  ayant  des  buts  communs.  (Voir                       Congrès  International  d'Horticulture.
                       groupes  proposés,  p.  62).
                                                                                                              Fédération  Européenne  de  Gymnastique.
                                                                    t
                         A  4 heures  1 ¡2 : Départ  de la place  Royale,  en ram  spécial.                   Congrès  Internationaux de l'Education  Morale.
                         A  5  heures  : Réception  par  M .  Janssen  dans  sa  propriété  à                 Fédération  Internationale de la Mutualité.
                       Uccle.                                                                                 Fédération  Internationale des Comités  permanents  d'expositions.































































                                                   —  4  —                                                                         CONGRÈS      M O N D I A L

                         Fédération  Internationale des  Relieurs.                                                                            D E S
                         Fédération  Internationale  et  Universelle  des  Sociétés  de                          A S S O C I A T I O N S    I N T E R N A T I O N A L E S
                                                                                                                                                           j
                                                                                                                                     s
                                                                                                                                            B
                                                                                                                                                       1
                                                                                                                                                              1
                           Crémation,                                                                                         Deuxième ession  : AHD-BRUXELLES, 5-18 uin 913
                         Fédération  internationale pharmaceutique.                                                   Organisé  par 'Union  des  Associations  Internationales
                                                                                                                                  l
                         Fédération  internationale pour  l'Observation  du  dimanche.                                        Office  central:  Bruxelles,  .? bi >,  rue  de  la  Régence
                         Institut  de  Droit  international.
                         Institut  Polaire  international.
                         Ligue  Internationale de  la Paix  et  de  la  Liberté.
                         Of  fice  International  de  l'Enseignement  ménager.                                   Journal               du      Congrès. -                     H'     1
                         Scienca  Asocio  esperantista.
                         Société  Théosophique  Internationale.
                         Société  universelle de  la  Croix  Blanche.
                         Union  Economique  Internationale.
                        World's  Missionary  Conférence.
                                                                                                                        H O R A I R E  D E  L A  JOURNÉE  D U  16  J U I N

                           DÉLÉGUÉS      O F F I C I E L S  D E S  G O U V E R N E M E N T S                       A  9 heures i  ¡2  '• Réunion  des  Sections  au  Palais des  Académies.
                                               ÉTRANGERS                                                           I.  —  Première  et  Quatrième   commissions     réunies  :
                                                                                                                 Coopération  et  Coordination.
                        B O L I V I E  :  J  de  Lemoine,  M E X I Q U E  :  Gamboa.
                                                                                                                                 S
                                  de  Ladrier.          NORVÈGE   : Bogh.                                          Président  :  M . TEPHAN  BAUER,  directeur de  l'Office  Interna-
                        C H I L I  :  Hunéeus.          PERSE  : Sadi  Kirschen.                                 tional  du  Travail  à  Bâle.
                        C H I N E  :  Li-Chetchoung,    PORTUGAL  : Alvez  da  Veiga.                              ( V o i r  Résolutions  q u i o i v e n t servir de  base  à  l a  discussion,  p.  29  à  33
                                                                                                                                     d
                                Lou-Tsiun.              R É P U B L I Q U E  D O M I N I C A I N E  :            d u  Rapport  général.)
                        COLOMBIE  :  Rodriguez  Maldo-    Penso,  Guarini.
                         ,  nado.                       SUÈDE  :  Baron von  Bonde.                                    Liste  des  rapports  spéciaux  en  discussion,  page  58
                        EQUATEUR   :  Seminario,        T U R Q U I E  :  Tigrane  Bey.                                           du  même  Rapport  général.
                                     Espinosa.          PARIS  :  Ministère  de  l'Instruc-                        1.  Constitution de  la  section.
                        ESPAGNE   : Marquis  de  Villalo-  tion  publique  de  France,
                          bar,  Dato.                     Louis  Weill.                                            2. Examen  comparé  de  l'organisation interne  des  Associations
                        G R A N D E  BRETAGNE  :  Sir  Cecil  BRUXELLES  :  Minist,  de  l'Agr.                  Internationales  ainsi  que  des  moyens  d'accroître  leur  utilité  et
                           Hertslet.                      et  des  Trav.  publ.:  Richald.                       le  rendement  de  leurs  services.
                        G R A N D  D U C H É  L U X E M B O U R G  :  Minist,  des  Äff.  E t r .  de Belg.  :         —  Deuxième    commission.    —
                           de  Waha.                      chev.  de  Moreau.                                       II.                                   Statut  juridique  des
                        GUATEMALA   :  Lardixabal.      Ministère  de  la  Marine  :  F.  de                     Associations.
                                                                                                                              E
                        H A Ï T I  : D  r  A.  Riboulde  Pescay.  Walque.                                          Président  : D M O N D  PICARD,  ancien  bâtonnier  de  l'Ordre  des
                        HONDURAS   :  Jalhay.           Minist,  des  Sciences  et  Arts  :                      Avocats.
                        HONGRIE   :  Alexis  de  Sigmond.  Rutten.                                                 ( V o i r  Résolutions  q u i  d o i v e n t  servir de  base  à  la  discussion,  p.  14  d u
                        I T A L I E .                   Min.  I n t .  :  Sauveur,  Stercks.
                                                                                                                 Rapport  général.)
                                                                                                                       Liste  des  rapports  spéciaux  en  discussion,  page  57
                                                                                                                                   du  même  Rapport  général.
                                                                                                                   1.  Constitution de a  section.
                                                                                                                                    l
                                                                                                                   2.  Convention  Internationale  pour  fixer  le  Statut  juridique
                                                                                                                 des  Associations  Internationales.
































































                                                                                                                                            —  3  —
                             I I I .  —  Troisième  commission  :  Systèmes  internationaux                                       SÉANCE      I N A U G U R A L E
                           d'unités.                                                                                La  séance  est  ouverte  à  1 0  h. 3/4,  sous  la  présidence  de
                             Président  :  Général  SEBEKT.                                                       M.  Cooreman,  ancien  président  de  la  Chambre  des  Représen-
                                                                   l
                             ( V o i r  Résolutions  q u i  d o i v e n t  servir de base  à a  discussion,  p . 21  à  24  tants.  A u bureau  prennent  place,  conformément  à 'installation
                                                                                                                                                                  l
                           d u  Rapport  général.)
                                                                                                                  des  Congrès  Internationaux, les organisateurs  du Congrès  et les
                                                              d
                                 Liste  des rapports  spéciaux  en iscussion,  page  58                           déléguf s  des  Etats  réprésentés.  Le  discours  inaugural  est pro-
                                             du même  Rapport  général.                                           noncé  par M.  Cooreman.  On reproduira  dans  le  numéro  de
                             j .  Constitution de la section.                                                     demain  les passages  essentiels de ce  discours.
                             2.  Moyens  de  rattacher  à  un système  général  les  systèmes                       Le  général  Sébert, au nom de la  France,  et  M.  Muddre, au
                           particuliers  d'unifications  et  d'unités  réalisés  par  les Associa-                nom  de l'Angleterre, assistant  au Congrès,  formulent  des  vœux
                           tions  Internationales  : a)  unités  scientifiques.                                   de  bonne  réussite  au Congrès  qui vient  de s'ouvrir.

                             IV.  — Cinquième  et Sixième  commissions   réunies  : Do-
                           cumentation  et  Langage.                                                                SUPPLÉMENT       A  L A  L I S T E  D E S  A S S O C I A T I O N S
                                                                                                                           I N T E R N A T I O N A L E S  ADHÉRENTES
                             Présidents  :  G A R I E L  et  W I L M O T T E .
                                                                                                                  Alliance  Universelle  des Unions  de Jeunes  Filles.
                                               d
                             ( V o i r  Résolutions  q u i o i v e n t  servir  de  base  à  l a discussion,  p . 33 à  41
                                                                                                                  Association  Internationale de Perfect,  scientifique  et médical.
                           d u  Rapport  général.)
                                                                                                                  Association  Internationale des Clubs  Cosmopolites.
                              Liste  des rapports  spéciaux en  discussion,  pages, 59 et 60                      Assoc. ntern,  pour la Protection de la  propriété industrielle.
                                                                                                                        I
                                            du  même  Rapport  général.
                                                                                                                  Association  Stomatologique Internationale.
                             1.  Constitution de  la  section.                                                    Bureau  Internat,  de  Renseign  des Cong.  Intern,  de  langues  viv.
                             2.  Mesures  qui incombent  aux  Associations  Internationales                       Bureau  Socialiste  International.
                                l
                           pour a diffusion  des informations et  des connaissances  :  Publi-                    Carnegie  Endowment  for International  Peace.
                           cations,  Documentation, Exposition,  Enseignement.
                                                                                                                  Commission  Socialiste Interparlementaire.
                             A  2 heures  1 ¡2 : au Palais  des  Académies.                                       Comité  International  pour  l'Unification  de la  terminologie  du
                                                                                                                    potentiel  et  de l'élasticité.
                                            ASSEMBLEE     P L E N I Ê R E                                         Comité  International  pour  l'exécution  de la Carte  photographi-
                                                                                                                    que  du ciel.
                             Organisation  de  la  Vie  Internationale.  Rôle  des  Associa-
                           tions,  etc.                                                                           Commission  Internat,  des  Tables  annuelles  de  constantes  de
                                                                                                                    chimie et de physique ;
                             ( V o i r  Résolutions  proposées,  p .  45  à  50  d u  Rapport  général.  Wir  r a p -
                                                                                                                  Commission  Intern,  permanente  de  l'Education  physique.
                           p o r t s  présentés,  p. 60  d u  m ê m e  Rapport  n  0  4,  n ,  24, 32, 37,  45, 50, 52,
                                                               3
                                                                                                                  Commission  permanente  des  Congrès  Internationaux  de  l'En-
                           53.  54. 5 -  62. 3 . 64,  68.)
                                  6
                                       6
                                                                                                                    seignement  technique.
                             A  1 1  heures  1/4 :  Réunion  des adhérents  d'après  leurs  préoc-                Commission  permanente  Internationale  d'Aéronautique.
                           cupations  professionnelles,  sociales etc. : Examen  des moyens  de                   Conciliation Internationale.
                           coopération  et  de  création  ayant  des  buts  communs.  (Voir                       Congrès  International  d'Horticulture.
                           groupes  proposés,  p.  62).
                                                                                                                  Fédération  Européenne  de  Gymnastique
                             A  4 heures  1 ¡2.  : Départ  de la place  Royale,  en ram  spécial.                 Congrès  Internationaux de l'Education  Morale.
                                                                         t
                             A  5  heures  : Réception  par  M .  Janssen  dans  sa  propriété  à                 Fédération  Internationale de la Mutualité.
                           Uccle.                                                                                 Fédération  Internationale  des Comités  permanents  d'expositions.































































                                                                                                                                     CONGRÈS      M O N D I A L
                                                    —  4  —
                                                                                                                                                D E S
                         Fédération  Internationale des  Relieurs.                                                 A S S O C I A T I O N S    I N T E R N A T I O N A L E S
                         Fédération  Internationale  et  Universelle  des  Sociétés  de                                         Deuxième ession  : ANG-BRUXELLES, 5-18 uin  1913
                                                                                                                                                         1
                                                                                                                                                             j
                                                                                                                                              G
                                                                                                                                      s
                           Crémation,
                                                                                                                                    l
                         Fédération  internationale pharmaceutique.                                                     Organisé  par 'Union  des  Associations  Internationales
                         Fédération  internationale pour  l'Observation  du  dimanche.                                          Office  central  :  Bruxelles,  .? bis ,  rue  de la  Régence
                         Institut  de  Droit  international.
                         Institut  Polaire  international.
                         Ligue  Internationale de  la  Paix  et  de  la  Liberté.
                         Of  fice  International  de  l'Enseignement  ménager.                                     Journal               du      Congrès. -                    N"      1
                         Scienca  Asocio  esperantista.
                          Société  Théosophique  Internationale.
                         Société  universelle  de  la  Croix  Blanche.
                         Union  Economique  Internationale.
                         World's* Missionary  Conférence.                                                                 H O R A I R E  D E  L A  JOURNÉE  D U  16  J U I N
                                                                                                                     A  9 heures i  ¡2  : Réunion  des  Sections  au  Palais des  Académies.
                            DÉLÉGUÉS      O F F I C I E L S  D E S  G O U V E R N E M E N T S
                                                ÉTRANGERS                                                            I.  —  Première  et  Quatrième   commissions     réunies  :
                                                                                                                   Coopération  et  Coordination.
                         B O L I V I E  :  J  de  Lemoine,  M E X I Q U E  :  Gamboa.                                Président  :  M.  STEPHAN  BAUER,  directeur de  l'Office  Interna-
                                   de  Ladrier.          NORVÈGE   : Bogh.                                         tional  du  Travail  à'Bâle.
                         C H I L I  :  Hunéeus.          PERSE  :  Sadi  Kirschen.                                   ( V o i r  Résolutions  q u i o i v e n t servir de  base  à  l a  discussion,  p.  29  à  33
                                                                                                                                      d
                         C H I N E  :  Li-Chetchoung,    PORTUGAL  : Alvez  da  Veiga.                             d u  Rapport  général.)
                                 Lou-Tsiun.              R É P U B L I Q U E  D O M I N I C A I N E  :
                         COLOMBIE  :  Rodríguez  Maldo-    Penso,  Guarini.                                              Liste  des  rapports  spéciaux  en  discussion,  page  58
                           nado.                         SUÈDE  :  Baron von  Bonde.                                                du  même  Rapport  général.  '
                         E Q U A T E U R  :  Seminario.  T U R Q U I E  :  Tigrane  Bey.
                                      Espinosa.          PARIS  :  Ministère  de  l'Instruc-                         1.  Constitution de  la section.                    .  '
                         ESPAGNE   : Marquis  de  Villalo-  tion  publique  de  France,                              2. Examen  comparé  de  l'organisation interne  des  Associations
                           bar,  Dato.                     Louis  Weill.                                           Internationales  ainsi  que  des  moyens  d'accroître  leur  utilité  et
                         G R A N D E  B R E T A G N E  :  Sir  Cecil  BRUXELLES  :  Minist,  de  l'Agr.            le  rendement  de  leurs  services.
                           Hertslet.                       et  des  Trav.  publ.:  Richald.
                         G R A N D  D U C H É  L U X E M B O U R G  :  Minist,  des  Äff.  E t r .  de Belg.  :      II.  —  Deuxième   commission.    —   Statut  juridique  des
                           de  Waha.                       chev.  de  Moreau                                       Associations.
                         GUATEMALA   :  Lardixabal.      Ministère  de  la  Marine  :  F.  de                        Président  : D M O N D  PICARD,  ancien  bâtonnier  de  l'Ordre  des
                                                                                                                                E
                         H A Ï T I  :  D  r  A.  Riboulde  Pescay.  Walque.                                        Avocats.
                         H O N D U R A S  :  Jalhay.     Mirust.  des  Sciences  et  Arts  :
                         H O N G R I E  :  Alexis  de  Sismond.  Rutten.                                             ( V o i r  Résolutions  q u i  d o i v e n t  servir de  base  à  la  discussion,  p.  1 4  d u
                         I T A L I E .                   Min.  I n t .  :  Sauveur,  Stercks.                      Rapport  général.)
                                                                                                                         Liste  des  rapports  spéciaux  en  discussion,  page  57
                                                                                                                                     du  même  Rapport  général.
                                                                                                                                      l
                                                                                                                     1.  Constitution de a  section.
                                                                                                                     2.  Convention  Internationale  pour  fixer  le  Statut  juridique
                                                                                                                   des  Associations  Internationales.































































                                                                                                                                            —  3  —

                             I I I .  —  Troisième  commission  :  Systèmes  internationaux                                       SÉANCE      I N A U G U R A L E
                           d'unités.
                                                                                                                   La  séance  est  ouverte  à  10  h. 3/4,  sous  la  présidence  de
                             Président  :  Général  SEBERT.
                                                                                                                  M.  Cooreman,  ancien  président  de  la  Chambre  des  Représen-
                             ( V o i r  Résolutions  q u i  d o i v e n t  servir de base  à l a  discussion,  p . 21  à  24
                                                                                                                                                                 l
                                                                                                                 tants,  A u bureau  prennent  place,  conformément  à 'installation
                           d u  Rapport  général.)
                                                                                                                  des  Congrès  Internationaux, les organisateurs  du Congrès  et les
                                 Liste  des rapports  spéciaux  en iscussion,  page  58                           délégur's  des  Etats  réprésentés. Le  discours  inaugural  est pro-
                                                              d
                                             du  même  Rapport  général.                                         noncé   par  M .  Cooreman.  On reproduira  dans  le  numéro  de
                             1.  Constitution de la  section.                                                     demain  les passages  essentiels de ce  discours.
                             2.  Moyens  de  rattacher  à  un système  général  les  systèmes                       Le  général  Sébert, au nom de la  France,  et  M.  Muddre, au
                           particuliers  d'unifications  et  d'unités  réalisés  par  les  Associa-               nom  de l'Angleterre, assistant  au Congrès,  formulent des  vœux
                           tions  Internationales  : a)  unités  scientifiques.                                   de  bonne  réussite  au Congrès  qui vient  de s'ouvrir.

                             I V .  —  Cinquième  et Sixième  commissions  réunies  : Do-                          SUPPLÉMENT        A  L A  L I S T E  D E S  A S S O C I A T I O N S
                           cumentation  et  Langage.
                                                                                                                           I N T E R N A T I O N A L E S  ADHÉRENTES
                             Présidents  :  G A R I E L  et  W I L M O T T E .
                                               d
                             ( V o i r  Résolutions  q u i o i v e n t  servir  de  base  à  l a discussion,  p . 33 à  41  Alliance  Universelle  des Unions  de Jeunes  Filles.
                           d u  Rapport  général!)                                                                Association  Internationale de Perfect,  scientifique  et médical.
                                                                                                                  Association  Internationale des Clubs  Cosmopolites.
                              Liste  des rapports  spéciaux en  discussion,  pages, 59 et 60                      Assoc. ntern,  pour la Protection de la  propriété industrielle.
                                                                                                                        I
                                            du  même  Rapport  général.
                                                                                                                 Association  Stomatologique Internationale.
                             1.  Constitution de  la  section.                                                   Bureau  Internat,  de  Renseign  des Cong.  Intern,  de  langues  viv.
                             2.  Mesures  qui incombent  aux  Associations  Internationales                      Bureau  Socialiste  International.
                           pour a  diffusion  des informations et  des connaissances  :  Publi-                  Carnegie  Endowment  for International  Peace.
                                l
                           cations,  Documentation, Exposition,  Enseignement.
                                                                                                                 Commission  Socialiste Interparlementaire.
                             A  2 heures  1 ¡2 : au Palais  des Académies.                                       Comité  International  pour  l'Unification  de la  terminologie  du
                                                                                                                    potentiel  et  de l'élasticité.
                                            ASSEMBLÉE     P L Ê N I É R E                                        Comité  International  pour  l'exécution  de la Carte  photographi-
                                                                                                                   que  du ciel.
                             Organisation  de  la  Vie  Internationale.  Rôle  des  Associa-
                           tions,  etc.                                                                          Commission   Internat,  des  Tables  annuelles  de  constantes  de
                                                                                                                    chimie et de physique ;
                             ( V o i r  Résolutions  proposées,  p .  45  à  50  d u  Rapport  général.  Y t i r  r a p -
                                                                                                                 Commission  Intern,  permanente  de  l'Education  physique.
                           p o r t s  présentés,  p. 60  d u  m ê m e  Rapport  n  0 3  4,  11,  24, 32, 37,  45,  50, 52,
                                                                                                                 Commission  permanente  des  Congrès  Internationaux  de  l'En-
                           53,  5-1. 56, 62, 63, 64,  68.)
                                                                                                                    seignement  technique.
                             A  11  heures  1/4  :  Réunion  des adhérents  d'après  leurs  préoc-               Commission  permanente  Internationale  d'Aéronautique.
                           cupations  professionnelles,  sociales etc. : Examen  des moyens  de                  Conciliation Internationale.
                           coopération  et  de  création  ayant  des  buts  communs.  (Voir                      Congrès  International  d'Horticulture.
                           groupes  proposés,  p.  62).
                                                                                                                  Fédération  Européenne  de  Gymnastique
                             A  4 heures  1 ¡2 : Départ  de la place  Royale,  en ram  spécial.                   Congrès  Internationaux de l'Education  Morale.
                                                                        t
                             A  5  heures  : Réception  par  M .  Janssen  dans  sa  propriété  à                 Fédération  Internationale de la Mutualité.
                           Uccle.                                                                                 Fédération  Internationale  des Comités  permanents  d'expositions.


































































                         Fédération  Internationale des  Relieurs.
                         Fédération  Internationale  et  Universelle  des  Sociétés  de
                           Crémation,
                         Fédération  internationale pharmaceutique.
                         Fédération  internationale pour  l'Observation du dimanche.
                         Institut  de  Droit  international.
                         Institut  Polaire  international.
                         Ligue  Internationale de la Paix  et  de la  Liberté.
                         Office  International  de l'Enseignement  ménager.
                         Scienca  Asocio  csperantista.
                         Société  Théosophique  Internationale.
                         Société  universelle de la  Croix  Blanche.
                         Union  Economique  Internationale.
                         World's  Missionary  Conférence.


                           DÉLÉGUÉS      O F F I C I E L S  D E S  G O U V E R N E M E N T S
                                                ÉTRANGERS
                         B O L I V I E  :  J  de  Lemoine,  M E X I Q U E  :  Gamboa.
                                   de  Ladrier.         NORVÈGE   : Bogh.
                         C H I L I  :  Hunéeus.         PERSE  : Sadi  Kirschen.
                         C H I N E  :  Li-Chetchoung,   PORTUGAL   : Alvez  da  Veiga.
                                 Lou-Tsiun.             R É P U B L I Q U E  D O M I N I C A I N E
                         COLOMBIE  :  Rodríguez  Maldo-   Penso,  Guarini.
                           nado.                        SUÈDE   : Baron von Bonde.
                         E Q U A T E U R  :  Seminario,  T U R Q U I E  : Tigrane  Bey.
                                                                            l
                                     Espinosa.          PARIS  :  Ministère  de 'Instruc-
                         ESPAGNE  : Marquis  de  Villalo-  tion  publique  de  France,
                           bar,  Dato.                    Louis  Weill.
                         G R A N D E  B R E T A G N E  :  Sir  Cecil  BRUXELLES  :  Minist,  de l'Agr.
                           Hertslet.                       et  des  Trav.  publ.:  Richald.
                         G R A N D  D U C H É  L U X E M B O U R G  :  Minist,  des Äff.  E t r . de Belg.  :
                           de  YVaha.                      chev.  de Moreau.
                         GUATEMALA   : Lardixabal.      Ministère  de la  Marine  :  F.  de
                         H A Ï T I  : D A . Riboulde  Pescay.  Walque.
                                  r
                         HONDURAS   :  Jalhay.          Minist,  des  Sciences  et  Arts  :
                         HONGRIE  : Alexis  de  Sigmond.   Rutten.
                         I T A L I E .                  Min.  I n t . :  Sauveur,  Stercks.


































































                                     CONGRÈS      M O N D I A L
                                                D E S
                   A S S O C I A T I O N S     I N T E R N A T I O N A L E S
                                 Deuxième  session :  GAHD  BRUXELLES. 5-18  juin  1913
                                                        1
                                     l
                        Organisé  par 'Union  des  Associations  Internationales
                                Office  central:  Bruxelles,  3 h ' 3 ,  rue de la  Régence
                   Journal                    do     Congrès. -







                                        (SUPPLÉMENT)




                                   S É A N C E   P L É N I È R E
                          D U   L U N D I  16  J U I N  A P R È S - M I D I

                     La  séance  est ouverte  à  2  h . i  ¡2,  sous la présidence  de  M . Sé-
                   bert.  M .  Hertslett,  délégué  du  Gouvernement  de  la  Grande-
                   Bretagne,  prend  place  au  Bureau.
                     MM.  Otlet et  La Fontaine exposent  les conclusions du Rapport
                   général.
                     L'objet  de l'ordre  du jour  porte  :
                     «L'Organisationde  la Vie Internationale.  Rôle  des Associations
                   Internationales.  Résultats  généraux  de  leur  action  >.
                              Rapport  général,  pages  45 et  suivantes.


                                   R O L E  D E S  A S S O C I A T I O N S
                     L'assemblée  aborde  successivement  la  question  du  rôle  qu'il
                   est  désirable  de voir  remplir  par :
                     i °  L ' U n i o n  Interparlementaire.  —  Les  délégués de 'Union
                                                                        l
                   Interparlementaire,  MM. Houzeau  de Lehaie  et Lange,  acceptent
                   la  motion  suivante,  introduite  à  l'occasion  du débat  du  matin,
                   sur  la  question  du  Statut  des  Associations  Internationales,
                   résumée  par  M .  Van Overbergh  :
                     « Faire  connaître  à  ses  membres,  répartis  dans  tous  les  Parle-
                   ments  du monde,  ceux  des  desiderata  de l'organisation interna-




































































                    tionalc  arrivés  à  maturité  et  qui  nécessitent  l'intervention  des
                    Etats  ;  faire  prendre  par  ses  membres  des  mesures  concertées                pouvant  intéresser  également  tous  les  Etats  américains  ;  suivre
                    sous  forme  de  propositions  présentées  et  défendues  simultané-                 avec  attention  bienveillante  l'action  des  Associations  Interna-
                    ment  dans  tous  les  Parlements  ».                                                tionales  dans  tous  les  domaines  ; prendre  des  initiatives en  vue
                                                                                                         de  faire  réaliser  par  les  Etats,  telles  mesures qu'elles leur deman-
                      2°  Association  I n t e r n a t i o n a l e des  A c a d é m i e s . —  (Rapport  deront  de  prendre  ;  se  faire  représenter  auprès  d'elles  ; .assurer
                    duBarondcBorchgraeve).  —  Interviennent dans la discussion,  les                    ainsi  la  représentation  collective  des  Etats  américains  auprès  de
                    délégués  de  l'Office  International  pour  la  Protection  du  Travail,            certains  congrès  et  associations,  ayant  leur  siège  ou  leur  session
                    de  l'Office  pour  l'Assistance  des  Etrangers,  du  Centra  Officejo.             en  Europe,  quand  les  Etats  ne  doivent  pas  y  envoyer  de  repré-
                    L'assemblée  repousse,  à  raison  notamment  de  la  lenteur  de  ses               sentants  directs  et  lorsque  cette  représentation  est  trop  difficile
                    délibérations,  la  motion  qui  reconnaîtrait  <à l'Association  Inter-             ou rop  coûteuse  pour  chaque  République  américaine  en  parti-
                                                                                                            t
                    nationale  des  Académies,  la  fonction  d'un  Conseil  supérieur                   culier. »
                    scientifique  international.                                                           L'assemblée  met  à  l'étude  la  question  d'un  Bureau  paneuro-
                      3°  I n s t i t u t  de  D r o i t  I n t e r n a t i o n a l .  —  Intervention  de  péen  et  d'un Bureau mondial.
                    MM.  P.  Errera  et  Mahaim.  L'assemblée  amende  le  texte  de  la                   5°  Conférence  de a  P a i x  et  B u r e a u  I n t e r n a t i o n a l  de  la
                                                                                                                             l
                    résolution  proposée.  Supprimant  l'expression  « Conseil  juridique                Paix.  —  I l est  pris acte  des  résolutions  proposées  à  ce sujet,  sans
                    supérieur  », elle ntroduit  l'appel  facultatif  des  Associations  à  cet          vote  ni  discussion.
                                   i
                    institut.  Le  texte  adopté  est  le  suivant  :
                      « Poursuivre l'étude  du  régime  juridique  de  toutes  les  relations               R É S U L T A T S  G É N É R A U X  D E S  A S S O C I A T I O N S
                                                       l
                       l
                    de a  vie  internationale et  procéder  à a  codification scientifique                 Une  série  de  rapports  des  Associations,  sur  leur activité,  sont
                    du  droit  international  public et  privé,  comme  stade  préparatoire              déposés  sur  le  Bureau  et  l'assemblée  en  prend  acte.
                    de  la codification officielle.                                                        Font  ensuite  rapport  verbal,  les  délégués  des  Associations
                      » A  cette  fin,  mettre  immédiatement  à  l'étude  les  projets  de              Internationales  pour  la  Protection  de  la  Jeune  Fille  ( M  m e  Mey-
                    réglementation  internationale  élaborés  par  divers  congrès  et                   hoffer),  des  Associations  chrétiennes  de  Jeunes  Gens  (M.  Mey-
                    associations  ; procéder  à  leur  revision  dans  le  sens  d'une  coordi-           hoffer),  de  l'Association  Internationale  des  Avocats  (M.  Lan-
                    nation  des  projets  entre  eux  et  de  leur  coordination  avec  les              drien).
                    traités  internationaux  existants  ;  acceptent,  à  la  demande  des                                   R O L E  DES  É T A T S
                    Associations,  d'élaborer  les  formules  juridiques  des  projets  de
                    convention  dont  les  Associations  Internationales  n'ont  déter-                    On  aborde  ensuite  la  question  du  Rôle  des  Etats  dans  l'orga-
                                                                                                                                               l
                    miné  que  les  principes  scientifiques  et  techniques.  »                         nisation  internationale. Les  délégués  de 'Union Interparlemen-
                                                                                                         taire  et  de  diverses  Associations  d'œuvre  sociale,  proposent
                      4°  B u r e a u  des  Républiques  américaines.  —  L'assemblée                    un texte  général, faisant  appel  aux  États  pour  une participation
                                                                     l
                    accepte  la  motion  du  rapport, mais  en  pensant  que a  représen-                plus  grande  à  l'œuvre  des  Associations  Internationales.  On
                    tation  des  Républiques  américaines  par  le  dit Bureau  n'est  dési-             présente  des  chiffres  sur  certains  budgets  internationaux  des
                    rable  que  si  elles  n'ont  pas  de  représentation  directe.  Le  texte           Etats  (M.  Vandervies  pour  la  Hollande).  La  Commission  est-
                    adopté  est  donc  celui-ci :                                                        chargée  de  rédiger  le  texte  d'une  résolution  sur  ces  bases.
                      «  En  tant  que  représentant  permanent  des  intérêts  collectifs
                    de  toutes  les  Républiques  du  Nord  et  du  Sud  de  l'Amérique^                               A S S O C I A T I O N S  N O U V E L L E S
                    accepter  de  servir  d'intermédiaire  pour  toute  communication                       I l  est  fait  part  à  l'assemblée  d'une  liste  d'organismes  interna-
                                                                                                          tionaux  en voie  de  formation  et  sur lesquels  i l  est  utile  de  porter


































































                                               —  4  -                                                                               —   5  -

                                                                                                                                                                     l
                     dès maintenant 'attention  des  Associations.  (Institut  Internatio-                 Congrès  Mondial.  (MM. Le  Maistre, Eric  Gérard,  délégués  de a
                                   l
                     nal  de  Chimie,  Bureau  pour a  publication des  Traités  interna-                  Commission  Electrotechnique  Internationale.)
                                                l
                     tionaux,  Office  International  de  Statistiques  douanières,  Office                  Le  Bureau  du  Congres Mondial  de  1913  des  Associations  Inter-
                     International  pour  la  Protection de  l'Enfance,  etc.)  L'assemblée                nationales  est  chargé  de  transmettre les  vœux  de celui-ci à  toutes
                     en  prend  acte  désirant  encourager  la  création  d'Associations                   les  Associations  Internationales  intéressées,  avec  mission  de  les
                                                                                                                                                                  l
                     destinées  à  combler  des  lacunes  dans  l'Organisation internatio-                 présenter  à  leurs  Gouvernements.  Voici  les  vœux  relatifs  à 'uni-
                     nale.                                                                                 fication  des  imités  légales  dans  les  diverses  nations  :
                                                                                                             I l  y  a lieu  d'établir  un  Code  des  unités  scientifiques  et  techniques,
                           T R A V A U X  D E  L A  TROISIÈME   S E C T I O N                              destiné  à  concentrer,  sous une  forme systématique  et  facilement
                       La  Section  a  abordé  l'examen  des  moyens  de  rattacher  à  un                 accessible  à  tous,  et  en  un instrument unique, les  décisions  prises
                    système  général  des  systèmes  particuliers d'unification et  d'uni-                 séparément  par  les  diverses  associations  et  celles  arrêtées  par.
                    tés  présentés  par  M. le  général  Sebert.  Elle  a  entendu  un rapport             la  Commission  centrale  désignée  par  elles.
                    de  M. Cellerier, sur la  fixation  des  systèmes  internationaux d'uni-                 Ce  code  doit  comprendre  :
                     tés  légales.  Ce  rapport  a  servi  de  base  à  la  discussion.  On  y  a            i °  Les  règles  et  recommandations  suivant  lesquelles l y  a  lieu
                                                                                                                                                              i
                    rattaché  les  communications  de  la  Commission  Êlectrotechnique                    de  procéder  à  l'œuvre  d'unification,  d'établir  des  méthodes  com-
                    internationale  représentée  par  M.  Eric  Gérard,  de  la  British                   parables  et  de  constituer  des  systèmes  cohérents  d'unités  ;
                    Engineering  Standard  Committee,  représenté  par  M. Le  Maistre.                      2°  Le  tableau  général  des  unités  adoptées  dans  tous  les  do-
                                                              l
                    Un  rapport de  M. Toulon sur l'unification  de a fabrication indus-                   maines  ;
                    trielle.                                                                                 3  0  Les  tables  des  constantes,  des  coefficients  fixes  et  des  for-
                       Un  rapport de  M. Ostwald, sur la  théorie  des  unités  a  été  versé             mules  pratiques  qui en  sont  dérivées.
                    aux débats. Observations  de  MM.  Marie,  Hillairet, de  M.  Corthell,                  Le  code  doit  être  tenu  à  jour  par  dès  suppléments  et l doit  en
                                                                                                                                                              i
                    de  M.  Herbays,  du  délégué  de  l'Association  Internationale pour                  être, publié  fréquemment  des  éditions  nouvelles.
                    la  résistance  des  Matériaux,  de  M.  Otlet.  La  séance  a  été  levée
                    à  I I  h.  1/2.  Elle  a  été  suivie  immédiatement  d'une  séance  de                 Standardisation.  —  On  a  arrêté  les  résolutions  suivantes  ;
                    groupe,  au  cours  de  laquelle  M. Corthell  a  exposé  les  conclusions             sauf  rédaction  définitive  qui  a  été  confiée  au  Bureau  de  la  Sec-
                                       l
                    de  son  rapport  sur a  création  des  Associations  Internationales                  tion.
                    d'Ingénieurs.  Les  résultats  de l'enquête  sur  cette proposition  sont                Unification  de  la  fabrication  industrielle  (Standardisation).  —
                    résumés  par  M.  Otlet.  L'enquête  est  encore  très  incomplète  :                  a)  La. standardisation internationale au  point  de  vue  technique
                    il  y  a  des  réponses  conclues  en  faveur  d'une  telle  Association,              et  industriel  est  une  nécessité  qui s'impose et  un progrès  à  réaliser
                    d'autres  négatives.  L'assemblée  entend  les  observations  de                       à  raison  des  procédés  modernes  de  fabrication en  série  et  du  ca-
                    MM.   Sebert,  Corthell,  Mathr>t,  Hillairet,  chargés  de  dépouiller                ractère  mondial  des  marchés  économiques.  Cette  standardisa-
                    les  résultats  de  l'enquête  et  de  faire  le  rapport qui  sera  commu-            tion  doit  être  limitée  aux  éléments  pour  lesquels  elle  présente
                    niqué  aux  Associations  intéressées.                                                 un  évident  intérêt  économique,  en évitant  d'apporter des  entraves
                      Les  délégués  de la Commission Êlectrotechnique internationale                      au  développement  de  l'industrie.
                    demandent  que  l'on adopte  la  petite modification suivante  (à  la                    b)  La standardisation technique  et  industrielle doit  avoir pour
                    page  23  du  Rapport  général  : 6.  —  i °  b)  : De  formuler pour  les             base  les  unités  de  mesures  internationales,  système  métrique,
                    matières  non  encore  réglementées  et  qui  ne  rentrent  pas  dans  le              unités  électriques,  etc.
                    programme  d'aucune  Association  Internationale,  un  ensemble  de                      c )  Les  systèmes  de  règles  en vigueur dans les  diverses  branches
                                                                                                             l
                    règles  et  de  recommandations  et  de  les  faire  approuver  par  le                de a  technique  doivent  être  reliés  les  uns  aux  autres  de  manière
                                                                                                           à  constituer  des  séries  homogènes  et  uniques.

































































                                              —  6  —



                      Garden   Party.  —  Les  Congressistes, très  nombreux, les dames
                    accompagnant,  ont  été  reçus  à  5  heures,  par  le  baron  et  la ba-
                    ronne  Janssen,  en  leur  château  d'Uccle,  aux  admirables  fron-
                    daisons.  Réception  toute  gracieuse,  pleine  de  cordialité,  l'hôte
                    étant  Président  d'honneur  fondateur  de 'Union  Internationale
                                                           l
                    des  Tramways.  La  promenade,  à  l'aller  et  au  retour,  s'est  faite
                    en  tramways  spéciaux.
                                                 *
                                                *  *

                      Visite  de  l'Institut  International  de  Bibliographie.  -
                                                /
                    Cette  visite  a  eu  lieu  à  1  h.  1 a.  Les  délégués  qui  auraient  été
                    absents  peuvent  visiter  le  Musée  en  tout  temps  pendant  leur
                    séjour.
                                                *  *


                      Groupe   de  l'Enseignement   au  sein  du  Congrès.  —  Ce
                    groupe  est  en  voie  de  constitution.



































































                                    CONGRÈS       M O N D I A L
                                               DES
                   A S S O C I A T I O N S    I N T E R N A T I O N A L E S
                                                         1
                                Deuxième  session  : ANG-BRUXELLES, 5-18  juin  1913
                                             G
                        Organisé  par  l'Union  des  Associations  Internationales
                               Office, central:  Bruxelles,  3 h,s ,  rue  de  la  Régence

                   Journal                   du     Connus.                    -   h"     3











                                     M A R D I  APRÈS-MIDI

                     La  séance  est  ouverte  sous  la  présidence  de  M.  Cooreman.
                     L'assemblée  reçoit  d'abord  deux  communications  relatives
                   à  la  coopération  que  pourront  recevoir  les  installations  d u
                   Centre  International,  de  la  part  de  la  Russie  (M.  Lauwick)
                   et  de  la  part  de  la  République  Argentine  (M.  Tomas  Amadéo,
                   commissaire-général  de  la  République  Argentine  à  l'Exposition
                   de  Gand  et  directeur  du  Musée  Social  Argentin).
                     M.  La  Fontaine  expose  le  plan  de  coopération  de  l'Union.
                   M.  Otlet  expose  les  conclusions  concernant  les  relations  de
                   l'Union  avec  les  Etats,  avec  les  Associations  officielles  et  avec
                   les  Associations  qui  ne  sont  pas  internationales. Les  conclusions
                   d'un  rapport  de  M .  De  Waha  (Munich)  sur  la  création  d'un
                   Musée  Commercial des  pays  d'Outre-Mer  sont  communiquées  à
                   l'assemblée.  L'assemblée  a  abordé  la question  des  services  pra-
                                        l
                   tiques que  peut rendre 'Union.  Elle  a  reçu des  suggestions sur  le
                   caractère à donner  à la  revue  La  Vie  Internationale,  organe  com-
                   mun  de  toutes  les Associations, sur n service  de  librairie,  un ser-
                                                   u
                   vice  de  traductions et  des  services d'ordre  matériel  (MM. Lange,
                   Maris  et  Bauer)  ;  elle  a  finalement  voté  à  l'unanimité,  M. le  gé-
                   néral  Sebert  développe  les  motifs,  le vœu  suivant  :  I l  y  a  lieu
                   d'installer  les  services  et  collections  du  Centre  Internation  al  à
                   Bruxelles  dans  un  palais  digne  de  l'importance des  Associations
                   qui  l'ont  créé  par  leurs  efforts,  et  pouvant  devenir  le  point  de


































































                                                —  2  —
                                                                           I
                      départ  de  groupements  d'autres  édifices  internationaux. l  doit                 Vie  Internationale  la  publication, dans  sa  partie  documentaire,
                      être  fait  appel  à  cet  effet  à  l'aide  des  gouvernements  et  du              de  toutes  les  décisions  des  Associations  affiliées  susceptibles  d'in-
                      mécénat  en  même  temps  qu'à  celui  des  Associations.                            téresser  les  Associations  Internationales et  ce,  sous une rubrique :
                                            l
                        L'assemblée  a  attiré 'attention  du  mécénat  international sur                  Collections  : groupes d'éducation  ; l restera  en contact  permanent
                                                                                                                                          i
                      les  œuvres  d'utilité  générale  entreprises  par  les  Associations                avec  l'Office  Central  ; c)  d'engager  les  Associations  du  groupe  de
                      Internationales.  I l  a  été  décidé  de  dresser  une  liste  de  ces              l'Enseignement  de  coordonner  leur  action  de  manière,  par
                      œuvres  et  une  liste  des  mécènes  à  qui  la  première  sera  com-               exemple,  à  s'entendre  sur  la  date  des Congrès, leur programme, le
                      muniquée.   Des  remerciements  collectifs  ont  été  adressés                       pays  et  la  ville,  d'essayer  d'aboutir  à  la  semaine  du  Congrès  de
                      aux  bienfaiteurs  de  l'internationalisme  et  en  particulier  à                   l'Enseignement,  etc.
                      Andrew  Carnegie.
                        Mardi  matin  a  eu  lieu  une  réunion  spéciale  des  représentants                        D I S C O U R S  D U  GÉNÉRAL   S E B E R T
                      des  Gouvernements  auprès  du  Congrès  Mondial.  La  réunion,  à
                      laquelle  assistaient  les  ministres  à  Bruxelles  de  ces  Gouverne-                       M E S D A M E S  E T  M E S S I E U R S ,  H '
                      ments  et,  en  outre,  à itre  personnel,  le  Ministre  des  Etats-Unis,
                                          t
                                                                                                             P a r m i  les  n o m b r e u x  sujets  inscrits au  p r o g r a m m e  d u  Congrès  M o n d i a l
                      avait  un  caractère  officieux.  Elle  a  permis  d'échanger  des  vues
                                                                                                                                            i
                                                                                                           auquel  nous  prenons  p a r t  a u j o u r d ' h u i , l en  est  une  série  q u i  réclament
                      sur  les  divers  modes  de  coopération  possibles  des  Etats  au                  a u  plus  h a u t  degré,  l ' a t t e n t i o n  de  la  France  et  q u i  m o t i v e n t a  présence
                                                                                                                                                              l
                      Centre  International  formé  par  les  Associations  groupées  dans                 de  ses  représentants,  au  n o m desquels je  prends  i c i a  parole.
                                                                                                                                                     l
                      l'Union.  Un  accueil  vraiment  sympathique  a  été  fait  à  l'idée.                 L e  Congrès  M o n d i a l  de  1910,  q u i  a  si  bien préparé  les  t r a v a u x  de celui-ci
                                                                                                           et  q u i  a  provoqué  l'éclosion  d u  g r a n d  m o u v e m e n t  d'entente  et  de  coopé-
                                                                                                           r a t i o n  des  Associations  Internationales, o n t  ce  dernier  est  l a  résultante,
                                                                                                                                            d
                             RÉSOLUTION       D U  P R E M I E R  G R O U P E  :                           a v a i t  déjà  traité  u n  g r a n d  n o m b r e  des  questions  relatives  à  l ' u n i f i c a t i o n
                                                                                                           des  mesures et  à la  c o o r d i n a t i o n des  études  faites  p o u r  o b t e n i r dans  toutes
                                          E N S E I G N E M E N T                                          les  branches  de  science,  des  systèmes  uniformes  et  des  valeurs  identiques
                                                                                                           pour  les  différentes  unités  o u  p o u r  les  types  d'objets,  e n t r a n t  dans  la
                        Le  groupe  des  délégués  des  Associations  Internationales  d'En-               confection  des  machines  et  des  appareils  d'usage  c o u r a n t .
                      seignement,  réuni  en  assemblée  spéciale,  a  estimé  que  le moment                I l  a v a i t  recommandé  l ' a d o p t i o n d'une  base  u n i q u e  p o u r  la  détermina-
                      était  venu  d'appliquer  en  ce  qui  les  concerne,  le  vœu  émis  au             t i o n  des  dimensions  essentielles  de  ces  objets,  en  choisissant,  à  cet  effet,
                      Congrès  Mondial  de  1910  et  relatif  au  groupement  des  Associa-               le  s y s t è m e  métrique  et  le  système  décimal,  d o n t  les  Français,  q u i  en  o n t
                                                                                                                               j
                                                                                                                 i
                                                                                                           été  les n i t i a t e u r s ,  n ' o n t a m a i s  cessé  de  chercher  à  propager  et  à  dévelop-
                      tions  Internationales par  affinité.
                                                                                                           per  l ' e m p l o i .
                        Sous  réserve  d'approbation  par  les  Associations  Internatio-                    L e  Congrès  actuel,  étendant  le  c h a m p  de  ses  études  embrasse  dans  son
                     nales qu'ils représentent,  ils ont  constitué  un Comité  permanent,                 vaste  p r o g r a m m e  la  q u e s t i o n  générale  de  l ' u n i f i c a t i o n ,  dans  toutes  les
                                                                                                                                         i
                     formé  d'un  délégué  de  chacune  des  Associations.                                 branches  de  l'activité  scientifique  et ndustrielle.
                                                                                                             I l  consacre  une  grande  p a r t i e de  ses  t r a v a u x  à  cette  question,  q u i  sous
                        Ce  Comité  examinera  périodiquement  les  intérêts  communs  de
                                                                                                           le  n o m  de  standardisation,  f a i t  a u j o u r d ' h u i  l'objet  de  l ' a t t e n t i o n  de
                     ces  Associations,  notamment la  mise  à  l'étude  de  questions  d'or-              grandes  i n s t i t u t i o n s  spécialement  constituées  à  cet  effet,  dans  les  p r i n c i -
                     dre  scientifique  qui  les  intéressent  toutes  à la  fois  ou,  seulement,         p a u x  pays,  aussi  b i e n en  France  q u ' e n  Allemagne  et  en  Angleterre  et  dans
                     plusieurs  d'entr'elles  ; pour  l'étude  de  chacune  de  ces  questions,            les  É t a t s - U n i s  d ' A m é r i q u e .
                                                                                                                      l
                     les  Associations  saisies  par  leurs  délégués  seront  invitées  à  dési-            C'est sous ' i m p u l s i o n  de  ces  I n s t i t u t i o n s  q u ' o n t été  étudiées  et  arrêtées
                     gner  chacune  un  ou  plusieurs  spécialistes  qui formeraient autant                déjà,  par  décisions  de  Congrès  i n t e r n a t i o n a u x ,  les  unités  scientifiques
                                                                                                                                                science,
                                                                                                                                             de
                                                                                                             employer
                                                                                                                            différentes
                                                                                                                                     branches
                     de  commissions  spéciales  temporaires.                                              à industrielles, dans  les  physiques  p o u r  la  chaleur  et  la  et  leurs  applications
                                                                                                                                                       lumière,
                                                                                                                                                              unités
                                                                                                                                                                    élec-
                                                                                                                       unités
                       Ce  Comité  s'efforcera  aussi  : a)  à  faciliter l'échange  des  docu-             triques,  unités  mécaniques  et  autres.
                                                                                                                                        l
                     ments  intéressant  les  Associations  ;  b)  d'obtenir  de a  revue  La                Les  t r a v a u x  faits  p o u r  a r r i v e r  à ' i n f o r m a t i o n ,  dans-tous  les  domaines,
                                                                      l


































































                                               —  4  —                                                                                —  5  -

                     o n t  de  plus  en  plus  tendance  à  prendre  p o u r  base  unique  de  cette  unifor-  recevait  ses  hôtes  en  adressant  un mot  aimable  à  chacun,  tandis
                                                l
                     m i s a t i o n  le  système  métrique  et e  s y s t è m e  décimal  d o n t  les  emplois  c o m -  que  le  Ministre  accueillait,  avec  une  cordialité  charmante,  les
                     binés  peuvent  m i e u x  que  tous  autres  amener,  en  m ê m e  temps  que  l ' u n i -  nombreux invités ui ui  étaient  présentés. Ceux-ci  se  répandirent
                                                                                                                               l
                                                                                                                            q
                     formité,  à  l a  fois,  la  simplicité  et  la  commodité  d ' e m p l o i .         dans  les  salons  pendant  que  la  musique  du  I  Régiment  des
                       Ces  t r a v a u x  o n t  amené  la  France  à  prendre,  chez  elle,  l ' i n i t i a t i v e  d ' u n                         e r
                     p r o j e t  a y a n t  p o u r  b u t  de  s o u m e t t r e  a u  Parlement,  l ' a d o p t i o n  d ' u n  sys-  guides  faisait  entendre  les  meilleurs morceaux  de  son  répertoire.
                     tème  d'imités  légales,  d'ordre  p r a t i q u e ,  applicables  a u x  mesures  desti-  Les  conversations  s'engagèrent,  vives, et  animées,  entre  les  Con-
                     nées  aux  transactions  industrielles et  commerciales  et  dérivées  des  unités    gressistes, heureux  de  se  retrouver ou  enchantés  de  se  créer  de
                     employées  plus  particulièrement  p o u r  les  mesures  de  h a u t e  précision  d u  nouvelles  sympathies  dans  un milieu  aussi  hospitalier.  U n  somp-
                     d o m a i n e  p u r e m e n t  scientifique.                                          tueux  buffet  était  dressé  dans  la  salle  à manger  en l'honneur  des
                       Ce  p r o j e t  est  préparé  dans  l'espoir  q u ' u n e  entente  d i p l o m a t i q u e  p o u r r a
                     p e r m e t t r e  d'en  o b t e n i r  l ' a d o p t i o n  i n t e r n a t i o n a l e ,  au  g r a n d  bénéfice  de  invités.  Après  avoir passé une  soirée charmante,  les  Congressistes
                     la  sincérité  et  de  l a  sécurité  des  transactions  commerciales  entre  négo-    se  retirèrent,  non sans avoir  exprimé  au  Ministre  et  à  M  m  e  Davi-
                     ciants  des  divers  pays.                                                             gnon,  toute  leur  gratitude pour  ce  gracieux  accueil.
                       D a n s  ces  conditions,  les  représentants  de  la  science  et  de  l ' i n d u s t r i e  Le undi,  17 uin, était  réservé  à  une  visite  au château  deWol-
                                                                                                                 l
                                                                                                                         j
                     françaises  ne  peuvent  rester  indifférents  aux  efforts  que  représente,  dans
                     le  m ê m e  ordre d'idées,  le  Congrès  M o n d i a l  de  ce  j o u r .             vendael,  à  Uccle,  où  le  baron  Janssen,  président  d'honneur  de
                    ;  I l s  d o i v e n t ,  a u x  t r a d i t i o n s de  leur pays,  d ' a p p o r t e r  à  ce  Congrès ' a p p u i   l'Union  Internationale  des  Tramways,  et  la  baronne  Janssen
                                                                           l
                    I de  leur expérience  et  de  leurs  conseils  autorisés.                              avaient  convié  les  membres  du  Congrès  à  venir  se  délasser,  à
                                   j
                       E n  leur  n o m , e  fais  des  voeux  p o u r  le  succès  de  cette  nouvelle  m a n i -  l'issue  de  leurs  travaux,  dans  leur  superbe  propriété.  A  4  h.  1  ¡2,
                  y v  festation  de  l a  clairvoyance  de  l a  Belgique,  q u i  donne  une  nouvelle  fois  des  voitures  de  Tramways,  spécialement  mises  à  la  disposition
                     asile  à  cette  réunion  où  d o i v e n t  se  débattre  t a n t  de  questions  d ' u n  intérêt  du  Congrès,  conduisirent  les  invités  à  Uccle,  où  ils  furent  reçus
                     p r i m o r d i a l  p o u r  l ' a v e n i r  de  l'humanité.
                       Celles  d o n t  je  viens  de  parler  spécialement  ne  c o n s t i t u e n t  q u ' u n e  m i -  par  le  Baron  et  la  Baronne  Janssen,  avec  leur  coutumière  et  si
                     n i m e  p a r t i e  d u  p r o g r a m m e  de  ce  Congrès,  mais,  par  leur  i m p o r t a n c e ,  accueillante  amabilité.  Tandis  que  les  trois  ravissantes  petites
                     elles  m o n t r e n t  déjà  c o m b i e n  ce  Congrès  mérite  d ' a t t i r e r ' a t t e n t i o n  de  filles  des  châtelains  offraient  aux  dames,  qui  embellissaient  la
                                                                      l
                     tous  ceux  q u i  s u i v e n t  le  développement  des  idées  internationales  et  q u i  réunion  du  charme  de  leur présence,  de  superbes gerbes  de  roses,
                   li  o n t  intérêt  à  c o n s e n e r  une  a c t i o n  dirigeante  dans  ce  m o u v e m e n t  irré-  le  Baron  et  la  Baronne  se  prodiguaient  auprès  de  leurs  invités.
                     sistible  q u i entraîne  n o t r e ancien  m o n d e  vers  des  horizons  nouveaux.
                                                                                                            Après  avoir  parcouru  les  salons  et  admiré  les  objets  d'art  et  les
                                                                                                            choses  jolies  qui  y  ont  été  réunies,  les  Congressistes  se rendirent
                                               FÊTES                                                        dans  le  parc,  où,  sous  les  frondaisons  de  merveilleux  hêtres,  qui
                       Les  Commissaires  généraux  du  Congrès,  M M .  Ed.  Gilmont  et                   couvrent  un  vallon  pittoresque  et  accidenté,  rappelant  les  en-
                     A.  Bruggeman,  se  chargèrent  d'élaborer  un  programme  en  vue                     droits  les  plus sauvages de  l'ancienne  forêt  de  Soignes,  un magni-
                     de  permettre  aux  Congressistes  d'occuper  leurs  loisirs  par  quel-               fique  buffet,  abondamment  fleuri,'avait  été  dressé.  Après  s'être
                                                                                                                                  l
                     ques  distractions  reposantes,  en  dehors  des  heures  consacrées                   rafraîchis,  en  admirant a  beauté  du  site,  les  invités,  toujours
                     aux  travaux  des'Sections.                                                            gracieusement  conduits  par  les  maîtres  du  domaine,  parcou-
                       Après  la  visite  du  Musée  International,  où  les  Congressistes                 rurent  la  propriété  dans  laquelle  les  aspects  les  plus  variés  et  les
                     furent  reçus  dimanche,  15  juin,  à  2  h.  1/2,  par  MM. le  Sénateur             plus  inattendus  ne  cessent  de  charmer  et  d'enchanter  les  yeux.
                     La Fontaine, Otlet  et  Ed. Gilmont, la  soirée  avait  été  réservée  à              A  citer  dans  le  parc,  le  délicieux  pavillon Louis  X I V ,  si  délica-
                     une  réception  officielle  au  Ministère  des  Affaires  Étrangères.                  tement  achevé  et  décoré,  et  qui  est  une  merveille  au  milieu de  ce
                     A  9  heures,  M. le  Ministre  et  M  m  e  Davignon  recevaient,  dans  les         remarquable   site.  Des  cartes  postales  artistement  illustrées
                     salons  de  l'hôtel  ministériel,  les  délégués  officiels  et  les  membres          furent  offertes  aux  Congressistes  par  les  petites  filles  du  Baron
                     du  Congrès.  M  m  e  Davignon,  avec  sa  coutumière  bonne  grâce,                  Janssen,  leur permettant d'emporter uñ  souvenir  de  cette  récep-


































































                                               —  6  —

                     tion  si  pleine  de  charme  et  de  cordialité  et  qui  demeurera  dans
                     la  mémoire  de  tous.
                       Pour  achever leur soirée,  les  Congressistes furent  ramenés  dans
                     des  tramways  spéciaux,  à  leur  choix,  soit  au  Bois  de  la  Cambre,
                     soit  au  Centre  de  la  ville.


