









                          lnstitut International de Bibliographie
                      PUBLICATION N' 35              INDICE BIBLlOGRAPHIQUE [935.1]




                     'CLASSIFICATION BIBLIOGRAPHIfJUE


                                         DEOIMALE

                                               _.+._
                            TABLES GENERALES REFONDUES

                                     elablies en  vue de la publication  du
                        REPERTOI RE      BI BLIOGRAPH IQU    E  UN IVERSEL


                                     EDITION     FRANQAISE
                                          publiee avec Ie concours du
                                BUREAU BIBLIOGRAPHIQUE DE PARIS


                                  FASCICULE               N°    19
                                       Tables de la division [1]

                         PHILOSOPHIE. QUESTIONS                 MORALES

















                                 INSTITUT INTERNATIONAL DE BIBLIOGRAPHIE
                          BRUXELLES, I,  rue du Musee.     PARIS, 44,  rue de Renn....;
                                         ZURICH, 3g. Eidmattstrasse.

                                                 ],904












                                       PRINGIPALES CONTRIBUTIONS PERIODIQUES
                                     AU REPERTOIRE BIBLIOGRAPHIQUE UNIVERSEb-


                                   Bibliographia Zoologica (contribution nO 2),  10 francs les 1,000 fiches.
                                   Bibliograj;hia Philosophica (contribution nO 3), 5 francs l'an.
                                   Bibliographia Geologica (contribution nO  16), de 5 a 8 francs Ie volume.
                                   Bibliographia Medica (contribution nO 30), environ 50,000 notices par  an.
                                    France, 50 francs; Union postale, 60 francs.
                                   Bibliographia Physiologica (contribution nO 4),  en 3-ou 4 fascicules par an,
                                    fr. 1.30 par fascicule. Edition speciale sur fiches.
                                   Bibliographia Bibliographica (contnbutton nO 31), publication annuelle,  en
                                    brochure, 4 francs par an;  sur fiches, 12 francs.
                                  Bibliographia Agronomica (contribution rio 40), publication trimestrielle,
                                     12 francs par an.
                                  Bibliographia Ecouomica (contribution nO  39), publication annuelle, 6 francs
                                    par an.
                                   Bibliographia Technica (contribution no  41), publication mensuelle. Abonne­
                                    ment annuel  Belgique,  10 francs; France, fro 12.50; Union
                                                                                     '  postale
                                    fro 13.25.
                                                  lI1ANUELS POUR L'USAGE
                                   DES REPERTOIRES        BIBLIOGRAPHIQUES SPECIAUX

                                    L'Institut  a prepare  une collection de MANUELS pour l'usage et la
                                  formation des repertoires bibliographiques de chaque science  particuliere.
                                  Ces manuels comprennent,  outre la partie des tables de classification
                                  bibliographique propres a la science envisagee,  un expose general des
                                  principes  de la classification, des regles pour la redaction .des notices
                                  bibliographiques,  des  regles  pour  la  publication  des  recusils biblio­
                                  graphiques  et la formation des repertoires  sur fiches, des regles pour
                                  la cooperation  au Repertoire bibliographique  universel  et enfin des
                                  conseils  pratiques pour l'organisation  des bibliotheques, la formation
                                  de  leurs catalogues  et le  classement  des  ouvrages  sur  les rayons.
                                  Ces ma?uels sont destines  aux specialistes de chaque branche des con­
                                  naissances. Ils reproduisent, sous une forme pratique, les divers documents
                                  deja parus ailleurs  pour la  preparation  et l'emploi des recueils et des
                                  repertoires bibliographiques speciaux,
                                    Les divers manuels de la collection  se vendent separement. Chaque
                                  manuel forme  un numero special des publications de  l'Institut interna­
                                  tional de Bibliographie.
                                                    ONT PARU A CE JOUR:
                                  Publicatiott 1tO 26.  -  Malluel pour l'usage  du Repertoire bibliographique des
                                    Sciences  Physiques [025.4: 53].         Prix:  2 francs.
                                  Publicatio1t nO 40.  -  Manuel pour l'usage  des  Repertoires bibliographiques
                                    [025.4].                                 Prix: 2 francs.
                                                   Manuel pour l'ttsage  du
                                  Publication no 4I.                  Repertoire bibliographique des
                                                 -
                                    Sciences  Agricoles [025'4: 63].         Prix: 5 francs.
                                  Publication 1tO  45.  -  Manuel pottr l'usage  du  Repertoire bibliogl'aphique  des
                                    Sciences  Photographiques [025.4: 77].   Prix: 2 francs.
                                  Publication nO  48.  -  Manuel pour l'usage  du Repertoire bibliogl'aphique  de la
                                    Locomotion et des Sports [025.4: 629.I] + [025·4: 79].
                                                                             Prix: 2 francs.
                                             Voir_  sttite detlxie1ne':page in.tirielwe de la couuerture,















        I

        J
        I

                   I   PHILOSOPHIE                      ET      QUES­
        I
                                  TIONS          MORALES



                      Divisions generctles.

                             II  Metaphysique et Cosmologie.
                             13  Rapports de l'ame avec Ie corps.
                             14  Systemes et doctrines philosophiques.
                             IS  Psycholog ie.
                             16  Logique,
                             17  Morale. Questions  morales.

                      Matieres connexes. References et concordances ..

                             21   Theologie naturelle. Theodicee.
        ,
                             301   Philo sophie cles sciences sociales. Socio]ogie.
                             34·01  Philosophie du Droit.
                             701   Philosophie de l'Art. Esthe tique.
                             gOI   Philosophie de l'Histoire.

                      Observations gene1'ales.

                             A.  Bases de la division.  -  11 y a lieu de clistinguer  :
                             Les  diverses branches  de Ia Philosophic. (Ex.  : logique,
                           morale, psychologie, etc.);
                             Les questions philosophiques  en particulier. (Ex.  :  cause,
                           volonte, etc.);
                             Les systernes philoso phiques. (Ex.  : kantisme, monisme, etc.);
                             Les philosophes et les eccles philosophiques. (Ex. Aristote,      I
                                                                     :
                            Descartes, Cartesiens, etc.);
                             L'histoire g enerale de la Philosophie ;
                             L'etude des questions philosophiques, Iimitee a un lieu et a
                            une epoque. (Ex.  : L'idee de cause chez les philosophes fran­
                            cais  clu xvrn« siecle) ;
                             Les questions qui ne rentrent pas clans les cadres de la Philo­
                            sophie proprement dite,  mais qui, tout  en relevant d'autres
                            sciences, sont traitees au point  de vue cle la  Philosophie, (Ex.  :
                            Philo sophie du Droit.)
                                                                                               I












                                         B. Branches et questions speciales  ,  -  Les diverses branches
                                       de la Philosophie  et les questions particulieres  sont classees
                                       sous les divisions II a 17 (division 14 exceptee).  Ex.  :
                                            15  Psychologie.
                                            [59  Volonte.                                           !
                                         Lorsqu'une  etude est limitee a 1'examen de la question  dans  ;
                                       un systerne philosophique determine,  on la classe  en ordre
                                       principal  a la matiere speciale, suivie du nombre propre  a ce
                                       systerne, par division de relation. Ex. :
                                            159  : 149.222  La volonte  -  dans le kantisme.
                                            122  : 149.915  L'idee de cause  -  dans le monisme.
                                            122  : 149.916  L'idee de cause  -  dans I'evolutionisme.
                                         Lorsque la matiere est Iimitee a 1'examen de la question,
                                       dans un pays ou a une epoque donnee, ou chez un philosophe
                                       determine, on la divise par les subdivisions de lieu, de temps ou
                                       de nom propre.  Ex. :
                                                    L'idee de cause  -  chez les philosophes chinois.
                                            122  « 17  D  L'idee de cause  -  chez les philosophes du XVIII' siecle.
                                            122 (Aristote)  L'idee de cause  -  chez Aristote.

                                         c. Systerne s philosophiques.  -  Les systernes philosophiques
                                       generaux  sont classes sous les divisions respectives de 14. L'on
                                                                                                    ,
                                       reunit la tout ce qui  concerne l'expose des systemes, leur histoire,
                                                                                                    ,
                                       leur critique, etc. Les systemes d'idee d'un philosophe  ou de
                                       son ecole sont classes comme il est clit sous D.
                                         Les subdivisions de lieu et de temps  sont applicables  aux
                                       divisions par systemes, Ex.  :
                                            147  It  II:O  Le pantheisme au Xlle siecle.
                                         Facultativement et par duplicata, on peut classer sous chaque
                                       systeme, par les divisions de relation i  , 1'application du 'systeme
                                       a une branche de la Philo sophie ou a une question determinee.
                                       Ex.
                                            147 :  122  Le pantheisme  -  et la causalite,
                                         D. Philosophes et eccles.  -  Tout ce qui concerne  un philo­
                                       sophe determine,  sa vie, ses ceuvres,  ses doctrines generales,
                                       les ecrits ernanant de lui et ceux dont lui-meme et ses ceuvres
                                       ont ete 1'objet,  est classe  sous  I (A-Z) ,  pourvu quil s'agisse
                                       d'ecrits traitant de I'ensemble de 1'ceuvre du philosophe  ou de
                                       l'une de  ses  ceuvres qui traite de la Philo sophie  en general.
                                       Lorsque  ces ecrits concernent une question speciale de philo­
                                       sophie,  ils sont clas-ses  sous cette question, ainsi qu'il est dit
                                                                                                     -
                                       sous l'observation B. On classe sous chaque philosophe tout ce
                                       qui  concerne les eccles qui  se rattachent directement a lui et
                                       que 1'on peut regarder comme continuant son ceuvre. Ex.  :
                                           I (Aristate)  Les aristoteliciens ou l'ecole peripateticienne.
                                         Fa,;ultativement et pa-y duplicate, on peut classer sous la division  I
                                       pro pre a chaque philosophe leurs travaux personnels  ou les  _,
                                                                                                     ,












                          travaux qui  les concernent relatifs a une question speciale. On
                          se sert a cet effet des divisions de relation. Ex.  :
                              I (Aristote)  :  122  Aristo te  -
                             •                  et la theor ie de Ia cause ..
                              r (Aristote)  : 159  Aristote  -  et la theorie de lit volonte.
                            Les ecrits  sur les philosophes d'un p?ys  ou d'une epoque
                          sont classes sous la division I suivie des subdivisions de lieu ou
                          de temps correspondantes. Ex.  :
                               I (44)  Les philosophes francais.
                               I  « 17  »  Les pbilosophes du XVIIle siecle,
                              r (44)  « '7  »  Les philosophes francais du XVIIl· siecle.
                            E. Histoire de la Philosophie.  -  L'histoire de la Philosophie,
                          d'une de  ses branches ou de questions philosophiques parti­
                          culieres etudiees  .en general  ou Iimitees i  un pays  et a une
                          epoque est classee a la division correspondante, subdivisee par
                          la subdivision commune correspondante. Ex.  :
                               r (°9)  Histoire generale  -  de la Philosophie.
                               r (44)  Histoire de la Philosophie  -  en France.
                               1(44)  « ,6»  Histoire de la Philosophic  -  en France  -  au xvu= siecle.
                               15 (09)  Histoire gcnerale  -  de la Psychologie.
                               15  « 14  »  La Psychologie an  --  X[Ve Steele.
                               159 (09)  Histoire generale  -  des doctrines sur la volonte.
                               ,59 (51)  La theorie de la vclonte  -  chez les phi losophes de la Chine.
                            F.  Matieres etrang eres a la Philosophie.  -  Les etudes a  un
                           point de  vue philosophique  des diverses questions qui  ne fig  u­
                           rent  pas  dans la classification de la Philosophie, mais qui
                           relevent d'autres sciences, sont classees  avec chaque matiere
                           speciale, soit sous  un nombre special,  soit  sous  le nombre
                           propre  a l'une de ces sciences, suivi de la subdivision commune
                           (OI) Philosophie de ... Ex.  :
                                     Philosophic du Droit.
                                     Philosophie des matbematiques.
                                     Philosophie de l'Art et du Beau ou Esthetique.
                            Facultaliuement el par duplimta, et en se servant des subdivisions
                           par relation:, on pourra reunir sous les divisions du I tous les
                           travaux  sur Ies questions quelconques dont le siege des  rna­
                           tieres est ailleurs, mais qui sont envisagees  au point de vue des
                           doctrines et theories philosophiques.

                             G. Terminologie de la Philosophie.  Synonymie.  -  La ter­
                           minologie de la Philo sophie est loin d'etre fixee.  Un grand
                           nombre de tennes  ont  une signification speciale d'apres les
                           eccles et suivant les epoques, Pour faciliter le classement.Te
                           contenu des rubriques  a ete precise par l'indication des termes
                           les plus usites dans l'histoire de la Philosophie  et chez les
                           philosophes contemporains.  Les synonymes ont ete distingues
                           les  uns des autres, et de nombreuses references ont ete faites
                           d'une division a l'autre lorsqu'une merne question est traitee
                           sous divers chapitres  et a des points  de  vue differents,  par
                           ex emple,  en Psychologie,  en Logique et en Morale.












                                         H. Resume.  -  En resume, par l'application des combinai­
                                        sons de divisions qui viennent d'etre exposees,  on dispose du
                                        moyen de classer, soit l'ensemble de la Philosophie, soit  une
                                        branche particuliere de la Philosophic, soit  une matiere philo­
                                        sophique speciale,  aux quatre points de vue differents du lieu,
                                        du temps, d'un systeme, d'un philosophe  ou de son ecole.
                                         La recapitulation des exemples  cites  montrera l'ordre  de
                                        succession des rubriques combinees comme il vient d'etre dit  :
                                            I (09)      Histoire generate  -  de la Philosophie.
                                            I (44)      La Philosophic  -  en France.
                                            I (Aristote)  La Philosophie  -  d'Aristote.
                                            I  IX 16:0  La Philosophie  -  au xvrr siecle.
                                            122          Cause.
                                            122: 149.915  L'idee de cause  -  dans le monisme.
                                            122 (51)    L'idee de cause  -  chez les Chinois.
                                            122 (Aristote)  L'idee de cause  -  chez Aristote.
                                            147 (44)    Le Pantheisme  -  en France.
                                            '47 (44'  •  II  »  Le Pantheisme  -  en France  -  au xu' siecle.
                                            IS \09)     Histoire generate  -  de la Psychologic.
                                            IS (44)     Les etudes de Psychologic  -  en France.
                                            15 (44?  « 16  »  La Psychologie  -  en France  -  au xvn- siecle.
                                            15: 149.222  La Psychologic  -  au point de vue du kantisme.
                                            15 ?Aristote)  La Psychologic  -  d'Aristotc.
                                            159 (5[)    La. volon te  -  d'apres les philosophes chinois.
                                            159  « r6  »  Les idees sur Ia volonte  -  au xvn" siecle.
                                            159  : 149.222  La volonte  -  dans le kantisme.
                                            159  : 149.222  « 18  »  La theorie de la volcnte  -  chez les philosophes kantiens
                                                           -  du XIX.? siecle.
                                            159 (Aristote)  La theorie de Ia volcnte  -  chez Arlstote.


                               I  [:, (),  «  », A-Z]  Generalia.
                                         Les subdivisons de relation, de forme, de temps,  de  nom de  j
                                        personnes  sont  employees  cornme il a ete dit aux observations
                                        generales.
                                         Les divisions de (0)  sont ernpruntees  a la table I,  Subdivi­
                                        sions communes de g eneralites et de forme. Elles peuvent etre
                                        combinees avec une division quelconque des tables  de  Philo­
                                        sophie.  Ex.  :
                                               1(02)  Truite de Philosophie.
                                               16 (02)  Traite de Logique.
                                               I (oS)  Revue de Philosophie  ,
                                               ,0 (05)  Revue de Logique.


                                    Metaphysique.
                                II
                                            Voir aussi 21  Theologie naturelle.
                                III   Ontologie.
                                        Etre. Possible. Reel. Existence. Essence
                                   . r                                  .
                                       Altributs transcendantaux de l'etre. Unite. Verite ontologique  .
                                   • 2
                                          Bonte. Perfection. Mal physique.  Beaute, _Identite.  Totalite.
                                            Voir aussi 157.1  Psychologie du Beau.
                                                  7.01  Philosophic des Beaux-Arts. Esthetique  .











                  . III.3  Substance. Nature. Individu. Monade. Personne. Hypostase  .
                            Principe d'Individuation.
                                 Voir aussi 1I3  Cosmologie  .
                      . 4  Accident. Qualite. Faculte. Mode. Figure. Fonction.
                                 Voir aussi 1Ir.3  Substance.
                                        II r  . 5  Relation.
                                        II3  Cosmologie generale  .
                      . 5  Relation. Rapp.ort.  Relativisme. Phenornene. Attributs. Appa-
                            rences. Hypothetique-  Absolu.  Noumene.  Chose  en  soi.
                             Inconnaissable. Antinomie .'
                               Voir aussi III.3  Substance.
                                     165  Certitude  .
                      . 6  Acte et  puissance  .
                      . 7  Irnmateriel. Esprit pur.
                               Voir aussi 151  Arne.
                   IJ2   Metbodologie generale. Classification philosophique  des
                          sciences.
                               Voir aussi 025.4  Classification bibliographique.
                   II3   Cosmologie generale.
                             Lois de la nature et monde physique  au point de vue philo­
                           sophique.  Transformation et corruption substantielle.
                               Voir aussi 117  La matiere et In. forme.
                   II4   Espace.  Lieu. Dimension. Vide.
                               Voir aussi II9  Etendue, nombre.
                                      152.8  Perception de l'espace.
     1             lIS   Temps. Duree. Eterriite.
                               Voir aussi r52.8
                                          Perception du temps.
                   II6   Mouvement. Mobile. Action transitive, immanente, a
                           distance. Devenir.
                               Voir aussi r52.8  Perception du mouvement.
                   II7   Matiere.  Forme. Corps.  Cause materielle et formelle.
                           Entelechie.

                   II8   Force. Energie.

                   IIg   Quantite.  Etendue. Continuo Nombre. Grandeur. Masse.
                                  Voir aussi r52.8  Perception de I'etendue.



                   12  Autres matieres de      metaphysique.

                  [  121  Theorie de la connaissance. Origine  et limite.   ]
                              Classer a 15T.2.












                               122   Causalite. Principes. Cause efficiente. Condition. Effet.
                                       Occasion.
                                           Voir aussi Il7  Causes materielle et formclle.
                                                 124  Causes finales.

                               123   Liberte et necessite. Contingence.  Futurs contingents.
                                             Voiraussi 159.1  Libert€: et determinisme,  en psychologie.
                                                    233,7  Liberte, en theolcgie.
                                                    234.9  Predestination.

                               124   Teleologic. Finalite. Causes finales. Ordre. Norrne. Ha­
                                      sard. Destinee. Cause exernplaire. Ideal. Type.  Arche­
                                       type.  Valeur.

                               125   Infini. Fini. Indefini. Univers.

                               126   Conscience. Persorinalite ..
                                              Classed. 153.7.

                               127   Inconscience. Autornatisrne.
                                              Classer it·1 ,3.8.

                               128   L'ame.
                                              Classer a 151.4.
                               129   Origine  de l'arne individuelle.
                                              Classer a 151.5
                                                      .
                                  . I  Creatianisrne.
                                              Classer a. 151:5 I.
                                  .2   Traducianisme.
                                              Classer a 151. 52.
                                  ,3   Preexistence.
                                              Classer it. r.11.53  .
                                  . 4  Migration. Palingenesie.
                                              Classer a 151.54  .
                                  . 5  Emanation.
                                              Classer it 151.55
                                              Voir aussi 147  Pantheisme philosophique.
                                                    212  Pan theisme theologique.




                               r3   Rapports   du   corps  et  de  l'esprit. Anthropo­
                                     logie philosophique.
                                            Voir aussi IS  Psychologie
                                                  57  Biologie.
                                                  576  Orig:ine de la vie, en b iologie.
                                                  612  Physiologie.











                                                                                                 "
                   13r   Physiologie  et  hygiene  de  l'esprit.                                 "
                               Voir 6r3.8  Hygiene du systeme  nerveux.

                   132   Troubles de l'esprit.                                                   ?
                                                                                                 "
                             Maladies mentales. Psychoses. Psycho-nevroses.  Delires.
                           Obsessions.  Tics  intellectuels. Manies.  Psycho-pathologie.
                           Psychologie teratologique. Psychiatrie.  Alienation mentale.
                               Voir aussi 343.963  Folie et or imiualite,
                                      616.8  Maladies mentales,  en medecine.
                      .r   Folie. Insanl'te. Alienation menlale  .
                      • 2  Imbecillite. Idiotie.
                      . 3
                           Melancolie .                                                          I
                      ·4   Catalepsie. Epilepsie. Hysterie.
                               Voir aussi 134 Hypnotisme  .                                     Ii
                      . 5  Extase.
                               Voir aussi 133.2  Extase, en sciences occultes.
                      . 6  Manies criminelles. Cleptomanie  .
                               Voir aussi 343.9 Anthropologie criminelle.
                      ·7   Manies vicieuses. Dipsomanie.
                               Voir aussi 178  Alcoolisme.


                    133  Etudes  psychiques.  Sciences occultes.
                             Esoterisme. Xenologie. Talepathie. Mediumnite,
                             Un grand nombre de  questions que l'on fait  parfois  rentrer
                           dans Ie cadre des sciences occultes sont classees au siege prin­
                           cipal de ces matieres, dans les autres parties de la classification,
                           notamment avec la Philo sophie et la Religion.
                                Voir aussi  125  Fini et infini.
                                       149.3  Mystioisme philosophique.
                                       J49.918  Tbeosophie.
                                       151..54  Metempsycose.
                                       164   Symbolique en general.
                                       246   Symbolique religieuse.
                                       398   Croyances et traditions populaires.
                                       612.8  Psycho-physiologie.
                                       613.26  Vegetarianisme.
     ,
                             Les questions morales, religieuses, sociales et scienti£ques,
                           envisagees au point  de  vue de l'occultisme, sont classees par
                           division de relation SOltS r33  :. On classera ainsi notamment :
                               133  : 5r  L'Occultisme et les mathematiques.
                                         Mystique des nombres.  Kabbal?s. Quatrieme dimension. Les
                                        trois plans.
                               133  52  L'Occultisme et l'Astronomie.
                                          Astrologie. Corps astral.
                                          Clusse precedemment it 52.0< et 133.5 Astrologie.













                                           133  53  L'Occultisme et la Physique.
                                                     Physiq ue transcendantule ou occulte. Rayons inconnus. Spectre
                                                    universel. Action a distance. Xenophysique cosmique.
                                           133  54  L'Occultisme et la Chimie.
                                                     Chimie  transcendantale.  Alchimie,  pierre  philosophale  ..
                                                    Grand ceuvre.
                                           133  57  L'Occultisme et la Biologie.
                                                      Generatio cequivoca.  Elixir de longue vie et d'immortaf ite  .
                                                    Vis formativa. Sixieme sens. Monstruosites  . .Exteriorisation de
                                                     la sensibil ite et de la motricite.
                                           133  59  L'Occultisme et la Zoologie.
                                                      Animaux fabuleux. Androi'des.
                                           133  61  L'Occultisme et la Medecine.
                                                      Prieres pour recouvrer la sante. Cures sympathiques. JM:6de·
                                                     cine spagyri que. Hermetisme.
                                           133  : 92  Hommes curieux et etrang es.

                                133.1  Apparitions. Esprits.
                                           Etres  surnaturels,  spectres, esprits,  revenants,  fantomes, vampires, loups­
                                          garous. Maisons hantees, lutins, farfadets, lycanthropes.
                                            Voir aussi  133.9  Spiritisme.
                                                    231.7  Apparitions.
                                                    235  Anges, diables, demons.
                                                    398.4  Fees. Elfes.
                                   .2   Hallucinations. Illusions. Visions et extases religieuses. Illumi-
                                         nisme.
                                            Voir aussi r 32.5  Extase au point de vue psychiatrique.
                                                   398.3.  Croyances et superstitions populaires  .
                                   . 3  Devination. Predictions.
                                           Art devinatoire, presages, signes celestes, prodiges, augures, horoscope. Oracle,
                                          sorts, baguette devinatoire. Sibylles. Enigmes. Explication des  songes. Double
                                          vue.  Somnambulisme  extra-lucide.  Inspiration, prophetisme, prediction, pro­
                                          nostic. Bonne  aventure. Cartomancie, tireurs de cartes, interpretes du  marc de
                                          cafe, du  ver:-c d'eau, etc. Geomancie.
                                             Voir aussi  003  Grapbologie.
                                                    I33.6  Chiromancie.
                                                    224  Propheties bibliques  .
                                                    228  Apocalypse.
                                                    23!.7  Miracle et prodige.
                                                    398.7  Livres de songes.
                                   ·4   Magie et sorcellerie.
                                           Demcnolog ie. Tbeurgie, sanatisme, necromancie. Magie noire, magie blanche.
                                          Fascination.  Evocation.  Enchantement,  ensorcellement,  Exorcisme  .  Mauvais
                                          ceil, envofitemen t,  malefices. Talisman, charmes, amulettes, mauvais  conseils.
                                          Tarot, grimoires,  livres  noirs,  bibliomancie.  Animaus  incubes  et succubes.
                                          Instruments de magie, meraux magiques.  messes noires.
                                             Voir aussi  235  Anges et demons.
                                                    149.9 I 8  Esoterisme.
                                                          Sabbat  .
                                                          Persecutions.













                   [  133.5  Astrologie.   : 52 .                            ]
                                A classer SOllS r33
                        . 6  Chiromancie.
                                Chirologie. Chirognomonie. Physiologie de la main. Art de lire dans la main .
                        . 7  Charlatanisme.
                                 Voir aussi 398.3  Croyances et superstitions populaires  .
                        . 9  Spiritisme. Recherches psychiques.
                                Tables tournantes  . Bons et mauvais esprits. Forces occultes. Mediumnite.  Exle­
                              riorisation de sensations.
                                 Voir aussi 235  Demonologie,
                                       289:4   Eglise swedenborgienne  ,
                                       612.82I. 7 IS  Spirjtisme et sciences ccnnexes, en physiologic.

                     134   Hypnotisme.
                                Suggestion. Magnetisme. Maguetisme animal. Mesmerisme. Lethargie. Faki­
                              risme. Clairvoyance. Lucidite. Transmission de la pensee. Telepathie.
                                 Voir aussi 343.64  Hypnotisme,  en droit penal.
                                       6I2.82I.7II  Hypnotistne, en physiologic.
                                       62r.82I.7'4  Lucidite et telepathie, en physiologie.
                     135   Sommeil et veille.
                               Reves. Sornnambulisme.
                                 Voir aussi 6I2.02I.7  Sommeil ,  en physiologie.
                     136   Caracteres mentaux.
                               Psychologie genetique, individuelle et sociale.
                                 Voir aussi 612.8.H.303  Intelligence seion les races, les indi vidus, les ages et
                                                lee professions  .
                        . 1  Influence du sexe  : hommes et femmes. Psychologie sexuelle.
                                 Voir aussi 376.2  Capacite mentale des femmes .
                        . 2  Influence du milieu physique.
                                 Voir aussi 573.4  Histoire naturelle de l'homme .
                        . 3  Influence de I'heredite et de I'evolution. Influence ancestrale.
                                 Voir aussi 233.3  Heredite spirituelle.
                                        575.I  Evolution  .
                        . 4  Influence de la  race.  Psychologic ethnique. Psychologie  des
                               peuples.
                                 Voir aussi 572  Ethnologie  .
                        . 5  Influence de l'age  : adolescence et vieillesse.
                                 Voir aussi 136.7  Influence de I'enfance .
                        . 6  Influence de  l'organisme. Teratologle  .
                             Influence de l'enfance. Psychologie infantile. Pedologte
                        . 7                                              ,
                                 Voir aussi 37  Education.
                                        371  Pedc gogie .
                        . 8  Influence du milieu social, de la collectivite, des classes sociales.
                               Psychologie collective des  professions, des foules, des  groupes.
                                 Voir aussi 343,95  Psychologie des criminels,
                                        343.974  Crime des foules.




           I







                              137   Temperament.   Caractere.  Psychologie  individuelle  ou
                                     differentielle. Idiosyncrasie.
                                          Voir aussi 136. I  Psychologie sexuelle.
                                                r38  Physiognomonie.
                              138   Physiognomonie.
                                       Mimique, sigries  revelateurs du caractere, expression des
                                      emotions.
                                         Voir aussi 003  Graphologie.
                                               157  Emotion, sympathie.
                              139   Phrenologic. Localisations cerebrales,
                                         Voir aussi 152  Sens.
                                               612.825.1 Localisation cerebrule, en physiologie.



                              14 Systemes     et doctrines  philosophiques.
                                        Espose, historique, critique, etc., des divers systemes  et
                                      doctrines.
                                          Voir observation sous I D.
                                          Voir aussi so us 2 les doctrines relig ieuses.
                              141   Idealisme,
                                        Transcendantalisme. Subjectivisme.  Phenomenisme, Philo­
                                      sophie de I'identite.

                              142   Philosophie critique.
                                        Criticisme. Critique du jugement. Critique de la raison pure.
                                          Voir aussi 165. I  Verite logique.
                              143   Intuitionalisme.
                              144   Empirisme.
                              145   Sensualisme.

                              146   Materialisme. Positivisme.
                                        Naturalisme. Religion de I'Humanite.
                                          Voir aussi 176'7  Naturalisme dans I'art.
                              147   Pantheisme. Panentheisme,
                                          Voir aussi 149.915  Monisme.
                                                 2 [2  Pantheisme religieux, en theologie,
                              148   Eclectisme. Syncretisme.

                              149   Autres systemes philosophiques  .
                                 . I  Nominalisme. Conceptualisme  .
                                 . 2  Realisrne.
                                           Voir aussi 146  Materialisme,




     EI\






                     I49·3  Mystlcisme philosophique.
                            Associationalisme.
                       ·4
                       . 5
                            Optimisme. Meliorisme .
                       . 6  Pessimisme  .
                                Voir aussi 216  Le mal, en tlieologie  .
                       . 7  Agnosticisme philosophique.
                                 Voir aussi 273.8  Agnosticisme religicux, en  theologie  .
                       . 8  Nihilisme  .
                       . 9Il  Rationalisme. Intellectualisme. Innatisme. Inneisme. N ativisme.
                                   Voir aussi 2II  Rationalisme, en religion  .
                        912
                       .    Sceptieisme. Sophistique  .
                       . g13  Fatalisme.
                                   Voir aussi 2T4  Providence,  en theologie  ..
                       ·9I4  Spiritualisme.
                       ·9I5  Monisme et dualisme. Parallelisme. Harmonie preetablie, Ani­
                              misme.
                       .  916  Evolutionisme. Evolution des especes, Transfonnisme .
                                   Voir aussi 575  Evolution, en biologie.
                       ·9I7  Atomisme et dynamisme. Mecanicisme. Energetique.
                       ·9I8  Theosophie. Philosophie. Esoterique.
                                   Voir aussi 133  Sciences occultes.
                                         294'  Bouddhisme.
                       ·9I9  Scolastique.
                       ·92I  N eo-scolastique.
                       . 922  Kantisme .
                       .923  N eo-kantisme. N eo-criticisme
                       ·924  Occasionalisme.
                       . 925  Liberalisme .
                       .  926  Dogmatisme  .
                       ·927  Traditionalisme. Fideisme.
                       . g28  Pragrnatisme  .
                       . 929  Polyzoisme  .
                       . 930  Volontarisme  .
      ii


                    IS   Psychologie.

                            Etude des facultes mentales.
                              La psychologie comparee des races, des groupes, des ages et
                            des  sexes est classee sous 136.
                              La psychologie Physiologique,  comme son nom l'indique, releve a.
                            la fois de la Psychologie IS et de la Physiologie 612. Elle a ete
                            classee  avec detail  sous 612.82. On  se reportera done a. cette
                            division, mais il sera loisible de classer ici, SQUS IS, par duplicata,
                            toute la psychologie physiologique, en y rattachant par le signe
                            de  relation..:_,  'les divisions de 6I2.82. Ex. :
                                   6[2.825.2  Localisation cerebrale.
                                 IS  : 612.825.2  Localisation cerebrale, en psychologie:

                                                                                               ,




                                                                                                     If







                                        Les divisions ci-apres sont plus specialement consacrees aux
                                      travaux d'ordre philosophique.  En regard  des divisions,  on  a
                                      rappele  les divisions correspondantes propres  a la Physiologie.
                                          Voir aussi 343.95  Psychologie des criminels.
                                                 612.S2[.303  Psychologie comparee des ages, des sexes, des indi­
                                                          vidue, des professions et des races.
                                                 612.52 [.31  Psychologie comparee des animaux.

                              151  Arne. Connaissance.
                                      Acti vite psychique. Espece intentionnelle. Cognition.
                                          Voir aussi r3r.7  Esprit pur.
                                                 152  Connaissance sensible .
                                 . 1  Genie. Talent d'invention.
                                          Voir aussi 612.Szr.302. en physiologie .
                                 • 2  Theorie de la connaissance. Origines et limites de la connais-
                                        sance. Ideologie.
                                          Classe precedemment a 12r.
                                          Voir aussi 152  Sens.
                                                 153  Intelligence  .
                                 . 3  Connaissance, ame, intelligence, instinct des animaux. Psycho-
                                        logie animale ou comparee.
                                          Voir aussi 612.821.31  Instinct des animaux.
                                                 6I2.821.32  Intelligence des animaux, en physiologie.
                                                 636.044  Dressage des an imaux domestiques.
                                      Nature  et siege  de l'ame. Unite,  spiritualite,  individualite
                                        et personnalite, etc.
                                          Classe precedemment a 128.
                                          Voir aussi r5r.6  Immortalite de I'ame.
                                                 153.7  Personnalite.
                                                 218  Immorta.lite,  en theologie.
                                                 237  .Etat futur, en theologie .
                                 . 5  Origine de I'ame. Theories diverses.
                                          Classe precedemment a 129  .
                                 . 51  Creatianisme.
                                          Voir aussi 231  Creation .
                                 . 52  Traducianisme. Transmission de l'ame par heredite,
                                          Voir aussi 136.3  Heredite mentale, en psychologie ..
                                                233.3  Heredite spirituelle, en theologie.
                                                575.1  Evolution  .
                                 . 53   Preexistence de I'arne .
                                 . 54   Migrations. Transmigrations. Palingenesie.  Reincarnation.
                                          Meternpsycose  .
                                 . 55  Emanation des ames.
                                          Voir aussi 147  Pantheisme.
                                                 212
                                                    Tbeologie naturelle .
                                 . 6   Vie future. Immortalite de l'ame. Survivance.
                                          Voir aussi 218  Vie future, en tbeologie.
                                                                                                    i
                                                                                                    T



      (/







                     152   Sens.
                               Faculte passive  ou  receptive. Perception  et  representation
                             sensible. Sensation. Sensibilite, Impression. Connaissance  sen­
                             sible.  Psycho-physique. Psychologie physiologique. Synes­
                             thesie. Ariesthesie.  Hyperesthesie-
                                 Voir observation sous IS.
                                 Voir aussi 6I.1.8  Anatomie du cerveau et du systeme nerveux.
                                       612.8 Physiologic du systeme nerveux  .
                        . 1  Vision.  Sens visuel. Daltonisme. Images consecutives. Con-
                               traste.
                                 Voir aussi 612.84  .
                        • 2  Audition. Sens auditif. Audition coloree.
                                 Voir aussi 612.85  .
                        . 3  Olfaction. Sens olfactif. Odorat.
                                 Voir aussi 6J2.86 .
                             Gustation. Gout.
                        . 4
                                 Voir aussi 612.87  .
                        . 5  Toucher. Sensibilite tactile.
                                 Voir aussi 612.83 .
                        . 6  Sens musculaire. Effort musculaire, Position. Station. Equilibre.
                              Vertige.
                                 Voir aussi 612.885 .
                             Psycho-physique. Psychometrte.
                        . 7                             Esthesimetrie  ,  Quantite  des
                              sensations. Lois de Weber et de Fechner.
                        .8   Objectivation, extenorisatton, localisation des sensations. Signes
                              locaux. Perception de I'etendue, du mouvernent, de  l'espace,
                              du temps.
                                 Voir aussi 133.9  Exteriorisation,  en sciences occultes.

                     153   Intelligence.  Raison. Entendement.
                               Faculte active ou  pensante. Connaissance intellectuelle. In­
                             tellect. Pensee. Intuition.
                                 Voir aussi 16  Logique.
                                       612.82r.30I .
                        . 1  Conception. Concept.  Idee. Notion.  Attention. Aperception.
                               Apprehension. Attente. Selection.
                                 Voir aussi 16!.I  Concept,  en logiq ue.
                                       I24   Ideal.
                                       --612.82I.2 •
                        • 2  . Association.
                                 Voir aussi 612.821.22  .
                        . 3  Abstraction. Abstrait.
                                 Voir aussi J6r.l  Universaux  .
                        . 4  Reflexion .
                        . 5  Jugement.
                                 Voir aussi 162  Deduction et induction.
     i
     1
     I






 I













                              153.6  Raisonnement.
                                          Voir aussi 168  Raisonnement, en logique  .
                                . 7  Conscience. Personnalite.  Identite personnelle.  Moi. Deper-
                                        sonnalisation.
                                          Classe precedemment a 126.
                                          Voir aussi 151.4  .Individualite et personnalite de l'ame .
                                . 8  Inconscience. Subconscience. Automatisme.
                                          Classe precedemment 11 127.

                              154  Memoire.
                                       Faculte reproductrice. Souvenir. Reminiscence. Amnesie,
                                          Voir aussi 612.821.23
                                 .1  Mnemonique, Mnemotechnique. Methodes pour developper Ia
                                      mernoire.

                              ISS  Imagination. Images. Sens internes.
                                       Faculte creatrice, cogitative, estimative. Sens commun.
                                          Voir aussi 135  Reves.
                                                6r2.82I.26.
                                    Raison.
                                          Classer a. 153.                             ]
                              157   Sentiments. Emotions.
                                       Affections. Passions. Etats emotifs. Plaisir. Douleur. Peine.
                                      L'agreable et le  desagreable. Amour. Desir apathique. Phobie.
                                      Peur. Pitie. Sympathie. Antipathie. Concupiscence. Sensibilite
                                      emotionnelle, Pathologie des sentiments.
                                          Voir aussi r38  Expression des emotions.
                                                612.82r.32  Emotions .
                                 • 1  Psychologie duBeau. Emotion. Esthetique. Sublime.
                                          Voir aussi 612.821,27'
                                                7.01   Esthetique. Philosophic des Beaux-Arts .
                                 • 2  Rire, Comique. Humour.


                              158   Appetit sensible.
                                        Instincts. Mouvements et actes reflexes, spontanes, automa­
                                      tiques. Appetition. Inclination: Tic. Motricite, Volition sensible.
                                      Tendance. Geste. Conation. Impulsions. Inhibition.
                                          Voir aussi r32.6  Manies criminelles.
                                                 132.7  Manies vicieuses.
                                                 153.8  Automatisme .
                                 . 1  Travail. Fatigue. Ergographie. Dynamogenese  .
                                 • 2  Imitation. J eux. Orientation .
                                 . 3  Parler. Langage interieur. Aphasie. Alexie. Chant.
                                          Voir aussi 41H  Origine du langage.













                     158·4  Ecriture. Dessin.  Agraphic. Graphologie.
                       . 5  Marche. Locomotion. Ataxie .
                    159   Volonte. Volition. Efforts.
      ,
                              Velleite. Aboulie.
                       • 1  Liberte de la volonte. Choix.  Alternative. Attente. Decision  .
                               Deterrninisrne. Indeterminisme. Imputabilite
                                                                   ,
                       . 2  Action humaine. Execution. Pratique  .
                                Voir aussi 123  Liberte et necessite, ·en metaphysique.
                                       17 L9Il  Responsabilite,  en morale.
                                       343.969.5  Reepocsabilite, en anthropologie criminelle.
                                       343.222  Responsabilite,  en droit penal.
                       .3   Habitude. Accommodation et adaptation -.
                                Voir aossi IIr.4  Faculte et puissance, en metaphysique  .
                       . 4  Intentions. Mobiles. Motifs.
                                 Voir aussi 17I.4  Intention morale.



                    I6  Logique. Dialectique.
                              Doctrine canonique (Epicure).
                              Consulter aussi les divisionsde la Psychologie relatives aux
                            questions suivantes.
                     161  Analyse. Synthese  .
                       . 1  Concept. Terme. Predicat, Predicaments. Categorie. Catego-
                              reme. Genre. Univoque. Methode d'immanence.
                                 Voir aussi XS3.I  Concept, en paycholcgie.
                                       ,53.3  Abstraction.
                        . 2  Jugement, Proposition. Affirmation. Negation. Equipollence  .
                    .    Deduction.  Induction. Methode experimentale.
                     162
                              Methode  des  variations  concomitantes,  des differences.
                             Experimentation. Observation.,

                     163  'I'emoignage. Foi. Certitude morale, historique. Argument
                            d'autorite,
                                 Voir aussi 165.1  Verite logique.
                                       234.2  Foi, en theclogie.

                     164  Symbolique. Algebrique, Logique mathematique. Logi­
                            que algorithmique.

                     165  Crrteriologie.  Certitude.
                                Criterium. Critique de la connaissance, Sources d'erreurs.
                              Sophismes.  Prejuges,  Epistemologie.  Evidence.  Paralo­
                              gisme. Antithese,




      J'  •













                               165.1  Verite logique Etats del'esprit(cerlitude, erreur, doute, opinion).
                                                 ,
                                          Voir aussi 163  Foi  .
                                 . 2  Certitude (obj ectivite) de l'ordre ideal. Objectivite des principes.
                                        Axiomes. Notions premieres. Principes. Principe de contra-
                                                                             '
                                        diction, d'identite,
                                 .3   Certitude (objectivite) du monde interne,  du  moi.  Certitude
                                        de conscience. Experience interne  .
                                 . 4  Certitude [objectivite] du concept, du moncle exterieur, de I'indi-
                                        viduel, Experience externe. Connaissance du concreto Trans­
                                        cendant.
                                           Voir aussi 152.8  Objectivation des sensations.

                               166  Syllogismes. Entymene.
                              167  Hypotheses.  Postulats,
                                                                                                     I
                              168  Raisonnement. Argumentation.   Persuasion. Demonstra­
                                                                                                     !
                                     tion. Generalisation. Le General.
                                          Yoir aussi 153.3  Abstraction.
                                                 ]53.6  Raisonnement, en psychologie.                1
                                                                                                     r
                                                 lor. t  Universaux.
                                                 162  Deduction et induction .r
                                                 ,66  Syllog-isme  .
                                  . I  Definition .
                                 . 2  Division. Classification  .
                                 . 3  Science. Systeme,

                               169  Analogie. Arguments probables. Exemples.   Calcul des
                                      pro babilites et statistique  au point de vue de la logique.   1
                                      Paradoxe.
                                                                                                     !.
                                                                                                     -)


                              17  Morale.   Ethique. Questions     morales.

                                        On classera ici Iii. morale theorique et la morale appliquee
                                       aux diverses questions de la vie pratique, ainsi que la morale
                                                                                                     r
                                      naturelle  ou scientifique, independante de toute metaphysique
                                                                                                     f
                                      et de tout dogme relig ieux.
                                        La morale  en general,  ou  line question particuliere de la
                                      morale, envisagee  au point de vue d'un systeme philosophique
                                       ou d'une doctrine religieuse, est classee ici SOllS la subdivision
                                       de relation correspondant  au systerne  ou it la doctrine envi­
                                       sagee. Ex.  :
                                           '7  : 149·9]6  La morale de l'evolutionisme  .
                                           17  : 2  Morale relig ieuse ou tbeclogique en general.
                                           17: 222.16  Morale du Decalogue.                          1
                                           17  : 282  Morale ca.tholique. Commandements de l'Eglise catholique.
                                           '7 : 2?4·2  Morale calviniste,
                                                                                                     f













                    171  Theories morales. Bases et  philosophie  de la morale.
                              Morale individuelle.

                       .1   Autorite, loi, regle,  norme morale. Maxime. Imperatif catego­
     1                        rique. Volonte divine, base de la morale. Morale religieuse,
     .!
                              morale chretierme, morale naturelle, morale independante  ,
                              Autonomie. Anarchie morale. Heteronomie.
                       . 2  Sentiment moral. Raison
                                                pratique. Obligation morale. Devoir .
                              Morale intuitive.
                       . 3  Perfection, ideal, bien et mal moral. L'honuete. Acte humain .
                              Action morale. Peche. Merite et demerite. Sanction. Punition.
                       ·4   Bonheur.  Beatitude.  Hedonisme.  Fin de I'homme, Destinee
                              humaine. Intention morale. Vie morale. Mceurs.
                                Voir aussi 159.4  Intention, en psychologie.
                       . 5  Utilitarisme. Eudemonisme  .
      I                . 6  Conscience morale. Probabilisme. Casuistique. Synderese  .      ...
      !
                                Voir aussi [53.7  Conscience, en psychologic.
      I                                I72.3  Liberte de conscience, en morale.
     L                 ·7   Morale basee  sur I'education et morale basee  sur I'evolution.
                              Education morale.
      r                . 8  Altruisme. Solidarite. Charite .
     t                 . g  Egolsme. Interet. Individualisme  .
                       . gIl  Responsabilite  morale. Imputabilite en morale  .
     J
     1                          Voir a.ussi I59. I  Liberte,  en psychologic.
                       .  g12  Devoirs de l'homme envers Dieu  .
                                   Voir aussi 2I7.
                       . g13  Devoirs de l'homme envers lui-rneme .
                                  Devoirs de conservation,  amour du travail, devoir de s'instruire. Dignite
                                personnelle.

                    172  Morale sociale.
                              Toutes les matieres juridiques et sociales pouvant  etre etudiees
                            aupoint  de vue du droit naturel, Oll peut classer, facultativement
      ,.
      !                     et par duplicata,  les travaux de cette espece  a la morale sociale
                            par le signe de  relation..:..,  suivi du nornbre classificateur propre
                            a chaque matiere.
                       . 1  Rapports  de l'individu et de l'Etat .
                                  Morale civique. Devoirs civiques. Devoirs des citoyens. Patriotisme. Cosmo­
                                politisme. Amour et defense de la patrie. Courage civique. Respect aux lois et
                                 autorites. Humanitarisme.
                            Devoirs des autorites publiques et des gouvernants
                       . 2                                          .
                       .3   La religion et l'Etat.
                                  Liberte de conscience. Tolerance.  ?ntolerance.  Persecution, suppression de la
                                 religion. Respect des croyances.
                                   Voir aussi 26I.7  L'Eglise et l'Etat, en theologie.
                                         322  L' Eglise et  I'Etat, en politique.
                                         348.7  L'Eglise et l'Etat, en droit civil ecclesiastique.











                                                                        ,
  -











          '"
                               172·4  Morale internationale. Paix et guerre.
                                             Voir aussi 341  Droit international.
                               173  Morale familiale.
                                           Voir aussi 343.55  Infractions contre l'ordre des famines, en droit penal.
                                                 347.6  Mariage,  en droit prive  .
                                  . 1
                                      Mariage et divorce .
                                  . 2  Polygamie et monogamic. Communaute des femmes.
                                           Voir aussi 29B  Mormonisme.
                                                 343.552  Polygamie,  en droit penal.
          il
                                        Amour libre.
                                      Devoirs des epoux,
                                           Voir aussi 176.6  Adultere  .
                                  ·4  Infanticide.
                                           Voir aussi 179.2  Cruaute envers les enfants.
                                                 343.622  Infanticide, en droit penal.
                                  . 5  Devoirs des parents envers les enfants  .
                                  .6  Devoirs des enfants  envers les parents. Devoirs des enfants les
                                                                                                     ,
                                        uns envers les autres. Respect, obeissance, assistance.
                                  ·7  Vie familiale. Solidarite de la famil1e.
                                  . 8  Devoirs des maitres et des serviteurs .
                                           Voir aussi 331.78  Domestiques, en sociologie.
                                                 647  Domestiques, en economie menag ere.

                               174   Morale des diverses professions et occupations.
                                         Deontologie. Vocation. Occupation. Emploi de la vie. Choix  ,
                                       d'une profession ou d'une carriere.
                                         A subdiviser par division de relation, d'apres la profession ou
                                       l'occupation s'il n'existe une division speciale. Voir aussi, sous
                                       chaque sujet, subdivision commune (069) Deontologie de ...
           I.
                                  . 1
                                       Clerg e .
                                  . 2  Medecins .
                                  . 3  Avocats  .
                                           Voiraussi 347.965.3.
                                  ·4   Morale en affaires  .
                                  . 5  Speculation  .
                                  . 6  jeu
                                           Voir aussi 175,9  Paris.
                                                  343.56  Le jeu, en droit penal.  .
                                  ·7   Contrat. Promesse au point de vue moral.
                                  .8   Relations entre employeurs et employes, au point de vue moral.
                                           Voir aussi 173.8  Devoirs des ma1tres a l'egard des serviteurs,
                                                                                                     ,
                                175  La morale et les amusements et recreations.                     ,
                                         A subdiviser par division de relation cornme 79 Amusements
                                       et recreations .
                                  . 8  Lecture des romans .
                                   . 9  Paris.













                    176  La morale et les relations sexuelles.
                             (Vita sexualis.)
                                Voir aussi IS 7  Amour I  en psychologie .
                       • 1  Chastete .
                       • 2  Celibat.
                                                                                               ,
                                Voir aussi 254  Celibat du clerge.
                       . 3
                           Continence .
                       ·4   Perversions sexuelles. Actes contre nature. Inversion sexuelle.
                             Bestialite.
                                Voir aussi 343.543.  Psychopathic sexuelle, en droit penal  .
                       . 5  Prostitution,
                             Ars amatorla. Erotica. Bacchanales. Mysteres d'Eleusis. Licence des  rues. Vie
                            galante. Proxenetisme, Traite des blanches. Moralite publ ique, etc.
                                Voir aussi 173.25  Amour libre.
                                      343.344  Prostitution, en droit penal.
                                      35r.764  Police des raceurs, en droit administratif,
      ,
                       . 6  Adultere  .
                                Voir aussi 343.551  Adultere, en droit penal.
                       .7  La morale et l'art. N aturalisme dans l'art .
                       . 8  La morale et Ia.Iitterature. Pornographie.
                                             Pornographie, en droit penal.

                    177  La morale et les relations privees  ou sociales. Morale
                           sociale.
                             Devoirs envers les hommes en general.
                       .1  Courtoisie.
                                Voir aussi 395  Etiquette. Politesse. Savoir-vivre .
                       • 2  Conversation, bavardage, commerag e .
                       . 3  Sincerite.
                                 Mensonge. Flatterie. Medisance. Calomnie. Diffamation. Respect de l'hon­
                                neur et de la reputation d'autrui  .
                       4
                       .   'Luxe. Lois somptuaires. Toilette. Faste .
                       . 5  Inegalite sociale. Esprit de caste et de classe. Richesse et rang
                             social.
                       .6  Amitie. Affection. Coquetterie  .
                       . 7  Philanthropie.  Humanite.  Pitie  ,  Devouement  et  sacrifice.
                             Charite,
                                Voir aussi  I4:6  Religion del'Humanite .
     . '
                       . 8  Misanthropic  .
     .
     ,                     Devoirs de justice envers autrui.
                       ·9
                                Respect de la propriete, vol et fraude. Respect de la llberte individuelle.
                    178  La morale et la temperance.
                             Stimulants et narcotiques. Alcoolisme. Intemperance. I vresse.
     ,
     ;
                            Ivrognerie. Abus des bois sons alcooliques.





      !













                                        On c1asse ici, comme siege principal des matieres, tout  ce
                                      qui concerne la temperance en general et l'usage des stimulants
                                       et narcotiques.
                                           Voir aussi 343.57  Intemperance,  en droit penal.
                                                 613.3  Usage des boissons en hygiene.
                                                 613.8  Hygiene du systeme nerveux.
                                                 612.82I.44  Alcool au point de vue pbysiologique.
                                                 61\3.1  Boissons alcooliques, fabrication.
                               178.1  Boissons enivrantes. Usage medical.
                                  • 2  Abstinence totale ou temperance  .
                                  . 3  Boissons prises en societe, a table  .
                                      Commerce des boissons eni{,rantes. Licence.
                                [.4       A classer so us 38  : 663. I.
                                                      Imp6ts.
                                          Voir aussi 335.26
                                [_.5  Prohibition du commerce des boissons enivrantes.  J
                                          A claaser SOilS 351.768 .
                                  . 6  Reformatoires. Asiles  pour buveurs, etc.
                                           Voir aussi 362.13  .
                                  . 7  Tabac .
                                  . 8  Stimulants et narcotiques divers.
                                          Opium, ha.shich, chloral, ether, etc,
                                  ·9  Gourmandises et intemperances diverses.

                               179  Questions diverses de morale  .

                                  . 1  Moralite de la presse  .
                                  • 2  Cruaute envers les enfants. Enfants  martyrs.
                                           Voir aussi 173.4  Infanticide.
                                                      .
                                                 331.3  Travail des enfants.
                                                 362.74  Protection de l'enfance en general.
                                  .3  Cruaute envers les animaux. CEnvres en faveur des animaux.
                                           Voir aussi 343.58  Mauvais traitement des animaux, en droit penal.
                                                  35!.765  Protection des animaux, en droit administratif .
                                  . 4  Vivisection.
                                           Voir aussi 612.0I2  Vivisection. (Physiologie.)
                                                  614.22  Vivisection. (Medecine publique.l
                                  .5   Sennent. J urons .
                                  . 6  Heroisme, bravoure, courage, poltrouer ie.
                                  ·7   Vie, duel, suicide. Homicide. Legitime defense. Respect de la
                                         vie d'autrui.
                                           Voir aussi 394.8  Coutumes.
                                                 343.613  Duel, en droit penal.
                                                 343.6I4  Suicide, en droit penal.
                                  .8   Vices et defauts divers.
                                           Orgucil, cupidite, envie, colere, paresse, jalousie, haine, etc .
                                  . 9  Vertus et qualites diverses.
                                           Humilite, liberalite, douceur, prudence, patience, amour du travail, diligence,
                                          modestie, ordre , economie, etc.











                                ,

                     18 et  19    Concordances.
                                      Pour memcire, on a reproduit ci-apres les divisions qui ava ient ete
                                    attribuees en propre a un certain nombre de phi losophes  et d'ecoles
                                    philosophiques dans les editions anterieures des tables de classifica­
                                    tion. Voir observation sous I D.


                     18   Philosophes    anciens.


                     181
                          Philosophes orientaux .
                        • 1  Chinois. (Confucius, Mencius.)
                        .2   Egyptiens  .
                        . 3  juifs. (Kabale, Philo, Maimonides.)
                        .4   Indiens. (Gymnosophistes, Nirvana.)
                                 Voir aussi 2I8  Annihilation .
                        . 5  Persans. Suffisme .
                        . 6  Chaldeens .
                        . 7  Sabeistes  .
                        . 8  Pheriiciens  .
                        . 9  Autres philosophes orientaux. Syriens, etc.


                     182  Philosophes grecs en general. Philosophes antesocra­
                            tiques  .

                        . r  Ioniens. (Thales, Anaximandre, Anaximene, Ecole mate-
                               rialiste.)
                        .2   Italiques ou Pythagoriciens. (Ecole mi-idealistes.]
                        .3   Eleates. Ecole idealiste. (Xenophanes, Parrnenides. Zeno,
                               Melissus.)
                        .4   Heraclite  .
                        . 5  Empedocle  .
                        . 6  Atomisme  .
                        .  7  Dernocrite .
                        . 8  Anaxagore  .
                        . 9  Autres philosophes grecs de la periode ancienne.

                     183  Sophistes.  Ecole socratique  .

                        . r  Sophistes. (Protagoras, Gorgias, Prodicus, Hippias.)
                        .2   Socrate.
                        . 3  Ecole socratique  .
                        ·4   Ecole cynique, (Antisthene, Diogene, Crates, etc.)
                        .5   Ecole cyrenaique. (Aristippe, Hegesias, etc.)
                             Ecole de Meg are. (Euclide, Eubulides, Diodore, etc.)
                   _I   :?   Ele ens, Eretriens, (Phedon, Menedemus, etc.)  ??_I
                                                                         _




          1








                                184  L'ancienne academic. Ecole platonicienne  .
                                   . r  Platon  .
                                   . 2  Speusippe  .
                                   . 3  Xenocrate .
                               . 185  Aristoteliciens. Le  lycee. Peripateticiens  .

                                   . r  Aristote .
                                   • 2  Theophraste .
                                   . 3  Eudeme .
                                   . 4  Straton.

                                186   Pyrrhoniens.  N eo-Platoniciens.
                                   .r  Pyrrhoniens. Sceptiques. (Pyrrho. Timon.)
                                   .2  Nouvelle Academie, (Arcesilas, Carrieade, Plutarque.)
                                   .3   Eclectiques. (Ciceron.)
                                   ·4   Ecole d'Alexandrie. Neo-Platoniciens. (Philon, Plotin, Pro­
                                         clus, Porphyre, Jamblique.)

                                187   Epicuriens. (Epicure, Lucrece.)
                                188   Stoiciens,
                                   . r  Zenon  .
                                   . 2  Cleanthe  .
                                   . 3  Chrysippe  .
                                   ·4   Pansetius,
                                   . 5  Posidonius  .
                                                                                                     "
                                   . 6  Seneque  .
                                   ·7   Epictete,
                                   . 8  Marc-Aurele .
                                .  18g  Premiers chretiens et  philosophes  du moyen age.  _
                                   .r   Gnostiques et byzantins.
                                            Voir aussi 273. r  Basi lides, Marcion.
                                                   273.2  Manicheisme .
                                   • 2  Peres de l'Eglise. Patristique. (Tertullien, Augustin, Clement,
                                          Origene.]
                                   .3   Philosophes arabes et asia tiques. (Avicenne.)
                                        Les  scolastiques.  (Duns Scott,  saint  Thomas d'Aquin,
                                   ·4
                                          saint Anselme, Abelard.)
                                   .5   Mystiques. (Reuchein, Cornelius, Agrippa, Paracelse, Servet,
                                          Bohrn, etc.)
                                   .6   Theosophes  .
                                   . 7  Averroistes  .
                                   . 8  Pantheistes et autres antiscolastiques  .
                                   . 9  Philosoplres de la Renaissance,
                               _1._-














                     19 Philosophes modernes.

                     191  Philosophes arnericains.
                        . 1  Jonathan Edwards  .
                        . 2  O. A ..Brownson .
                        . 3
                             Ralph Waldo Emerson .
                        ·4   Laurens P. Hiclcock,
                        . 5
                             James Mac Cosh .
                        .6   Noah Porter.
                        ·7   Francis Bowen.
                        . 8  William T. Harris
                                           .
                        ·9   Autres  philosophes americains.
                     192  Philosophes anglais.
                        • 1  Bacon .
                        • 2  Locke .
                        . 3  Berkeley  .
    \                   ·4   Hume.
                        . 5  Reid .
                        . 6
                             Dugald Stewart .
                        ·7   John Stuart Mill.
                        .8   Spencer.
                        ·9   Autres  philosophes anglais.

                     193  Philosophes allemands.
                        . 1  Leibnitz .
                        . 2  Kant .
                        . 3  Fichte  .
                        ·4   Schelling.
                        .5   Hegel.
                        . 6  Schleiermacher .
                        ·7   Schopenhauer.
                        . 8  Lotze .
                             Autres
                        ·9        philosophes allemands.
                     194  Philosophes francais.
                        .1   Descartes:
                        • 2  Malebranche .
                        . 3  Condillac .
                        ·4   Rousseau.
                        . 5  Diderot .
                        . 6  Lamennais .
                             Cousin.
                        ·7
                        . 8  Comte .
      I                 ·9   Autres philosophes francais.














                                195  Philosophes  italiens.

                                196  Philosophes espagnols.

                                197  Philosophes  slaves.

                                198  Philosophes,  scandinaves,
                                     Autres philosophes  modernes.
                                199




















































                                                                                                    I

                                                                                                     I


                                                                                             ?L
          ?                    ?








                                   TABLES GENERALES DE LA
                        CLASSIFICATION BIBLIOGRA?HIQUE DECIMALE
                          [PUBLICATION NO 25 DE L'INSTITUT INTE?NATIONAL DE BnlLIOGRAPHIE]
                        L'edition francaise, developpee et refondue, des TABLES GENERALES de
                      la Classification bibliographique decimate a ete preparee par  l'Institut interna­
                      tional de Bibliographie  avec le concours d'un grand nombre de collabora­
                      teurs et plus specialernent du Bureau bibliographique de Paris. Cette edition
                      reunit les  diverses editions  fragmentaires publiees jusqu'a  ce jour;  elle
                      parait par fascicules successifs. Afin de ne pas entraver la bonne marche
                      de l'impression, l'ordre suivi dans la publication est celui dans lequelles
                      manuscrits prepares par les collaborateurs  parviennent  a l'Institut.
                        Quand la collection sera complete, il sera facile de faire relier les fasci­
                      cules en un volume, dans l'ordre methodique des matieres et conforrnement
                      au tableau d'arrangement qui  sera publie ulterieurement. Pour faciliter
                      cet arrangement, les tables n'ont pas recu de pagination  continue.
                        On peut des a present souscrire a I'edition complete,  au prix  de 25 fr.,
                      port compris. Le fascicule  nO 16,  Resume des tables, peut  aussi etre
                      achete separement  au prix de I franc.
                        L'ouvrage complet porte le nO 25 des publications  de l'Institut interna­
                      tional de Bibliographie;  en outre, les divers fascicules sont numerotes,
                      I1s sont envoyes aux souscripteurs au fur et a mesure de leur publication.
                                      ONT PARU A CE      JOUR:
                      Fascicule no  I  -  Introduction  gbzerale  aux Tables de la  Classification  deci­
                                      male et Resume des  Regles  de la  Classification  decimale.
                      Fascicule no  2  -  Table des Subdivisions cOrml2Ulles.
                      Fascicule no 3  -  Tables de la division [53] Sciences physiques (Mecanique
                                      rationnelle et  Physique).
                                     Table de la division
                                  -
                      Fascicule 11° 4               [77] Sciences photographiques.
                      Fascicule nO S  -  Table de la division  [621.3]  Electricit« indusirielle.
                      Fascicule no 6  -  Table de la division  [629. r]  Industries de la Locomotion
                                      (Locomotion par terre et  par eau, Aerostation},
                      Fascicule nO  7  -  Table de la diuisio«  [79] Sports (Tourisme, Cyclisme,
                                      A utomobilisme),
                      Fascicule nO 8  -  Table de la division  [34]  Droit.
                      Fascicule nO  9  -  Table de la division  [615] Tldrapezdique.
                      Fascicule nO IO  -  Table de la division  [6r6] Paihologie  interne.
                      Fascicule nO II  -  Table de la division [617] Patholof!;ie  exlerne.
                      Fascicule nO I2  -  Table de la divisio1i [612] Pfiysiologie..
                                                                       ,
                      Fascicule nO I3  -  Table des divisions [6r8 et 619] Gynecologic.  Pediatrze.'
                                      M Mecine. comparee.
                      Fascioule nO I4  -  Table de ladivision  [35]  Administ7'ation.
                     ,
                      Fascicule nO IS  -  Table de la division  [9]  Hisioire. Geographie. Biographie,
                                      Genealogie.
                      Fascicule no I6  -  Resume des tables. Tables  generales mithodiques abregies,
                                      Index  alphabitique genB1'al abreg»,
                      Fascicule no I7  -  Table de la division [0] Generalites: Bibliographie,  Biblio­
                                       theconomie, Societes sauantes, etc.
                      Fascicule no I8  -  Table de la division  [3]  Sciences sociales. Statistique.  Eco­
                                       nomiepolitique. Enseignement.  Assistance. Folklore.
                      Fascicule no  I9  -  Table de la division [1] Philosophie. Questions  morales.
                                    BULLETIN ET ANNUAIRE
                      DE L'INSTITUT INTERNATIONAL DE BIBLIOGRAPHIE
                        BULLETIN DE L'INSTITUT INTERNATIONAL DE BlBLIOGRAPHIE.[Comptes renclus
                      des travaux de l'Institut; etudes documentees et informations relatives a
                      la Bibliographie; analyses cl'ouvrages bibliographiques ; renseignements
                      speciaux  sur  tout  ce qui  concerne l'organisation internationale de la
                      Bibliographie scientifique et la formation du Repertoire bibliographique
                      universel.] Parait  en six fascicules in-Sv (0.25 X 0.16), br., par  an. Les
                      abonnements sont faits pour  un an, a partir du Ier janvier. Prix: Union
                      postale:  10 fr. (en cours depuis 1395). Distribue gratuitement aux membres
                      de l'Institut. 11 a ete publie egalement divers tires a part d'articles imp or­
                      tants parus dans ce Bulletin et qui figurent dans la collection des  ublica­
      I               tions de l'Institut.
                       ANNUAIRE  DE L'INs'TITUT INTERNATIONAL  DE BIBLWGRAPHlE pour l'annee
      I               1902.  -  Bruxelles,  au siege de l'Institut  grand in-S? (0.25 X 0.16), br.
                                                                   Prix: I franc.
                      I06 p.
      r









                                  '.,.















                                                                 ;'












                                              OSCAR .LAMBERTY
                               IMPRIMF;UR  DE L'INSTITUT  INTERNATIONAL DE BIBLIOGRAPHIE
                                           RUE VEYDT, 70, BRUXELLES.

