





















                   E p r e u v e s                             F A S G .  5 0

                           1910-05-10




                                CONGRÈS          M O N D I A L

                                              DES

                    A S S O C I A T I O N S   I N T E R N A T I O N A L E S


                                   B R U X E L L E S ,  9-11  M A I  1910.






                    Association   catholique  internationale   des  œuvres

                               de  protection  de  la  jeune  fille.






                    Historique.    —  L'idée  première  de  l'Association  fut  inspirée,

                 en  1896,  à  M.  Léon  Genoud,  de  Fri bourg  (Suisse),  par  la  constata-
                 tion  douloureuse  des  dangers  que  courent  les  jeunes  filles  placées  en
                 Hongrie  et  en  Russie.  M  M  Louise  de  Reynold  prit  l'initiative  de  la
                 création  de  l'OEuvre  qui,  au  début,  fut  envisagée  comme  devant
                 protéger  particulièrement  les  Suissesses  catholiques  émigrant  vers
                 l'Europe  orientale.
                    Depuis  vingt  ans  déjà  fonctionnait  une  œuvre  protestante,  celle
                 des  Amies  de  la  jeune  fille,  ayant  un  programme  analogue;  aussi
                 M ™  de  Reynold  songea-t-elle  d'abord  simplement  à  greffer  sur  ce
                 tronc,  déjà  vigoureux,  une  branche  catholique.
                   Mais  les  Amies  de  la  jeune  fille  déclarèrent  que  leur  constitution
                 essentiellement  «  évangélique  »  ne  permettait  pas  l'union  proposée.
                 Se  rendant  à  ces  considérations,  M m e  de  Reynold  fonda  à  Fribourg,
                 le  22  septembre  1896,  l'OEuvre  catholique  suisse  de  protection  de
                 la  jeune  fille.

























                          Un  an  plus  tard,  l'Association  s'était  étendue  dans  la  plus  grande
                        partie  de  la Suisse.  Le  1 9 août  1 8 9 7 , elle  tenait  sa  première  réunion
                                                                                                                                M e m b r e s  de  l'Association.
                        générale.
                          Comprenant  la  nécessité  d'une  entente  internationale  pour  la  pro-
                        tection  de  rémigrante,  les  initiateurs  du  Congrès  avaient  convié  à              ART.  4 .  —  Peuvent  être  admis  comme  membres  de  l'Association
                        cette  mémorable  séance  des  représentants  des  principaux  pays  de               par  le  Comité  international  :
                        l'Europe,  alin  que  l'OEuvre  pût  être  proclamée  internationale.                    1°  Les  Associations  de  protection  de  la  jeune  fille;  dans  les  pays
                          Depuis  lors,  celte  Association  a  organisé  plusieurs congrès  inter-           où  un  Comité  national  est  organisé,  elles  se  font  agréer  par  l'entre-
                        nationaux  qui  ont  eu  lieu  dans  l'ordre  suivant  :                              mise  de  ce  dernier ;
                                                                                                                 2 °  Toutes  les  sociétés  et  institutions  catholiques  qui,  sous
                                     1 8 9 7  .  •              Fribourg
                                                                                                              n'importe  quel  nom,  ont  pour  but  la  protection  ou  le  patronage  de  la
                                     1 9 0 0                    Paris.                                        jeune  fille  ;
                                     1 9 0 2                    Munich.
                                                                                                                3"  Tous  les  catholiques  qui,  soit  par  leurs services  personnels,  soit
                                     1 9 0 6                    Paris.
                                                                                                              par  des  dons  volontaires,  veulent  soutenir  l'Association.
                                     1 9 0 9                    Strasbourg.
                                                                                                                ART.  O.  —  Les  sociétés  de  protection  de  la  jeune  fille  payent  à
                          L'Association  est  régie  par  les  statuts  suivants  :                           l'Association  internationale,  comme  contribution  aux  frais  généraux,
                                                                                                              le  2  "/„  de  leurs  recettes  ordinaires  ou  quelque  autre  tribut  annuel
                        Statuts.                                                                              fixé  d'entente  avec  le  Comité  international  (').
                                                                                                                 Les  institutions  payent  une  cotisation  annuelle  dont  le  montant  est
                                           Dispositions  g é n é r a l e s .
                                                                                                              à  fixer  par  leur  bon  vouloir.
                          AHTICLE  PREMIER.  —  L'Association  catholique  internationale  des                   Les  membres  isolés  versent  à  la  Caisse  internationale  2  francs
                        OEuvres  de  protection  de  la jeune  fille  a  pour  but  :                         par  an  ou,  une  fois  pour  toutes,  5 0  francs.  E n  retour,  ils  reçoivent
                          1 °  De  réunir  étroitement,  pour  un  programme  d'action  commune,              gratuilement  le catalogue  général  des  membres  de  l'Association.
                        les  œuvres  et  institutions  qui,  dans  les  diverses  pays,  s'occupent  de
                                                                                                                ART.  G.  —  Les  sociétés  et  institutions  qui  adhèrent  à  l'Association
                        la  protection  de  la  jeune  fille,  tout  en  facilitant  entre  elles  un
                                                                                                              conservent  une  complète  autonomie,  à  laquelle  on  ne  peut  porter
                        échange  de  services  réciproques;
                                                                                                              atteinte  sous  aucun  prétexte.
                          2 °  De  faciliter  et  de  poursuivre  la  fondation  de  ces  sociétés  et
                                                                                                                De  même,  le  mode  d'organisation  de  l'OEuvre  dans  chaque  pays  est
                        institutions  dans  les  pays  qui  en sont  dépourvus;
                                                                                                              absolument  libre.  Toutefois,  il  est  recommandé  à  toutes  les  sociétés
                          5°  De  gagner  à  l'Association, comme  membres  isolés, les  personnes
                                                                                                              de  protection  de  la  jeune  fille  de  former  entre  elles  de  grandes  fédé-
                        qui  s'occupent  d'oeuvres  entrant  dans  son  programme.
                                                                                                              rations  circonscrites  par  les  frontières  administratives,  civiles  ou
                          ART.  2 .  —  L'Association,  fondée  avec  l'approbation  et  la  bénédic-         religieuses,  et  d'en  donner  la  direction  à  un  Comité  national,  pro-
                        tion  de  Sa  Sainteté  le  Pape  Léon  X I I I ,  se  place  sous  la  protection    vincial  ou  diocésain.
                        spéciale  de  Noire-Dame  du  Bon  Conseil;  elle  soumet  son  action  à
                        l'autorité  ecclésiastique  et  entrelient  avec  elle  d'étroites  relations.

                          ART.  5 .  —  L'Association  a son  siège  à  Fribourg,  en  Suisse.                  (*)  Chaque nation organisée versera  annuellement  au  Bureau exécutif  de Fribourg
                                                                                                              la  somme  de  200 francs  pour couvrir  les frais de l'organisation  et  de  la  propagande
                           Les  couleurs  de  l'Association  sont  le jaune  et  le  blanc.
                                                                                                              internationale. (IV m c  Congrès international,  Paris,  octobre  1906.)





















                                                   —  i  -


                                                                                                              un  rapport  sur  la  marche  de  l'Association  et  sur  le  travail  du  Secré-
                                                  Direction.                                                  tariat.

                                                                                                                ART.  1 2 .  —  l a  Trésorière  générale  assure  !a  conservation  des
                          ART.  7.  —  L'Association  est  placée  sous  la  direction  du  Comité
                                                                                                              biens  sociaux  ;  elle  perçoit  les cotisations  des  membres  ;  elle  présente
                        international  assisté  par  le  Conseil  international.
                                                                                                              annuellement  au  Comité  un  compte  rendu  de  sa  gestion  et  à  l'assem-
                          ART.  8 .  —  Le  Comité  international  a  son  siège  à  Fribourg,  en            blée  générale,  un  rapport  sur  la  situation  financière  de  l'Association.
                        Suisse;  il  se  compose  de  la  Présidente  générale,  de  la  Vice-Prési-
                                                                                                                ART.  1 5 .  -  Le  Conseil  international  se  compose  :
                        dente,  de  la  Secrétaire  générale,  de  la  Trésorière  et  de  dix
                                                                                                                1 "  Des  membres  du  Comité  international;
                        Conseillers  ou  Conseillères  nommés  par  l'assemblée  générale  :  pour
                                                                                                                2°  Des  représentants  de  chaque  pays  nommés  par  leurs  Comités
                        cette  élection,  chaque  pays  représenté  à  l'assemblée  a  une  voix.
                                                                                                              nationaux  et  présentés  tous  les  trois  ans  à  l'assemblée  générale,  qui
                          Le  Comité  international  a  le  droit  de  s'adjoindre  encore  quelques
                                                                                                              fixera  leur  nombre.
                        membres  par  voie  de  cooptation,  mais  sans  jamais  pouvoir,  dans
                                                                                                                Les  membres  du  Conseil  international  ont  pour  mission  la  défense
                        son  ensemble,  en  compter  plus  de  trente.  Les  membres  du  Comité
                                                                                                             des  intérêts  généraux  de  l'Association  et  le  soin  de  sa  propagande
                        sont  élus  pour  trois  ans,  soit  d'une  assemblée  générale  à  l'autre,  et
                                                                                                             extensive.  La  Secrétaire  générale  leur  fait  parvenir  l'ordre  du  jour  et
                        sont  réeligibles.
                                                                                                             le  procès-verbal  des  séances  du  Comité  international.
                          ART.  9 .  —  Le  Comité  international  dirige  l'Association.  Ses  prin-           Le  Conseil  international  se  réunit  avant  chaque  assemblée  géné-
                        cipales  attributions  sont  :                                                       rale.  Il  est  permis  d'y  voter  par  délégation  manuscrite  ou  par  corres-
                          I o  L a  propagande  en  faveur  de  l'Association;                               pondance.
                          2°  L'entretien  de  rapports  constants  avec  les  Comités  de  chaque
                        pays,  ceux-ci  pouvant,  du  reste,  avoir  entre  eux  des  relations                                   Assemblée  générale.
                        directes  ;
                                                                                                                ART.  1 4 .  —  Une  assemblée  générale  des  membres  de  l'Association
                          3°  La  rédaction  et  la  publication  du  Bulletin  mensuel;
                                                                                                             a  lieu  au  moins  tous  les  trois  ans.
                          4°  La  publication  annuelle  du  catalogue  des  membres  de  l'Asso-
                                                                                                                Le  Comité  international  désigne  la  date  de  l'assemblée  générale,
                        ciation  ;
                                                                                                             dont  il  établit  l'ordre  du  jour.
                          S 0  L a  préparation  de  l'assemblée  générale  et  l'élaboration  de  son
                                                                                                               Aucune  proposition  ne  peut  être  soumise  aux  délibérations  sans
                        programme.
                                                                                                             avoir  été  présentée  au  Comité  international  trois  mois  au  moins
                          Le  Comité  prend  ses  décisions  à  la  majorité  des  membres  présents
                                                                                                             avant  l'assemblée  générale.
                        ou  régulièrement  représentés.
                                                                                                               L'assemblée  générale  est  présidée  par  la  Présidente  générale.  Il
                          ART.  1 0 .  —  La  Présidente  générale  ou  la  Vice-Présidente  repré-          Jui  appartient  :
                        sente  l'Association  vis-à-vis  des  tiers.  La  Présidente  ou  la  Vice-            1 °  De  nommer  la  Présidente  générale,  la Vice-Présidente,  la  Secré-
                        Présidente  a,  conjointement  avec  la  Secrétaire  générale,  la  signature        taire  générale,  la  Trésorière  générale  et  dix  membres  du  Comité
                        sociale.                                                                             international  ;
                                                                                                               2°  D'approuver  les  décisions  du  Comité  international  et  sa  gestion
                          ART.  1 1 . —  La  Secrétaire  générale  lient  le  protocole  des  séances
                                                                                                             administrative  et  financière.
                        du  Comité  international  et  du  Conseil  international,  ainsi  que  de
                                                                                                               3°  De  fixer  le  lieu  de  la  prochaine  assemblée;
                        l'assemblée  générale;  elle  dirige  la  correspondance,  assure  la  publi-
                        cation  du  Bulletin  mensuel,  ainsi  que  de  tous  les  autres  communiqués         4°  De  reviser  les  statuts  et  de  prononcer  la  dissolution  de  l'Asso-
                        et  imprimés  de  l'Association.  Elle  présente  à  l'assemblée  générale           ciation.

























                          Chaque  pays  a  le  droit  de  nommera  l'assemblée  générale  un  délé-             Grande-Bretagne,  1 3 représentants,  dont  3  pour  l'Irlande.
                        gué  de  son  choix,  qui  dispose  d'une  seule  voix  dans  les  votalions.  Ce       Hongrie,  2  représentants;
                        délégué  doit  produire  une  attestation  de  ses  pouvoirs.                           Italie,  1 0  représentants;
                                                                                                                Luxembourg,  3  représentants;
                              R e v i s i o n  des  statuts  et  dissolution  de  1  Association.               Pays-Bas,  7  représentants;
                                                                                                                Suisse,  1 2  représentants;
                          ART.  15.  —  Toute  proposition  ayant  pour  but  la  revision  des  sta-           République  Argentine,  5  représentants.
                        tuts  ou  la  dissolution  de  l'Association  doit  être  portée  devant  le
                        Comité  international  six  mois  au  moins  avant  la  réunion  de  l'assem-           ART.  2 .  —  L e  Conseil  international  se  réunit  tous  les  trois  ans
                        blée  générale.                                                                       avant  le  Congrès  international.  Il  peut,  toutefois,  être  convoqué  dans
                          Elle  doit  être  appuyée  par  les  représentants  de  trois  pays  au             l'intervalle,  si  trois  nations  organisées  le  demandent  ou  si  le  Bureau
                        moins.                                                                                de  Fribourg  le juge  nécessaire.
                          La  dissolution  de  I'  \ssociation  ne  peut  être  prononcée  que  parles
                                                                                                                ART.  5 .  —  Le  Conseil  examine  les  propositions  qui  doivent  être
                        deux  tiers  des  membres  des  représentants  des  différents  pays.
                                                                                                              soumises  au  Congrès,  délibère  sur  les  intérêts  généraux  de  l'Associa-
                          ART.  11).  —  Dans  le  cas  de  dissolution  de  l'Association,  l'assem-         tion,  propose  la  revision  des  statuts  et,  en  cas  de  conflit  entre  deux
                                                                                                              ou  plusieurs  comités  nationaux,  tranche  le  différend.  Il  prend  toutes
                        blée  générale  détermine  l'usage  de  l'actif  de  l'Association  en  laveur
                                                                                                              décisions  et  toutes  mesures  jugées  utiles  à  l'Association  internatio-
                        d'une  œuvre  ou  institution  ayant  un  but  analogue  au  sien.
                                                                                                              nale.
                                                                                                                ART.  4 .  —  L e  Bureau  exécutif  et  le  Comité  international  perma-
                          Un  règlement  spécial  détermine  la  composition  et  le  Fonctionne-             nent,  siégeant  à  Fribourg,  relèvent  du  Conseil  international  seul  et
                        ment  du  Conseil  international.
                                                                                                              n'ont  de  comptes  à  rendre  qu'à  lui.
                        Règlement      intérieur    du  Conseil    international.                               ART.  O.  —  L e  Conseil  admet  éventuellement  dans  son  sein  les
                                                                                                              représentants  des  nouvelles  nations  qui  se  dotent  de  l'organisation

                          ARTICLE  PREMIER.  —  Le  Conseil  international  de  l'Association  se             centrale  nécessaire  pour  avoir  droit  à  une  délégation  au  Conseil
                        compose  :                                                                            international.
                          a)  Des  membres  du  Bureau  exécutif  et  du  Comité  international
                                                                                                                ART.  6  —  Le  Conseil  international  est  présidé  par  la  Présidente
                        résidant  à  Fribourg;                                                                internationale,  à  son  défaut  par  une  personne  désignée  par  le  Bureau
                          b)  Des  délégués  des  nations  organisées,  c'est-à-dire  possédant  un           exécutif.
                        comité  national  ou  un  organe central  équivalent.  Dans  ce  Conseil,  les
                        nations  suivantes  possèdent  d'après  le  nombre  de  leurs  œuvres  locales          ART.  7.  —  Tous  les  membres  ont  voix  délibérative  et  consultative,
                        et  de  leurs  adhérents  :                                                           mais  dans  les  scrutins  et  votalions  chaque  pays  n'en  a  qu'une  seule.
                          Allemagne,  M  représentants  ;                                                     Les  membres  absents  peuvent  voler  par  délégation  manuscrite  signée
                                                                                                              ou  par  correspondance.
                          Autriche,  5  représentants;
                          Belgique,  1 0  représentants;
                                                                                                                ART.  8 .  —  La  Présidente  du  Conseil  ne  vole  pas,  sauf  en  cas
                          Espagne,  7  représentants;
                                                                                                              d'égalité  dans  les  suffrages  exprimés,  elle  tranche  alors  dans  un  sens
                          France,  1 8  représentants;
                                                                                                              ou  dans  l'autre.
























                         A R T .  9.  —  Le  procès-verbal  des  assemblées  du  Conseil  est  tenu             ART.  16.  —  Le  siège  social  du  Conseil  international  est  à  F r i -
                       par  le  Secrétariat  permanent  de  Fribourg.                                         bourg  (Suisse).  C'est  là  que  sont  conservés  :
                                                                                                                a)  Ses  archives ;
                         ART.  10.  —  Pour  les  séances  du  Conseil,  les  membres  doivent
                                                                                                                b)  Sa  caisse;
                       porter  en  évidence  l'insigne  de  l'Association.
                                                                                                                c)  Son  avoir  éventuel.
                         ART.  1 1 .  —  Les  séances  du  Conseil  sont  tenues  dans  l'ordre                 ART.  17.  —  Les  membres  du  Conseil  international  qui  sont
                       suivant  :                                                                            empêchés  de  prendre  part  à  une  séance  où  ils  ont  été  régulièrement
                                                                                                              convoqués  doivent  excuser  leur  absence  par  une  lettre  motivée.
                         a)  Prière  (Pater,  Ave  et  une  invocation  à  Notre-Dame  du  Bon-
                       Conseil)  ;                                                                              ART.  18.  —  Toutes  les  communications,  lettres,  propositions,
                         b)  Lecture  du  procès-verbal  ;                                                    réclamations  intéressant  le  Conseil  international  devront  être
                         c)  Appel  nominal  des  membres  du  Conseil;                                       adressées  au  Secrétariat  permanent  du  Bureau  exécutif,  16,  rue
                         d)  Discussion  des  propositions  du  Bureau  et  du  Comité  de                    Saint-l'ierre,  Fribourg  (Suisse).
                       Fribourg  ;
                                                                                                                ART.  19.  —  Le  Bureau  de  Fribourg  peut  convoquer  exception-
                         e)  Discussion  des  propositions  des  comités  nationaux;
                                                                                                              nellement  au  Conseil  international  les  représentants  d'un  comité,
                         f)  Discussions  diverses.
                                                                                                              d'une  œuvre  ou  d'une  institution  locale  affiliée  à  l'Association,  qui
                                                                                                              auraient  à  y  défendre  une  proposition  faite,  un  vœu  soumis  par  eux
                         ART.  12.  —  Aucune  proposition  ne  peut  être  discutée  au  sein  du
                                                                                                              au  Conseil.  Il  peut  également  y  convoquer  les  personnalités  mar-
                       Conseil  international,  si  elle  n'a  pas  été  indiquée  d'avance,  parmi  les
                                                                                                              quantes  (évêques,  ministres,  savants,  présidents  de  grandes  associa-
                       tractanda  de  la  séance,  dans  la  circulaire  de  convocation.
                                                                                                              tions  catholiques,  etc.),  soit  pour  leur  rendre  hommage,  soit  pour
                         ART.  13.  —  Cette  circulaire  de  convocation  doit  être  toujours               les  entendre  sur  un  sujet  discuté  par  le  Conseil.
                       adressée  un  mois  avant  la  date  de  la  séance  du  Conseil  international,         Ces  invitations  sont  faites  pour  une  seule  séance  et  renouvelables
                       afin  de  permettre  aux  comités  nationaux  de  se  réunir  et  de  donner  à        suivant  les  circonstances.  Elles  donnent  seulement  à  ceux  qui  en
                       leurs  représentants  un  mandai  motivé.                                              sont  l'objet  voix  consultative.  Les  comités  nationaux  peuvent
                                                                                                              demander,  en  les  motivant,  ces  invitations  extraordinaires au  Bureau
                         ART.  14.  —  Le  Bureau  exécutif  et  le  Comité  international  perma-            de  Fribourg.
                       nent,  siégeant  à  Fribourg,  convoquent  les  réunions  du  Conseil
                       international,  eu  dressent  le  procès-verbal  et  exécutent  ses  décisions         Finances.
                       éventuelles.
                                                                                                              A.  —  Compte  de  caisse  de  l'Association  catholique  internationale  des  OEuvres
                                                                                                                   de  protection  de la jeune  G1 le,  du  1 e r  janvier  au  51  décembre  1909.
                         ART.  15.  —  Les  membres  du  Conseil  international  sont  élus  tous
                       les  trois  ans  par  les  comités  nationaux  dont  ils  sont  les  représen-                                   RECETTES.
                                                                                                                                                         F r    786  25
                       tants.  Ces  nominations  sont  soumises  à  l'assemblée  du  Congrès,  qui                                                        »
                       fixe  le  nombre  des  représentants  auquel  chaque  pays  a  droit.  Les  élus                                                       1,240   »
                                                                                                                  Abonnements  et  annonces  du  Bulletin     2,285  10
                       sont  rééligibles.                                                                                                                 »   1,578  16
                         Les  membres  du  Comité  international  et  du  Bureau  exécutif,                       Vente  de  broches  et  d'insignes.  .  .  »   225  50
                       siégeant  à  Fribourg,  sont  réélus  tous  les  trois  ans  par  l'assemblée              Adhésions  au  Congrès  de  Strasbourg  .  »   1,615  »
                                                                                                                                                          »
                       générale  du  Congrès.  Ils  sont  rééligibles.                                            Quête  faite  au  Congrès  de  Strasbourg.    400   »
                                                                                                                  Intérêt  du  fonds  social              »      43  85
                                                                                                                                               Total.    F r .   8,171  86






















                                                 -  10  -                                                                                -  11  —

                                                DÉPENSES.                                                       Siège.   -  Le  siège  du  Secrétariat  international  est  à  Fribourg,
                          Frais  de  correspondance  et  divers.  .  .  F r .   567  62                       en  Suisse,  16,  rue  Saint-Pierre.  Cette  ville  a  été  choisie  comme
                                                                  »   1,890  60                               étant  le  berceau  de  l'Association  et  aussi  a  cause  de  sa  situation
                                                                  »   1,906  50
                                                                                                              centrale  dans  un  pays  neutre,  aux  confins  des  langues  française,  alle-
                          Impression  du  Bulletin  .  F r .  1,037  50                                       mande  et  italienne.
                          Rédaction  du  Bulletin  .  »  75   »
                          Port  du  Bulletin.  .  .  »  221  05                                                 L'Association  internationale  n'a  pas  la  personnification  civile  à
                                                                      1,553  55                               cause  de  son  internationalité  ;  il  n'a  pas  été jusqu'à  ce  jour  possible
                          Loyer,  chauffage  et  service  des  bureaux  .  »   270   »                        de  l'obtenir,  elle  ne  reçoit  pas  de  subside  de  gouvernement  en  qua-
                          Frais  de  propagande, voyages,  expositions.  »   789  80                          lité  d'Association  internationale.
                          Fraisdu Congrès de Strasbourg,  imprimés,                                             Le  nombre  des  membres  est  de  10,000  environ,  répartis principa-
                             location  de  la  salle,  divers  .  .  .  .  »   803  78                        lement  en  Europe.  L'Association  a  des  comités  nationaux  en  Alle-
                                                                  »     295  75
                          Subsides  pour  la  Mission  de  la  gare  de                                       magne,  en  Grande-Bretagne,  en  France,  en  Belgique,  dans  les
                                                                  »     [00   »                               Pays-Bas,  en  Italie,  au  I uxembourg,  en  Suisse,  en  Espagne,  dans  la
                          Versement  pour  l'impression  du  compte                                           République  Argentine.  Elle  a  des  correspondants  et  œuvres  affiliées
                            rendu  du  Congrès  de  Strasbourg  .  »    800                                   en  Autriche-Hongrie,  en  Grèce,  dans  la  principauté  de  Monaco,  en
                          Note  des  ateliers du  Tecbnicum  pour  deux                                       Norvège,  en  Bussie  et  Pologne,  en  Suède,  en  Turquie  d'Europe  et
                                                                  »     220   »
                                                                  »       5  50                               d'Asie,  aux  États-Unis,  au  Canada,  en  Amérique  centrale,  dans  les
                                                                                                              divers États  de  l'Amérique  du  Sud,  en  Afrique  et  en  Australie.
                                                       Total.  .  F r .   8,978  70
                                                                                                                L'Association  poursuit  le  bien  matériel,  moral  et  religieux  de  la
                          Total  des  dépenses                   F r .   8,978  70                            jeune  fille,  en  s'occupant  de  son  placement,  de  sa  protection  dans  les
                          Total  des  recettes                    »   8,171  86                               voyages,  de  son  patronage  sous  des  formes  diverses,  de  l'organisa-
                                                      Déficit.  .  I r .   806  84                            tion  de  cours  en  vue  de  sa  formation  professionnelle,  de  la  création,
                                                                                                              en  sa  faveur,  de  caisses  d'épargne  et  de  retraite,  d'associations
                                        B.  —  Compte  du  fonds  socia 1.                                    d'ouvrières  de  fabrique,  de  domestiques,  etc.,  de  la  lutte  contre  la
                          Fonds  social  au  1 e r  janvier  1909  .  .  .  F r .   1,169  -2!)               traite  des  blanches,  enfin,  pour  les  malheureuses  qui  ont  failli,  de
                                                                  »     8()()  84                             tentatives  de  relèvement  moral.
                          Au  1 e r  janvier  1910  .            F r .   562  45

                                     Détail  des  cotisations  reçues  eu 1901).                                Publications.     —  Le  Secrétariat  international  fait  parvenir
                          Comité  national  allemand             F r .   147   »                              chaque  année,  à  tous  ses  comités  nationaux,  à  ses  œuvres  affiliées  et
                                                                  »     125   »                               correspondants,  un  Questionnaire  qui  lui  donne  des  renseignements
                                                                  »     2IM)
                                                                  »     200                                   statistiques  et  le  tient  au  courant  de  l'activité  de  chacune  des
                                                                  »     200                                   sections.
                                                                         90                                     L'Association  édile,  outre  les  comptes  rendus  des  congrès,  un
                          Comité  de  Montevideo                  »      25                                   Bulletin  mensuel  en  langues  française  et  allemande  qui  relate  la
                          Russie                                         21                                   chronique  de  l'OEuvre  et  sert  de  lien  entre  les  comités  et  associés  de
                          Espagne                                 »      10                                   l'Office  central.  (Prix  d'abonnement  :  fr.  1.75  pour  la  Suisse,
                          OEuvres  et  membres  divers            »     222   »
                                                                                                              fr.  2.10  pour  les  autres  pays  de  l'Union  postale.)  Tous  les  comités
                                                       Total.  .  F r .   1,240   »





















                                                                                                                                          —  13 —
                                                  —  13  -
                                                                                                                 Compte  rendu  de la  X e  Assemblée  générale  de  l'Association  des  œuvres
                       peuvent  y  insérer  des communications  d'intérêt  général.  Elle  publie
                       un  Annuaire  contenant  la  liste  et  les  adresses  des  comités,  secré-                catholiques  suisses  de protection  de la jeune  fille  à Fribourg,  les 21 et
                                                                                                                                               0
                                                                                                                   22  septembre  1906.  —  Prix  : fr. . 7 0 .
                       tariats,  missions  des gares,  correspondants  et  œuvres  alliliées. Les
                       membres  de  l'Association  qui  versent  une  cotisation  d'au  moins                    Bericht  über  die XI.  Generalversammlung  des  Verbandes  der  Schweiz.
                                                                                                                   kath.  Mädchcnschutzvereine,  abgehalten  in  Basel  am  21.  und
                       2  francs  à  la Caisse  internationale  y ont droit  gratuitement.  ( L e prix
                                                                                                                                              0
                                                                                                                   22  Oktober  1907.  —  Prix  : fr. . 8 0 .
                       àe  Y Annuaire  pour  les autres membres  est  de  1 franc.)  L'Association
                                                                                                                 Compte  rendu  de  la  XII e  Assemblée  générale  nationale  suisse  à  Lau-
                       édite  aussi  un  Guide  à  l'usage  des jeunes  filles,  leur  donnant,  outre
                                                                                                                   sanne,  les 23 et 24  septembre  1908.  —  Prix  : fr.  1 . 3 5 .
                       des  avis  moraux  et  des  renseignements  pratiques,  de  nombreuses
                       adresses  de maisons  d'accueil,  bureaux  de  placement,  patronages  et                 Bericht  über  die  XIII.  Generalversammlung  des  Schweiz.  Verbands,
                                                                                                                   abgehallen  in  Zug  am 20.  und  21.  August  1909.  —  Prix  :  fr.  1 . 3 5 .
                       missions  des  gares  dans  les  principales  villes.  (Prix  du  Guide  :
                       50  centimes.)                                                                            Statuts  de.  l'Association  catholique  internationale  des  OEuvres  de  pro-
                                                                                                                   tection  de la  jeune  fille.
                         Enfin,  les tracts destinés  à  faire  connaître  l'Association.
                                                                                                                 Notice  explicative  sur  l'Association  catholique  internationale  des
                                                                                                                   OEuvres  de protection  de la jeune  fille.
                                                                                                                 Notice  historique  de l'OEuvre  catholique  suisse  de protection  de la  jeune
                       Bibliographie.                                                                              fille.  —  Prix  :  fr.  0 . 3 0
                                                                                                                 Baronne  DE MONTENACH,  L'Association  catholique  internationale  des
                         Annuairede  l'Association  catholique  internationale  des  OEuvres  pour  la             OEuvres  de  protection  de  la  jeune  fille  :  Histoire,  but,  programme,
                           protection  de la jeune  fille,  1909.  -  Prix:  fr.  1.20.                            services.  Extrait  de  l'enquête  sociale  de  la  Croix,  7  et  8  septem-
                         Guide  de la  jeune  fille,  1908. —  Prix  fr.  0.50.                                    bre  1 9 0 6 .
                         Bulletin  mensuel  de  l'Association  en  langues  française  et  allemande.  —         Baronne  DE MONTENACH,  L'Association  catholique  internationale  des
                           Prix  d'abonnement  :  fr.  1.75 pour  la Suisse,  fr. 2.10  pour  les pays             OEuvres  de  protection  de la  jeune  fille.  Rapport  présenté  à la  réu-
                           de  l'Union  postale.                                                                   nion  des Comités  suisses,  le 8 octobre  1 9 0 3 .
                                                                                                                 Baronne  DE  MONTENACH,  L'OEuvre  de protection  de la jeune  fille  :  Orga-
                         Bericht  über  den  dritten  Kongress  de»  internationalen  Verbands  der
                          katholischen  Mädchenschutzvereiue  abgehalten  zu  München  am  17, 18                  nisation,  propagande,  action  sociale.  Rapport  présenté  à la Réunion
                          und  19 Juni  1902.  —  Prix  : fr. 1.00                                                 générale  des  catholiques  à Sion,  1 9 0 4 .
                                                                                                                 Les  nouvelles  formes  de  notre  protection  sociale.  Discours  de  M ™  la
                         Compte  rendu  du  IV  Congrès  international  de l'Association.  Paris, 19,
                          20,  21 octobre  1906.  —  Prix  :  fr. 1.50.                                            baronne  DE MONTENACH,  vice-présidente  de  l'Association,  prononcé
                                                                                                                   au  Congrès  international  de Strasbourg,  le  1 9 juin  1 9 0 9 .
                        Compte  rendu  du  V'  Congrès  international  de l'Association.  Strasbourg,
                          17,  18 et  19 juin  1909. —  Prix  :  fr.  2.50.                                      Homes  et  Bureaux  de  placement.  Rapport  présenté  par  M  M  E  HENRY
                                                                                                                   DÊGLI.N  au  IV e  Congrès  international  de  l'Association  à  Paris,  le
                        Bericht  über  die  VI.  Generalversammlung  des  Verbandes  der  Schweiz.                 2 0  octobre  1 9 0 6 .
                          kath.  Mädchenschutzvereine  abgehallen  zu  St.  Gallen  am  29.  und
                          30.  September  1902.  —  Prix  :  fr.  1.00.                                          Le  logement  des  domestiques,  son  influence  sanitaire,  morale  et  sociale.
                                                                                                                   Rapport  présenté  au  Congrès  international  de  Strasbourg,  juin
                        Compte  rendu  de la  VU'  Assemblée  générale  de l'Association  des  œuvres
                                                                                                                   1 9 0 9 ,  par  M .  GEORGES  DE  MONTENACH.
                          catholiques  suisses  de  protection  de  la  jeune  fille.  Fnbourg,  7  et
                          8  octobre  1903.  —  [»rix  :  fr. 0.80.                                              Fürsorge  für  Kellnerinnen  am  eidgenossischen  Schützenfest  im  St.
                                                                                                                   Gallen  (16-28  Juli  1904).  Vortrag  gehalten  von  Frau  WI.NTER-
                        Bericht  über  die  VIII.  Generalversammlung  des  Verbands  der  Schweiz                 HALiEit-EuGSTER  an  die  Jahresversammlung  der  schweizerischen
                          abgehalten  in  Zurich  am 27.  und  28.  September  190i.                               katholischen  Mädchenschutzvereine  in Zurich,  September  1 9 0 4 .





















                                                  —  u  -

                         Compte  rendu  analytique  du  V"  Congrès  national  français  de  l'Associa-
                           tion,  tenu  à  Paris,  les  11  et  12  juin  1908.  Dijon,  imprimerie
                           Jobard.  On  peut  se  procurer  ces  publications  au  secrétariat  inter-
                           national,  16, rue  Saint-Pierre,  Fribourg (Suisse).
                        Compte  rendu  du  VI e  Congrès  national  français,  tenu  à Nancy,  les  13,
                          14  et  15 juin  1909.  Dijon,  imprimerie  Jobard.
                        L'Action  populaire  :  M" e s  H.  D.  et  J.  R.,  Protection  catholique  interna-
                           tionale  de  la  jeune  fille.  Rédaction  et  administration  :  Reims,  5,  rue
                           des  Trois  Raisinets.  —  Prix  :  fr.  0.25.

