









                          Office

                              HOTEL RAVENS'l'EIN, BRUXELLES







                     DE£IIAL £LASSIFI£ATION·










                                Tables           generales



                          General               summaries



                              Hauptabtheilungen







                                              LI?_'" ----_
                                       ___









































































































































































































































                                                                                                I
                                                                                                j
                                                                                               1


                                                                                              ?l
                                                                                                I  '
                                                                                                1
                                                                                                I
                                                                                                I
                                                                                                I
                                                                                                ?.
               "










                       Office International

                             HOTEL RAVENSTEIN,         BRUXELLES








                  DECIMAL CLASSIFICATION










                             Tables           generales


                                                                 •
                        General               summaries



                            Hauptabtheilungen















   J                                     BRUXELLES



                                        VEUVE
                            IMPRIMERIE
                                       26-28,  RUE  FERDINAND  LARCIER                          1
                                                    MINIMES
                                                DES
                                              18g5



                                                                                            /.





































































































                                       PREMIERE   TABLE



                                       CLASSES



                          o.   OUVRAGES GENERAUX
                           I .. PHILOSOPHIE


                          2.   RELIGION
                          3.   SOCIOLOGIE


                          4·   PHILOLOGIE
                          5.   SCIENCES

                          6.   SCIENCES         APPLIQUEES

                          7·   BEAUX-ARTS

                          8.   LITTERATURE

                                HISTOIRE
                          9·










                                              SECONDE    TABLE

                                                DIVISIONS

                          000 Ouvrages generaux,        500 Sciences.
                          010   BIBLIOGRAPHIE.           510  MATHEMATlQuES.
                          020   BIBLIOTHECONOMIE,        520  ASTRONOMIE.
                          030   ENCYCLOPEDlEs GENERALES,  530  PHYSIQUE,
                          040   COLLECTIONS GENERALES,   540  CHlMIE,
                          050   PERIODlQUES GENERAUX.    550  GEOLOGIE.
                          060   SOCIETES GENERALES.      560  PALEONTOLOGlE.
                          070   JOURNAUX.                570  BIOLOGIE.
                          080   BIBLIOT .SPECIALES. POLYGRAPHIE.  580  BOTANIQUE.
                          090   LIVRES RARES.            590  ZOOLOGIE.
                          100 Philosophie.              600 Sciences  appliquees.
                           110  METAPHVSIQUE,            610  MEDECINE.
                          120   SUJETS SPECIAUX DEMETAPHYSIQUE.  620  ART DE L'INGENIEUR.
                          130   L'ESPRlT ET LE CORPS.   630   AGRICULTURE.
                           140  SYSTE?IES PHILOSOPHIQUES.  640  ECONOMIE DOMESTIQUE.
                           150  FACULTES?IENTALES.PSYCHOLOG.  650  TRANSPORT. COMMERCE.
                          160   LOGIQUE.                 660  CHlMIE APPLIQUEE.
                          170   ETHIQUE.                 670  MANUFACTURES.
                          180   PHILOSOPHES ANCIENS.     680  INDUSTRlE MECANIQUE.
                          190   PHlLOSOPHES MODERNES.    690  CONSTRUCTION.
                          200 Religion.                 700  Beaux Arts.
                          210   THEOLOGIE NATURELLE.     710  PAYSAGES DE JARDlNS.
                           220  BIBLE.                   720  ARCHITECTURE.
                          230   THEOL. DOCTRINALE.DoGMATIQUE.  730  SCULPTURE.
                          240   DEVOTION. PRATIQUE. CEUVRES,  740  DESSIN. DECORATION.
                          250   SERMONS. CLERGE. PAROISSE.  750  PEINTURE.
                          260   L'EGLISE : SES INSTITUTIONS.  760  GRAVURE.
                          270   HISTOIRE RELIGIEUSE.     770  PHOTOGRAPHlE.
                          280   RELIGIONS ET SECTES CHRETIENNES.  780  MUSIQUE.
                          290   RELIGIONS NON CHRETIENNES.  790  RECREATIONs.
                          300 Sociologie.               800  Litterature,
                          310   STATISTIQUE.             810  AMERlCAINE.
                           320  ?CIENCE POLITIQUE.       820  ANGLAISE.
                           330  ECONOMlE POLITI QUE  ET SOCIALE.  830  GER?rANIQuE,
                          340   DROIT.                   840  FRANCAISE.
                          350   ADMINISTRATION.          850  ITALI;;:NNE.
                          360   ASSISTANCE. ASSURANCE.   860  ESPAGNOLE.
                                ENSEIGNEMENT.            870   LATINE.
                          ??o 0  COMMERCE. TRANSPORT,"   880  GRECQUE.
                           ?
                           390  COUTUMES. COSTUMES. FOLKLORE.  890  LITTERATURES SECONDAIRES.
                          400 Philologie.               goo  Histoire.
                          410   COMPAREE,                910  GEOGRAPHlE.
                          420   ANGLAISE.                920  BIOGRAPHIE.
                          430   GERMANIQUE.              930  HISTOIRE ANCIENNE.
                          440   FRAN?AISE.               940  A  EUROPE,
                          450   ITALIENNE.               950  0  ASIE.
                          460   ESPAGNOU:.               960  ::E  AFRIQUE.
                          470   LATINE.                  970  ?  AMERIQUE DU NORD.
                          480   GRECQUE.                 980  gJ  A?lERIQUE DU SUD.
                          490   LANGUES SECONDAIRES.     990  ::c:  OCEANlE. REGIONS POLAIRES.









                                TROISIhlE TABLE       SUBDIVISIONS

                                    OUVRAGES GENERAUX

                                                  050
                   000                                Periodiques generaux,
                                                  051  Americains.
                    001
                    002                           052  Anglais.
                    003                           053  Allemands.
                    004                           054   Francais,
                          Laisse  en blanc pour usages parti-
                    005                           055   Italiens.
                   ·006    culiers.               056   Espagnols.
                    007                           057   Slaves.
                    008                           058   Scandinaves.
                    009                           059   Langues secondaires.
                   010 Bibliographie.             060 Societes generales.
                    011  Bibliogr. generales.     061  Americaines.
                             '
                    012     ..  speciales d'auteurs.  062  Anglaises.
                    013         par  classes d'auteurs.  ·063  Allemandes.
                                d'anon. et de pseudon.  064  Francaises.
                    014
                    01)         par pays.         065   Italiennes.
                    016         de sujets speciaux.  066  Espagnoles.
                    0.17  Catalogues par ord. de matieres,  067  Slaves.
                    018      "   par nom d'auteur.  068  Scandinaves,
                    019          par  ordre alphabet.  069  Langues secondaires.
                   020 Bibliotheconomie.          070 J  ournaux.
                    021  But des blbliotheques.        Americains.
                    022  Constructions et arnenagernents.  Anglais.
                    023  Administration et personnel.  Allemands.
                    024  Reglements pour  les lecteurs.  Francais.
                    025  Organisation  des bibliotheques.  Italiens.
                    026  Biblioth. de matieres speciales,  Espagnols.
                    027     "   generales.             Slaves.
                    028  Lecture: assistance aux lecteurs.  Scandinaves.
                         L'art d'etudier,               Langues  secondaires.
                    029
                   030 Encyclopedies generales.  080 Bibl, spec. Polygraphies.
                    031  Americaines,             081
                    0-32  Anglaises.              082
                    033  Allemandes.              083
                    034  Francaises.              084
                    035  Italiennes               085   Laisse  en blanc pour usages parti­
                                                          culiers.
                    036  Espagnoles.              086
                    037  Slaves.                  087
                    038  Scaridinaves.            088
                    039  Langues secondaires.     089
                   040 Collect. gen. de manuels.  ogo  Livres  rares.
                         Americains,              091  Manuscrits.
                         Anglais.                 092  Block Books.
                         Allemands.               093  Premiers livres. Incunables.
                         Francais.                094  Impressions  rares.
                         Italiens.                095  Reliures rares.
                         Espagnols.               096  Illustrations ou matieres  rares.
                         Slaves.                  097  Ex libris. Book Plates.
                         Scandinaves.             098  Livres prohibes ou  supposes.
                         Langues secondaires.     099  Autres raretes, Curiosa.










                                       TROIS!E?lE TABLE     SUBDIVISIONS
                                               PHILOSOPHIE

                          roo Philosophie  en  general.  150 Facultes mentales.
                          101   UtiJite.                 151  Intelligence.
                          102   Manuels.                 152   Sens.
                          103   Dictionnaires.           153   Entendement.
                          104   Essais.                  154     Mernoire  ,
                          105   Periodiques,             155     Imagination.
                          106   Societes.                156   Raison.                           f
                          10§  Enseignement.             157  Sensibilite, Emotions.
                                                         158
                                Polygraphie.
                                                                Instinct. Appetit,
                          10
                               Histoire.                      Volonte,
                          109                            159
                          IIO Metaphyaique.             160 Logique.
                          111   Ontologie.               161  Inductive.
                          112   Methodologie.            162  Deductive.
                          113   Cosmologie.              163  Assentiment. Foi.
                          114    Espace.                 164  Symbolique. Algebrique,
                          lIS    Temps.                  165  Sources d'erreur.  Sophismes.
                          116    Mouvement.              166  Syllogisme. Enthyrneme.
                                 Matiere.                167  Hypothese.
                          11?    Force.                  168  Argument. Persuasion.
                          II
                          119    Quantite etnombre.      169  Analogie. Correspondance,
                          120 Sujets metaphysiques,     170 Ethique.
                          121   Connaissance: origine et Ii mites.  171  Philosophle de  I'ethique.
                           122  Causalite : cause et effets.  Ethique  de l'Etat.
                         -,                              17?
                          123   Liberte et necessite,    IT'  Ethique de la famille,
                          124   Teleologie,  Causes finales.  174  Ethique des  professions.
                          125   Infini et fini.          175  Ethique du  plaisir.
                           126  Conscience. Personnalite,  176  Ethique des sexes.
                           127  Inconscience. Automatisme.  17§  Ethique des relations sociales,
                           128  L'arne,                  17   Temperance.
                           129  Origine de l'arne individuelle.  179  Autres sujets de  I'ethique,
                          130 L'Esprit  et le Corps.    180 Philosophes anciens.
  .....
                           131  Physiol. et hygiene mentales,  181  Orient.
                           132  Troubles mentaux.        182  Grece primitive.
                           133  Apparitions,  Sorcellerie.  Magie.  183  Sophistes  et socratistes.
                           134  Mesmerisme. Double vue ..  184  Platoniciens.
                           135  Sommeil. Songes. Somnamb,'  185  Aristotef ciens.
                           136  Caracteristiques mentales;  186  Pyrrhoniens.  N eoplatoniciens.
                           137  Temperaments.                 Epicuriens.
                                                         18
                           138  Physiognomonie.          18?  Stcrciens,
                           139  Phrenolog. Photograp. mentale,  189  Chretiens  primitifs.
                          140 Systemes philosophiques.   190 Philosophes modernes.
                                Idealisrne. Transcendantalisme.  Americains,
                           141                           191
                           142  Philosophie critique.    192  Anglais.
                           143  Intuition.               193  Allemands.
                           144  Empirisme.               194  Francais,
                           145  Sensualisme.             195  ltaliens.
                           146  Materialisme. Positivisme.  196  Espagnols,
                                Pantheisme, Monisme,          Slaves.
                           14?  Eclectisme.              19?  Scandinaves.
                                                         19
                           14
                           149  Autres systernes philosoph.  199  Autres.










                                TROISIEME TABLE      SUBDIVISIONS

                                          RELIGION

                   200 Religion.                 250 Homelie. Clerge,
                   261   Philosophie.  Theories.  251  Hornelies. Preches  ,
                   202   Manuels.                 252  Sermons.
                   203   Dictionnaires. Encyclopedies.  253  Visites pastorales, Evangelisat.
                   204   Essais. Conferences.     254  Vie  relisieuse.  Celibat,
    f              205   Periodiques.             255  Confr. d'hommes et de femmes.
                                                  256
                   206
                         Societes,
                                                       Societes paroissiales.
                   207   Enseignement.  Eccles theolog.  257  Ecoles et biblioth. paroissiales.
                   208   Polygraphie. Collections.  258  Entret. paroiss.  des malades, etc.
                   209   Histoire de la Theologie,  259  Autres travaux de la  paroisse.
                   210 'I'heologie  naturelle.   260 Eglise   institut.  et trav.
                   211   Deisme. Atheisrne.       261  L'Eglise.
                   212   Pantheisme. Thcosophie.  262  Politi que  de l'Eglise.
                   213   Creation. Evolution.     263  Sabbat. Dimanche.
                         Providence.  Fatalisme.       Culte public. RitueL
                   214                            264
                   215   Religion.  Science.      265  Sacrements.
                   216   Mal. Reparation.         266  Missions interieures et  etranger.
                   217   Priere,                  267  Associations. Y. M. C. A.,  etc.
                   218   Vie future. Irnmortalite.  268  Ecoles du dimanche.
                   21q   Analogies. Correspondences.  269  Refuges. Retraites.
                   220 Bible.                    270 Histoire religieuse.
                   221   Vieux Testament.         271  Ordres monastiques.
                   222    Livres historiques.          Persecutions.
                                                  272
                   223    Livres poetiques,       273  Doctrine. Dogmes. Heresies.
                   224   .  Livres prophetiques,  274  Europe.
                   225   Nouveau Testament.       275  Asie.
                   226    Evangiles. Actes des Apctres.  276  Afrique.
                   227    Epitres.               .  277  Amerique du Nord.
                   228    Apocalypse.             278  Amerique du Sud.
                   229   Apocryphes,              279  Oceanie.
                   230 Doctrines. Dogmatique.    280 Eglises  chretiennes.
                         Dieu. Unite. Trmite,          Eglise primitive  et orientale.
                         Christ. Christologie.         Eglise catholique romaine.
                         Homme. Chute origin  Peche,   Eglise anglicane  et arnericaine,
                         Salut, Soteriologie.          Eglise protestante continentale.
                         Anges. Demons. Satan.         Eglise presbyter. rationnelle.
                         Echatologie.  Mort.  J ugernent.  Baptistes.
                         Vie future.                   Methodistes,
                         Credo. Confessions.           Unitairiens.
                         Apologetique.                 Sectes chretiennes secondaires.
                   240 Pratique.  Devotion.      2.90 Relig. ethnol.Sc. des relig.
                   241   Didactique. Catechisme,  291  Mythologie  com par.  et  gener.
                   242   Meditation.              292      »   grecque  et romaine.
                   243   Exhortation.             293      »   german.  et septentr.
                   244   Melanges. Romans  reJigieux.  294  Brahmanisme. Bouddhisme.
                   245   Hyrnnologie,  Poesie  religieuse.  295  Parseisme  ,
                   246   Ecclesiologie, Symbolisrne.  296  J'udajsme,
                   . 247.  Objets sacres, 'Vases, etc.  297  Mahometanisme .
                   248   Religion individuelle Ascetisme  298  Mormonisme.
                   249   Devotions familiales.    299  Religions  secondaires.










                                      TROISIhlE TABLE      SUBDIVISIONS

                                               SOCIOLOGIE

                         300 Sociologie en general.    350 Administration.
                         301   Philosoph. des sciences sociales.  351  Droit. administratif en general.
                         302   Manuels.                 352  Gouvernem. local. Communes.
                         303   Dictionnaires  et encyclopedies,  353  Organisation du gouv. central.
                         304   Essais.                 354   Organisation du gouv.  central.
                         305   Revues.                 355   Arrnee. Science militaire.
                         306   Societes.               356    Infanterie.
                         307   Enseignement, Etude.    357    Cavalerie.
                         308   Polygraphie.            358    Artillerie.
                         309   Historre de la sociologie.  359  Marine. Science navale.
                         310 Statistique.              360 Assist.  Assur,  Associat
                               Theories. Methodes.     361   Assistance.
                               Population. Dernographie.  362  Etablissement de bienfaisance.
                               Sujets speciaux,         363  Associations politiques.
                                Europe.                 364  Maisons de reforrne.
                                Asie,                   365  Prisons.
                                Afrique.                366  Societes secretes.
                                Amerique du Nord.       367  Clubs sociaux.
                                Amerique du Sud.        368  Assurance.
                                Oceanie,                369  Autres associations.
                         320 Science politique.        370 Enseignement.
                               Forme de l'Etat.              Pedagogic.
                               Eglise  et Etat.              Enseignement prima  ire.
                               Politi que interne.           Enseignement moyen.
                               Elections.                    Enseignernent personnel.
                               Migration et colonisation.    Programmes  scolaires,
                               Esclavage.                    Enseignement  des femmes.
                               Politique internationale.     Enseignement religieux  et mor,
                               Parlements et parlementarisme.  Enseignement superieur.
                               Partis politiques.            Intervention de I'Etat,
                         330 Economie  politique.      380 Commerce. Transport.
                         331   Travail et travailJeurs.  381  Commerce interieur.
                         332   Banque. Monnaie. Credit.  382  Commerce exterieur.
                         333   Propriete irnmobiliere,  383  Postes..
                         334   Cooperation.             384  Telegraphe. Telephone.
                         335   Socialisme,              385  Chemins de fer.
                         336   Finances  publiques.     386  Canaux et grandes  routes.
                         337   Protection. Libre  echange,  387  Transport  fluvial  et maritime.
                         338   Production. Manufactures.  388  Commerce local. Voirie.
                         339   Pauperisme. Capitalisme.  389  Poids et mesures. Metrologie,
                         340 Droit.                    390 Coutumes. Vie populaire.
                               Droit international.     391  Costume et soins dela personne.
                               Droit constitutionnel.   392  Naissance.  Interieur, Mariage.
                               Droit  penal.            3q3  Traitement des morts.
                               Droit militaire.         394  Coutumes publiques  et sociales.
                               Legislat,  et jurispr,  en general.  395  Etiquette.  Politesse.
                                                        396  Position de la femme.
                               Droit  prive,            397  Nomacles. Tziganes.
                               Droit  canonique etIccclesiastiq.  398  Folklore. Proverbes, etc.
                               Histoire du droit. Droit romain.  399  Coutumes de guerre.











                                TROISIE?!E TAJ3LE    SUBDIVISIONS
                                         PHILOLOGIE

                  400 Philologie en general.     450 Philologie italienne.
                   401  Philosophie. Theories.   451   Orthographe.
                   402   Manuels.                452   Etymologie.
                   403  Encyclopedies,           453   Dictionnaires,
                   404  Essais.                  454   Synonyrnes.
                   405  Periodiques.             455   Grarnmaire,
                   406  Societes,                456   Prosodie,
                   407  Enseignement. Etude.     457   Dialecres,
                   408   Polygraphie.            458   Textes cJassiques.
                   409   Histoire.               459  Roumain.  Vallaque.
                  410 Philologie comparee.       460 Philologie espagnole.
                   4"   Orthographe,             461   Orthographe.
                   412   Etymologie.             462   Etymologie.
                   413   Dictionnaires.          463   Dictionnaires.
                   414  Phonologic.              464   Synonymes.
                   415  Grammaire.               465   Grammaire.
                   416  Prosodie,                466   Prosodie,
                   417  Inscriptions.            467   Dialectes.
                   418  Textes.                  468   Textes cJassiques.
                  419  Hieroglyphes.             469  Portugais.
                  420 Philologie anglaise.       370 Philologie latine.
                   421  Orthographe,             471   Orthographe.
                   422   Etymologie.             472   Etymologie.
                   423   Dictionnaires.          473   Dictionnaires.
                   424  Synonymes.               474   Synonymes.
                   425  Grammaire.               475   Grarnmaire.
                   426   Prosodie,               476   Prosodie,
                   427   Dialectes.              477   Dialectes.
                   428   Textes  classiques.     478   Textes classiques,
                   429  Anglo-saxon.             479   Langues italiques secondaires.
                   430 Philologie  germ ani que.  480 Philologie grecque.
                   431   Orthographe,            481   Orthographe.
                   432   Etymologie.             482   Etymologie.
                   433   Dictionnaires.          483   Dictionnaires.
                   434   Synonymes.              484   Synonymes.
                   435   Grammaire.              485   Grammaire.
                   436   Prosodie.               486   Prosodie.
                   437   Dialectes.              487   Dialectes,
                   43tl  Textes cJassiques.      48::;  Textes classiques.
                   439   Langues germaniques  second.  489  Langues helleniq.  secondaires.
                   440 Philologie francaise,     490 Autres langues.
                   441   Orthographe.            491   Langues indo-europeennes,
                   442   Etymologie.             492   Semitique,
                   443   Dictionnaires.          493   Harnitique.
                   444   Synonymes.              494   Scythique.
                   445   Gammaire,               49?   Asie orientale.
                   446   Prosodie,               4gb   Afrique.
                   447   Dialectes.              497   Amerique du Nord.
                   448   Textes classiques.      4gB   Amerique du Sud.
                   449  Proven<;al.              499   Malaisie.Polynesie.Autres lang.











                                     TROISrE?!E TABLE     SUBDIVISIONS
                                                SCIENCES

                        500 Sciences en general.      550 Geologie.
                         501  Philosophie  des sciences.  551  Geologie physique et dynamo
                         502  Manuels.                 552  Lithologie. Petrographic.
                         503  Dictionnaires. Encyclopedies.  553  Geologie econornique.
                         504  Essais.                  554  Europe.
                         505  Periodiques.             555  Asie.
                         506  Societes.                556  Afrique.
                         567  Enseignement.  Etude.    557  Amerique  du Nord.
                         508  Polygraphie. Collections.  558  Amerique du Sud.
                         509  Histoire.                559  Oceanie.
                        510 Mathematiques.            560 Paleontologic.
                         511  Arrthmetlque.            561  Plantes.
                         512  Algebre.                 562  Invertebres.
                         513  Geometric.               563    Protozoa ires. Radies.
                         514  Trigonornetrie.          564    Mollusques.
                         5,5  Geometric descriptive.   565    Articules.
                         516  Geornetrie analytique.   566  Vertebres.
                         517  Calcul different. et integral, etc.  567  Poissons. Batraciens.
                         518                           568    Reptiles. Oiseaux.
                         519  Probabilites.            569    Mammiferes.
                        520 Astronomie.               570 Biologie. Ethnologie.
                         521  Theorique,               571  Archeologie prehistorique.
                         522  Pratique  et  spherlque.  572  Etbnologie.
                         523  Ddcriptive.                  Hist. naturelle de l'homme.
                         524  Cartes et observations.  573
                         525  Terre.                   574   Homologies.
                                                       575   Evolutions. Especes,
                         526  Geodesic.
                                                       576  Origine  de la vie.
                         527  ' Navigation.
                         528  Ephemerides.             577   Propriete de la matiere vivante.
                                                             Microscopie.
                        529  Chronologie.              5]1">  Manuels des collectionneurs.
                                                       579
  "                     530 Physique.
                                                      580 Botanique.
                         53l  Mecanique,               581   Physiologie  et structure.
                         532  Liquide, Hydrostatique.  582   Phanerogames.
                         533  Gaz. Pneumatique.        583    Dicotyledonees,
                         534  Son. Acoustique.         51'4   Monocotyledonees,
                         535  Lurniere. Optique.       585    Gymnospermes.
                         536  Chaleur.                 586   Cryptogames.
                         537  Electricite,             587    Pteridophytes.
                         538  Magnetisme  ,            588    Bryophytes.
                         539
                              Physique moleculaire ,
                                                       589    Thallophytes.
                        540  Chimie .                  590 Zoologie.
                       .
                         541  Chimie theorique.        591   Zoologie physiologique.
                         542  Chirnie pratique.        592   Invertebres.
                         543  Analyse.                 593    Protozoaires. Radies.
                         544     Qualitative.          594    Mollusques.
                         545     Quantitative.         595    Articules,
                         546  Chimie inorganique.      5Q6   Vertebres.
                         547  Chimie organique.        :'97   Poissons. Batraciens,
                         548  Cristallogra phie.       598    Reptiles. Poissons.
                         549  Mineralogic.             599    Mammiferes.









                                TROISIEME TAllLE     SUBDIVISIONS

                                   SCIENCES APPLIQUEES

                  600 En  general.               650  Transport. Commerce.
                   601   Philosophi e.           651   Chiffres. Machines a ecrire.
                   602   Manuels.                652   Employes. Ustensiles. Method.
                   603   Dictionnaires.  Encyclopedias.  653  Abreviations, Stenographic.
                   604   Essais.                 654   Telegraphie, Cables. Signaux.
                   605   Periodiques.            655   Imprimerie. Publications.
                   606  Societes.  Expositions.  656   Transports. Chemins de fer.
                   607   Ecoles techniques.      6J7   Tenue de livres. Comptabilite,
                   608  Inventions. Patentes.    658   Manuels de commerce. Tables.
                   609   Histoire des sciences appliq.  659  Publicite. Autres matieres.
                  610 Medecine.                  660  Technologie chimique.
                   611  Anatornie.               661   Produits chirniques, Sel, Acides,
                   612  Physiologie.             662   Pyrotechnie. Explosifs.
                   613  Hygiene -. Gymnastique.  663   Boissons. Vins. Liqueurs.Bieres,
                                         .
                   614  Sante  publique.         664   Aliments. Sucre. Amidon.
                   615  Therapeutique.           665   Lurniere , Gaz. Huiles. Bougies.
                   616   Pathologie. Maladies. Traitem.  666  Cerami que. Glaces. Porcelaines.
                   61?  Chirurgie. Art dentaire,  667  Blanchiment. Teinture. Encre.
                   61   Maladies des femmes et enfants.  668  Autres industr, de chirnie organ.
                   619  Medecine  compo Art veterin.  669  Metallurgic.
                  620 Art de I'ingenieur.        670 Manufactures.
                   621  Machines.                671   Articles de metal.
                   622  Mines.                   672   Fer et aeier. Poelerie, Coutell.
                   623  Art militaire.           673   Cuivre et bronze. Cloches.
                   624  Pants et toitures.       674   Bois, articles de bois.
                   625  Routes et chemins de fer.  675  Cuirs et articles de cuir.
                   626  Canaux.                  676   Papiers et articles de papler,
                   627  Rivieres et ports.       677   Caton. Laine. Soie. Lin.
                   628  Travaux sanit  et        671S  Caoutchouc et art. en caoutch.
                                  ,  hydraul.
                   629  Autres branches.         679   Celluloide et autres produits.
                  630 AgriCulture.               680 Industries mecaniques.
                   631  Sol. Engrais. Drainage.  681  Instruments de precision.
                   632  Pestilences. Insectes.   b82   Forge. Marechal ferrant.
                   633  Graines. Herbes, Fibres.  683  Serrurerie. Armes.
                   634  Fruits. Vergers. Vignobles.  684  Carrosserie. Ebenisterie.
                   635  Culture maraichere.      685  Sellerie. Cordonnerie.
                   636  Animauxdornestiques.     686   Reliure.
                   63?  Laiterie, Lait.  Beurre. From.  687  Vetements. Chapellerie.
                                                 688
                   63
                        Abeilles. Vers 11 sole,
                  639  Peche. Chasse.            689  Autres metiers.
                  640 Economie  domestique.     690   Construction.
                   641  Ouisine, Gastronornie,   691  Materiaux, Bois. Pierres.
                   642  Confiseries, Glaces.     692  Plans. Devis.
                   643  Alimentation.            693   Maconnerie. Plafonnage.
                   644  Combustible. Lumiere,    694  Charpenterie Menuiserie.
                   645  Ameublement. Tapisserie.  695  Tuiles. Ardoises.
                   646  Habillement. Toilette.   696  Plornberie. Appareils.
                   647  Dornesticite. Devoirs. Gages.  697  Chauffage. Ventilation.
                                         .
                   648  Blanchissage.            698  Peinture. Vitrerie.
                   649  Enfants. Charnbres de malades.  699  Constr, de navires, Carrosserie.










                                      TROISrEME TABLE      SUBDIVISIONS
                                               BEAUX-ARTS

                         700  Beaux Arts  en general.  750 Teinture.
                         701   Philosophie. Esthetique,  751  Matieres premieres et methodes.
                         702   Manuels.                752   Couleur.
                         703   Dictionnaires,          753   Genre  epique, idealiste  ,
                         704   Essais.                 754   Peinture de  genre.
                         705   Periodiques,            755   Genre  religieux.
                         706   Societes,               756   Peinture  historique,
                         707   Enseignement.  Etude.   757   Portraits.
                         708   Galeries artistiques.   758   Paysage. Marine.
                         70Q   Histoire de l'Art.      759   Ecoles di verses de  peinture  .
                         710 Paysage dejardin.         760 Gravure.
                         711   Pares publics.          761   Bois.
                               Jardin prive, Pelouses.
                         712                           762   Cuivre. Acier.
                         713   Chemins. Avenues.       763   Lithographie.
                               Eaux. Fontaines. Lacs.
                         714                           764   Chromolithographie.
                         715   Arbres, Haies. Arbustes.  765  Taille douce.
                         716   Plantes. Fleurs. Serres.  766  Mezzotinte.  Aquatinte.
                         717   Sieges. Perspectives.         Eau-forte. Pointe seche,
                                                       76
                         718   Monuments.              76?   Billets de  banque,
                         7I9  Cimetieres.              769   Collections de  gravures.
                         720  Architecture.            770 Photographie.
                         721   Construction architecturale,  771  Chimie  photographique,
                         722   Antiquite. Orient.      772   Precede a  I'argent.
                         723   Moyen age. Art gothique.  773  Precedes a la  gelatine.
                         724   Moderne.                774   Albertype. Encre  d'impression.
                         725   Monuments publics.      775   Photolithographie  ,
                         726   Monuments religieux.    776'  Photozincographie.
                               Ecoles  et institutions  scientifiq.  Photogravure. Electrophotogr.
                         72?   Maisons prlvees,        77?   Applications particulieres.
                         72
                               Dessin et decoration.   77    Collections de
                         729                           779             photographies.
                        730 Sculpture.                 780 Musique.
                         731  Materiaux. Methodes.     781   Theorie.
                         732  Epoque  ancienne.        782   Dramatique.
                         733  Grece Rome.              783   Sacree,
                                   ,
                         734   Moyen age.              784   Vocale.
                         735  Epoque  moderne.         785   Orchestrale.
                         736  Sceaux. Coins. Pierreries,  786  Piano et Orgue.
                        737  Numismatique.  Medailles.  787  Instruments a cordes.
                        738  Potteries. Porcelaines.   788   Instruments a vent.
                        739  Bronzes. Antiquites,      789   Autres instruments.
                        740 Dessin. Decoration.        790 Amusements. J eux.
                         741  Esquisses.               791   Recreations  publiques.
                         742  Perspective.             792    Theatre, Opera.
                         743  Anatomie,                793   J eux d'interieur.
                         744  Dessin lineaire,         794    J eux d'adresse, Echecs.
                         745  Dessin ornemental.       795    J eux de hasard. Cartes.
                         746    Ouvrages  a l'uiguille,  796  Sports exterieurs.
                         747    Decoration interieure,  797   Canotage. Jeu de balle,
                         748    Verres et vitraux.     798    Equitation.
                         749  Fournitures artistiques.  799   Peche, Chasse. Tir.










                                                                                                 1

                                                                                                 I
                                                                                                &









                                TROISIEME TABLE       SUBDIVISIONS

                                        LlTTERATURE

                   800 Litterature en general.    850 Litterature italienne.
                    801  Philosophie.             851   Poesie,
                    802  Manuels.                 852   Drame,
                    803  Dictionnaires.           853   Roman.
                    804  Essais.                  854   Essais.
                    805  Periodiques,             855   Eloquence.
                    806  Societes.                856   Lettres.
                    807  Etude. Enseignement.     857   Satire. Humour.
                    808  Traites. Reoriques.      858   Melanges.
                    809  Histoire de la Iitterature,  859  Li tterat. roumaine et vallaque.
                   810 Litterature americaine,    860 Litterature espagnole.
                    811  Poesie  ,                861   Poesle  ,
                    812  Drarne,                  862   Drame.
                    813  Roman.                   863   Roman.
                    814  Essais.                  864   Essais.
                    815  Eloquence.               865   Eloquence.
                    8,6  Lettres.                 866   Lettres.
                    817  Satire. Humour.          867   Satire. Humour.
                    818  Melanges.                868   Melanges.
                    819                           869   Litterature portugaise.
                   820 Litterature anglaise.      870 Litterature latine.
                    821  Poesie.                  871   Poesie,
                    822  Drame.                   872    Dramatique.
                    823  Roman.                   873    Epique.
                    824  Essais.                  874    Lyrique.
                    825  Eloquence.               875   Eloquence.
                    826  Lettres.                 876   Lettres.
                    827  Satire. Humour.          877   Satire, Humour.
                    828  Melanges.                878   Melanges.
                    829  Litterature anglo-saxonne.  879  Litterat, italiques  secondaires.
                   830 Litterature germanique.    880 Litterature grecque.
                    831  Poesie,                  881   Poesie,
                    832  Drarne,                  882    Dramatique.
                    833  Roman.                   883    Epique,
                    834  Essais.                  884    Lyrique.
                    835  Eloquence.               885   Eloquence.
                    836  Lettres.                 886   Lettres.
                    837  Satire. Humour.          887   Satire. Humour.
                    838  Melanges.                888   Melanges.
                    839  Litteratures  germaniques sec.  879  Litterat, helleniq, secondaires.
                       .
                   84"0 Litterature  francaise.   890 Litteratures secondaires.
                    84'   Poesie  ,               891   Indo-europeennes  secondaires.
                    842   Drarne,                 892   Sernitique.
                    843   Roman.                  893   Hamitique.
                    844   Essais.                 894   Scythique.
    ?               845  Eloquence.               895   Asie orientale.
                    846   Lettres.                896   Afrique.
                    847  Sati·re. Humour.         897   Amerique du Nord.
                    848  Melanges.                898   Amerique du Sud.
                    849                           899   Polynesie, Autres.








   j










                                    TROISIEME TABLE      SUBDIVISIONS
                                               HISTOIRE

                       900  Histoire  en general.    950 Asie.
                       901   Philosophi  e.           951  Chine.
                       902   Manuels. Chronologie.    952  Japon,
                       903   Dictionnaires.           953  Arabie.
                       904   Essais,                  954  Indes.
                       905   Revues. Periodiques.     955  Perse.
                       906   Societas.                956  Turquie d'Asie.
                       907   Etude. Enseignement.     957  Siberie.
                       908   Polygraphie.             958  Turkestan. Afgahnist. Beloutc.
                       909   Histoire universelle,    959  Inde orientale.
                       910 Geographic  et descript.  960 Afrique.
                             Geographic historique.  961   Afrique  du Nord.
                             Cartes. Atlas.          962     Egypte. Nubie,
                             Antiquites. Archeologie.  963  Abysslnie,
                             Europe.                 964     Maroc.
                             Asie.                   965    Algerie.
                            Afrique.                 966   Afrique  centrale du nord.
                             Amerique  du Nord.      967   Afrique centrale du Sud.
                             Amerique du Sud.        968   Afrique meridionale.
                            Oceanie et Regions polaires.  969  Madagascar.
                       920 Biographie.               970 Amerique  du Nord.  '
                       921   Philosophie.            971   Amerique anglaise. Canada.
                       922   Theologie.              972   Mexique. Amerique centrale.
                       923  Sociologie.              973   Etats· Unis.
                       924   Philologie.             974    Etats de l'Atlantique, Nord.
                       925  Sciences.                975    Etats de  I'Atlantique, Sud.
                       926  Sciences appliquees.     976    Etats du Centre, Sud.
                       927   Beaux-Arts,             977    Etats du Centre, Nord-Est.
                       928  Litterature ,            978    Etats du Centre, Est.
                      929  Genealogie, Heraldique,   979    Etats du Pacifique.
                      930 Histoire ancienne.         980 Amerique du Sud.
                       931  Chinois.                 981   Bresil.
                       932  Egyptiens.               982   Republique Argentine.
                       933  Juifs,                   983   Chili.
                       934  lndiens.                 984   Bolivie.
                       935  Medes et Perses.         985   Perou.
                       936  Celtes.                  986   Colombie. Equateur.
                       937  Romains.                 987   Venezuela.
                       938  Grecs.                   988   Guyane.
                       939  Peuples secondaires.     989   Paraguay. Uruguay.
                      940 Europe.                    990 Oceanie, Regions polaires.
                            Ecosse. Irlande,         991   Malaisie.
                            Angleterre. Pays  de Galles.  992  Iles de la Sonde.
                            Allemagne. Autriche.     993   Australasie,
                            France.                  994    Australie.
                            Italie.                  995    Nouvelle Guinee,
                            Espagne. Portugal.       996   Polynesie,
                            Russie,                  997   Iles isolees.
                            Norwege. Suede. Danemark.  998  Regions arctiques,
                            Petits pays.             999   Regions antarctiques,





































































































































































