











                            lnstitut International de Bibliographie
                        PUBLICATION N' 25             INDICE BIBLlOGRAPHIQUE [uS·/1




                       CLASSIFICATION BIBLIOGRAPHI?UE



                                          DEOIMALE

                                                -.?.-
                             TABLES GENERALES REFONDUES

                                       etablies en  vue de la publication  du
                          REPERTOI RE      BI BLiOGRAPH IQU    E  UN IVERSEL


                                      EDITION FRANQA1SE
                                            publiee avec Ie concours du
                                  BUREAU BIBLIOGRAPHIQUE      DE PARIS


                                   FASCICULE                 N°    24
                                      Tables des divisions [51 + 52]

                            MATHEMATIQUES             ET ASTRONOMIE

















                                   INSTITUT INTERNATIONAL DE BIBLIOGRAPHIE

                            BRUXELLES, I,  rue du Musee.    PARIS, 44,  rue de Rennes.
                                           ZURICH, 3g, Eidmattstrasse.

                                                   1904












                                       MANUEL DU REPERTOIRE BIBLIOGRAPHIQUE
                                                          UNIVERSEL
                                            [PUBLICATION N° 63 DE I?'L"l"STITUT I-:-;TER:-;'ATlO?AL  DE EtBLIOGRAPITIE]

                                     Cette publication resume et condense  en un seul volume mis a jour
                                   les  diverses  publications fragmentaires  que l'Institut international  de
                                   Bibliographie  a fait  parattre jusqu'a ce jour  sur  son organisation,  ses.
                                   methodes et ses travaux. Elle contient les matieres suivantes :
                                     ORGANISATION, TRAVAUX, METHODES
                                   Organisation.
                                        I. Le Repertoire bibliographigue universel de l'Institut interna-
                                            tional de  Bibliographie.
                                                                            .
                                        II. Statistique g enerale des services et des travaux.
                                       III. Actes  officiels, statuts, etc.
                                   Catalogue dell travaux.
                                       IV.  Catalogue du  Repertoire bibliographique universel. (Prototype
                                            du manuscrit. i
                                        V. Catalogue de la  «  Bibliographia Universalis », (Contributions
                                            imprimees.)
                                       VI.  Catalogue des  publications diverses.
                                   Regles  et methodes.
                                      VII. Etablissement des  repertoires  sur fiches:  Repertoires des  ma­
                                           tieres, repertoires des auteurs, autres  repertoires.
                                     VIII. Redaction des notices  bibliographiques.
                                       IX. Publication des notices  bibliographiques en recueils et sur fiches.
                                        X. Modes divers  de  cooperation  au  Repertoire bibliographique
                                            universel.
                                       XI. Classement des notices  bibliographiques.
                                      XII.  Organisation des diverses collections de documents.
                                     XIII. Materiel et accessoires a  l'usage des  repertoires.
                                     TABLES DE CLASSIFICATION
                                                                 BIBLIOGRAPHIQUE
                                          Expose et regtes de la Classification d ecfmale.
                                          Table  principale,
                                          Tables auxiliaires.
                                          Index al phabetique general.
                                                              ***
                                     L'ouvrage comporte  un volume de plus de 2,000 pages, relie en  pleine
                                   percaline, avec  disposition speciale d'onglets facilitant sa consultation. Le
                                   prix de  sonscription est fixe a 30 francs par exemplaire, port  en  plus.


                                                      MANUEL A.BREGE
                                     DU REPERTOIRE
                                                         BIBLIOGRAPHIQUE UNIVERSEL
                                            [PUDJ.ICATlON N° 65  DE J:INSl'ITUT INTERNATIO?AL  OJ! BIDLIOGRAPHIE]
                                     Ce Manuel                                               ?
                                              abrege comprend Ies memes matieres que le Manuel com-
                                   plet (publication nv 63) decrit ci-dessus, sauf pour les Tables de  Classification
                                   bibliographique, qui sont Iimitees  aux divisions  principales (environ mille
                                   rubriques). En  souscription, 3 francs.
                                     Les  souscripteurs au Manuel  abreg e  pourront eventuellement
                                                                                     completer
                                   cet  ouvrage par l'acquisition des fascicules des Tables de classification
                                   relatifs  anx branches qui les interessent. Pour la vente de ces fascicules,
                                   voir ci-apres Classification1Jibliograjhique decinutle
                                                                        (publication nO 25).
























                   5     SCIENCES'                      PURES




                           Sciences   mathematlques, physiques

                                         et naturelles.

                     Divisions   principales   .

                         5 I  Mathernatiques.
                        '52  Astronomie. Geodesie  ,
                         53  Physique. Mecanique rationnelle.
                         54  Chirnie pure. Cristallographie. Mineralogic  .
                        . 55  Geologie.
                         56   Paleontologic.
                         57  Anthropologie. Biologie generale.
                        58   Botanique.
                         59  Zoologie.

                     References·   et concordances.

                        00. I   Sciences et co;}naissances en  general.
                        06      Societes et academies  generales.
                         II3    Cosmologie generale.
                         133    Sciences occultes.
                         IS     Psychologie.
                        215    Religion et Science.
                        351.854  Institutions  scientifiques en droit administratif.
                        372:5  Enseignement primairedes sciences.
                        375:-S  Place des sciences dans les  programmes d'enseignement.
                        378    'Enseignement superieur. Universites,
                        396:5  Lerole de la femme dans les sciences pures.
                        398: 5  Folklore des sciences pures.
                        61      Medecine,
                        6II    1\natomie.
                        612    Physiologie.
                        63     Agriculture.
                        727    Architecture des. batirncnts destines  aux  sciences (eccles,
                                 universites, laboratoires et  musees).














                                    Observations    generales.

                                         On classe  sous la division  5 les sciences pures (sciences exactes,
                                       sciences mathematiques, physiques et  naturelles), tandis que les sciences
                                       appliquees (ou applications des sciences)  sont classees  sous la divi­
                                       sion 6.
                                         Des indecisions pourront  se presenter lors du classement des ecrits
                                       d'un caractere scientifique et industriel, quand  il s'agira  de savoir s'il
                                       convient de les classer sous la division des sciences pl!lres ou des sciences
                                       appliquees.  11 faudra alors, pour determiner le classement de ces ecrits,
                                       se laisser  guider  non seulement par la nature merne du sujet, mais aussi
                                       par  la facon dont it est traite et le point de vue auquel  il est  envisage.
                                         Si le sujet est traite au point de vue tlzem·ique  ou a titre d'enseigne­
                                       ment scientifique et general, indepeudamment de toute idee d'applica­
                                       tion pratique  et utilitaire, il devra etre chisse dans  la science pure
                                        (Division 5).
                                         Si,  au contraire, il.est traite  au point de  vue pratique  et a titre
                                       d'enseignement professionnel, si l'ecrit qui le  concerne s'adresse plus
                                       specialement  aux industriels et  aux personnes qui envisagent surtout
                                       les conditions econorniques de production, le prix de revient et l'em­
                                       ploi, il devra etre classe dansles sciences appliquees (Division 6).
                                         11 sera toujours loisible de classer par duplicata a la fois aux divisions
                                       des sciences pures et a celles des sciences appliquees que concernent une
                                       .meme question.



















                     51    MATH.EMATIQUES


                           Divisions'  principales.
                                   5Il  Arithmetique,
                                  512   Algebre,
                                      ,  Geometric.  .
                                   513'
                                  514   Trigonometric.
                                  515   Geometrie descriptive. Projections.
                                   516  Geometric analytique.
                                  517   Calculs.
                                  519   Probabilites.
                           Observations    generales.

                             Cette  division  ne comprend que les  mathematiques pures ; les travaux
                           concernant la  physique mathematique, ainsi que la  mecanique ration­
                           nelle et la mecanique celeste,  sont classes  respectivement dans les
                           divisions 52, Astronomie et 53, Sciences  plzysiques (Plzysique  et  Mecanique).
                            'Les  ouvrages generaux de mathernatiques qui ne sont pas speciaux a
                           une des subdivisions ci-apres  :  arithrnetique, algebre, geometric, etc.,
                           sont classes sous la division principale' 51.
                             Les subdivisions  communes donnees par les tables auxiliaires I, II,
                           III et IV, c'est-a-dire les subdivisions de  generalites et de forme, les
                           subdivisions de lieu, de temps et de  langue,  sont  applicables a toutes
                           les divisions de 51. Ex.  :
                                   5, (oS)  Revues de matbematique.
                                   5, (09)  Histoire genera Ie des mathematiques.
                                   51 (44)  /I 17  II  Les mathematiques  -  en France  -  au XVII[· siecle
                                   5,3 (09)  Histoire de la geomerrie.
                     SIr     Arithmetique.
                                   Voir ausai  372: Su  Enseignement primaire de l'nrithmetique.
                        . I   Systemes d'arithmetique  .
                                   Voir aussi  51:2.8  Theor ie des nombres.
                        . 2   Notation et numeration. Regles fondamentales.  Abaques  .
                        ·3    Nombres premiers.
                        ·4    Fractions.
                        ·5    Analyse. Permutations et combinaisons.
                        . 6   Proportions et  progressions arithmetiques  .
                        . 61    Canes magiques  .
                        ·7    Elevation aux puissances. Extraction des racines.
                        .8    Arithmetique commerciale. Regles d'interets, d'escomptes, d'allia-
                                   Mesures.                                 '
                                ges.      Jaugeage, etc,
                                   Voir aussi  658  Sciences commerciales.
                                              .
                                                  ,
                        ·9    Problernes et tables d'arithmetique.













                                  512    Algebre.
                                     . I   Systemes algebriques  .
                                     . 2   Equations. Expressions imaginaires  .
                                     .21     Equations du premier au quatrieme degre.  .
                                     . 22    Equations numeriques d'un  degre superieur au quatrieme  .
                                     . 23
                                             Equations indeterrninees. Analyse diophantine indeterminee .
                                     . 24    Expressions imaginaires  .
                                     ·3    Equations algebriques. Maxima et minima.
                                     ·4    Fractions continues. Theoreme du binorne de Newton. Theorems
                                              de  Taylor.
                                     ·5    Analyse combinatoire.
                                                                           ,  .
                                     . 6   Proportions. Progressions .
                                     ·7    Elevation aux puissances. Extraction des racines.
                                     . 8   Algebre superieure  .
                                     . 81
                                             Theorie des nom bres .
                                                Voir aussi  5n  Systemes d 'arithmetique .
                                     . 82
                                        ,    Theorie des equations. Variables complexes.
                                               Voir aussi  517.8  Cal cul des imaginaires  .
                                     . 83    Determinants  .
                                     . 84    Fonctions syrnetriques  .
                                     . 85    Eliminati?ns. Eliminants et discriminants
                                                                            .
                                     . 86
                                             Transformations. Substitutions .
                                     . 87    Fonctions homogenes  .
                                     . 88    Invariants. Covariants. Contravariants
                                                                         .
                                     . 9   Problemes et tables d' algebre,
                                  513     Geometrie.
                                              On classe ici les ecrits qui traitent 11 la fois de  ·geometrie plane
                                             et de  geometrie solide. La  geometric descriptive est classee 11 515.
                                               Voir aussi  744  Dessin mathematique,
                                     • 1   'Geometrie plane  .
                                     . I I   Lignes droites  .
                                     . 12     Intersections de  lignes  .
                                              Lignes paralleles  .
                                     . 13
                                     . 14     Tr iangles  .
                                     . 15     Quadrilateres  .
                                     . 16
                                              Polygones de plus de quatre cotes .
                                     . 17     Similitude .
                                     .18      Aires.
                                     '.19     Maxima et minima.
                                     • 2   Courbes du deuxieme  degre  .
                                     . 21
                                             Cercles .
                                     • 22    Sections  coniques  .
                                     . 23     Ellipse  .
                                     . 24     Hyperbole  .
                                     . 25'    Parabole .
                                     .26    Courbes planes du  degre superieur.













                       513.3   Geometric des volumes et des solides.
                                 Lignes  plans  .
                         . 31         et
                         . 32    Intersections de plans  .
                         ·33     Plans  paralleles,
                         ·34     Polyedres.
                         ·35     Pyramides.
                         .36     Prismes. ,
                         ·37     Polyedres reguliers,
                         ·4    Volumes a surface courbe.
                         . 41    Sphere  .
                         . 42    Cone .
                         ·43     Cylindre.
                         ·5    Geometrie moderne.
                         ·51     Points.  Lignes. Plans. Dualite.
                         . 52
                                 Transversales .
                         ·53     Cones. Coniques. Involution.
                         ·54     Axe. Axes radicaux et centres de similitude.
                         ·55     Poles et polaires. Polaires reciproques,
                          56     Proprietes harmoniques et  anharmoniques.
                         ·57     Figures correspondantes. Correlation des  figures.
                         ·58     Surfaces  quadratiques. Coniques. Spheriques, Courbes it doubles
                                  courbures.
                         ·59     Surface d'ordre superieur. Cubiques.
                         . 8   Geometric absolue ou non euclidienne. Metageometrie  .
                         ·9    Problemes de  geometrie,

                      514    Trigonometrie.
                         . I   Fonctions  trigonometriques. Formules  generales  ..
                                    Voir ausai  52;1.7  Astronomic spherique  .
                               Series
                         . 2        trigonometriques  .
                         ·3    Exposants. Fonctions  exponentielles.
                         ·4    Resolution des  equations trigonometriques.
                         ·5    Trigonometrie plane. Resolution des  triangles. Discussion des for-
                                 mules.
                         . 6   Trigonornetrie spherique. Formules  generales  .
                          7.                             .
                         .     Resolution des  triangles spheriques
                         . 8   Differences entre les  triangles plans et les  triangles spheriques  •
                         ·9    Problemes de  trigonometric.
                      SIS    Geometrie descriptive. Projections.
                         · I   Projections orthogonales sur deux  plans.
                                                        .
                         · II    Lignes droites. Plans.
                         .12     Lignes  a  simple courbure  .
                         . 13    Lignes  a double courbure .
                         . 14    Surfaces a simple courbure.
                         · IS
                                 Surfaces a double courbure .
                         . 16    Surfaces de revolution.
                         ·  17   Surfaces reglees.
                         · 18    Intersections de surfaces.














                                 515.2    Projections isometriques et analogues.
                                    ·3    Projections obliques.
                                   ·4     Projections coniques.
                                    ·5    Projections  ?pheriques.
                                              Voir aussi  526.8  Projections cartographiques  .
                                   . 51    Projections orthographiques.
                                    · 52   Projections globulaires  .
                                    . 53   Projections stereographiques  .
                                    . 54   Projections polaires  .
                                    . 55   Projections gnomoniques  .
                                   . 56    Projections coniques  .
                                    .  57  Projections cylindriques  .
                                    . 6   Perspective.
                                              Voir aussi  742  Dessin perspective  .
                                   . 61    Perspective plane, parallele, oblique; angulaire .
                                   . 62    Cylindrique  .
                                   . 63    Ombre. Lumiere naturelle et lumiere artificielle .
                                   . 64    Reflexion .
                                   . 65    Cercles, cylindres et spheres  .
                                   . 66    Distorsions et corrections .
                                   . 67    Figure  humaine .
                                   . 68    Methodes nouvelles. Figures conventionnelles .
                                   . 7   Ombres et representation des ombres. Degradation •
                                   . 8
                                         Applications de la methode des projections. Stereotornie .
                                   . 81    Coupe des pierres.
                                                    \
                                              Voir aussi  693. I2  Maconnerie.
                                                     73  Sculpture.
                                   .82     Charpenterie.
                                              Voir aussi  694  Charpente. (Construction.)
                                   .83     Construction des escaliers.
                                              'Voir aussi  694.8  Escaliers. (Construction.)
                                                     729.39  Dessin architectural.

                                516    Geometrie analytique.
                                 516.1/4   Geometric analytique cartesienne,
                                   · I    Geometric plane ou it deux dimensions.
                                   · II
                                           Lignes droites .
                                   . 14    Transformation de coordonnees  .
                                   . 2    Courbes.
              j                    . 22    Sections  coniques  .
                                   . 23      Ellipse .
                                   . 24      Hyperbole  .
                                   . 25      Parabole .
                                   .26     Courbes de  degre superieur au second degre.
                                   ·3    Geometric dans  l'espace.
                                   . 31    Lignes droites  .
                                   . 32    Plans .
                                   ·34     Transformation de coordonnees.














                     516.4    Surfaces courbes.
                        . 42    Coniques  ou surfaces quadratiques  .
                                              .
                                                .
                        ·43      Ellipso?des.·
                        ·44      Hyperboloides.
                        ·45      Paraboloides.
                        .46    Surfaces d'un degre superieur.
                        ·5    Geornetr ie analytique  moderne.
                        . 51   Systernes  de coordonnees .
                        • 52   Notations abregees  .
                        ·53    Coniques (courbes  au second degre).
                        ·54    Courbes planes (de degre superieur  au second).
                        ·55    Poles et. polaires. Polaires reciproques.
                        .56    Proprietes harmoniques  et anharmoniques.
                        ·57    Methodes de  projections.
                        .58    Surfaces quadratiques.  Surfaces sphero-coniques.  Courbes  11.
                                 double courbure.
                        ·59    Surfaces d'ordre superieur, cubiques.
                        . 8   Quaternions. Calculs de direction et de position  .
                        ·9    Problemes de  geometrie analytique,
                    SI7     Analyse.
                                 Haut calcul. Analyse transcendante.
                        .1    Calcul infinitesimal.
                                 Les ecrits concernant 11. la fois Ie calcul differentiel et le calcul
                               integral  sont classes sous 517. I.
                        .2    Calcul differentiel,
                       • 21    Series  .
                       . 22    Formes indeterminees  .
                       . 23    Changement  de la variable independante .
                       . 24    Theorie de courbes planes:  Trace des courbes  .
                       . 26    Theorie des surfaces courbes  .
                       . 27    Maxima et minima .
                       .29     Problernes de calcul differentiel  ,
                       ·3     Calcul integral.
                       . 31    For mules de reduction et d'integration  .
                       . 32    Integrales definies, Integrales  euleriennes  .
                       ·33     Quadratures. Cubatures.
                       ·34     Integrates multiples.
                               Fonctions de Laplace. Fonctions de Bessel et [onctions aneliques,
                       ·35
                       . 36    Fonctions elliptiques  et  hyperelliptiques  Fonctions abeliennes  .
                       . 38    Equations differentielles et equations differentielles partielles  .
                               Problernes et tables de calcul integral.
                       ·39
                       ·4    Calcul des variations.
                       ·5    Calcul des fonct ions,
                       . 6   Calcul des differences definies. Interpolations  .
                       ·7    Calcul des operations.
                       . 8   Calcul 'des imaginaires.  Variables complexes  .
                                  Voir ausai  5I2.82  Theorie des equations.
                             Problernes de calculs.
                       ·9














                                  5I9    Probabilites.
                                           Principes generaux. Probabilites directes et inverses  .
                                     . I
                                     • 2   Esperance mathernatique et morale  .
                                     . 3   Ternoignages.  Decisions des jurys  et des tribunaux  .
                                     . 4-  Probabilites d'evenements futurs, deduits de l'experience  .
                                     . 5   Contingences  de la vie. Annuites. Assurances sur la vie  .
                                                Voir aussi  368.3  Assurances sur la vie.
                                     . 6   Erreurs d'observations. Valeurs moyennes ou probables  .
                                     . 8   Methodes des moindres carres  .
                                     ·9    Problemes de probabilites.






























                                                                                                     \
                                                                                                     \
                                                                                                     1

























                      52 ASTRONOMIE



                        Divisions    principales   :

                               52. I   Astronomie  theorique, Mecanique celeste.
                               52.2    Astronomie  pratiq Lie.
                               52.3    Astronomie  descriptive.
                               52.4    Observations. Cartes. Tables.
                               52.5    La Terre.
                               52.6    Geodesie.
                               52.7    Navigation
                               52.8    Ephemerides.
                               52.9    Chronologie.
                        Observation    generale

                                Les tables des subdivisions  communes de forme, lieu, temps et
                               langue sont applicables dans toute l'etendue de la division 52. Ex. :
                                   52 (05) (44)  Revue d'astronomic publ iee en France.
                                   52 (/ 17 II  L'astrcnomie au XVIlIe s iecle.
                    [    . or  Astrologie .  133: 52  Sciences occultes.        ]
                                   A classer a

        I                · I  Astronomie    fheor-ique.
                                Etude  mathematique des mouvements celestes specialement dans
        I                      le systerne solaire. Les mouvements des corps celestes, consideres
                               individuellement,
                                             sont classes,
                                                        sous des nombres cJassificateurs
                               distincts, it 52.3.
                         · II  Mecanique celeste.
                         · I II  Lois generales de I'equilibre et du rnouvement.
                                   Voir aussi  53.12  Mecanique generate.
                         ". 112  Lois de la
                                        gra vitation universelle et mouvement relatif par rapport
                                  au Solei!.
                         · II3   Problerne des trois corps.
                         · II4  Figure des corps celestes.
                         · lIS   Rotation des corps celestes.















                                   52.I2   Lieux geocentnlques  et heliocentriques.
                                     • 121   Plan des orbites dans l'espace  .
                                     • 122   Position des orbites dans leur plan  .
                                     . 123   Position des corps dans leur orbite .
                                             Position des corps dans l'espace
                                     • 124                           .
                                     • 125   Longitudes  et latitudes heliocentriques  .
                                     .126    Longitudes  et latitudes geocentriques.
                                             Variations de l'ascension droite et de la declinaison  .
                                     . 127
                                     . 128   Variations de la longitude  et de la latitude .
                                     . I3   Orbites .
                                     . 131   Definitions  .
                                     . 132   Determination par trois observations  .
                                     . 133   Determination par quatre  observations  .
                                             Variation des elements de l'orbite  .
                                     . 134
                                             Correction des elements approximat ifs de l'orbite  .
                                      . 135
                                      • 136  Application  de la methode des moindres carres  .
                                      .137   Problerne de Kepler.
                                      .138   Equation  du centre et rayon  vecteur.
                                      . I4  Perturbations .
                                             Action mutuelle des planetes
                                      • 141                        .
                                      . 142  Action des satellites .
                                      . 143  Non sphericite  des planetes  .
                                      • 144  Milieu resistant  .
                                      . IS  Theorie des Planetes .
                                      . I6  'I'heor-ie des Satellites  .
                                      . I7  Theorie des Cometes .
                                      . I8  Theorie des Eclipses, Occultations, Passages  .
                                      I9
                                      .     Precession et Nutation .
                                                 Voir auaai  52,'95 et 52.296  Aberrations .
                                      • 2  Astronomie pratique      .
                                      . 2I  Observatoires.
                                                                                     ,
                                                 Les observatoires sont classes geographiquement  au pays ou
                                               ils ont leur siege, puis alphabetiquement d'apres  Ie nom de la
                                               localite ou ils sont etablis. On ciasse ici  avec chaque observa­
                                               toire  toutes les publications generales  et les collections qui
                                               ernanent d'eux  : observations, descriptions, plans, rapports,
                                               historique,  etc. Les publications speciales  sont classees avec les
                                               diverses questions auxquelles  elles se rapportent.  Voirtoutefois
                                                ce qui  est dit sous 52.4  •
                                      . 211   Plan general,  situation .
                                      • 212   Materiel et mecanisme des domes, coupoles,  etc  .
                                      . 213   Locaux accessoires, salles rneridiennes, etc .
                                              Observatoires cleves
                                      • 2J 4                 .
                                      • 215   Observatoires transportables.















                      52.22   Telescopes.
                                   Voir aussi  53.583  Optique.
                                 Pour la fabrication et les matieres premieres, voir 681 Fabrica­
                                   tion des instruments .
                        • 22 I  Reflecteur.
                        ·.222  .  Refracteur .
                               ?  Oculaire et accessoires
                        • 223                    .
                        • 224   Objectif.
                        .225    Montures, tubes, etc .
                        . 226   Montures equatoriales  .
                        • 227   Montures pour instruments fixes, de passages  .
                        . 228   Chaises d'observation, etc .
                        . 229
                                Telescopes celebres .
                        . 23  Instruments mertdiens.
                                     I
                        .231    Trace de la meridienne .
                        . 232   Cercle mural.
                        .233    Cerc1e meridien .
                        . 234   Mise en place  .
                        . 235   Collimation (constantes)  .
                        . 236   Niveau (constantes)  .
                                Azimut (constantes)
                        . 237                  .
                        . 238   Autres constantes, flexion,  erreur de graduation,  etc .

                        . 24  Instruments  non mertdiens  .
                        . 241   Sextant et quadrant, cercle reflecteur, astrolabe .
                        . 242   Altazimut .
                        . 243   Telescope zenithal.
                        .244    Passage hors du meridien .
                        . 245   Heliornetre .
                        . 246   Eq uatoria1.
                        .247    Premier vertical.

                        .25   Instruments auxiliaires  .
                        . 251   Pendule siderale, chronometre  .
                        . 252   Chronornetre electrique  .
                        . 253   Micrornetre .
                        . 254   Appareils pour I'equation personnelle.
                                   Voir  aussi  52.297 Equation personnelle .
                                Instruments pour eclairer.
                        . 255
                        .256    Instruments pour  l'observation solaire  .
                        . 257   Horizons artificiels .
                        . 258   Heliostats.  ?














                                  52.26    Observations auxiliaires.
                                              Methodes diverses d'observations
                                                                       ..
                                    • 262   Photometric.
                                               Voir aussi  53.52
                                                          Optique, Iumiere, vitesse de la lumiere .
                                    . 263   Photographie.
                                               L'etude  photographique des corps celestes consideres indivi­
                                              duellement est classee avec ces corps sous les divisions respec­
                                              tives de 52.3. Ex.  :
                                               52.379 Photographie du Soleil,
                                    .265    Polarisation.
                                               Voir aussi  53.55  Optique  .
                                    . 267   Spectroscopie des astres,
                                               On ne classe ici que les etudes
                                                                      generales sur la spectroscopie.
                                             L'etude  spectroscopique des corps celestes consideres indivi­
                                             duellement est classee avec ces corps SO].lS les divisions respec­
                                              tives de 52.3. Ex. :
                                               52.377  Spectre du Soleil •

                                    . 27  Astronomie sphertque  .
                                    • 271   Sphere celeste, coordonnees spheriques  .
                                    . 272   Coordonnees  rectangulaires  .
                                            Transformation des coordonnees
                                    . 273                           .
                                    • 274   Variations differentielles des coordonnees  .
                                    . 275   Interpolation  .
                                    . 276   Ligne meridienne. Variation de la boussole  .
                                    . 277   Reduction des observations au mcridien  .
                                    . 278   Usage des sphereset des globes  .

                                    . 29   Corrections  .
                                    . 291   Parallaxe .
                                    • 292   Refraction.
                                               Voir  auss i  53.53  Optique  •
                                    • 293
                                            Derni-diametre des corps celestes,.
                                            Aberration
                                    . 294           .
                                    . 295   Precession ..
                                               Voir aussi  52.19  Precession en mecanique celeste  .
                                    . 296   Nutation.
                                               Voir aussi  52.r9  Nutation en mecan ique celeste .
                                            Equation personnelle.
                                    . 297
                                               Voir aussi  52.254  Instruments auxiliaires .
                                     298
                                    .       Erreurs instrumentales.,














                     52.3   Astronomie     descriptive.

                                 Observation physique des astres. Descriptions et  catalogues.

                        ·3!   Univers. Systeme du monde.
                                   Voir aussi  52.II  Mecanique celeste.
                        ·3II    Structure de l'univers.
                        ·312    Hypothese nebulaire.
                        . 313   Pluralite des mondes  .
                            ,
                        ·314    L'espace et sa temperature. Espaces celestes.
                        ·315    Milieu resistant.
                        .316    Poussieres cosmiques.
                        . 317   Force repulsive  .
                        . 318   Systemes  divers du monde  .
                           . 2   Systerne de Ptolemee  .
                           ·3    Systerrie  de Copernic.
                           ·5    Attraction universelle.

                        32    Systeme solaire .
                        .
                                 Description et representation du systeme solaire:
                        . 321   Lois de distribution  des planetes  .
                        . 323   Conjonctions et oppositions  .
                        . 324  Mouvement du systerne solaire dans I'espace  .
                        . 325  Constitution du systerne planetaire  .
                        326     Stabilite du systeme solaire.  E;cliptique ..
                        • 328   Planetarium. Gyroscope  .
                                   Voir aussi  53.134  Rotation en mecanique generale.
                        .329   Zodiaque. Origine  du zodiaque  et des  constellations.  Fables
                                 astronomiq ues.

                        ·33   Lune.
                        . 331  Constantes (dimensions, masse), distance et parallaxe  .
                        . 332  Temperature  et lu m iere ; phases  .
                               Orbite et mouvements, mois sideral, tropique, perigee  et  apogee,
                        ·333
                                 attraction du Soleil etde la Terre, libration ..
                                  Voir aussi  52.16  Theorie des satel l ites,
                        ·334-  Aspect  de la surface, montagnes, plaines,  etc.
                        ·335   Atmosphere.
                        . 336  Condition physique  .
                        ·337   Spectre.
                        .338   Eclipses
                        ·339   Cartes, photographies,  etc.














                                          Planetes.

                                    ·341    Mercure et les intra-mercurielles­
                                    . 342   Venus  .
                                    ·343    Mars.
                                    ·344    Asteroidea.
                                    ·345    Jupiter,
                                    .346    Saturne.
                                    ·347    Uranus.
                                    . 348   Neptune et transneptuniennes  .
                                    ·349    Cartes, photographies,  etc.


                                    ·35   Meteores et Iumlere zodiacale.
                                    . 351   Aerolithes .
                                    ·352    Bolides, etoiles filantes, globes  de feu.
                                    ·:153   Pluies meteoriques, points radiants, etc.
                                    . 356   Relation entre les cornetes et les meteores  .
                                    ·357    Spectre.
                                    . 358   Hauteur de I'atrnosphere d'apres leur observation  .
                                    ·359    Lumiere zodiacale, aurores boreales.


                                          Oometes, Oometogr'aphie.
                                    .361    Apparition et developpemcnt.
                                    . 363   Orbites  .
                                                                                       -  .,.
                                    . 364   Cornetes remarquables  .
                                    . 365   Ephemerides  .
                                    .366    Constitution physique  .
                                    . 367   Spectre.
                                    . 369   Cartes, photographies;  etc  .


                                    .37    SoleH .
                                    . 371   Constantes, dimensions  .
                                     . 372  Chaleur, lumiere : theorie de leur source  .
                                     . 373  Mouvement apparent, rotation.
                                               Voir aussi  52.538  Tables du SoleiI.
                                     ·374   Activite solaire: taches, facu les, etc.
                                     ·375   Protuberances; eruptions  gazeuses.  chromosphere,  couronne
                                               solaire ou enveloppe exterieure, etc.
                                     . 376  Theories de la constitution physique  .
                                     ·377   Spectre.
                                     • 378  Eclipses  .
                                        .
                                     ·379   Cartes, photographies, etc.













                                                                    /














                      52.38   EtoHes. Astronomie stellaire.
                        . 381   Parallaxe, distance des etoiles .
                        .382    Chaleur, lurniere, couleur, observations photometriques, gran-
                                 deur, visibilite,
                        . 383   Mouvement propre,  vitesse .
                        .384    Etoiles variables, doubles, multiples, temporaires.
                        . 385   Amas et nebuleuses  .
                        . 386   Constitution physique  .
                        . 387   Spectre  •
                        . 388   Constellations. Leur origine  .
                        -389    Cartes, catalogues,  etc.
                           . 1   Catalogues  .
                           • I 1   Catalogues generaux  .
                           . 12    Catalogues  d'etoiles fondamentales .
                                   Catalogues  d'etoiles zodiacales .
                           . 13
                           . 14    Catalogues  d'etoiles circompolaires  .
                           . 15    Catalogues  d'etoiles australes  .
                                                .
                           .2     Cartes.
                            . 21   Planispheres generaux  .
                            . 22   Cartes celestes detaillees .
                        ·39    Passages et occultations.
                         . 391  Passages  de Mercure  .
                         . 392  Passages  de Venus et parallaxe solaire .
                                Methode de Delisle.
                         ·393
                         ·394   Methode de Halley.
                         ·395   Methode photographique.
                         .396   Passages  de Venus jusqu'a 1874.
                         ·397   Passages  de Venus de 1882.
                         ·399   Occultations.

                             Observations, cartes et tables.
                         .4
                                    Les collections de publications des observatoires sont reunies
                                  sous 52.21 ( ) avec l'histoire et les rapports des  observatoires,
                                  Les cartes ou observations speciales,  relatives it un astre, seront
                                  mieux classees sous Ie nornbrepropre it cet astre. Ce n'est que
                                  facultativement et par duplicata qu'on peut reunir ensemble'
                                  ici les observations, 1es cartes et les tables  .
                         . 43   De 1a Lune.
                                    Voir aussi  52.339  .
                         . 44   Des planetes.
                                    Voir aussi  52,349  .
                         . 46   Des cometes.
                                   Voir aussi  52.369  .
                         . 47   Du Soleil.
                                   yoir  aussi  5?.319·
                         .48    Catalogues  d'etoiles.
                                    Voir aussi  52.389'














                                52.5   Terre

                                   . 51  Constantes .
                                   ·511    Masse, poids.
                                   . 512   Densite .
                                   ·513    Dimensions, diarnetre, grandeur.
                                   . 514   Figure,  forme de la Terre, ceinture equatoriale  .
                                   .515    Distance au Soleil.
                                   . 516   Parallaxe .


                                   .  52  Physique du Globe .
                                   .521    Chaleur.
                                      · I.  Theories generales.
                                      . 2   Instruments .
                                      ·3    Temperature ·de la Terre.
                                      ·4    Variation avec la profondeur.
                                      ·5    Rayonnement.
                                   • 522   Lumiere .
                                   . 523   Electricite terrestre ou atmospherique  .
                                             Voir aussi  52.359  Lumiere zodiacale. Aurores boreales.
                                      · I   Theories generales.
                                      ·.2   Instruments.
                                      ·3    Potentiel terrestre.
                                      ·4    Courants telluriques.
                                   . 524
                                           Magnetisrne terrestre .
                                             Voir aussi  538.7.
                                      • I   Theories generales.
                                      • 2   Instruments  .
                                 52.524.3   Mesures et constantes.
                                      .31.    Intensite du champ
                                      . 32    Declinaison .
                                      ·33     Inclinaison.
                                      ·4    Perturbations.
                                   . 525  Mouvements seismiques  .
                                             'voir aussi  551.2  Seismologie

                                   .53   Orbite et mouvements  .
                                   • 531  Periode de revolution .
                                   . 532  Obliquite de  l'ecliptique  .
                                          Excentricite
                                   . 533            .
                                          Perturbations
                                   . 534             .
                                   . 535  Rotation .
                                   . 536  Pendule de Foucault.
                                   .537   Deviation des  corps tombants et des projectiles  .
                                   . 538  Tables du Soleil, mouvement diurne apparent.
                                             Voir aussi  52.313  Soleil,





                                                 •

                                                                                                   II




                              Coer-donnees geogr-apnlques.
                                                                                                   II
                                   La recherche de la longitude e? de la latitude  sur  mer est
                                 classee avec la  navigation  sous 52.7.
       "
                        . 541   Recherche de ia latitude  .
                                   Voir aussi  52.71  Navigation  .
                        . 542   Recherche de la latitude, par les hauteurs rneridiennes .
                        • 543   Recherche de la latitude, par l'etoile polaire.
                        '544    Recherche de la latitude, par la hauteur de deux ou plusieurs
                                 etoiles  .
                        . 545   Recherche de la latitude, par d'autres methodes  .
                        . 546   Recherche de la  'longitude.
                                   Voir aussi  52.72  Navigation .
                        • 547   Recherche de la  longitude, par les moyens terrestres  : chrono-
                                 metre, ielegraphe, signaux  .
                        . 548   Recherche de la longitude,  par les moyens celestes  : eclipses,
                                 occultations, passages  .
                        . 549   Recherche de la  longitude, par la methode lunaire  .
                        . 55  Saisons  .
                        . 551   EITet de l'inclinaison de l'equateur sur l'ecliptique
                                                                     .
                        • 552   EITet de l'excemrici te de l'orbite terrestre
                                                               .
                        . 553   Deplacernent seculaire des saisons  .
                        . 554   Saisons sur Mars et autres planetes  .
                        .  56  Marees  .
                        . 561   Theoric mathernatiq ue .
                               .
                        • 562   EITet du Solei I et de la Lune.
                        . 563   Repartition. lnegalite diurne, marees hautes et basses  .
                        . 564
                                Etablissement du port. Influence de la forme de la cote .
                        .565    Rapidite delevation du flot de la maree  .
                        • 566   Marees dans les mers interieures
                        .567    Cause supposee de retard dans la ·rotation de la Terre  .
                        . 568   Instruments d'enregistrement  et de prediction.
                        . 569   Tables .
                        .57   Crepuscule  .

                        . 6  Geodesie.   Operations geodesiques       .

                           r
                        . 6r  Theorie et determination de la figure de la Terre .
                        . 6II   Potentiel des ellipsoides  .
                        . 612   Equilibre  de l'ellipsoide de revolution .
                        . 613   Lois de l'ellipticite  .
                        . 614   Theories de Airy et de Pratt sur l'attraction des montagnes  .
                        . 615   Determination  de  la  forme  de  la  Terre  par Airy,  Bessel,
                                 Clarke, etc  .
                        . 6r6   Figure ellipsoide et position des axes .
                        . 617   Figure geoidale  .
                        . 6r8   Comptes rendus de travaux geodesiques.



                                                                                    .
                                                                                  .














                                 52.62    Mesure  des  bases.  Appareils  et  instruments  de
                                             geodeste  .
                                   • 621   Etalons des  longueurs  et  temperature  .
                                   . 622   Appareils de base
                                   .623    Etalonnage des  regles  .
                                   . 624   Emplacement de la  ligne  de base .
                                   . 625
                                           Mesurage des bases .
                                   . 626
                                           Calcul des resultats et corrections .
                                   • 627   Verification  .
                                   . 63   Triangulation et nivellement.
                                              Operations sur Ie terrain.
                                              Les divisions 52.636 it 52.638 sont reservees  aux methodes.
                                             Les resultats  et les tables des hauteurs sont classes it 551.53
                                             Hypsometrie  .
                                   . 631
                                           Reconnaissance .
                                   . 632   Stations, tours, signaux, supports des instruments, conservation
                                            des points de station  .
                                   . 633
                                           Observations, instruments et archives .
                                   . 634   Reduction des observations au centre des stations  .
                                   . 635   Reduction it l'axe du  signal.
                                   .636    Nivellement it  petites portees  .
                                   . 637   Nivellement  barornetrique  .
                                   . 638   Nivellement  trigonometrique  .
                                   . 64  CaIenl de Ia triangulation  .
                                   . 641   Exces spher ique .
                                   . 642   Theoreme de  Legendre  .
                                   . 643
                                           Precede de Delambre .
                                   . 644   Precede de Delambre par la  trigonornetrie spherique  .
                                   . 645   Precede de Delambre par la  trigonometric spheroidale,
                                              Voir aussi  52.65
                                   .646    CaJcul des latitudes, longitudes  et azirnuts des sommets d'une
                                              triangulation. Formules et  applications  .
                                   .  647   Deduction directe par Bessel.
                                   .648     Deduction directe par Puissant.
                                   .649     Tables de calcul
                                   .65   'I'heonIe des erreurs et methode des moindres earres
                                             appliquee a la geodesie  .
                                   . 651   Methode des  angles independants .
                                   . 652   Compensation d'un  quadrilatere  .
                                   . 653   Compensation d'un reseau de  triangles  .
                                   . 654   Methode des direotions  (reiteration)  .
                                   . 655·  Compensation  d'une  triangulation qui s'appuie  sur deux. au
                                            plusieurs bases .
                                   . 656   Methode de la  repetition  .
                                   . 657
                                           Application aux mesures de bases .
                                   . 658
                                           Compensation des nivellements .
                                   .  659  Raccord de deux reseaux  geodesiques  .


                            .
                              .






                                                                                                  ·
                                                                                                  ·



                                                                                                  ·

                      52.66    Determinations astronomiques des elements geogra­
                                   phiques  et  leur comparaison  aux resultats de
                                                                                                  ,
                                   la geodesie  .
                         . 661  Determination des latitudes.
                         . 662  Determination des longitudes  .
                         . 663  .Determination des azirnuts  .
                         .6(14  EJIet de l'i rregularite de la surface de la Terre sur les latitudes"
                                  les  longitudes  et les azimuts,
                         . 665  EJIet de la merne irregularite  sur les angles  des  triangles  .

                         .67   Mesure de la gravite et resultats.

                         . 671  Theorie mathematique  .
                         . 672   Appareils de pendule  .                                          t
       I'                . 673   Observation de pendule  .                                        'r
                                                                                                  ?
                         . 674  Corrections .
                         . 675  Resultats  .                                                      j
                                                                                                  .'
                                                                                                   •
                         . 68  construction des cartes .                                          (
                                    Voir aussi  5[5.5 Projections spheriques.
                         . 681   Projections perspectives  .
                         . 682   Projections orthomorphes  .
                         .683    Projections par developpement.
                         . 684   Projections  zenithales  .
                         . 685   Projections equivalentes  .

                         . 69  Topographie. ?eves .
                         .691    Instruments et methodes.
                                  Chaines, goniographe, alidade, goniornetres, boussole, rappor­
                                    teur, etc._
                                    Voir aussi  52.63 .
                         . 692   Mesure des distances  .
                         . 693   Mesure des angles
                         .694    Mesure  de hauteur .
                         . 695   Nivellement.
                                    Voir ausai  52.636:i .6'38  Methodes de nivellemenr .
                         . 696   Leves topographiques .
                         . 697   Arpentage  .
                         . 698   Dessin topographique  .
                         . 699   Leves speciaux  ; militaires, hydrographiques,  chemins de fer,
                                    mines, etc.
                                   A subdiviser par  relation a l'aide des:















                                   52·7   Astronomie      nautique. Navigation      .
                                      . 71  Recherche de la latitude en mer.
                                                 Voir  auss i  52.54I  Recherche de la latitude sur terre.
                                      ·72   Recherche de la  longitude en mer.
                                                 Voir aussi  52.546  Recherche de la longitude sur terre.
                                      ·73   Recherche du temps en mer.
                                                Voir  auss i  52.974  Recherche par Ie sextant.
                                      ·74   Methode de Sumner.
                                      ·75   Grand cercle .

                                      . 8 ?phemerides.
                                               A diviser  geographiquement.

                                      .89   Confection des ephemerides  .

                                      .  9  Chronologie  .
                                           .
                                      . 91  Jour. Jour sideral et jour solaire.
                                               Temps moyen et  temps vrai. Equation du  temps. Causes d'ine-
                                                galite  .
                                      92    Annee. Annee solaire. Annee Iunaire. Mois. Semaine.
                                     .
                                     ·93    Calendriers en general.
                                     ·935     Calendriers perpetuels,
                                               A diviser par pays ( )
                                                              ..  ou par peuples (= )
                                                                              ..
                                     ·94      Calendrier Julien.
                                     ·95      Calendrier  Gregorien. Reforrne  gregorienne  .
                                     . 96     Calendriers ecclesiastiquas
                                                Voir pour les fetes et les calendriers eux-memes
                                                                            264  Liturgie.
                                     ·97   Mesure du temps  .
                                     . 971   Recherche du
                                                        temps par passages  .
                                     . 972   Recherche par les hauteurs correspondantes.
                                     ·973    Recherche  par une seule hauteur.
                                     ·974    Recherche par le sextant.
                                                Voir ausai  52.73  Recherche du temp!'; en mer.
                                     ;975    Systernes de  temps: temps officiel, temps local, division deci-
                                              male du  temps  .
                                     . 976
                                             Heures, Subdivision du jour. Distribution de I'heure.
                                     ·977    Temps universe!. Fuseaux horaires  .
                                     . 978   Instruments  de  mesure  :  cadrans, sabliers, horloges,  mon-
                                              tres, etc.
                                                Voir auss i  52.251
                                                           Horloges aiderales et chronometres
                                                       6,81  Fabrication des horloges et des mcntres,













                         CLASSIFICATION     BIBLIOGRAPHIQUE DECIMALE
                              [PUBLICATION  N° 25  DE L'INSTITUT INTERNATIONAL  DE  BIBLIOGRAPHIB)

                        La Classification  bibliographique  decirnale  est  universelle, interna­
                      tionale, encyclopedique, a la fois  particuliere et  generale ; elle est docu­
                      mentaire, elle  s'exprime  en  une notation  concise, elle est fort etendue
                      (environ 25,000 divisions) et indefiniment extensible. Les bases en ont ete
                      adoptees par le  Congres international de  Bibliographie  en  18g5 et en  18g7
                      a Bruxelles et  en 1900 a Paris, et elle  a deja recu une  large application,
                      tant en Europe que dans Ie Nouveau Monde.
                       Cette classification consiste en une vaste table
                                                           systematique des matieres,
                      dans laquelle tous les sujets de connaissances sont repartis par Glasses,
                      sous-classes et divisions, en  passant du general au  particulier, du tout a la
                      partie, du  genre a  I'espece,
                       La table  systematique est  completee par  un index  alphabetique des
                      matieres, dans  lequel toutes les  rubriques de la  premiere table  sont
                      rangees  en un seul ordre  alphabetique et sont suivies du nombre classi­
                      ficateur  correspondant.
                       D'une maniere generale, comme classification des matieres uniforme et
                      internationale, la classification  bibliographique universelle est  susceptible
                      d'etre  appliquee  au classement des diverses  especes de documents et des
                      materiaux dont les travailleurs intellectuels ont a se servir, et elle fournit,
                      a cet effet, des cadres tout prets, traces d'avance : classement des reper­
                     toires  bibliographiques et des  catalogues; classement des ouvrages eux­
                      memes dans les
                                  bibliotheques ; classement des notes, observations, extraits
                      et documents divers destines a des etudes et it des travaux
                                                                      personnels;
                      classernent des tables de matiere des recueils  periodiques ; classement de
                      documents  graphiques, illustrations  et  photographies,  de cliches,  de
                     brevets, de  specimens, de  catalogues industriels, de circulaires  commer­
                                       applications a la  documentation, prise dans le sens
                      ciales et toutes autres
                     Ie plus large.
                                                                        repandue,
                       Le jour ou la classification documentaire universelle se sera
                     ou son  application aura ete generallsee,  au lieu d'avoir a  se familiariser
                     avec vingt cles differentes, variant d'apres les institutions qui conservent
                     et qui c1assent les documents, le public des chercheurs
                                                                    pourra, a I'aide
                     d'une seule ole, c'est-a-dire d'une merne table de classification des matieres,
                     se faire ouvrir les tresors de tous les
                                                   depots de documents. Une economie
                     considerable de temps pourra etre realisee ainsi, et le chercheur benefi­
                     ciera des avantages de la connexion etroite etablie entre toutes les sources
                     documentaires  de  +10:'; connaissances. La classification  bibliographique
                     universelle perrnettra enfin de creer l'entente et la  cooperation dans les
                     travaux. Au point de  vue des collaborations  internationales, elle  pourra
                     jouer  un role similaire a celui qu'on attend de la  langue internationale,
                     qui ne cherchc pas a contrarier les Iangues particulieres ni a s'y substituer,
                     -
                     mais bien a servir d'auxiliaire et de
                                                   complement pour les relations exte­
                     rieures,
                                                  *
                                                 *  *
                       A VIS.  -  Cette edition des Tables de la classification  bibliographique
                     decimale reunit les diverses  editions  fragmentaires publiees jusqu'a ce
                     jour. Elle a ete publ iee par fascicules. La  souscription it cette  publication
                     est close, mais les personnes desireuses de recevoir les fascicules relatifs
                     a  une branche determinee peuvent souscrire aces fascicules
                                                                         aux  prix
                                      -
                     indiques ci-apres,              -
                       Dorenavant, pour recevoir les Tables  developpees completes, il y aura lieu
                     de souscrire au Mnnnel du. Repertoire bibliographique uuioersel (voir publication
                     no  63); dans lequel elles ont ete  incorporees.









                                                     GENERALES DE LA
                                           TABLES                           ,
                                                                          DEC/MALE
                                 CLASSIFICATION BIBLIOGRAPHIQUE
                                                                     DE BIBLIOGRAPHIE-l
                                                           JNTERNATIO:NAL
                                               N° 2.:;  DE L'INSTITUT
                                      [PUBLICATro?
                                                                          de l'Institut inter­
                                L'ouvrage complet porte le nO 25 des publications  sont  numerotes
                                                                   fascicules
                              national  de  Bibliographie;  en  outre,  les  au  moment de leur
                                                          aux souscripteurs
                              separement,  Leur  envoi  est fait
                              publication.
                                                                                            PRIX
                             NOMBRE  CLASSIFICATBUR                                         EN
                                   Dlt LA     ]Y.J:ATIERE                                  FRANCS
                                 .MATIERE
                                             Introduction generale aux tables de la Classification
                                    »
                          I                                           de la Classification
                                              decimale et resume des regles
                                                                                       38    »
                                              decimale (I)  .
                                                                                       IS   I  »
                                             Table des subdivisions  communes.  .  .  .  .  .
                           2        »     'l1li  Sciences physiques (Mecanique  rationnelle et Phy-
                           3       [53]                                                     1  »
                                               sique)  .                                    1  »
                                             Sciences photographiques  .
                                   [77]                                                     1  »
                           4-                Electricite industrieHe  .
                           5       [621.3]   Industries  de la  Locomotion  (Locomotion  par
                           6       [629.1]                                 .  .  .      8   I  »
                                               terre et par eau,  Aerostatlon),  .          I  »
                                             Sports (Tourisme, Cyclisme,  Automobilisme)  10   »
                           7        [791                                               132  2
                           8                 Droit.      ,                             26   1 I  » »
                                             Therapeutique
                          12 16??!           Pathologie  externe
                                                                                       28
                           9
                          10        616      Pathologie  interne                        14  1  »
                          II        617      Physiologie.       ..'    .  .  .  .  .    38   I I  » })
                                    612
                                                                                        12
                          _13    [618+619]   Gynecologie.  Pediatrie, Medecine comparee .  44  I  »
                                              Administration
                                                            •.
                          14-       [35]      Histoire. Geographle. Biographie. Genealogie  .  100  2  »
                           IS       [9]       Resume des tables. Tables generales methodiques
                           16        ))                Index alphabetique general abreg  e  .  44  1  »
                                               abregees,           Bibliotheconornie. So­
                                     [0]     I  Generalites. Bibliographie.             52   2  »
                           17                   cietes savantes, etc.  .  .  .  .  .  .  .  .  .  .
                                              Sciences sociales. Statistique.  Economie politique.
                           18        [3]                    Assistance. Folklore        68   2  »
                                                Enseignement.                           28   1  »
                                              Philosophie. Questions  morales.  .  .  .  .
                           19                 Agriculture. Agronomie.  Sciences agricoles  46  1  »
                           20                                                           68   2  »
                                              Sciences religieuses.  .  .
                           21                                                           45   2  ))
                                              Philologie et Litterature
                           22                                                           33   2  »
                                              Sciences militaires
                           23                              et Astronomie  •.            18   I  »
                                              Mathematiques
                           24                            Cristallographie. Geologie     22   I  »
                           25                 Mineralogie.
                                              Sciences biologiques.  Paleontologie. Anthropo-
                           26                                                           74   2  »
                                                logie. Botanique. Zoologie  .           31   1  »
                                    [611]     Anatomie  .  .  .  .  .  .  .  .  .            I  »
                           27                              et Hygiene publique          22
                           28     [613+614]   Hygiene privee                  Peinture.
                                                          Architecture. Sculpture.
                                               Beaux-Arts:
                           29        [7]                                      .  .  .  .  96  2  »
                                                Gravure. Musique.  .  .  .  .  .  .
                                                                       Economie domes­
                           30      L64+65]     Sciences appliquees  diverses :
                                                tique.Stenographte. Imprimerie et edition. Tran­
                                                                                              I  »
                                                                                   .  .
                                                                      .-
                                                                            .
                                                sports. Comptabilite  .  : Mecanique.:  Electricite
                                                                                 .
                                                                               .
                                                                        .
                                                                          .
                                                                   .
                           31        [62]      Sciences de I'ingenieur   chaussees,  Che­
                                                industrielle .• Mines. Ponts et
                                                mins de fer et tramways.  Travaux maritimes et
                                                hydrauliques, Technologie  sanitaire.  Locomo-  3  »
                                                 tion en general.   ....      Industries
                            32      [54+66]    Sciences chimiques  :  Chimie  pure.
                                                 chimiques. Metallurgic (2).  .  •  .
                                               Industries diverses. Construction (2)
                                  [67+68+69]                                            300
                                       »       Index alphabetique general (2)                dl
                                                                                        ¥
                              N'cst plus en vente; remplace par la publication n' 65.
                            (t)
                            (2)  Paraltra ulterieurement.

