








                           Institut International     de  Bibliographie.
                      PUBLICATlON N" 25.               INDICE BIBLfOG'RAPHIQUE [o25.?l



                    CLASSIFICATION                 BIBLIOGRAPHlijUE



                                         DECIMALE

                                              --??--

                            TABLES GENERALES REFONDUES

                                    eta bli e s en  vue de la ptiblic?tion du
                         REPERTOI RE     BI BLiOGRAPH    IQU  E  UN IVERSEL



                                       EDITION    FRAN<;:AISE

                                          publiee  avec Ie  concours du
                               BUREAU    BIBLIOGRAPHIQUE     DE  PARIS





                                                                                I
                                                SPORTS,-




















                               INSTITUT  INTERNATIONAL  DE  BIBLIOGRAPHIE

                        8RUXELLES,  I,  rue  du  Musee.   PARIS,  44,  rue  de  Rennes.
                                        ZURICH, 38,  Eidmattstrasse.

                                                 1909










                             MANUEL     DU   REPERTOIRE      BIBLIOGRAPHIQUE
                                                 UNIVERSEL
                                   (Publicatiou 1l(J 6.1 de rblstibd Tl1ferJlatioual de BibliogrGplL.ie).

                          Cette publication, aujourd'hui entierement terrnine e , resume et condense
                         en un seul volume mis a jour les diverses publications fragrnentaire s  que
                         l'Institut International de Bibliographie a fait paraitre jusqu'a ce jour sur
                         son organisation, ses methodes et  ses travaux.  Elle contient les matieres
                                                      '
                         detail lees ci-apres.·
                                                                       .
                          L'ouvrage  com porte  un volume de plus de 2,200 pages,  relie  en pleine
                         percaline,  avec disposition speciale d'onglets facilitant sa consultation. Le
                         prix de sou scription est fixe a 50 francs par exemplaire, port  en plus.  Les
                         tables de classification reproduisent  ill extenso  les tables publiees separ e­
                         ment dans la publication nv 25. Elles comprennent plus de 32,000 divisions
                                                           '
                         dans l'Index alphabet ique general.
                         ORGANISATION, TRAVAUX, METHODES.
                          Organisation.
                                1. Le Repertoire bibliographique universel de l'Institut Interna­
                                    tional de Bibliographie.
                                II. Statistique 'generale des services et des travaux.
                               III. Actes officiels, statuts, etc.
                          Catalogue des  travaux.
                               IV. Catalogue du Repertoire bibliographique universel. (Prototype
                                     du manuscrit.)
                                V. Catalogue de la  «  Bibliographia Universalis ». (Contributtons
                                    imprimees.)
                               VI. Catalogue des publications  diverses.
                          Reg le s et methodes.
                              VII. Etablissement des repertoires  sur fiches: Repertoires des rna­
                                    tieres, repertoires des auteurs, .autres repertoires,
                              VIII. Redaction des notices bibliographiques.
                               IX. Publication des  notices bibliographiques  en recueils  et  sur
                                    fiches.
                                X. Modes  divers de cooperation  au Repertoire bibliographique
                                    universel.
                               XI.. Organisation  des diverses collections de documents.
                               XII. Materiel et accessoires a l'usage des repertoires,
                         TABLES  DE  CLASSIFICATION BIBLIOGRAPHIQUE,
                                     Expose et r eg le s de la Classification d ecimale  ,
                                     Table principaJe.
                                     Tables auxiliaires.
                                     Index alphabettque general.'


                                              Manuel     a b r e  q  e
                             du   Repertoire bibliographique         universeL
                                   .(Publication nO 65 de l'Instifut hderllatiollal de Bibliograpkle).

                           Ce Manuel abrege cornprend les memes matieres que Ie Manuel complet
                         (publication nO 63) decrit ci-dessus, sauf  BOur  les Tables de Classification biblio­
                         p'aphiqne, qui sont Iimitees aux divisions  princi-pales (environ mille  rubriques).
                         En souscription. 3 francs.
                           Les souscripteurs au Manuel abr eg e pourront eventuellement completer
                         cet ouvrage par l'acquisition  des fascicules  des Tables de Classification
                         relatifs aux branches qui les interessent. Pour la vente de ces fascicules, voir
                         ci-apres Classification bibliograpliiqu» deciniale (publication nO 25).











                                           SPORTS                      791.6



                  79     Sports, Jeux         et amusements.

                              791  Divertissements publics, Fetes et spectacles forains.
                              792' Representations thtatrales.
                              793  Jeux d'Inter ieu r.
                              794  J eux de calcul et de precision.
                              795  Jeux de combinaison et de hasard.
                              796  J eux et sports de plein air. Sports athletiques. Tourisme
                                   Alpinisme, Cyclisme, Automobilisme.
                              797  Navigation de plaisance et aerostation,
                              798  Equitation. Courses de chevaux. Attelages.
                              799  Poche. Chasse. Tir ala cible.
                            Les tables des subdivisions  communes de forme, de lieu, de langue, de temps, etc.,
                          (tables I, II, III, IV et V)  sont appl icables dans toute l'etendue de la divisibn 79.
                            Lorsque des divisions speciales n'auront pas eee expressemen t prevues pour speci­
                          fier les parbicularitea relatives a la pratique de'S d ifferents sports  et exercices  au les
                          divers points de vue sous lesquels le sujet peut etre traite,  on  pourru faire usage
                          aussi, dans toute l'etendue de cette division  79, des subdivisions analytiques dont Ie
                          tableau est donne ci-apres 79 0 et qui sont caracter isees par Ie zero sans parenthese.
                            Les sports et amusements speciaux a des-pays determines,  comme aussi lcs excur­
                          sions faites en differences regions, pourront  eere  localises  par l'emploi de l'indice
                          geograpbique des heux consideres, c'est-a-dire l'Indice place entre parentheses. Ex.:
                               796.64.09 (494) Excursion en bicyclette en Suisse.
                  79.0      Subdivisions    analytiques speciales.     Con­
                             ditions accessoires  applicables  aUK  sports  ou
                             exercices.
                      . or     Hygiene speciale  .
                      . 02     Nourriture et aliments appropries  .
                      . 03     Vetements speciaux  .
                      .  04    Equipement  et outillage  .
                      .05      Abris.
                      . 06     Organisation generale  .
                               Apprentissage                 .
                      . 07                 , Instruction speciale
                      . 09     Excursions  .
                  791      Divertissements    publics.   Fetes et  spectacles
                              forains.
                               Pour les luttes et jeux athle tiques, voir 796.S.
                      .1     Representations foraines. Saltimbanques, Danseurs
                               de corde, Jongleurs,  Bateleurs.
                      .2     Concerts publics. Concours de musique et de pcesie,
                               J eux floraux.  "
                      .
                      .3     Cirques.  Hippodromes,  Representations equestres,
                               J eux de cirque.
                                  Pour les exercices equestres des gymnasiarques, voir 796.48.
                     , ·4    Panoramas. Lanternes magiques,
                      . 5    Musees de eire. Marionnettes, Ombres chinoises  .
                      .6     Fetes publiques. Corteges historiques, Defiles, Caval-
                               cades, Illuminations, Feux d'artifices,











                                                   SPORTS


                                      J  eux publics. J outes, Mats de Cocagne, Balancoires,
                                        Bascules, J  eux de bagues, Montagnes russes.
                               .8     Menageries. Combats d'animaux entre eux et combats
                                        contre les anirnaux. Sport= d'animaux,  Combats de
                                        coqs, Combats de chats et rats, Ours lutteurs, Com­
                                        bats de taureaux, Courses de chi ens.
                                           Pour les exercicea equestres, voir 796.48;  pour les courses de chevaux,
                                            voir 793.4.
                               ·9     Autres divertissements.

                           792'     Representations    theatrales.
                                       Pour les theatres de societe, voir 793. POtU la Iitterature theatrale, voir SOLlS  ?
                                        les divisions propres ala litterntur c de chaque langue.
                               . 1    Tragedies  et drames .
                                      Comedies et vaudevilles
                               . 2                           .
                               . 3    Farces et pantomines  .
                               ·4     Operas  et drames lyriques  ..
                               . 5    Operas comiques  .
                               . 6    Operettes  et bouffonneries musicales  .
                               ·7     Cafes-Concerts et Music-halls.
                               . 8    Feeries et ballets. Choregraphie  .
                                        Pour les danses de salon, voir 793.3.
                               ·9     Autres pieces ..
                           793     J  eux dinterieur. Salons au   pelouses.

                               . 1    Theatre de societe  .
                                        Voir aussi 792 Representations theatrales,
                               .2     J eux prepares. Tableaux vi vants. Charades. Proverbes
                                        en act"ion.
                               . 3    Danses de salon  .
                                        Pour la choregraphie et les ballets, voir 792.8;  pour les danses enfantines,
                                         voir 796.I3.
                               .31      Danses populaires et danses nationales.  -
                               . 32     D?nses de caracteres. Danses francaises anciennes .
                                          Pavane, Menuet, Gavotte.
                               . 33     Danses de salon pour deux personnes  .
                                          Polka, Valse, Mazurka, Redowa, Scottisch,  Pas
                                          de deux, etc.
                               .34      Danses de salon pour plus de deux  personnes  sans
                                         accessoircs.
                                          Quadrillt:s, Pas de  quatre, Lancier, etc.

                                                                                         _c-_







                                              SPORTS


                       793.35      Danses avec accessoires.
                                     Cotillon, etc.
                                 Jeux  d'action.
                                   Colin-maillard, Main chaude, Furet.
                                                                    •
                          . 5    Jeux  de gages  et  d'attrappe. Jeux  innocents  .
                          . 6    J eux de penitence  .
                         ·7      Jeux d'esprit  et  de  rnernoi re. Rebus, Charades,
                                   Devinettes.
                          .8     Recreations scientifiques. Physique amusante. Esca­
                                   motage.
                         ·9      Autres jeux d'iriterieur.

                      794     J  eux de calcul et de  precision ,avec appa­
                                 reils  speciaux,
                                  Pour les jeux de cartes, voir 795.4.
                         ,1      Jeux  d'echecs.  Jeu  de Palarnede.
                         . 2     Jeux  de dames.  Gobang, Agon  .
                         .3      J eux de trictrac.  Jacquet,  Revertier,
                         ·4      J eux de marelle.
                         . 5     J  eux de solitaire  .
                         .6    ,  Jeux  de dominos. Matador
                         ·7     J eux de billard.
                         . 8    J  eu de bagatelle  .
                         ·9     Autres jeux  de caleul et de precision.
                     795      J eux de combinaison et de hasard.
                         . 1    J eux de des et d'osselets.  Jell  d'oie  .
                         .2     J eux avec  roues.  Toton,  Roulettes,  Steeple-chase
                                   ou petits  chevaux.
                         . 3    Jeux  a tirage de numeros. Loto, Biribi .
                         ·4     Jeux  de cartes.
                         ·4I      J eux de cartes de combinaison. Piquet, Imperiale,
                                    Ecarte, Triomphe,  Mistigri, Whist,  Hombre,
                                     Reversi, Cribbage, Boston, Manille  .
     .                                                            Trente       .
                         .  42    J  eux de cartes de hasard. Brelan,    et  un,
                                    Rams, Trente et Quarante,  Nain Jaune,  Lans­
                                    quenet, Baccara.
                         .43      J eux de  cartes de  position  et d'adresse. Patiences,
                                    Tours de cartes.
                                      Pour la Cartomancie, voir 133.3.











                                                  SPORTS


                                   Jeux  et  Sports  de  plein  air et  sports  athle­
                                      tiques. Gymnastique.    Tourisme. Escrime.
                                     Jeux  d'Enfants. Recreations de  plein air:
                                       Petits jeux paisibles et de la premiere enfance.
                                       Recreations enfantines sur le sable et la plage.
                                       Rondes et danses enfantines.
                                       J eux  d'agilite.  Cheval fondu, Saute- mouton, Cache­
                                         cache. Quatre·coins, Banes.
                                       Cerf-volant.
                                     J eux d'action et d'adresse avec instruments.
                                       Pour les Jeux de balles et ballon, voir 796.3.
                                       Corde a sauter, Cerceau, Es carpolette.
                                       Toupies.
                                       Billes.
                                       Palets, Bouchon, Tonneau, Batonnets.
                                       Bilboquet, Diable.
                                       Volant.                                                   t
                                                                                                 -l, "
                                       Crocker.
                                       Boules, Cochonnet,' Quilles.
                                       Autres jeux d'action.
                                     Jeux  de balle et ballon. Jeux  de  jet.
                                       Balle lancee a la main  sans instrument.  Balle  au
                                         mur, Balle au camp,  Balle indienne, Balle empoi­
                                         sonnee , Balle cavaliere.
                                       Ballon lance a la main.
                                       Ballon lance  au  pied. Foot-ball.
                                       J eux de balle  avec tamis, tambourin ou raquettes.
                                         Paume, Longue paume, Lawn Tennis.
                                       J  eux de balle avec .crosse ou maillet. Base Ball, J  eu
                                          de Maily Cricket, Gulf, Polo.
                                       Jeux  avec objets lances. Choule, etc.
                                       Jeux  de jet. Javelot, Sagaie, Boomerang.
                                      Gymriastique  et exercices corporels.
                                        Pour les sports uthletiques et l'escrimc, voir 798;  pour les comba.ts d'ani­
                                         mnux,  voir 791.8;  pour le patinuge  et la natation,  voir 796.9 j  pour In.
                                         gymnastique scolaire, voir 37r.73  .
                              .  41    Exercices d'assouplissernent et de force. Appareils  de
                                         charnbre, Halteres  .
                               42                              .
                              .        Marches, Courses, Echasses
                              .  43    Sauts et voltiges. Perches, Trernplrn, Cheval de bois,
                              .44      Barros horizontales, Barr es  parallel-s.
                              ,t5      Portique;











                                           SPORTS                      796.71


                                Trapeze et anneaux.
                                Acrobatie, Dislocation, Gymnasiarques.
                                Exercices equestres.
                                 Pour l'equitation, voir 798.2
                                Exercices avec animaux. Clowneries, Exercices divers.
                       ·49
                       .5     Tourisme.   Alpinisme.  Marches,  Pedestrianisme,
                                Excursions a  pied  en plaine et en  montagne.
                                 On fera usage des divisions gecgrapbiques  pour specifier les localitee  et
                                   des divisions analytiques de 79. qui sont rappelees ci-dessous .
                       . 5r     Pedestrianisme, Tourisme.  Marches. Excursions en
                                  plaine.
                       . 52     Alpinisme, Excursions en montagne  .
                                           DIVISIONS ANALYTIQUES
                                       .OI  Hygiene speciale.
                                      ,.02  Nourriture, Boisson, Kola  .
                                       . 03  Vetements, Chaussures, Voiles, Lunettes .
                                         Outillage, Piolet, Corde, Crampon
                                       . 04                  .
                                       . 05  Abris, Cabines, Refuges.
                                 Guides, Generalites, Reg lements et tarifs.
                                   Pour les assurances des guides, voir Assurances sur la vie 36B.6.
                       .522      Dangers et accidents. Precautions et regles a observer.
                                       Pour les  accidents qui  ne sont pas speciaux  a l'alpinisme, voir
                                        Eboulements 551.43, Avalanches 551.31, Debordementa 551.57.
                                       Pour les maladies et indispositions,  voir a la Pathologi'e et a. la
                                        Physiologie:  Mal de montagne 6I2.27S.I;  Troubles du cceur
                                        616.12 ; Hemorragie 6I6.13 ; Vertiges 616.841.
                       . 523      Appels et'signaux  .
                       . 6    Cyclisme. Appareils de locomotion mus par l'hornme  .
                                Au point de vue sportifseulement ; pour la tlieorie des cycles, voir 531: 796.6;
                                 pour la construction, voir 629.IIS; pour  les appareils  avec moteurs, voir
                                  796.7.
                           '                                            Drai-
                       .61      Premiers appareils de vclocipedie, Celeriferes,
                                  siennes, Hobby-horse,
                       . 62     Monocycles  .
                       . 63     Bicycles  .
                       .  64    Bicyclettes  .
                       . 65     Tandems .
                       . 66     Triplettes, Quadruplettes  .
                       . 67     Appareils  d'entrainernent .
                       .  69    Autres appareils de locomotion  .
                       ·7     Automobilisme. Appareilsde locomotion a vecmoteurs.
                                Au point de vue sportif seulement;  pour  la construction des vehicules  et
                                  l'industrie de la locomotion, voir 629.1[ ; pour lu construction et la theorie
                                  des moteurs, voir 621 et 536.8. A subdiviser par  -  comme 629.113.
                                Appareils  a deux  roues avec moteurs ... Bicyclettes  a
                                  petrole.











                           796.72                   SPORTS


                             796.72      Tricycles a  petrole.
                                .  73    Quadricycles  et voiturettes a petrole  .
                                ·74      Tricycles, quadricycles  et voiturettes electriques.
                                .75      Voiturettes automobiles  legeres pour deux ou quatre
                                           personnes,
                                ·77      Voitures de courses.
                                .?     Sports athletiques. Sports de combat. Boxe et escrime.
                               -
                                         Pour les combats d'animaux, voir 79I.8.
                                .81      Luties a main plate
                                . 82     Luttes olympiques..
                                                          .
                                . 83     Boxe  .
                                .  84    Savate, Chausson  .
                                . 85     Canne, Baton  .
                                . 86     Escrime  .
                                          Pour les regles du duel, voir 394.8, et pour la legislation du duel, 343.6r3.
                                . 863     Fleuret et epee  .
                                . 865     Sabre  .
                                .  89    Autres sports athletiques  .
                                                                                '
                                ·9     Exercices sur la glace, la neige et dans I'eau  Pati­
                                         nage. Natation.
                                         Exercices sur la
                                91                     glace
                                .                           et la neige  .
                                . gI3     Patinage sur la glace  .
                                .915      Patinage  sur la neige. Ski.
                                . 916     Traineaux .
                                .95      Exercices dans l'eau en general.
                                . 951    - Natation sans appareils  .
                                .  952    Natation avec appareils  .
                            797      Navigation,  de  plaisance   et aerostation.
                                      Pour les jeux de balle et de ba.llon precedemtuent classes sous ce meme numero,
                                        voir 796.3.
                             797.1     Navigation de plaisance.
                                         Au point de vuesportifseulement; pour la navigation commerciale.voir Sso.a ;
                                          pour la theor-ie, voir 527 ; pour la construction des navires, voir 699-
                                . I 2    Canotage en riviere a rame et a voile  .
                                .  14    Navigation cotiere a voile. Yachting. Regates  .
                                . 15     Navigation a vapeur  .
                                . 17     Velocipedes aquatiques, Podoscaphes et autr es  appa-
                                       I   reils de  navigation  .
                                . 5    Aerostation,
                                                              pour la construction des appareils, voir
                                         Au point de vue sportif seulement j
                                          629·I3  .
                                . 52     Ballons libres.
                               -
                                .53      Ballons  captifs  .
                                .  54    Ballons dirigeables.











                                           SPORTS                      799:32

                    797·5.5     Appareils plus lourds que l'air.
                       .56      Appareils d'aviation.
                       .  57    Aeroplanes  .
                       . 58     Cerfs-volants  .
                   798      Equitation.   Courses de chevaux.   Attelages.
                              Au point de vue sportif  seu lement ; pour l'elevage des chevaux en general, voir
                               636.I.
                       . 2    Equitation  .
                                Voir aussi 796.48 Exercices equestres.
                       . 22     Dressage du cheval de se1le. Harnachement  .
                                   Voir aussi 636.I1.044 Dressage du cheval en general.
                       . 23     Equitation  .
                       .  24    Maneges. Carrousels  .
                       ·4     Courses de chevaux. Champs   de  courses. Hippo­
                                dromes. Chevaux de courses. Elevage. Entrainement.
                       .  45    COUI ses d'obstacles. Steeple-chases  .
                       . 6    Attelages  .
                       . 62     Dressage du cheval  d'attelage  .
                       .  64    Attelage et conduite des voitures. Coatching  .
                       . 66     Courses d'atteJages.  Concours hippiques  .

                   799      Peche  , Chasse. Tir a la cible.
                              Aupoint de vue sportif seulement; pour l'industrie de la chasse et I'exploi tat ion
                               du gibier, voir 639.I; pour I'industrie de la peclie, voir 639.2 a 639.8.
                       '.r     Peche en general.
                       . I I    Peche en eau douce .
                       . 12     Peche a la ligne  .
                       . I 3    Peche au filet en riviere  .
                                Peches diverses
                       .  14                  .
                       . 15     Peche cotiere. Peche aux crevettes,  aux crabes  .
                       .16      Peche en mer.
                       .2     Chasse  en general.
                       .21      Chasse a tir.
                       . 22     Chasse au fusil en plaine et en battue  .
                       . 23     Chasse au chien d'arret .
                                Chasse au marais
                       .  24                   .
                       .25      Chasse a courre .: Chasse au faucon. Chasse aux flam­
                                  beaux.
                       . 26     Chasse aux animaux fercces ou sauvages  .
                                    Pour la chasse aux animaux a fourrures, voir 639.1.
                       • 3    Tir .
                                                      ,
                       . 31     Tir a la cible en general. Tir des armes a feu. Pistolet .
                                  Fusil. Carabine.
                       . 32     Tirs a l'arc, a l'arbalete  a la sarbacanne, etc  .










                         CLASSI FICATION     BIBLIOGRAPHIQUE DECIMALE
                                (Publication nO 25 de I'fnstt:tut I1tte??1latiollal de Bibl£og,?a.pJde).

                      NOTICE.-   La Classification  bibliographique  d ecimale est universelle,  _
                    internationale, encyclopedique,  a la fois particulier'e  et generale : clle  est
                    documentaire, elle s'exprime  en  une notation concise, elle est fort etendue
                    (environ 32,000 divisions)  et indefiniment extensible. Les bases  en  ont ete
                    adoptees par le Congres international de Bibliographie en r895 et en r897 a
                    Bruxelles  et  en r900 a Paris, et elle a deja recu une large application, tant
                    en Europe que dans Ie Nouveau Monde.      .
                      Cette classification consiste en une vaste table systematique des matieres,
                    dans  laquelle tous les suj ets de connaissances sont repartis par classes, sous­
                    classes et divisions, en passant du general au particulier, du tout a la  partie.
                    du  genre  a  I'espece.                    .
                      Chacune des rubriques de cette table est representee par un nombre classi­
                    ficateur compose d'un ou de plusieurs chiffres, suivant l e degre de g eneralite.
                    Ces nombres sont  decimaux,  en ce sens que chaque chiffre vers la droite du
                    nombre  ne modifie pas  Ia valeur ordinale  des  chiffres precedents,  mais
                    correspond a  une subdivision de  lao matiere representee  par les chiffres
                    precedents.  L'ordre dans  l equel les nombres  se suivent est  aussi I'ordre
                    decimal.
                      La table systematique  est completee  par  un index alphabetique  des
                    matieres, dans lequel toutes les  rubriques de la premiere table sont rangees en
                    un seul ordre alphabetique et sent suivies du nombre classificateur correspon­
                    dant. Exemples  :
                         Philosophie.
                      I                               Economie financiere    332
                     '"  2  Religion.                ? Economie politique    33
                     503  Sciences sociales.        g Monnaie                332.4
                    :g 3r  Statistique.             ? Philosophie            r
                    ? 32  Politique.                .g_ Politique, question du travail Jdr
                     C 33  Economie politique.      .. Religion              2
                    ? 33r   Questions du travail.    II Sciences sociales    3
                    ? 332   Economie financiere.    ] Statistique            3r
                      332·4   Monnaie.                Travail                33r
                      L'indexation suivant  ces tables (c'est-a-due l'inscription  sur les documents
                    a, classer du numero classificateur correspondant a la matiere principale dont
                    ils traitent) permet done de former des collections de documents rang ees dans
                    un ordre methodique parfait et  susceptibles d'accroissements et d'intercala­
                    tions continus.
                      D'une maniere g enerale,  comme classification des matieres uniforme et
                    internationale, la classification  bibliographique  universelle est susceptible
                    d'etre  appliquee  au classement des diverses especes de documents et mate­
                    -riaux dont les travailleurs inteUectuels ont a se servir, et ell e fournit, .a cet
                    effet, des cadres tout prets, traces d'avance: classement des repertoires biblio­
                    graphiques et des catalogues; classement des ouvrages eux-memes dans les
                    bibliotheques ;  classement des notes, observations,  extraits  et documents
                    divers destines a des etudes et a des travaux personnels:  classement des tables
                    de matiere des recueils periodiques ; classement de documents graphiques,
                    illustrations et photographies, de cliches, de brevets, de specimens, de cata­
                    logues industriels, de circulaires commerciales et toutes autres applications
                    a la documentation, prise dans le sens Ie plus large.
                      Le jour ou la classification documentaire universelle se  sera repandue, 011
                    son  application  aura ete  generalisee,  au lieu d'avoir a se familiariser avec
                    vingt cles differentes variant d'apres les institutions qui conservent et qui
                    classent les documents, le public des chercheurs pourra, a I'aide d'une seule
                    cle, c'est-a-dire d'une meme table de classification des matieres,  se faire
                    ouvrir les tresors de tous les depots de documents.  Une economie conside-
                   .rable de temps pourra etre realisee ainsi , et le chercheur beneficiera des avan­
                    tages de la connexion etroite etablie entre toutes les sources documentaires
                    de  nos connaissance s. La classification bibliographique  universelle  permet­
                    tra  enfin de creer l'entente et la  cooperation dans les travaux. Au point de
                    vue des collaborations internationales, elle pourra jouer un role similaire a
                    celui  qu'on  attend de la langue internationale, qui  ne cherche pas a contra­
                    rier les langues particulieres ni a  s'y substituer , mais bien a servir d'auxiliaire
                    et de  complement pour les relations exterieures.


                                                                           ·
                                                                            ,



                 FASCICULES.  -  Cette edition de la Classification bihliographique decimate reunit les diverses editions fragmen­
              taires parues j usqu'a  ce jour .El!e a ete publiee par fascicules, comme p"blica/t,m  II"  6S de l'lnstitut. La aouscri ption a.
                               .
              I'ensemble de cette publication  est close, ma.is les personnes desireuses de recevci r les fascicules relatifs a  nne brancbe
              determinee peuvent souscrire aux fascicules aux prix i ndiques  au tableau ci-u pres ,
                Dorenavant, 'pour recevoi r en en ti er les Tables devi!loppees. i l  yaura lieu de  souscr ire au l1Ea1l1fcl du Rej;e??toi1?e biblio-
              C',-afltiqtte !t1tive1·sel .voir publication n' 63L dans lequel elles ont Me incorporees  .
               Tableau  des fascicules  composant  le Manuel de l'Institut International de  Bibliographie
                permettant de const lt.uer a volonte des JVianuels speciaux pour les diverses sciences.

               e   :8                 ]Y-[_A_TI::ERES
               "E  III '"3                                                         PRIX
               ? ? ,?    INDICE-'                                                   EN
                                                  DENo.MD1A'J'IOi'i
               Z.? -  =================,==========================================:=====  FRANCS.
                      B!BLlOGRAPIIIQUE
               ?
                35         »        Organisation, travaux, methodes de l'Institut Iuter­
                                     national de Bibliographie (expose general)  Ij6  ))
                                                                        .          2
                                    Expose                              .          I  »
                           ))             et regles de la Classification decimale  32
                          [oig}     Resume des tables. Tables generales methodiques
                                     abregees. Index alphabetique general abre'ge  .  44  »
                17        [oj      Gerieralites. Bibliographie. Bibliotheconomie. So­
                                     cietes savantes, etc.                    52   2  ))
                Ig        [I]     1 Philosophic. Questions morales.           28   I  ))
                21        [2J      Sciences religieuses  .   .      ....      68   2  ))
                18        [3]      Sciences sociales. Statistique. Economie politique.
                                     Enseignement. Assistance. Folklore       68   2  ))
                 8        [341     Droit.                    ."              132   2  ))
                14        [35]     Administration                             44   I  ))
                23     [355+623]   Sciences militaires                        33  2  ))
                22       [4+8]     Philologie et Litterature                 45   2  ))
                24      [51 + 52]  Mathematiques et Astronomie  "  .  .  .  .  .  .  18  I  ))
                 3        [53]     Sciences physiques [Mecanique rationriell e et Phy-
                                     sique)                                          ))
                32      [54+66]    Sciences chimiques  :  Chirnie  pure.  Industries
                                     chimiques. Metallurgie  .               223  4  ))
                25   [548+549+55]  Mineralog ie Cristallographie. Geologie   22   I  ))
                                             ,
                26   [56+57+58+59]  Sciences biologiques. Paleontologte. Anthropo-
                                     logie. Botanigue. Zoologie  .  .        74   2  »
                31      [6 + 62]   Sciences de I'ingeriieur  :  Mecanique. Electricite
                                     industrielle. Mines. Ponts et chaussees.  Che­
                                     mins de fer et tramways. Travaux maritimes et
                                     hydrauliques. Technolog ie sanitaire. Locomo­
                                     tion en general.                        II3  3  ))
                27       [6Il]     Anatomie                                  31   1  ))
                12       l6I2d     Physiologie.          _                   38   I  ))
                28     [613+614]   Hygiene privee et Hygiene publique        22   I  ))
                 9                 Therapeutique  .                          26   I  »
                         6161
                10       tr615]    Pathologie interne                        28   I  ))
                                                                      '
                II       [617]     Pathologie externe  .  .  .  .  .  .  .  .  .  14  I  ))
                13     [618+61g]   Gynecologie. Pedlatrie. Medecine comparee  12  I  ))
                31        [62]     Voir [6+ 621.    ,
                 6      [62g.1]    Industries  de la  Locomotion (Locomotion  par
                                     terre et par eau, Aerostation]  ,  .         I  ))
                20       [63]      Agriculture. Agronomie. Sciences agricoles     I  ))
                30      l64+65]    Sciences appliquees  diverses  : Economie domes­
                                    tique. Stenographic. Irnprimerie et edition. Trans­
                                    ports. Comptabilite                      28   I  ))
                32       [66]      Voir [54 + 66].
                33   [67+68+6g]    Industries diverses. Professions et metiers divers.
                                     Construction.                          8Il   3  ))
                2g        [7]      Beaux-Arts:  Architecture. Sculpture. Peinture.
                                     Photographie. Gravure.  Musique         g6   2  »
                4        [77]      Sciences photographiques  .               30   I  ))
                7        [7g1      Sports (Tourisme, Cyclisme, Automobilisme)  .  10  •  I  ))
                         [8/       Voir [4 + 8].
                          [g]      Histoire Geographic. Biographie. Genealog ie   2  ))
                                         ,
                    [(.),=,«)),:,A-ZJ  Table des subdivisions communes            2  »
                          ))       Index alphabetique general                     3  ))
                                               NOMBRE TOTAL  DES  PAGES     2249

