[
	{
		"thumb":"txt2image/ARC-MUND-PUB-BULLETIN-IIB-1-1895-1896.thumb.png,
		"height":13952,
		"width":194,
		"parts":14,
		"txt":"../mundaneum_archive/ALGOLIT_utf8/ARC-MUND-PUB-BULLETIN-IIB-1-1895-1896.txt,
,
	}
]
