Internationales   Institut  Publica-
für Bibliographie    h tion
101
ZWEC K UXJ) ZIE L DES INSTITUTS : Vervollkommnnung, Entwicklung und Vereinheitlichung
der Methoden auf dem Gebiet dem Bibliographie und der Dokumentation (Auskunfterteilung im weitesten
Sinnj. — Internationale Organisation für das Zusammenwirken von Fachleuten auf allen Gebieten der
Wissenschaft. Einheitliche Arbeitsverfahren auf den verschiedenen Gebieten der Dokumentation zum Zwecke
der Schaffung des aligemeinen bibliographischen Repertoriums. — Errichtung einer Zentralstelle auf inter-
nationaler Gradlage für derartige Arbeiten, für die Verwaltung der erforderlichen Kepertorien und dann
auch der Dokumente selbst. — Diese sollen den Interessenten zur Verfügung gestellt werden : an Ort und
Stelle, durch Zusendung der Schriftstücke oder durch Erteilung von Abschriften und schliesslich durch
Drucklegung. — Vermehrung der wissenschaftlichen Auakunftsstellen in allen Ländern ; gemeinsames
Arbeiten dieser Stellen ; Austausch ihrer Veröffentlichungen durch Vermittelung eines besonderen inter-
nationalen Amtes.
Vorläufiger    Berich  t
über die
Internationale    I\onferenz
für
Bibliographie  und Dokumentation.
Brüssel, 10.  undn  . Juli 1908.
BRÜSSEL
Rue du Musée, i (Königliche Museenl
Bibliographischer Deziraal-Index
O l (o63) (00 )  Ruede  Rennes, 44  190  8
Z Ü  RIC  H
Hofstrasse, 49
Internationale Konferenz für Bibliographie und Dokumentation
B r ü  ssel  , 1 0 -  11Juli190  8
V  ORL  Ä  UFIGERBERICH  T
Die internationale Konferenz für Bibliographie und Dokumen-
tation, welche vom internationalen bibliographischen Institut
einberufen worden war, hat am 10  undn  Juli i n Brüssel stattge-
funden.
Der Zweck der Konferenz war die Herbeifuehrung eines
Meinungsaustausches bezüglich der gegenwärtig i n Ausführung
begriffenen Arbeiten sowie der Vereinheitlichung der Methoden u n d
der Zusammenarbeit. Die ausgesprochene Absicht war dabei, Mittel
und Wege für die internationale Organisation der Dokumentation
und insbesondre die Grundlagen für einen steandigen internationalen
Kongress sowohl als auch für eine internationale Vereinigung der
f
Regierungen zu inden, welche sich mit bibliographischen Fragen zu
beschäftigen hätte.
Teilnehmer an der Konferenz, zu welcher besondre Einladungen
ergangen waren, waren die Vertreter der verschiedenen Organisa-
tionen, Gesellschaften, Institute, Bibliotheken, Amter  und  Zeit-
schriften, deren Arbeitsgebiet die Dokumentation ganz oder zum
Teil bildet.
Die Zusagen erfolgten zahlreich  und  schnell nach Empfang der
E  inladung  .
Die — i m Ganzen vier — Sitzungen fanden teils m « Palais des
i
Academies», teils i n den Räumen des Instituts statt. Die Tagesord-
n  ung  war so aufgestellt, dass die verschiedenen Fragen zur allgemei-
— 4 —
nen Erörterung gestellt wurden,  und  dass schliesslich ein systema-
tisches Arbeitsprogramm gewonnen wurde, ( i )
Die Eröffnungssitzung hatte sich der Anwesenheit des Ministers
der Künste  und  Wissenschaften,  Herrn  Baron Descamps, zu
erfreuen. Als Vorsitzender nahm zunächst  Herr  Senator L a Fon-
taine das  Wort  zur Begrüssung der  Teilnehmer  ; insbesondre
gebühre der belgischen Regierung der wärmste  Dank  für die dem
Institut bei seinen Arbeiten geleistete  Hilfe  ; er erinnerte daran, dass
während vieler Jahre Baron Descamps Vorsitzender des Instituts
gewesen sei  und  wies ferner darauf  hin  , wie alle wissenschaftlichen
Arbeiten Einzelner sowohl als auch die Unternehmungen grösseren
Stils gegenwärtig auf internationaler Grundlage ruhen ; wie wichtig
es sei, dass die Staaten sich unter einander verständigten und die
privaten Bemühungen unterstützten, u m den Interessen der Gesamt-
heit hinsichtlich der Bücher  und  sonstigen  Urkunden  Foerderung
angedeihenzu lassen, für ihre Verbreitung und ihre Zugaenglichkeit
zu sorgen, nachdem dieselben Regierungen die Rechte des Einzelnen
durch den Abschluss des internationalen Abkommens bezüglich der
Rechte an geistigem  Eigentum  und durch Begründung eines beson-
deren Bureaus für diesen Zweck i n Bern geschützt haben.
Baron Descamps, Minister für Künste  und  Wissenschaften, hiess
dann seinerseits die Gäste n Belgien  willkommen  . E r erinnerte an
i
die ersten Arbeiten des Instituts,  und  sprach allen denen, welche
das Institut seinem heutigen Stande haben zuführen helfen, seine
Anerkennung aus; insbesondre galten seine Worte dem hervorragen-
den Förderer des Unternehmens, Ernest Solvay. Ueber die ins
Leben zu rufende internationale  Union  sprach sich der Minister
dahin aus, dass es sich hier nicht u m eine Gründung handle, die
etwa alles an sich reissen wolle ; vielmehr gelte es, alle bestehenden
Einzelanstalten, die indessen jede ihre Selbständigkeit  und  ihren
besondern Zweck behalten könnten, zu einem grossen Ganzen zu"
sammenzufassen. Zugleich stellte er die  Mitwirkung  der belgischen
Regierung zur Erreichung dieses hohen Zieles i n Aussicht.
Darauf brachte  Herr  Paul Otlet den gemeinsam  mitH  . L a
Fontaine bearbeiteten Hauptbericht zur Verlesung : « Der augen-
blickliche Stand der Bibliographie und die internationale Organi-
sation der Dokumentation » (Kongress-Drucksache n° 10) Dieser
Bericht ist eine Zusammenstellungderjenigen Punkte, die im Verlauf
der Konferenz zur Beratung kommen sollten; er enthält eine kurze
Ii} Der ausführliche Bericht über die Konferenz erscheint später. Es erscheine
I
mit den Verhandlungen der Konferenz, die eingereichten Berichte im Wortlaut. m « B
Instituts sind bereits mehrere dieser Berichte abgedruckt.
— 5 —
Mitteilung der Ergebnisse einer angesichts der Konferenz veranstal-
teten Enquete, eine Zusammenfassung der grossen Gesichtspunkte,
die in einzelnen Mitteilungen wie auch i n eigens bearbeiteten
Berichten zutage getreten ind ; insbesondere enthaelt erden Bericht
s
über das internationale bibliographische Institut (Kongress-Druck-
sache n° 3). Zunächst schilderte  Herr  Otlet i n grossen Zügen die
Durchführung der Arbeiten, die Organisation des internationalen
bibliographischen nstituts, er fuehrte die Ereignisse der letzten Zeit
I
auf dem Gebiete der bibliographischen Organisation den Anwesenden
vor : die gedruckten Kataloge des « British Museum »  nLondon  , der
i
« Bibliothèque Nationale » n Paris, der «  Library  of Congress » i n
i
Washington, den « nternational Catalog of Scientific Literature »,
I
den «Gesamtkatalog der Preussischen Bibliotheken ». Weiter ent-
warf Otlet ein  Bild  der Anstalten aller Länder, welche sich m i t
dem  Buch  von irgend einem Gesichtspunkt aus beschäftigen : alles
gleichsam nur Bestandteile einer einzigen grossen Organisation,
welche eine nahe Zukunft wohl zustande bringen  wird  .
W  enn  aber eine weitgehende und dauernde Verständigung, eine
richtige « Entente » unter all diesen Einzelteilen erstehen soll, ist
es unerlaesslich, dass alle von demselben Geiste beseelt sind. Des-
wegen werden i m Bericht weiter die Gedanken vorgeführt, welche
in der Gegenwart über den « Wissenschaftsbetrieb », über das
Buch, über das Bibliothekswesen, über das « Dokumentations-Amt »
hervorgetreten sind, und dann  wird  auf die Beziehungen  hin  -
gewiesen, die sich zwischen der Organisation der Auskunftser-
teilung und der Entwickelung des Internationalismus anbahnen.
Aus der Darlegung dieser Gedanken ergeben sich alle Anforde-
rungen hinsichtlich der künftigen Gestaltung der Dokumentation,
von welcher der Bericht etwa folgendes  Bild  entwirft :
Das Buch muss gewissermassen als ein Werkzeug betrachtet
werden, welches die Gedanken festhält und sie dann weiter trägt, i n
unterbrochener Reihe und i n mmer mehr vervollkommneter Aus-
i
drucksweise ; es stellt das Buch recht eigentlich das Werkzeug der
wissenschaftlichen Arbeit sowohl als auch der fortschreitenden Ver-
bruederung dar : die Bibliothek wächst immer weiter, sie wandelt
sich unablässig, u m schliesslich eine wirkliche Universität zu
werden, die « Universitas iterarum », die geschriebene oder gedruckte
l
Universität der Jetztzeit, welche ganz entsprechend der gespro-
chenen Universität des Altertums wirken  wird  . Das  Amt  für Aus-
kunftserteilung, mag man es sich als Verwaltungs—, als wissen-
schaftliche oder als technische Anstalt denken, erscheint notge-
en dann zusammen
Bulletin » des drungen als die Verkörperung des umfassenden, enzyklopädischen
Buches der Zukunft. Der Internationalismus  wird  zur  Wirklich  -
keit urch die Dokumentation. « Die allgemeine Dokumentation orga-
d
nisieren » heisst alle Schriften i n ein Verzeichnis eintragen i n einer
Weise, dass  man  alles kennt, was veröffentlicht worden ist,
dass  man  jede einzelne Schrift zur Gesamtheit der über das
gleiche Gebiet erschienenen Schriften legt :  und  diese Sammlung
i
stellt den Gedanken i n seiner Vollständigkeit dar, n seiner Entste-
hung aus den einzelnen Gedanken. (Allgemeines bibliographisches
Repertorium.) « Die allgemeine Dokumentation organisieren » heisst
alle Veröffentlichungen der Wissenschaft i n unsern Bibliotheken
systematisch ordnen  und  so gewissermassen aus den Körnern, den
Büchern, einen festen Körper machen, heisst den Inhalt der Schriften
in gross angelegten Repertorien zusammentragen, welche der  Doku  -
mentation zu dienen bestimmt  sind  ;  und  diese Repertorien stellen
dann, gleichsam das  Buch  , das die Stelle der Bücher vertritt, die
eine grosse Enzyklopädie dar, die tagtäglich aus dem Inhalt der
Neuerscheinungen frische  Nahrung  schöpft;  und  die Bücher ihrer-
seits werden  vonnun  an nach einheitlichen Plänen angelegt
dergestalt, dass ihre Bestandteile ohne Weiteres vergleichbar sind
u n d ohne Weiteres  dem  «Corpus» unsres Wissens einverleibt
werden können; es heisst die Reichtuemer an geistigem Besitz,
welchen die Bibliotheken und die Repertorien enthalten, den wissen-
schaftlich Arbeitenden der ganzen  Welt  zugänglich machen u n d
Z
allmaehlich die eit verkuerzen, welche  man  bisher auf Material-
sammeln verwenden musste.
M i t einem  Wort  , « die Dokumentation organisieren i> heisst das
Weltgedächtnis schaffen  undin  Tätigkeit setzen, wie ein gross ange-
legtes Räderwerk, das dazu bestimmt ist, die einzelnen  und  zerstreu-
ten Errungenschaften der Wissenschaft i n sich aufzunehmen u n d
zu verarbeiten, u m sie dann weiterzugeben überall dahin, w o
Nachfrage darnach aut  wird  .
l
U m solch hohe Ziele zu erreichen, muss  man  die nationale wie
die internationale Verstaendigung  und  Zusammenarbeit herbeifueh-
ren, aber ebenso die Verstaendigung innerhalb jedes Einzelfaches
der Wissenschaft; muss man alle « Buch-Anstalten » Bibliotheken,
Institute, Aemter, Verwaltungen, Gesellschaften, Akademien, inter-
nationalen Vereinigungen i n einem Bunde zusammenfassen, die
heute als Produktions- oder als Konsumptions-Zentren für
Drucksachen wirken auf einem weitverbreiteten Netz, welches
dem Gedankenverkehr zwischen allen Ländern zu dienen bestimmt
ist: ganzgenau so, wie die Organisation m Austausch der materiellen
i
Güter alle Mittelpunkte der Erzeugung  und  des Verbrauchs,
— Begriffe, die  wir  gewöhnlich  nur  auf diese materiellen Güter
anwenden, — durch ein fast unübersehbaresNetz von Eisenbahnen
u n d Wasserstrassen verbunden hat.
— 7 —
Herr Darboux, ständiger Sekretär der « Académie des Sciences »
in Paris, sprach darauf m Namen der Teilnehmer dem Vorsitzenden
i
und dem Minister für ihre Begrüssung den Dank aus  und  erinnerte
an seine langjährigen Beziehungen zu den Leitern des Instituts.
*
* *
Die Freitag-Nachmittags-Sitzung war der Besichtigung des Insti-
tuts gewidmet : es sollte jedem Teilnehmer Gelegenkeit geboten
werden, die  vom  nstitut i n Schrift  undWort  vertretenen  und  bei
I
seinen Arbeiten angewandten Methoden sowie den augenblicklichen
Stand der Arbeiten aus eigener Anschauung kennen zu ernen.
l
Es waren die fünf verschiedenen Abteilungen des Instituts zu
besichtigen: Bibliographie; Ikonographie;  Dokumentation  ; die
B  ibliothek  ; das Museum der ibliographischen Methoden.
b
Die Vorführungen  und  die Erläuterungen sollten den eilnehmern
T
das vorgesteckte Ziel sowie die zur Erreichung desselben ange-
wandten Mittel zeigen: über das Kartensystem, die internationale
Klassifikation (Dezimal-Klassifikation) die m « Maneul d u Réper-
i
toire Bibliographique Universel» enthaltenen einheitlichen Regeln,
über die wirkliche Aufstellung eines Repertoriums, dessen Bestand-
teile von den verschiedensten Quellen  und  Mitarbeitern herrühren,
über die gegenseitigen Beziehungen zwischen den verschiedenen
Zweigen der — wohlorganisierten — Dokumentation konnte sich
jeder Teilnehmer ein Urteil bilden.
Die mehr allgemein gehaltenen Darlegungen der Herren L a
Fontaine, Otlet  und  Masure wurden durch weitere Ausführungen
über einzelne Fächer der Wissenschaft ergänzt :  HerrDr  Field,
Direktor des Concilium Bibliographicum i n Zürich, sprach zur
Bibliographie der Zoologie, der Anatomie  und  der Physiologie ;
Herr  Huet  , praktischer Zahnarzt i n Brüssel, über die analytische
Bibliographie der Odontologie ;  Herr  Professor Doumer-Lille über
die Bibliographie der Elektrobiologie;  Herr  de Potter, Vorstand des
internationalen photographischen Instituts i n Brüssel, über die
Herstellung  und  die Benutzung der verschiedenen Teile des allge-
meinen ikonographischen Repertoriums.
Während der Besichtigung fand ein reger Meinungsaustausch unter
den Konferenzsteilnehmern statt, auf deren Tischen die einzelnen
Demonstrationsgegenstände ausgelegt waren.
Die sich anschliessende Diskussion beschäftigte sich zunächst m i t
der Frage der für das Unternehmen gewonnenen Mitarbeiter, deren
Verzeichnis — es kommen über 200 Anstalten i n Betracht —
— 8 -
gedruckt vorlag (Drucksache i i ° 4 ) ; dann wurden die Titeldrucke
auf Zetteln, das Format, die  Artund  Weise des Versands, die
Gestehungskosten erörtert (letztere betragen je nach der Auflage,
indessen ohne Berücksichtigung der Redaktionskosten, o,25 bis
o,5 cm, also etwa 0,2 bis 0,4 Pfennig pro Zettel.)
Anschliessend wurde das  Thema  : « Konkordanz der verschiedenen
Klassifikationen» besprochen; hierzu wurde der vom nstitut bear-
I
beitete Bericht (Drucksache n° 7) zur Verlesung gebracht, der darin
gipfelte, dass es sehr wohl möglich sei, gleichzeitig mehrere Klassifi-
kationen zu verwenden, wofern nur die erforderlichen synoptischen
[
Tafeln Konkordanzen] ausgearbeitet sind, und bie bibliographischen
Aufnahmen oder noch besser die Schriftstücke selbst die verschiede-
nenKlassifikations-Indices tragen; praktische Beispiele wurden hierfür
vorgeführt an der Systematik des International Catalogue 0/ Scientific
Liter ature n Verbindung mit dem Dezimalsystem.
i
Den nächsten Verhandlungsgegenstand bildete die Anwendung
der Dezimalklassifikation bei der Dokumentation auf andern Gebie-
ten, also ausser der Bibliographie.  Herr  General Sebert, Paris,
v
verlas einen Bericht über die Herstellung on Patentschriften-Reper-
torien sowie über die Möglichkeit, die wertvolle  und  umfassende
wissenschaftliche Arbet, die n den Patenten aufgespeichert ist,für die
i
ganze Dokumentation nutzbar zu machen. Es sei wohl angebracht,
wenn die Konferenz sich für die Gründung einer internationalen
Vereinigung ausspräche, welche die Aufstellung eines allgemeinen
Patent-Repertoriums i n allen Ländern um Zweck hätte, auf  Grun  d
z
des  vom  Bureau Bibliographique de Paris (1) ausgearbeiteten
Planes.  Die  Versammlung schloss sich dem Vorschlag an.  DrHa  -
nauer-Frankfurt ( M ) zeigte i m Auschluss daran ein Muster einer
hierzu erfordenlichen Konkordanz-Tafel der augenblicklich i n den
einzelnen Ländern üblichen  undim  allgemeinen noch sehr ver-
schiedenen Patent-Klassifikationen  und  fügte einige Andeutungen
I
über die Anwendung des Dezimalsystems i n der ndustrie hinzu,
insbesondere auf die rationelle Signierung technischer Zeich-
nungen anstatt der heute üblichen empirischen durch laufende
N  ummern  .
Der sich anschliessende Besuch der Instituts-Bibliothek hatte
einen doppelten Zweck : einmal den vollständigen Parallelismus
zwischen der  Anordnung  der Bücher n Bibliotheken und der jenigen
i
d
der Zettel i n ibliographischen Repei orien  und  ann die Möglich-
b
t
keit des Zusammensarbeitens bei der  Bildung  einer Zentralbücherei
(1) rue de Rennes, 44.
— 9 -
vor Augen zu führen. Tatsächlich ist die Instituts-Bibliothek eine
umfassende Sammelbibliothek, an welcher etwa vierzig i n Brüssel
ansässige Gesellschaften  und  Anstalten, darunter mehrere nterna-
i
tionale Vereinigung en, beteiligt ind. Eine Beschreibung wurde den
s
Teilnehmern eingehändigt. [Instituts-Veröffentlichung n° 96].
Das Museum für bibliographische Methoden wurde ebenfalls ein-
gehendbesichtigt und erläutert. n Glaskasten und n Sammelmappen
i
I
sind n systematischer Anordnungdie verschiedenen Einzelheiten der
i
Methoden des nstituts ausgestellt; ihre  Anwendung  ist m Vergleich
i
I
mit andern Systemen vorgeführt.
A n den Wänden angebrachte Diagramme, Schemata  und  Photo-
graphien dienen zur Erläuterung der bibliographischen Wissenschaft,
ihrer Probleme, ihrer Geschichte, der  mit  hr befassten Anstalten;
i
andere stellen die Statistik der Drucksachen dar.
I n besonderen Sammlungen sind die Veröffentlichungen des
Instituts, 97 nder Zahl, sowie die Bibliographia Universalis zusam-
a
mengestellt. (62 Beiträge).
I n demselben Raum war aus Anlass der Konferenz eine kleine
Ausstellung von Materialien  und  technischen Hilfsmitteln für
Dokumentation veranstaltet, unter  Mitwirkung  einiger Handels-
firmen : Des  Library  Bureau, Boston ;  The  Globe Company,
Boston, in Europa vertreten durch die Firma  Van  Beest, Brüssel;
Galante, Paris;  Lippman  , Strassburg i . E . ; Damman-Washer,
Brüssel; Vanderborght, Brüssel.
*
* *
Die Samstagssitzungen fanden wiederum i m « Palais des Aca-
demies » statt, unter em Vorsitz von General Sebert, dem Vizeprä-
d
sidenten des nstituts.
I
Zunächst wurden die Berichte der dem internationalen biblio-
graphischen Institut angegliederten Anstalten entgegengenommen.
D r Field konnte darauf hinweisen, dass das von  ihm  geleitete
« Concilium Bibliographicum » n Zürich seit seiner Gründung (1896)
i
gegen i5 Millionen «internationale» Zettel gedruckt und versandt
hat, nternational hinsichtlich des Formats  und  der Klassifikation.
i
E i n Bericht über das Bureau bibliographique de Paris wies auf die
Beteiligung dieser Anstalt an der Organisation der Bibliographie für
die Zwecke der Wissenschaft  und  der Technik  hin  , sowie auf die
B
Mitarbeit an den Brüsseler Klassifikationstaieln.  Ein  ericht über
die vom internationalen Eisenbahn-Kongress geleisteten biblio-
graphischen Arbeiten, erstattet  vonHerrn  Ingenieur Weissenbruch,
— 10 —
erinnerte an den Beginn dieser Arbeiten n Jahr 1895, die heute den
i
dem Kongress angeschlossen Verwaltungen  und  Gesellschaften die
grössten Dienste zu leisten berufen sind.
H  err  de Potter berichtet über das internationale Institut für
dokumentäre Photographie; er giebt einen kurzen geschichtlichen
Ueberblick über die Gedanken und über die Versuche, welche schon
zur Gründung bedeutender Sammlungen von Photographien in
verschiedenen Ländern und insbesondre zur Annahme allgemeiner
Methoden geführt haben, die sich an die bibliographischen
anschliessen; wie dann in Marseille 1906 ein besonderer Kongress,
und im Auschluss an diesen die Begründung eines internationalen
Instituts stattgefunden habe. Die Organisation und die Tätigkeit der
erst kürzlich i n Brüssel ins Leben gerufenen internationalen
Auskunftsstellen für Jagd und für Fischerei wurde von deren General
sekretär,  Herrn  Leschevin, geschildert; die Beschreibung des inter-
nationalen Instituts für Polarforschung war vom Direktor der
Brüsseler Sternwarte,  Herrn  Lecointe, schriftlich eingereichtworden.
Ebenso war eine schriftliche Mitteilung über die internationale
Auskunftsstelle für Luftschiffahrt eingelaufen vom Generalsekretär,
Hauptmann Matthieu.  Herr  Ingenieur Vermandel-Brüssel, schil-
derte die Bibliographie der technischen Wissenschaften, die seit igo3
unter seiner  Leitung  erscheint. Dann nahm  Herr  de Vuyst-Brüssel
das  Wort  , der an den Vorarbeiten zu den verschiedenen interna-
tionalen für das Jahr 1910 in Brüssel geplanten Kongressen teilge-
nommen hatte, u m die Abteilungen für Dokumentation nach den
Methoden des Instituts zu organisieren ; unter diesen sind folgende
Kongresse besonders zu nennen : der für Verwaltungsvvissenschaften,
der für ländliche Demographie  und  der für häusliche Erziehung.
Die Bibliographia Universalis, welche aus verschiedenen nach den
Methoden des Instituts an verschiedenen Stellen bearbeiteten Biblio-
graphien besteht, wurde bei dieser Gelegenheit in ihrer Gesamtheit
t
vorgeführt. Darauf rat man in die genauere Schilderung der Biblio-
graphie  und  der Dokumentation der einzelnen Wissenschaften i n
den verschiedenen Ländern ein.
Eine kurze Anleitung zur Abfassung der bezüglichen Berichte war
bereits vor einigen Monaten an bestimmte Mitarbeiter gesandt wor-
den (Drucksache n " 2).
Das Institut selbst legte als Beitrag zu dieser Frage eine Uebersicht
der Anstalten vor, welche sich  mit  Bibliographie  und  mit Dokumen-
tation befassen (Drucksache n° 6). Dieses Verzeichnis zählt auf
nicht weniger als 16 Seiten diese Anstalten i n vier Gruppen ange-
ordnet  auf  : nationale Organisationen, geordnet nach Ländern;
laufende Fach-Bibliographien, nach Gegenständen ; nternationale
i
— 11 —•
Organisationen fuer Dokumentation, fünf an der  Zahl  ; internationale
Vereinigungen  mit  verschiedenen Zwecken (gegen 125 Vereine u n d
32 dauernde internationale Kongresse) Diese Vorarbeit soll späte-
ren genaueren Untersuchungen als Grundlage dienen, die dann
dem nächsten Kongress vorgelegt werden sollen ; naturgemäss  wir  d
sich ausserdem die Herausgabe eines « Jahrbuchs für Bibliographie
und für Dokumentation » darauf aufbauen.
Die Berichte des  Herrn  Stroobant, dem Vorsitzenden des biblio-
graphischen Ausschusses am königlichen Observatorium zu Uccle,
über die Bibliographie und die Dokumentation der Astronomie,
sowie
des
interna-
ständigen
des
Sekretärs
de
W  ildeman  ,
H  err  n
tionalen botanischen Kongresses, bezüglich seines Faches fanden
lebhaftes Interesse ; wurde es doch allen Anwesenden deutlich,
zwischen
den
Gedankenaustausch
welche Fortschritte durch den mögen es auch die verschiedensten
sind,
Bibliographen
zu
erzielen
Gebiete der Wissenschaft sein, auf denen sie taetig ind.
s
Ueber den augenblicklichen Stand der Bibliographie  und  der
Dokumentation i n den einzelnen Ländern machten einzelne Teil-
nehmer der Konferenz interessante Mitteilungen.  Herr  Biagi-Flo-
renz, Vertreter des italienischen Ministers für öffentlichen Unterricht,
i
I
i
schilderte die n der letzten Zeit n talien zur Durchführung gelang-
ten Neuerungen, die Begründung eines Bibliotheken-Hauptaus-
schusses und die für den Leihverkehr von einer Bibliothek zur andern
getroffenen Massnahmen; die den Bibliotheken bewilligte Porto-
freiheit, sowie die photographische Aufnahme der Handschriften.
Die Herren Duff  BrownundHopwood  aus  London  machten
über die englischen Verhältnisse einige Mitteilungen, insbesondere
über die vom englischen Bibliothekar-Verein erreichten Fortschritte;
auch in England fühlt man das Bedürfnis, die verstreuten Teile zu
einem einzigen Organismus zusammenzufassen, welcher den Verein
selbst, die Lehrgänge für Bibliographie  und  Bibliothekonomie an der
Londoner Universität, das bibliographische Museum  und  die
gemeinsamen Arbeiten i n sich schliessen soll. Der Fortschritt der
städtischen Bibliotheken ist ein gewaltiger i n England, wo  Andre  w
Carnegie gerade namhafte Beträge zur Erbauung von Muster-Biblio-
theken gespendet hat.
Herr Haakon Nyhuus, Vorstand der Deichmanske Bibliothek
(Christiania), gab einen kurzen Ueberblick über die  Art  und Weise
der Organisation der öffentlichen Bibliotheken Norwegens, zu der
übrigens der Vortragende selbst in hervorragender Weise beige-
tragen hat. Alle om Staat unterstützten Bibliotheken werden als die
v
Glieder eines Körpers, als die Maschen eines über das ganze  Lan  d
verzweigten Netzes betrachtet, auf welchem die Bücher sich ver-
— 12 —
teilen.  Und  die Bücher selbst werden i n der Hauptstelle erworben,
katalogisiert  und  für den Leihverkehr hergerichtet.
Dann nahm die Konferenz Mitteilungen über den augenblick-
lichen Stand der beiden wichtigsten Unternehmen entgegen: über
den internationalen Katalog der naturwissenschaftlichen Litteratur
und über den Gesamtkatalog der preussischen Bibliotheken.
Herr Darboux, der den Bericht des Hauptbureaus vom Inter-
national Catalogue vorlegte (Drucksache  nuu  ) gab einen geschicht-
lichen Ueberblick über dieses gross angelegte Unternehmen, wel-
ches die Royal Society  inLondon  nicht nur angeregt, sondern auch
durch eifrige Mitarbeit dauernd gefördet hat. Dieser jährlich i n
17 Bänden erscheinende Katalog stellt die laufende Bibliographie
der Mathematik sowie der exakten und der beschreibenden Natur-
wissenschaften dar Professor Darboux wies auf den wahrhaft inter-
nationalen Charakter dieses Werkes  hin  , an welchem 32 Länder
i
beteiligt sind, n denen ebenso viele • Regional-Bureaus » arbeiten.
Die Veröffentlichung dieses Katalogs auf Zetteln hält er persön-
lich für wünschenswert; nur ständen der Durchführung bisher
finanzielle Schwierigkeiten entgegen.
H  errDr  . Naetebus, als Vertreter der Königlichen Bibliothek i n
Berlin, legte den  Entwicklungsgang  und den augenblicklichen
Stand der Arbeiten am « Gesamtkatalog der preussischen Biblio-
theken » dar Es handelt sich hier u m die bibliographische Auf-
nahme von gegen 3 Millionen Bänden, woran sowohl die Grösse
dieser Arbeit als auch besonders die Bedeutung der Dienste zu
ermessen sind, die sie der Wissenschaft zu leisten berufen ist. Der
Zettelkatalog der Berliner Königlichen Bibliothek, welcher als
Grundlage für die Vergleichungmitdem Bestand der übrigen preuss-
ischen Bibliotheken dient, ist jetzt fertiggestellt. Indessen ist über
die  Art  und Weise der Veröffentlichung dieses Katalogs nochkeiner-
lei Entcheidung getroffen, auch noch nicht über die Frage: alpha-
betischer Autoren-oder systematischer Katalog. Doch arbeitet schon
jetzt das « Auskunftsbureau der deutschen Biblioteken » Berlin,
Behrenstr. 70, welche für jedes  Buch  , dessen Titel bekannt sein
muss, gegebenenfalls eine Bibliothek namhaft macht, i n der es zu
finden ist.
Ueber das Abkommen, welches von den Vereinigungen der ameri-
kanischen und der englischen Bibliothekare bezüglich der bei der
Katalographie zu befolgenden internationalen Vorschriften getroffen
worden ist, u m ein gemeinsames Arbeiten zu ermöglichen, legte
H  err  Hanson-Washington, von der  Library  of Congress, Vorsitzen-
der des amerikanischen Ausschusses, einen Bericht vor (Druck-
sache 110 n ) Herr Minto, Vorsitzender des englischen Ausschusses,
— i 3 —
machte hierzn einige ergänzende Bemerkungen. Der Planson'sche
Bericht ist ein warmer Appell an die internationale Verständigung
u n d Zusammenarbeit ; zeigt er doch, dass der durch die Entente
erzielte Fortschritt: Einordnen von Zetteln verschiedener Herkunft
in dieselben Repertorien  und  Kataloge ! nicht mehr ein from-
mer  Wunsch  zu bleiben braucht. Das Abkommen selbst beruht auf
i
83 Regeln; und nur n Bezug auf 6 Punkte musste die Entscheidung
freigestellt bleiben ; übrigens ist bei der Aufstellung dieser Vor-
i
schi ften-Samlungauf ihre spätere internationale Ausdehnung Rück-
sicht genommen : <c Die Stunde der Erfüllung ist d a » ! sagt  Her  r
Hanson.
Die Frage der Dokumentation bezuglich der Verwaltung  und  der
Statistik fand bei den Teilnehmern lebhaftes Interesse.  Ein  Bericht
des  Herrn  Otlet (Drucksache n° 8) legte die Hauptpunkte  dar  : die
öffentlichen Verwaltungen fassen ausserordentliche Mengen von
Schriftstücken ab, indessen ohne i m allgemeinen auf deren Bezie-
hung zur Gesamtheit der Geisteserzeugnisse Rücksicht zu nehmen ;
tatsächlich sind diese  Urkunden  aber wichtige Quellen für statis-
i
tische, für oekonomische und für soziologische Fragen ; hr Schick-
sal ist es, eines Tages in die Archive zu wandern. Es wäre deshalb
sehr  wohl  angebracht, System i n diese Schriftstücke zu bringen : die
allgemeinen Grundsätze der Dokumentation auf sie anzuwenden.
i
D  ann  könnte man n vielen Fällen diese handschriftlichen  Urkun  -
den der Allgemeinkeit zur Verfügung stellen und so das Drucken
einer Menge umfangreicher, kostspieliger und dabei für die grosse
Menge der Leser nichtsehr wertvoller Veröffentlichungen vermeiden.
Z u r selben Frage legte Herr Zaalberg Zaandam einem Bericht vor
über die  nHolland  zu ihrer Lösung unternommenen vergleichen-
i
den Arbeiten; ferner machte er einige Mitteilungen über die Erfah-
rungen, die man in seiner Stadtverwaltung  mit  den Methoden des
internationalen bibliographischen nstituts gemacht hat.
I
Herr Bürgermeister Elias-Zaandam, legte dar, welches Interesse
die « Nederlandsche Vereeniging voor Gemeentebelangen » der
ganzen Frage  widmet  ; insbesondre wies er auf die Arbeiten  hin  ,
welche den  Plan  der Gründung eines « Internationalen Bureaus für
Dokumentation in Verwaltungsangelegenheiten » zum Gegenstande
haben, deren nächster Zweck indessen die Vereinheitlichung der
Arbeitsweise in  Holland  ist. Seine Ausführungen gipfelien in dem
Wunsche, dieses Thema auf dem Programm des nächsten Kon-
gresses sowohl als auch der (zu begründenden) internationalen
U  nion  zu sehen.
H  err  Cuvelier-Brüssel, vom belgischen Staatsarchiv legte über die
selbe Frage, jedoch vom Standpunkte der Organisation der Archive,
— i 4 —
einen Bericht vor, der ganz nene Gesichtspunkte, für die allge-
meine Dokumentation durch die Archive aufweist. Herr Professor
J. Mandello-Presburg, machte einige Vorschläge über die Einrich-
tung der statistischen Aemter und sprach über die Vorteile, welche
die Einführung der Dezimal-Klassifikation erwarten liesse.  Her  r
March-Paris, als Vertreter des französischen Arbeits-Ministers, schlug
eine Umfrage über diese wichtigen Gegenstände bei den Verwaltun-
gen vor, an welcher mitzuarbeiten eine schöne Aufgabe für die Abtei-
lung (i Dokumentation» des Kongressesfür Verwaltungswissenschaften
bilden würde.
*
* *
Den letzten  Punkt  der Tagesordnung — seiner Wichtigkeit nach
aber wohl den ersten — bildete die Prüfung der geeigneten Mittel für
die Herbeiführung internationaler Vereinbarungen und für die Orga-
nisation der internationalen Zusammenarbeit auf bibliographischem
Gebiet.
Zunächst gab das Institut seine bezüglichen Ansichten und Absich-
ten  kund  , eine freie Organisation ins Leben zu rufen, die in der glei-
chen Richtung  undin  Ergänzung einer offiziellen Vereinigung zu
arbeiten hatte. Diese freie Organisation würde n einem von Zeit zu
i
Zeit einzuberufenden Kongress bestehen, dessen Besuch einem
möglichst grossen Kreise offen stehen müsste, die offizielle dagegen
I
i n einer « nternationalen Staaten-Vereinigung für Dokumentation »
mit dem Zweck, die höheren Interessen des Buches zu schützen,
insofern es ein Werkzeug der Wissenschaften  und  Künste st; seine
i
Aufbewahrung und Verbreitung zu erleichtern durch eine grosszugige
Einrichtung für Dokumentation und endlich durch Schaffung eines
durch regen geistigen Verkehr dauernd belebten Netzes, das sich
über alle Länder erstreckt. (Drucksache n° 9.)
Diese Vereinigung hätte namentlich die Organisation der allge-
meinen Bibliographie zu pflegen, ferner der Entwickelung des inter-
nationalen Tausch-Verkehrs der Neuerscheinungen zu dienen u n d
der  Einrichtung  von Zentral-Sammlungen von Schriftstücken aller
A r t ihre Hilfe zu leihen. Ihre Tätigkeit würde n enger Verbindung
i
mit den auf mancherlei Gebieten bereits bestehenden staatlichen
Vereinigungen vor sich gehen  und  insbesondre zur Ergänzung der
internationalen  Union  zum Schutz des geistigen Eigentums dienen,
welche leztere a nur die Privatinteressen  und  die wirtschaftlichen
j
Vorteile aus dem Buch zu fördern berufen ist.  Und  die Interessen
der Allgemeinheit an der  Erhaltung  und Verbreitung des Buches •
haben doch gewiss denselben Anspruch auf wirksamen Schutz !
— i5 —
Diese Vereinigung würde jedem Staat die Pflicht anferlegen, i n
Regional-Bureaus, welche  mit  einer Hauptstelle in dauernder Ver-
b  indung  sein müssten, seine eigne Bibliographie zu bearbeiten.
Bezuglich des internationalen Tauschverkehrs wäre auf  Grund  der
i m Jahre 1886 getroffenen Vereinbarungen ein neues Abkommen
auf erweiterter Grundlage zu treffen.
Z u r Erläuterung dieses vorläufigen Planes dienten drei Schrift-
sätze : der eine über den internationalen Austausch der Neuer-
scheinungen, ein zweiter über den internationalen Leihverkehr zwis-
chen den Bibliotheken (Drucksache n° 5), der dritte über die Pflicht-
exemplare i n ihrer Beziehung zur Organisation der Bibliographie
und der Dokumentation. Z u diesem Punkt kam ein Brief der British
Academy zu Verlesung, in welchem sie erklärt : sie wolle den
Absichten des internationalen bibliographischen Instituts keine
Hindernisse entgegensetzen  und  verzichte daher auf hren Plan der
i
Organisation der Bibliographie, womit sie die internationale Verei-
nigung der Akademien befasst hatte.
Es ergab sich  nun  eine interessante Diskussion, an der sich folgende
beteiligten
:
Darboux,
Mandello,
Herren  Field  ; alle unterstützten Sebert, Biagi, Stainer, Instituts; es
die
des
Vorschlage
Elias,
wurde die Frage aufgeworfen, ob es nicht richtiger sei, das Thema :
« Leihverkehr zwischen den Bibliotheken » den Bibliothekaren zu
überlassen, die sich bereits damit beschäftigen,  und  dann, ob die
Dokumentation in Verwaltungsfragen i n dem Plane einbegriffen sei.
Nachdem  Herr  Ministerialdirektor van Overbergh-Brüssel, der i m
Auftrage des Ministers für Kunst  und  Wissenschaft der Konferenz
beiwohnte, den zu beschreitenden  Weg  gewiesen, der zu einer baldi-
gen
Staaten
führen
werde,
Verständigung
zwischen
den
auch
u n d
die Bereitwilligkeit der belgischen Regierung erklärt hatte, den
andern Regierungen diesen Vorschlag zu unterbreiten, nahm die
Konferenz einstimmig folgende Resolutionen ah :
I . Zum internationalen Kongress für Bibliographie and Dokumentation. —
Die Konferenz spricht sich für die Einberufung eines internationalen
Kongresses für Bibliographie und Dokumentation aus. Dieser Kon-
gress, der als ein dauernder gedacht ist, soll um ersten Male m Jahre
i
z
1910 zusammentreten. Ohne persönliche Teilnehmer auszuschlies-
sen, soll er hauptsaechlich aus den Vertreten von Vereinigungen und
Anstalten bestehen, welche sich  mit  Bibliographie  undmit  Doku-
mentation befassen, so dass er befähigt und berechtigt erscheint, alle
auf diesem Gebiet zu erfüllenden Anforderungen zu erörtern u n d
festzulegen  und  dann auch für die Erfüllung derselben die erforder-
lichen Massnahmen zu treffen.
Die  Art  und Weise der Vertretung beim Kongress geschieht nach
- i6 —
Ländern und nach wissenschaftlichen, bczw. technischen Fächern.
i
Es ergeht daher ein Aufruf an alle nternationalen Vereinigungen,
Kongresse  und  Anstalten, deren organisatorische Tätigkeit sich
naturnotwendig auf Bibliographie  und  Dokumentation erstreckt.
j
Nationale Ausschüsse mögen es sich angelegen sein lassen, in edem
Lande Vertreter der grossen Bibliotheken, der Bibliothekar-Vereine,
der Bibliographen sowie der Verleger und endlich aller Anstalten,
welche das Buch angeht, zur  Mitwirkung  zu veranlassen.
i
Die Vorbereitung des ersten Kongresses  wird  dem nternationa-
len bibliographischen Institut anvertraut, welches zu diesem Zweck
einen Haupt-Organisations-Ausschuss bildet, bestehend aus Vertre-
tern der nationalen Ausschüsse, sowie der in Betracht kommenden
internationalen Vereinigungen.
Das Programm des Kongresses soll einmal dieselben Fragen um-
fassen, welche auch auf der jetzigen Konferenz zur Erörterung ge-
standen haben ; ferner alle verwandten Fragen, deren Besprechung
sich bis dahin als nützlich herausstellen  wird  : Kritische Bespre-
chung der geleisteten Arbeiten, Vereinheitlichung der Methoden,
Organisation der internationalen Zusammenarbeit auf allen Gebie-
ten der Bibliographie und der Dokumentation,  mit  Einschluss der
Dokumentation durch die Photographie, der Dokumentation für die
Zwecke der Verwaltung und auf dem Gebiete der Erfindungspatente.
Ferner soll ein Ehren-Auschuss für diesen Kongress gebildet wer-
den. Als Zeichen der Anerkennung seiner grossen Leistungen für
die Bibliotheken sowohl als für die Sache des Friedens, der unerläss-
lichen Vorbedingung für jede internationale Zusammenarbeit, be-
schliesst die Konferenz, den Vorsitz n diesem Ausschuss  HerrnAn  -
i
drew Carnegie anzutragen.
I I . Zur Internationalen Vereinigung für Dokumentation. — I n Anbe-
tracht dessen, dass es angezeigt erscheint, die Bibliographie auf
einer mehr  und  mehr nternationalen Grundlage aufzubauen ; dass es
i
ferner angezeigt erscheint, zu diesem Zwecke National-, bezw. Regio-
nal-Bureaus zu gründen oder bereits bestehende zu erweitern, u n d
für einen dauernden Verkehr zwischen diesen Bureaus zu sorgen,
der keine Landesgrenze kennt; dass es angezeigt erscheint, den Aus-
tausch der Neuerscheinungen weiter auszubauen und einen interna-
tionalen Leihverkehr für Veröffentlichungen aller  Art  ins Leben zu
rufen, giebt die Konferenz der belgischen Regierung Kenntnis von
dem hr vom Institut vorgelegten Plane zur Schaffung einer d Inter-
i
nationalen Vereinigung für Bibliographie und Dokumentation ».
Sie spricht den  Wunsch  aus, die belgische Regierung möge die geeig-
neten Schritte unternehmen, u m die übrigen Regierungen für die
Sache zu gewinnen.
— 17 -
M i t der  Abstimmung  über diese Resolutionen hatten die Sitzungen
der Konferenz ihren Abschluss erreicht; es folgten noch die übli-
chen Dankesworte des Vorzitzenden an die Teilnehmer  und  der
Teilnehmer an das Bureau. ,
* *
Der Sonntag war einem Ausflug mit Besichtigungen wissenschaft-
licher Anstalten gewidmet.
Sämtliche Teilnehmer besuchten die durch  Herrn  Einest Solvay
begründeten hochschulartigen  Lehr  -  und  Untersuchungs-Anstalten :
das physiologische Institut, wo sie vom dem Direktor, professor
Hege, empfangen wurden, die Anstalten für Handelswissenschaften
und Soziologie, woselbst  Herr  de Leener die Führung übernahm.
Diese höchst interessanten Besichtigungen setzten die Besucher in
den Stand, insbesondre die ausgezeichnete Organisation der Biblio-
l
thek des Instituts für Soziologie kennen zu ernen, sowie die weitge-
henden Vergünstigungen und Bequemlichkeiten, welche den Benut-
zern der Bibliothek zur Förderung der wissenschaftlichen Arbeit
gewährt werden.
Die Teilnehmer begaben sich sodann zum  Parcdu  Cinquantenaire,
wo  Herr  Michel  Mourlon  , Direktor der geologischen Landesanstalt,
die von ihm geleiteten Einrichtungen erläuterte. Die ganze Herstel-
lung der geologischen Karte Belgiens beruht jetzt auf einer Organi-
sation, deren verschiedene Bestandteile aufs Engste miteinander
verknüpft sind : die auf Blätter  und  auf Karten gezeichneten Aufnah-
i
s
men, welche der geologische Forschung dienen, ind n Ordnungs-
mappen gesammelt; die Veränderungen werden tagtäglich nachge-
tragen i n dem Masse, wie neue Schachte oder neue Tiefbohrungen
entstehen bezw. erfolgen ; die Bibliothek soll eine vollständige Samm-
i
lung der über Geologie geschrieben Werkene sein,  und  hr Katalog
fällt zirsammen  mit  der « Bibliographia Geologica Universalis »,
wovon bereits 17 Bände erschienen  sind  ; ein bibliographisches Zet-
telrepertorium, das ständig wächst, ergänzt die zur Verfügung ste-
henden wissenschaftlichen Hilfsmittel. So wie sie zur Zeit arbeitet,
darf die geologische Landesanstalt als der Typus eines den Anforder-
rungen der Neuzeit entsprechenden Amtes für Dokumentation gel-
ten, welches der Forschung i n einem bestimmeen Wissensgebiete
i
dient  und  dessen Organisation n engster Verbindung, hinsichtlich
der Methoden wie der Zusammenarbeit,  mit  dem internationalen
bibliographischen Institut steht.
V o n hier aus führte die Teilnehmer ein Sonderwagen der Strassen-
bahn durch den  Wald  von Soignes zum Park von Tervueien, wo,
— i8 —
nach der Mittagspause, unter Führung der Herren Coart und Brohez
das Kongo-Museum i n Augenschein genommen wurde. Die ange-
sichts der einzelnen Gegenstände gegebenen Erläuterungen Hessen
von dem augenblicklichen Aussehen der weiten Ländereien Afrikas
eine Vorstellung ewinnen. Bei einem Spaziergang durch den Park
g
wurde dann das vom Architekten Girault geschaffene Museum i n
Augenschein genommen; daneben liegt das Gelände, auf welchem
die Welt-Schule erstehen soll : eine Unterrichtsanstalt für Kolonial-
wesen, deren  Programm  bereits feststeht, laut dessen sie zugleich
als nternationale Universität wirken soll.
i
A m Freitag Abend waren die Konferenzteilnehmer in  Waux  -  Hal  l
u  ndim  Cercle Artistique versammelt, u m dem Konzert und einer
Vorstellung : « Der Kinematograph im Dienste der Wissenschaft »
beizuwohnen. Vorher hatte man das Modell und die Pläne des
«  Mont  des Arts » besichtigt, einem geplanten Prachtbau, der einmal
die grossen staatlichen Kunstsammlungen, ferner die Bibliothek, die
b
Archive und die übrigen Abteilungen des internationalen ibliogra-
phischen Instituts aufnehmen  und  dann auch den befreundeten
gelehrten Gesellschaften  und  internationalen Vereinigungen ein
würdiges  Heim  bieten soll.
A m Samstag Abend fand  mHotel  Metropole ein Festmahl statt,
i
dem sich nach der Sitte des Landes die Reihe der Trinksprüche
anschloss. Das Gefühl der Zusammengehörigkeit  und  des gemein-
samen Strebens, das bei dem anregenden Gedankenaustausche der
Arbeitssitzungen entstanden war, fand hier beredten Ausdruck. M a n
trank auf das  Wohl  der Souveräne der vertretenen Staaten, auf das
der belgischen Regierung und der Männer, welche dem internatio-
nalen bibliographischen Institut ihr  Wohlwollen  zuwenden, auf die
Gründer der Anstalt und die Mitarbeiter, die es schon sind und die
es bald sein werden. Der grosse  und  erhabene Gedanke der weltum-
fassenden Dokumentation sowie der zu ihrer Durchführung notwen-
i
digen nternationalen Verständigung wurde n allen Sprachen geprie-
i
sen : französisch, deutsch, englisch, italienisch, ungarisch, norwe-
gisch, holländisch,  und  auch schon i n der Sprache von morgen « n
i
Esperanto»; dann wieder i n der Sprache von gestern, lateinisch,
ja sogar n der Dezimal-Sprache, für die Teilnehmer recht eigentlich
i
der Sprache der Gegenwart.
* *
— 19 —
Fragt man nach dem Ergebnis dieser Konferenz, so darf die
A  ntwort  lauten : sie bedeutete einen namhaften Fortschritt auf dem
Wege der internationalen Organisation der Bibliographie  und  der
Dokumentation.
Zahlreiche  und  bedeutende Anstalten aller Länder, insbesondre
die nternationalen nstitute, hatten  Wert  daraufgelegt, Vertreter zu
I
i
entsenden, denen so Gelegenheit geboten war, die geleisteten  Arbei  -
ten an Ort und Stelle kennen zu ernen. Die befolgten Methoden, an
l
deren Weiterentwickelung seit einer Reihe von Jahren, von einer
grossen Anzahl von Mitarbeiten, ununterbrochen gearbeitet  wird  ,
erwiesen sich als durchaus brauchbar zur Lösung der gestellten
Aufgaben.  Beim  ersten  Anblick  erscheinen sie vielleicht erwickelt,
v
und bei näherer Betrachtung ergeben sie sich von selbst aus dem
natürlichen Zusammenhang. Die durchgeführten Arbeiten sollen
eben nur einen ersten Beitrag zu dem geplanten Riesenwerk
darstellen, für dessen Vollendung die vorherige Verständigung unter
den verschiedenen Einzelunternehmungen notwendig  und  möglich
ist, die, wie man bestimmt annehmen darf, von allen Beteiligten
aufrichtig gewünscht  wird  .
Vereinigung der Bemühungen auf Grundlage der Selbständigkeit
und des Hand-in-Hand-Arbeitens, Dezentralisation n der Arbeits-
i
leistung, dagegen Zentralisation der Arbeitsergebnisse—muss die
Losung für die Zukunft sein ; das hat der Meinungsaustausch m i t
voller Klarheit ergeben.
Die Konferenz hat eine neue Organisation ins Leben geruen, von
der man die gewünschten Ergebnisse erhoffen darf : den « nterna-
I
tionalen Kongress für Bibliographie nd Dokumentation », nnerhalb
u
i
dessen alle Anregungen einen guten Nährboden inden, die biblio-
f
logischen Fragen von allen Gesichtspunkten aus n der notwendigen
i
Ausführlichkeit erörtert, alle Schritte zu einer allgemeinen Verstän-
digung beraten  und  beschlossen weiden können.
Die Gründung einer « nternationalen Vereinigung für Dokumen-
I
tation » hat die Konferenz mit inhelligkeit den Staaten anempfohlen,
E
und die belgische Regierung hat es übernommen, diesen Vorschlag
den übrigen Regierungen zu übermitteln.
Selbstverständlich  wird  man dieses Unternehmen, das die
Wissenschaft sowohl wie das Zusammengehörigkeitsgefühl über alle
Landesgrenzen hinaus zu fördern berufen ist, auf eine Grundlage
stellen, die dieses « Denkmals für den Gedanken der Menschheit i>
würdig ist.
— 20 —
A  NHANGI  .
I  nternationaleVereinigung  für  Dokumentati  o
{Union internationale pour la Documentation)
S  ATZUNGS  -  ENTWUR  F
• i .  Die  Mächte, soweit sie das vorliegende Abkommen unterzeich-
net haben oder späterhin noch unterzeichnen werden, treten zu einer
Internationalen Vereinigung für Dokumentation usammen.
z
i
2. Zweck der Vereinigung s t : Schutz der höheren Interessen des
Buches, insofern dieses ein Hilfsmittel der Wissenschaften u n d
Künste  ist  ; Erleichterung seiner Aufbewahrung, Erhaltung u n d
Verbreitung durch die Organisation von gemeinsamen Arbeiten,
welche die Dokumentation  zum  Gegenstande haben ; durch
Schaffung eines über alle Länder sich erstreckenden Verkehrsnetzes
für den Austausch der Errungenschaften des Geistes.
Z
Insbesondere hat sie den weck :
a) Organisationder allgemeinen Bibliographie, der Katalogisierung
aller bisher veröffentlichen Druckschriften  wie  der Neuerschein-
ungen.
b) Organisation des internationalen Austauschs der literarischen
Erzeugnisse ( i . w . S.) u m so n erster  Linie  die grossen öffentlichen
i
Bibliotheken sowie die nationalen Sammlungen der wissenschaft-
lichen, künstlerischen  und  literarischen ( i . e. S.) Erscheinungen
auszubauen.
c) Organisation des Leihverkehrs  und  der Mitteilung  von  Werken
und  Urkunden  von einem  Land  zum andern.
d) Schaffung von Zentral-Urkunden-Sammlungen.
3. Bibliographie. — Jede Regierung verpflichtet sich, ihre National-
Bibliographie, d. i . das vollständige Verzeichnis der nnerhalb ihres
i
Gebiets erschienenen Veröffentlichungen, selbst herzustellen oder
wenigstens herstellen zu lassen und den andern Staaten Exemplare
oder Abschriften davon zur Verfügung zu stellen. Z u diesem Zweck
können die bereits bestehenden Unternehmungen herangezogen
werden : die von den grossen Staatsbibliotheken, die von den Verle-
— 21 —
ger-Vereinen herausgegebenen Kataloge oder auch die Verzeichnisse
der Pflichtexemplare. Vorher  wirdman  sich über die bei der
Abfassung der Titelaufnahmen notwendigerweise zu befolgenden
i
Vorschriften einigen müssen, damit deren Einreihung n die allge-
meine Bibliographie ohne Weiteres erfolgen kann.
4. Internationaler Tauschverkehr. —  Zum  Zwecke des weiteren
o n Ausbaus des Tauschverkehrs, der bereits durch das internationale
A  bkommen  vom i5. März 1886 besteht, also zur Erweiterung dieses
Abkommens, sollen folgende Massregeln getroffen weiden.
A
i
a) Die n rtikel 3 genannten Abkommens vorgesehenen Verzeich-
nisse von Veröffentlichungen sollen entsprechend den für d i e
allgemeine Bibliographie geltenden Vorschriften hergestellt werden.
Die Verzeichnisse werden künftighin namentlich den Teil der allge-
meinen Bibliographie bilden, der die amtlichen Veröffentlichun-
gen jedes Staates enthält;
i
b) Die n Artikel 5 vorgesehenen Sendungen können unmittelbar
an die internationale Geschäftsstelle erfolgen, diederen Rücksendung
zu übernehmen hätte.
c) Die Tauschstellen gemessen Portofreiheit für ihre gegenseitigen
i
Sendungen, für hren Briefwechsel und die durch die Post versandten
Werke. Büchersendungen i n Kisten werden bezüglich der Porto-
freiheit den Postpaketen gleich gestellt.
d)  Von  allen Veröffentlichungen von Staatsbehörden oder von
wissenschaftlichen Gesellschaften, für deren Austausch die  Ver  -
mittelung der Tausch-Stellen i n Auspruch genommen  wird  , soll dem
internationalen  Amt  ein Exemplar zugestellt werden.
e) Private, welche ihre Veröffentlichungen Bibliotheken oder
gelehrten Gesellschaften  zum  Geschenk machen wollen, sollen sich
der Vermittelung der Tausch-Aemter bedienen dürfen ;
/ ) Bezüglich der  inrichtung  der Sammlungen des internationale
E
Amtes soll Artikel 8 des Abkommens dahin ausgelegt werden, dass
tunlichst alle Veröffentlichungen seit Beginn des 20. Jahrhunderts
dortselbst vereinigt werden.
5. Verleihung  und  Mitteilung  von  Veröffentlichungen  undvo  n
U  rkunden  .
Die hohen an dem  Abkommen  beteiligten Regierungen verpflich-
i
ten sich, die Erleichterungen m Leihverkehr  mit  Büchern  undmi  t
U  rkunden  auf die Staats-Bibliotheken aller Mächte der Vereinigung
(Union) auszudehnen; hierbei müssen dieselben Leihbedingungen
gelten wie für die Bibliotheken  und  Anstalten des eignen  Lan  -
des, wohlverstanden unter der Voraussetzung völliger Gegensei-
tigkeit.
— 22 —
6. Zentral-Sammlungen. —  Die  hohen an dem Abkommen betei-
ligten Mächte verpflichten sich, die Schaffung von Zentral-Urkunden-
Sammlungen auf jede Weise zu unterstützen. Dies geschieht beson-
ders dadurch, dass jede Regierung Privatpersonen  und  gelehrte
Köperschaften zur Ueberweisung von Druckschriften ermuntert;
ferner durch Stiftung vollständiger Sammlungen ihrer eigenen
d
amtlichen Veröffentlichungen  und  urch Verordnung von Massnah-
men (Pflichtexemplare oder sonstwie), welche der nternationalen
i
Haupt-Bibliothek den ugang der Litteratur der einzelnen Länder
Z
sichert, i n demselben Masse wie die Staats Bibliotheken sie erhalten.
i
7. Internationales Amt. — Das m Jahr i8g5 gegründete internatio-
nale bibliographische  Amt  führt künftighin den Namen Office inter-
national de Bibliographie et de Documentation (Internationales A m t
für Bibliographie  und  für Dokumentation).
Seine  Leitung  soll in den Händen einer aus Vertretern der betei-
ligten Staaten bestehentend Kommission liegen. Diese Kommission
beschliesst die Geschäftsordnung des Amtes  und  wählt aus hren
i
t
Mitgliedern einen geschäftsführenden Ausschuss. Sie ritt mindestens
alle drei Jahre ein Mal zusammen.
8. Rcgional-Bitreaus. — Jeder beteiligte Staat ergreift die erforde-
lichen Massnahmen, u m alle aus dem vorliegenden Abkommen sich
ergebenden internationalen Beziehungen i n einer Geschäftsstelle zu
vereinigen,  von  deren erfolgter  Errichtung  er das internationale A m t
in Kenntnis setzt.
— 23 —
A  NHANGII  .
V  erzeichnisderDrucksachenund  der  derKonferen  z
vorgelegten  Berichte  .
1. Einladungsschreiben.
2. Themata für einzureichende Berichte.
i
3. Bericht über das nternationale bibliographische Institut u n d
die systematische Organisation der Dokumentation.
4. Die internationale Zusammenarbeit auf dem Gebiete der Biblio-
graphie  und  der Dokumentation. Verzeichnis der Mitarbeiter:
Amstalten, Vereinigungen  und  Zeitschriften.
5. Beiträge  zum  Studium der internationalen Organisation der
Documentation: a) Internationaler Tauschveikehr ; b)  Interna  -
tionaler Leihverkehr zwischen Bibliotheken.
6. Uebersicht über die Anstalten, die sich  mit  Bibliographie u n d
mit Dokumentation befassen.
7. Die Konkordanz zwischen den bibliographischen Klassifika-
tionen.
8. Die Dokumentation über Verwaltungsfragen.
9. Internationale Vereinigung für Dokumentation (  Entwurf  )
[siehe  Anhang  1].
10. Der augenblickliche Stand der Bibliographie  und  die inter-
nationale Organisation der Dokumentation.
11.  The  anglo-american agreement o n cataloging rules and its
i
bearing on nternational coopération i n cataloging of Books. (Das
englisch-amerikanische Abkommen bezüglich der Katalogisierungs-
i
Vorschriften  und  seine Uebertragung auf nternationale Zusammen-
arbeit bei den Titelaufnahmen.)
12. Report for the « Conférence internationale de Bibliographie »
i
Brüssels 1908, on the nternational Catalogue.
i
13.  Die  Pflichtexemplare i n hren Beziehungen zu den Bedürf-
nissen der Bibliographie  und  der Dokumentation (überreicht v o m
Institut).
14. Die Dokumentation i n der Geologie. Bericht erstattet v o n
H  errnMourlon  .
— 2 4 —
15. Bericht über die Bibliographie und die Dokumentation in der
B  otanik  ; erstattet von E . de  Wildeman  , Generalsekretär des Orga-
nisations-Ausschusses für den  III  " internationalen botanischen
e
Kongress.
16. Die internationale Bibliographie der Eisenbahnen, heraus-
gegeben vom dauernden Auschuss des Eisenbahn-Kongresses.
Erstattet von  HerrnL  . Weissenbruch, Generalsekretär des Aus-
schusses.
17. Bericht über die Arbeiten des « Bureau bibliographique de
Paris « von 1899 bis 1908.
18. L a revue de l'Ingénieur et l'Index technique.  VonHerr  n
L . Vermandel.
19. Der Gesamkatalog der preussischen Bibliotheken  und  die
Auskunftstelle.
Bericht des  HerrnDr  Naetebus, Berlin.
20.  Ein  Repertorium der Erfindungspatente. Bericht des  Herr  n
General Sébert.
21. Bericht über die Organisation der Dokumentation über Ver-
waltungsfragen, von  Herrn  Zaalberg.
22. Bericht über den Stand der Arbeiten des « Concilium biblio-
graphicum» von D r Field, Direktor der Anstalt.
23. Vorläufige Mitteilung über die Bedeutung der Archive. V o n
H  errn  Archivar J . Cuvelier.
E  inzelneDrucksachen  aus  diesemVerzeichniswerdenau  f
V  erlangen  postfrei zugesandt.  Manwende  sich a n das
Institut International de Bibliographie
Rue d u Musée, 1,  Bruxelle  s
