3
1
28
464
3
3
3
3
404
4
308
462
10
2642
5
1
319
174
1
2972
668
39
1
2
573
100
1
549
21
51
178
1
26
9
2
1
2
1
1
2
12
2
6
3
4
2
12
1
1
20
9
1
13
1
1
1
1
1
1
1
1
1
1
1
1
28
2
5
3
1
2
2092
4
4
21
194
1
19
1014
4
63
9
5
210
10
558
365
6
86
23
2
2841
29
35
4
1772
108
19
5
72
27
2
1
4
12
13
126
32
39
12
8
526
6
6
50
31
6
10
7
126
7
1
3
5
864
30
116
16
27
6
385
6
94
4
6
1
91
3
1
3
27
22
2
33
164
2
3
4
13
357
7
4
5
5
6
45
3
22
23
4
27
78
10
45
34
6
123
2
2
19
1
6
1
5
1
1
253
22
15
147
6
6
1
15
176
5
1
57
20
33
174
4
18
2
5
109
12
33
1
2
2
7
30
2
2
3
3
1
2
1
131
508
12
53
11
41
16
7
39
1
1
2
27
5
1
1
123
15
10
184
2
1
1
105
1
10
14
25
39
45
66
146
17
3
2
5
131
153
2
205
20
1
199
40
12
76
4
13
3
41
34
2
328
604
1
58
16
533
1
1
4
18
70
28
12
685
2
1
5
46
1
1
7
1
11
33
2
3
9
38
3
5
30
209
68
39
1
1
13
1
193
11
93
1
27
16
1
14
28
76
1
11
2
21
39
1
43
1
85
2
1
14
36
3
1
18
190
13
18
15
44
28
13
3
26
4
70
13
1
1
13
47
6
4
21
19
3
5
32
126
37
9
2
2
6
1021
7
152
1
6
3
2
308
19
80
87
1
127
12
7
686
79
3
21
5
1
3
13
1
1
113
5
1
1
98
4
50
1
1
1
66
61
1
202
8
23
5
107
19
9
108
7
1
1
77
16
1
1
1
43
20
3
95
3
7
7
2
9
25
38
24
124
1
3
9
4
67
27
32
94
154
24
2
135
50
7
1
23
2
1
51
1
1
23
2
14
12
21
54
8
1
110
5
10
67
13
6
3
4
1
12
3
28
1
1
2
27
3
4
2
2
7
1
1
1
2
14
64
2
5
2
4
4
17
6
21
3
3
119
9
3
3
2
17
3
4
1
7
1
7
28
20
28
1
46
183
21
2
18
8
7
23
1
31
4
53
8
46
2
1
10
5
6
6
26
60
6
4
3
88
7
16
1
2
7
26
1
6
12
3
5
1
3
4
1
6
1
5
20
7
8
6
4
6
35
6
2
19
1
4
8
8
1
5
9
13
26
5
11
6
3
1
8
18
9
1
1
1
3
29
18
51
174
10
1
6
5
52
9
49
7
8
6
21
16
12
7
50
83
71
10
15
1
34
2
7
1
8
59
27
7
21
1
8
2
1
4
3
2
4
7
33
24
5
80
18
22
44
2
12
36
2
9
7
8
21
5
70
1
19
2
1
12
2
3
2
21
44
1
3
28
6
196
3
104
4
1
4
10
34
1
3
1
3
61
2
1
7
1
1
30
8
4
2
68
25
1
1
7
12
12
12
2
11
1
1
6
26
5
4
5
1
10
1
1
2
74
2
8
1
13
1
12
8
12
12
2
40
9
2
23
7
35
2
1
76
1
1
58
53
5
4
1
2
1
17
1
3
26
13
1
1
1
2
2
3
1
1
2
1
4
1
1
1
6
221
6
1
8
1
12
6
8
17
6
2
10
3
1
10
7
4
3
75
21
15
12
25
2
1
3
1
7
16
7
1
5
2
2
13
62
3
4
1
1
5
1
6
1
5
7
96
7
31
11
1
49
372
2
13
7
29
30
1
4
25
1
8
5
2
113
28
5
1
94
3
32
5
3
253
1
31
2
14
13
3
1
63
46
12
16
6
1
1
4
15
8
16
3
16
3
1
8
1
5
13
1
9
12
1
3
109
37
2
2
15
50
1
3
2
15
11
87
3
22
31
14
4
3
2
11
28
1
3
1
15
10
33
10
3
1
68
4
8
8
1
13
19
8
4
7
17
1
10
17
7
49
1
2
24
17
5
9
5
2
13
3
12
2
11
3
9
4
3
3
4
1
1
1
10
12
22
14
31
8
2
6
6
12
17
2
9
4
8
2
5
2
1
37
6
153
37
15
3
2
10
9
2
3
4
5
3
5
2
1
1
17
33
1
1
1
3
2
1
13
3
3
1
3
1
39
1
1
2
5
1
78
6
7
3
1
1
3
13
7
6
20
2
11
8
10
5
7
17
2
13
5
1
2
3
3
61
3
1
23
2
13
1
1
32
2
10
1
1
41
18
60
1
5
2
7
19
1
4
8
53
9
2
4
7
5
10
1
3
24
1
11
6
3
36
10
38
1
1
1
5
11
2
13
6
7
4
2
2
11
8
4
5
2
1
1
3
7
3
63
13
1
18
1
11
12
9
1
6
35
1
1
3
1
18
3
2
1
4
6
26
1
2
6
2
32
6
9
2
3
4
8
8
1
1
29
18
7
10
4
1
2
10
5
3
1
12
7
1
11
28
2
28
22
59
3
7
3
31
8
6
11
2
3
36
22
2
2
1
3
5
26
6
22
2
1
6
3
12
4
7
15
2
7
5
7
25
5
4
6
19
4
1
33
10
2
30
12
1
21
3
6
84
5
1
10
12
10
3
21
3
26
5
4
37
3
26
8
7
1
1
3
2
33
20
7
8
2
5
4
20
1
2
1
32
9
31
2
21
75
3
1
5
2
57
102
6
14
6
21
13
2
4
3
5
6
6
3
22
4
4
3
36
10
27
12
20
1
9
3
12
4
3
12
5
24
8
9
2
9
11
27
6
28
16
7
1
1
1
1
16
7
7
6
1
2
1
1
7
12
14
4
1
1
49
15
13
14
11
5
3
4
9
11
6
42
6
15
3
9
17
1
10
15
2
3
38
5
1
7
3
2
19
3
1
8
7
2
1
8
3
5
12
20
10
6
5
3
24
1
3
4
3
10
16
1
5
7
2
11
26
12
13
4
2
5
11
1
5
17
1
5
6
24
2
2
26
44
8
11
1
5
56
1
1
1
1
1
1
5
23
5
11
5
8
39
34
7
1
14
2
5
8
5
1
13
13
5
4
3
6
8
19
7
3
11
1
19
2
5
6
5
18
28
11
12
4
2
14
54
46
3
1
1
1
11
2
1
2
52
1
1
7
3
2
5
5
9
13
3
19
11
2
20
5
3
6
1
38
3
7
6
1
7
8
2
17
1
3
10
3
5
1
5
31
50
1
5
2
3
2
33
18
1
2
1
1
1
6
24
3
1
14
2
3
38
1
8
1
4
5
2
8
1
3
14
27
6
4
2
1
2
28
2
32
2
3
17
4
8
1
16
7
2
15
7
18
9
4
2
9
6
17
1
1
49
4
2
14
3
1
13
3
9
5
26
3
9
3
1
1
26
1
1
13
1
1
10
1
1
2
1
1
7
33
1
6
3
7
2
5
14
17
3
1
14
5
4
2
2
11
5
1
1
34
2
2
1
9
12
2
1
1
1
7
1
1
3
28
2
1
1
13
32
34
1
1
8
1
4
1
5
9
1
1
2
4
1
2
1
1
6
2
7
21
17
18
4
24
3
4
8
3
3
7
1
4
5
1
4
17
4
17
1
27
18
1
1
3
7
7
9
6
5
2
4
1
16
1
1
3
1
4
4
1
12
1
5
2
10
13
18
2
18
5
1
4
9
7
1
8
7
4
12
32
32
2
6
12
12
2
13
5
20
2
3
1
11
11
12
4
1
36
1
18
1
1
8
2
5
4
26
7
2
20
1
2
13
10
6
2
2
1
24
8
1
31
9
1
1
1
1
24
6
3
1
4
3
2
9
3
2
3
14
2
3
4
2
1
3
1
54
6
2
18
3
1
10
6
1
25
2
5
5
2
1
2
2
14
2
7
14
1
2
8
15
2
6
5
6
9
5
3
1
5
8
6
2
9
37
5
11
3
1
5
7
1
2
2
9
9
10
1
6
4
2
2
1
36
7
14
5
4
8
4
1
11
1
3
3
1
16
2
8
5
2
8
23
3
1
3
6
20
4
1
2
1
25
9
3
2
5
1
5
4
7
42
1
2
6
36
4
11
4
11
1
3
3
12
2
4
1
1
2
12
3
5
3
1
31
1
2
2
3
4
8
1
7
32
2
2
2
5
2
3
4
12
1
2
1
1
1
3
6
14
14
2
7
4
1
2
7
2
6
44
3
4
1
3
5
2
4
1
6
5
6
27
7
2
1
14
2
1
2
3
2
2
1
1
19
4
3
3
3
17
3
8
16
2
3
2
1
1
1
6
9
25
8
3
10
5
1
8
1
8
27
2
5
1
1
12
2
8
2
3
1
1
1
2
3
2
1
19
5
2
3
2
4
10
2
13
2
1
3
2
1
19
4
1
2
1
8
1
9
1
1
1
3
25
1
11
2
11
4
1
3
13
9
7
11
1
3
1
20
26
9
1
1
1
4
9
8
1
4
1
1
1
1
1
2
6
16
3
15
2
1
1
10
4
1
1
2
6
2
10
1
1
3
1
2
1
1
8
2
9
27
3
2
2
11
5
4
2
4
1
23
14
2
1
5
2
12
2
5
86
4
1
1
1
28
3
30
12
4
2
1
2
12
23
2
6
1
4
13
3
4
1
1
1
29
1
3
1
1
1
19
10
1
2
4
1
1
3
2
1
5
2
3
8
3
1
14
7
1
3
8
2
2
6
4
7
3
37
3
3
4
14
1
2
1
4
9
3
4
8
1
3
2
10
2
9
3
2
4
2
3
18
1
2
4
1
4
3
15
5
4
3
9
1
6
6
5
1
1
1
1
6
2
25
56
6
3
4
2
1
2
3
1
1
1
2
1
4
1
2
3
1
1
2
1
1
1
4
5
3
1
3
1
1
1
4
13
4
2
2
1
3
1
1
8
12
1
3
2
4
4
1
8
8
4
1
3
1
1
1
5
3
3
1
13
1
4
3
4
1
4
1
3
2
2
2
10
1
1
7
1
5
2
1
1
2
2
1
1
1
2
17
1
8
1
1
2
17
8
1
7
4
1
8
2
2
5
9
16
1
10
7
2
2
10
2
6
2
19
21
17
2
5
16
1
4
2
18
2
3
5
24
15
6
2
5
6
1
1
3
1
1
2
12
7
6
1
4
8
6
8
18
1
3
1
4
2
2
2
5
26
4
10
1
10
4
5
4
1
3
2
3
1
9
4
5
10
12
14
8
5
9
3
1
1
4
3
3
5
2
2
3
6
24
4
1
6
4
7
6
1
2
7
1
1
1
1
1
7
1
4
1
2
1
1
3
3
19
2
1
1
1
3
1
1
2
2
1
1
11
1
1
22
6
1
1
1
3
5
1
3
1
2
22
2
2
1
8
3
35
4
1
1
2
1
1
3
7
2
2
7
1
1
6
3
2
2
1
1
3
1
2
5
3
1
1
2
1
1
1
1
2
1
1
1
1
1
1
1
1
4
2
1
10
1
11
5
8
1
2
16
2
23
8
6
26
2
2
4
1
1
6
9
8
1
5
5
1
4
3
1
26
6
2
2
10
3
8
21
17
1
13
4
1
2
2
1
17
1
1
1
3
1
3
4
1
1
2
1
2
2
3
5
4
2
3
9
1
2
4
2
1
7
2
1
4
2
2
7
3
1
1
1
3
1
1
2
7
2
2
1
4
1
3
1
11
1
1
2
7
16
5
2
18
12
1
1
2
1
10
12
10
3
4
2
23
2
8
2
4
2
7
1
4
1
1
2
5
1
3
1
2
1
1
2
4
10
6
1
6
3
20
17
4
1
3
2
5
1
18
5
4
3
2
8
15
1
2
7
22
8
4
2
1
1
2
8
1
3
15
1
3
22
6
3
9
1
1
4
4
2
13
4
4
1
1
2
1
4
1
3
3
4
15
2
10
6
1
1
3
1
1
1
1
4
1
3
65
3
1
6
8
3
2
1
4
2
8
7
1
1
2
1
3
12
5
1
1
3
5
3
3
9
6
6
3
1
36
1
1
11
2
5
1
2
1
10
3
8
2
10
9
6
8
4
3
18
3
6
1
4
1
3
1
37
1
1
23
9
7
3
5
7
2
1
10
2
1
3
1
2
2
1
3
4
2
4
3
1
1
2
8
6
3
9
5
5
1
3
3
1
2
1
1
1
3
1
1
1
7
2
3
2
3
1
16
6
1
1
13
4
3
2
12
4
1
3
1
4
1
2
3
5
2
1
1
2
1
10
1
1
4
8
19
1
4
1
1
3
1
31
1
7
1
1
2
3
19
1
17
17
1
1
1
3
2
1
15
1
1
1
4
1
1
1
8
1
1
1
1
1
1
1
1
1
3
3
5
1
3
1
1
1
2
4
3
1
1
1
20
1
1
22
1
3
2
1
19
1
1
1
8
1
1
1
1
4
3
5
15
1
4
5
1
7
5
2
2
1
4
1
1
2
1
8
1
17
1
2
7
1
12
1
3
1
20
1
1
2
1
3
1
1
9
1
1
2
2
13
2
2
3
3
1
1
23
6
1
1
1
7
1
7
1
1
1
1
2
2
4
5
1
1
3
7
1
4
5
1
1
4
2
2
1
3
1
33
1
1
1
1
1
4
2
3
15
5
2
12
2
1
3
3
5
27
3
1
1
1
2
5
6
3
2
6
1
5
1
5
9
5
4
2
4
2
5
2
9
1
5
4
6
3
4
1
1
5
4
3
1
8
6
11
1
16
9
1
1
4
9
1
2
3
1
6
3
4
6
1
3
1
1
1
1
1
1
7
2
1
1
13
5
3
3
3
1
1
1
2
8
6
3
9
4
5
8
1
4
4
1
3
1
9
2
3
2
13
1
2
1
4
1
7
2
1
1
4
1
4
2
3
1
1
3
2
11
3
10
2
1
1
1
7
27
2
1
8
1
4
2
2
2
1
1
2
1
1
12
2
1
1
3
1
7
4
3
3
1
6
1
1
1
6
4
1
19
5
3
8
2
2
5
3
1
6
1
4
2
21
1
3
7
1
4
2
6
4
1
6
1
10
1
1
14
8
1
6
1
3
1
1
1
4
10
1
8
1
7
2
2
3
1
1
1
4
1
5
1
1
2
1
1
1
5
5
9
4
1
4
2
2
1
2
10
6
1
13
3
4
1
2
5
5
3
1
5
2
2
2
2
8
1
9
2
1
1
23
1
1
5
4
6
2
1
1
8
5
1
3
1
1
20
3
2
1
1
5
3
1
1
1
3
2
1
1
1
1
2
1
1
10
1
15
4
3
6
4
1
2
2
1
7
5
10
1
2
3
11
16
1
5
6
4
1
8
1
3
1
1
2
26
1
3
11
15
1
1
2
1
3
2
1
2
4
4
1
7
8
1
24
3
4
3
2
1
11
1
1
1
1
5
2
3
1
1
2
1
1
1
4
2
2
7
44
5
22
12
10
1
1
3
1
4
5
3
8
3
3
1
3
1
8
10
1
3
1
1
2
1
6
1
1
2
3
1
3
10
2
1
31
1
1
1
2
16
3
3
3
1
7
1
8
1
4
8
5
1
2
10
3
4
7
2
11
2
4
2
1
1
3
1
1
19
3
3
10
1
6
4
2
1
1
1
1
1
1
5
10
4
1
1
2
2
1
5
1
4
3
6
1
7
1
2
5
2
7
2
6
30
1
2
7
1
1
3
8
1
3
3
8
2
5
1
5
10
4
7
1
16
3
5
1
1
2
1
1
1
1
1
1
2
4
1
2
4
11
6
1
4
2
11
3
8
1
1
3
2
15
1
5
2
4
1
5
1
1
3
3
2
2
2
2
1
2
4
8
5
1
4
1
9
2
1
1
1
6
8
6
2
2
3
3
15
3
4
4
1
5
1
1
3
2
8
4
1
2
4
2
2
3
1
1
5
12
3
1
3
1
3
4
3
1
3
12
1
1
20
2
2
3
4
4
9
12
2
4
3
2
15
4
1
3
19
4
2
2
3
3
1
2
1
1
2
2
2
2
1
1
1
1
3
1
1
1
2
3
1
3
1
1
9
13
1
3
2
2
1
3
4
1
1
2
1
5
2
1
1
6
4
2
2
5
1
54
7
5
4
2
1
1
9
1
1
1
2
1
1
1
11
6
1
2
1
4
4
2
2
6
13
1
1
1
7
10
3
2
3
1
1
7
2
1
2
1
2
3
1
2
1
1
6
7
3
1
1
1
2
1
1
2
7
1
16
6
1
1
3
3
1
2
1
1
1
7
1
1
1
4
5
25
3
2
1
2
1
1
1
1
1
1
1
1
2
4
3
1
1
1
1
1
3
1
5
1
1
2
1
8
1
1
3
3
3
1
1
1
6
2
8
2
1
1
1
3
1
8
3
3
5
3
3
12
1
1
1
1
1
2
3
3
3
2
19
1
6
2
1
1
4
4
2
2
7
2
1
2
1
1
3
1
1
1
3
1
1
1
1
1
1
1
2
1
4
1
2
6
1
6
1
3
2
3
2
2
1
6
4
1
3
1
1
1
4
2
3
4
1
1
1
1
1
1
1
2
1
2
1
1
8
1
1
2
1
8
1
1
5
2
2
1
2
2
1
4
1
6
1
1
1
1
4
1
1
4
2
6
5
1
2
3
10
6
4
4
3
1
2
5
2
1
2
11
3
1
1
1
2
7
1
3
1
2
1
8
1
4
7
1
1
3
5
1
15
2
1
20
1
1
1
3
3
2
3
1
6
2
2
7
4
7
1
4
2
24
5
2
1
2
9
5
2
5
1
5
6
2
3
11
1
1
1
2
3
26
5
9
1
1
1
2
1
2
1
1
21
2
1
1
5
14
7
1
2
4
1
2
2
4
3
1
3
2
4
1
3
18
3
2
1
1
2
2
1
4
1
1
1
2
1
1
1
2
2
1
1
1
1
11
7
2
1
19
12
8
5
1
4
4
1
1
3
18
3
1
1
1
1
1
1
20
3
4
1
2
2
4
5
7
1
1
4
1
5
1
2
1
1
1
1
3
10
6
3
4
4
1
2
3
2
2
1
14
2
2
6
1
4
1
4
1
2
2
8
1
15
5
2
3
10
3
2
3
6
3
1
2
1
1
12
4
1
7
4
3
6
1
4
3
1
1
2
1
1
1
5
8
2
4
2
1
1
4
1
1
2
4
3
4
1
2
7
1
7
2
2
1
5
1
8
2
1
1
5
1
5
2
21
1
2
4
3
13
3
1
3
4
4
2
6
5
1
1
3
1
3
1
1
3
2
8
4
5
2
1
2
1
1
6
1
2
2
1
4
1
5
1
4
1
5
11
2
6
2
1
1
2
10
2
6
3
8
3
8
1
1
10
6
1
1
3
1
1
1
1
6
1
6
1
1
5
2
4
1
1
1
3
1
2
1
2
7
1
1
1
1
1
2
1
4
4
1
1
1
3
7
3
1
2
1
3
1
1
6
1
6
2
1
1
1
1
2
51
4
1
2
1
1
1
4
1
2
2
1
1
2
1
1
1
1
1
7
1
6
3
2
1
1
1
1
4
1
5
1
5
3
4
4
1
1
1
1
3
7
3
4
1
5
1
5
1
3
3
4
1
1
2
1
1
2
8
2
7
1
1
3
4
1
4
2
2
3
1
4
8
13
1
1
2
3
8
4
2
1
10
2
3
2
1
5
1
3
1
2
1
5
1
1
1
1
6
1
1
2
1
2
7
1
2
1
1
3
5
1
2
14
1
16
2
1
1
3
3
3
5
3
2
1
1
1
1
2
6
2
1
3
1
1
1
7
2
4
1
1
1
1
9
1
2
1
1
3
1
1
1
5
2
1
1
6
1
5
1
1
1
1
1
1
3
1
1
5
1
1
1
1
5
3
2
2
2
4
2
1
1
2
1
1
1
3
2
5
2
3
12
2
5
2
1
1
2
4
1
1
1
1
1
4
2
2
2
1
1
1
1
1
15
1
10
2
1
4
16
2
11
2
1
4
1
1
1
6
1
1
3
1
1
6
1
2
7
2
1
6
1
6
8
2
1
6
4
1
13
22
4
1
1
1
3
6
1
3
2
2
8
5
2
4
1
1
2
6
2
3
2
1
4
3
3
2
1
3
2
1
1
1
1
4
3
3
9
3
1
1
1
1
1
2
1
1
2
1
6
2
1
2
1
1
1
1
1
1
1
2
2
1
3
2
1
1
1
1
9
5
2
3
1
2
2
1
1
4
2
3
1
3
3
3
3
1
4
1
13
1
3
1
3
2
5
4
4
2
1
1
4
2
1
2
1
2
1
1
10
2
3
2
2
2
3
1
2
5
1
2
1
2
1
2
1
2
1
3
1
4
1
1
1
2
1
1
10
1
1
3
1
1
6
2
1
1
1
2
1
1
1
1
1
5
1
1
1
3
4
8
6
1
1
1
14
1
1
4
1
1
3
1
1
1
1
1
1
1
3
1
1
12
2
7
2
1
1
1
2
3
9
1
3
2
1
2
1
1
1
1
1
2
5
3
3
2
1
1
8
1
2
2
5
1
1
1
1
4
1
2
1
1
1
1
5
1
3
12
3
1
5
1
3
12
14
3
6
3
1
1
1
1
1
4
9
1
1
2
1
1
2
1
7
1
1
2
3
3
6
2
2
1
3
4
1
1
1
1
3
1
5
1
12
25
4
2
1
3
2
2
2
3
2
6
1
7
1
2
2
4
4
1
9
1
2
14
1
8
1
2
1
3
1
4
4
2
6
2
2
1
1
3
2
1
10
1
1
1
1
1
2
1
1
2
3
2
4
1
1
1
1
5
5
1
4
2
1
1
2
2
2
1
1
2
2
1
4
10
9
5
2
1
3
1
5
2
2
6
5
1
1
1
1
1
5
3
5
5
1
1
2
1
1
1
1
6
1
2
1
1
1
1
7
3
7
1
5
2
1
7
1
6
1
1
1
1
2
3
5
5
2
2
2
2
2
4
2
1
1
4
1
2
1
1
5
5
2
1
9
1
2
1
1
2
3
2
7
1
1
2
3
2
1
1
2
1
1
1
3
1
2
1
2
1
2
4
1
1
2
1
2
3
1
2
1
1
1
1
9
5
2
3
1
1
3
1
3
1
4
2
1
1
1
1
1
4
4
3
5
1
2
2
1
3
4
1
1
2
2
1
2
2
3
1
5
4
1
1
2
1
1
14
2
7
2
3
1
2
1
1
5
1
2
2
2
4
1
2
4
7
2
4
1
1
3
1
1
2
4
2
1
1
1
2
3
3
22
1
1
1
1
1
1
2
1
1
2
3
1
1
1
2
2
1
13
1
2
3
3
1
1
2
1
5
1
2
1
1
2
2
2
2
2
1
1
1
1
1
2
1
2
1
1
4
5
1
1
1
2
2
2
1
3
3
2
2
2
2
9
2
1
10
1
1
3
1
1
1
1
1
2
1
2
1
3
1
1
2
1
3
2
1
4
5
2
5
1
1
1
3
2
2
1
3
1
3
1
2
1
22
50
1
1
1
1
1
1
2
1
2
3
2
1
2
1
2
1
1
3
2
1
1
1
1
1
1
1
14
4
2
1
2
1
2
4
1
1
3
1
2
1
1
2
1
1
3
1
1
2
2
1
1
1
1
1
1
2
1
1
1
3
1
2
1
1
1
1
2
3
1
1
3
1
1
8
1
2
4
5
1
1
4
1
1
1
1
2
2
1
1
3
1
1
1
1
1
1
1
1
3
2
1
5
1
1
1
1
3
1
1
1
2
1
5
25
2
1
1
3
1
1
2
1
13
2
5
2
1
1
1
3
1
3
3
1
1
2
1
3
2
1
6
1
1
1
2
1
1
1
1
1
2
1
1
1
2
1
1
1
1
1
1
1
3
1
1
3
2
3
2
1
1
2
4
1
1
1
2
1
1
1
2
1
1
1
1
1
1
2
1
3
1
1
1
1
2
1
1
2
1
2
1
1
2
1
7
5
1
1
1
1
1
2
1
10
9
1
1
1
1
1
1
10
1
2
1
4
2
1
3
1
1
1
2
2
4
1
8
1
1
1
5
1
2
3
1
1
1
1
5
5
2
1
3
5
1
1
2
1
3
3
2
6
2
1
1
3
1
3
1
1
1
4
3
4
1
1
1
1
5
1
1
1
2
2
1
3
1
1
1
1
3
1
2
6
1
1
1
6
1
2
2
1
1
3
2
3
1
1
1
2
3
1
1
2
1
2
1
1
1
1
2
5
1
1
2
1
1
1
2
3
1
1
1
2
1
1
1
1
1
1
1
1
1
1
2
1
3
2
1
4
1
1
1
2
4
1
2
1
1
3
1
1
1
1
1
1
3
2
4
2
1
4
9
2
2
1
1
1
4
4
1
1
1
1
1
1
1
1
1
4
2
1
1
1
3
1
1
1
1
1
4
1
1
1
1
1
1
2
1
1
1
1
1
1
1
1
1
1
1
1
2
1
1
1
1
2
1
2
2
2
1
1
2
2
1
1
2
3
1
1
5
1
5
2
1
3
2
2
1
2
1
1
3
2
3
3
1
1
2
1
1
2
2
2
1
5
1
1
1
3
1
1
3
1
1
4
1
1
1
5
2
2
1
2
2
1
1
1
1
1
2
2
1
1
3
1
2
1
1
1
1
1
1
2
2
1
1
1
2
2
1
1
1
2
1
3
1
1
2
1
1
1
1
5
1
2
6
1
6
2
1
1
1
1
1
1
1
1
1
1
3
4
1
1
4
2
1
1
2
1
1
1
2
1
1
5
4
1
1
2
1
1
1
1
1
1
2
4
1
1
2
2
6
4
1
2
1
12
1
4
1
1
1
1
2
8
1
1
1
1
1
3
5
1
1
3
2
5
1
1
1
4
3
1
1
2
1
1
1
1
2
1
2
1
3
1
3
1
2
2
1
1
1
1
1
1
1
2
2
1
1
1
1
1
1
1
1
1
3
1
2
4
1
2
1
1
1
2
1
1
1
2
1
1
1
1
1
1
1
1
1
2
1
1
2
2
1
4
1
1
2
1
3
1
1
1
1
1
2
1
1
9
9
4
3
3
2
2
2
4
1
2
3
1
4
1
1
1
3
2
1
1
1
1
4
2
1
6
2
1
1
2
3
1
2
2
3
1
1
1
3
1
1
1
1
1
1
2
1
1
1
5
1
1
2
1
7
1
6
1
1
1
1
1
1
6
2
7
3
1
1
3
1
1
1
1
1
1
1
1
1
1
1
2
1
2
1
1
1
1
1
2
1
2
2
4
1
1
1
1
1
2
1
1
1
1
1
1
3
1
1
1
1
1
3
1
1
1
1
1
1
4
2
1
1
1
3
1
1
1
3
3
1
1
1
2
1
1
2
2
4
1
1
1
1
1
1
1
1
1
2
1
1
1
3
2
1
1
2
1
1
1
1
2
3
1
2
1
1
1
1
1
1
1
1
1
1
1
1
1
2
2
1
3
1
3
2
1
4
1
1
1
2
3
1
1
1
2
1
2
2
1
1
2
1
1
1
3
6
1
1
1
1
1
1
1
1
1
2
1
1
1
1
3
1
2
3
1
1
1
7
1
4
1
5
2
1
1
5
1
1
2
2
1
1
1
1
1
2
1
1
1
2
1
1
5
1
1
1
3
1
1
1
1
1
1
2
1
1
3
2
1
1
1
1
3
1
1
1
1
1
1
1
1
1
1
1
1
3
1
1
1
1
1
4
2
1
1
1
1
1
1
2
1
1
1
1
1
1
1
1
1
1
1
1
1
1
1
1
2
2
1
4
1
1
1
1
1
1
1
2
1
1
1
1
5
1
1
3
1
1
1
1
1
2
4
2
5
3
3
2
1
2
1
1
1
1
2
1
1
2
1
1
1
1
1
1
1
1
1
2
1
1
1
2
2
1
2
1
1
1
1
1
1
1
1
2
1
1
1
1
1
1
3
2
1
1
1
1
1
1
2
1
1
1
1
1
1
2
2
1
2
1
1
1
1
1
1
1
1
1
1
2
1
4
5
1
1
1
1
1
1
2
1
1
1
1
1
1
1
1
1
1
1
1
1
2
1
1
1
2
1
1
1
1
4
1
1
1
1
2
1
1
2
1
1
1
2
2
2
1
1
1
1
5
3
1
1
2
1
1
1
1
3
2
1
1
1
3
1
1
1
1
2
5
1
1
1
2
1
1
1
4
1
1
3
1
1
1
2
6
2
2
1
1
1
1
3
3
2
3
3
3
1
3
3
1
1
1
2
6
1
1
2
2
2
1
1
1
1
1
1
1
2
1
1
1
2
1
1
1
1
1
1
1
1
1
1
1
1
5
2
2
1
1
1
1
1
2
1
2
1
1
2
1
2
2
1
1
1
1
1
2
1
1
1
1
1
1
1
1
1
1
1
1
1
1
3
1
1
2
1
1
1
1
1
1
3
1
2
1
7
2
1
1
1
2
4
2
2
3
3
1
1
2
2
1
1
2
1
1
1
1
1
1
2
1
1
1
1
1
1
2
1
1
1
1
2
1
1
1
1
4
1
2
1
3
1
1
1
1
2
1
4
1
1
2
1
1
1
1
1
13
1
12
1
1
2
1
1
1
1
1
2
1
1
2
2
1
3
2
1
1
1
1
1
1
1
2
1
2
1
2
2
1
1
1
1
1
1
1
1
1
2
1
1
1
1
2
2
2
4
1
1
1
2
1
1
6
1
1
1
1
1
1
2
1
4
1
1
1
1
1
3
1
2
1
1
1
1
1
3
1
1
1
1
1
1
2
1
1
1
1
1
2
1
1
3
1
2
2
2
2
1
1
1
7
2
2
1
1
1
1
1
1
2
1
1
1
1
1
1
1
1
1
2
1
1
1
1
1
1
1
2
2
1
1
1
1
1
1
1
1
1
1
1
4
1
1
1
1
1
1
1
1
1
2
1
2
1
1
1
1
1
1
2
1
1
1
1
1
1
1
1
1
1
1
1
1
1
1
2
2
1
2
1
1
1
1
1
1
1
1
1
1
2
1
1
1
1
1
1
1
1
1
2
1
1
2
1
1
1
1
1
1
1
1
1
1
2
1
1
2
1
1
1
1
1
1
2
1
2
1
1
1
1
3
1
1
2
2
1
1
1
2
1
1
1
2
2
1
1
1
1
3
1
2
1
1
1
5
1
1
1
1
1
1
1
1
1
1
2
1
1
1
1
1
2
1
1
1
2
1
1
1
1
1
1
1
1
1
1
1
1
1
3
1
1
1
1
1
1
1
1
1
1
1
1
1
1
1
1
2
2
1
1
2
1
1
2
1
3
1
2
3
1
2
1
1
1
1
1
2
1
1
1
1
4
1
1
1
1
1
1
1
1
1
1
1
1
1
1
1
1
1
1
1
1
1
1
1
1
2
1
1
1
1
1
1
1
1
2
1
1
3
1
1
1
1
1
1
1
1
1
1
1
1
1
1
2
1
1
1
2
1
1
1
1
1
1
1
1
1
2
1
1
1
1
1
3
2
1
1
1
1
1
5
1
1
1
1
1
1
1
2
1
1
1
1
1
1
4
2
1
1
1
1
1
2
1
1
3
1
1
1
1
1
1
1
1
1
1
1
1
1
1
1
1
1
3
1
1
1
1
2
1
1
1
1
2
1
1
1
1
1
1
1
1
1
1
1
2
2
1
1
2
1
1
1
1
1
1
1
1
1
1
1
1
1
1
2
1
1
1
1
1
1
1
1
1
2
1
1
1
1
1
1
2
1
2
3
1
1
1
1
1
1
1
3
1
2
1
2
1
1
1
1
1
1
1
1
1
1
1
1
1
2
1
1
1
1
1
1
1
1
2
1
1
1
1
1
1
1
1
1
1
1
1
1
1
1
1
1
1
1
2
1
1
1
1
1
1
1
2
1
1
1
1
1
1
1
1
1
1
1
1
1
1
1
3
1
1
3
1
1
1
1
1
1
1
1
1
1
2
2
1
1
1
1
1
1
1
1
1
1
1
1
1
1
1
1
1
1
1
1
1
2
1
1
1
1
1
1
1
1
1
1
1
1
1
2
1
1
1
1
1
1
2
1
1
1
1
1
1
1
1
1
1
1
1
1
1
1
1
1
1
1
1
1
1
1
1
1
1
1
1
1
1
1
1
1
1
1
1
1
1
1
1
1
1
1
2
1
1
1
1
1
2
2
1
1
1
1
1
1
1
1
1
1
1
1
1
1
1
1
1
1
1
1
1
1
1
1
2
1
1
1
1
1
1
1
1
1
1
1
1
1
1
1
1
2
1
1
1
1
1
1
2
1
1
1
1
1
1
1
1
1
1
