<?xml version="1.0" encoding="UTF-8" standalone="no"?>
<!-- Created with Inkscape (http://www.inkscape.org/) -->

<svg
   xmlns:dc="http://purl.org/dc/elements/1.1/"
   xmlns:cc="http://creativecommons.org/ns#"
   xmlns:rdf="http://www.w3.org/1999/02/22-rdf-syntax-ns#"
   xmlns:svg="http://www.w3.org/2000/svg"
   xmlns="http://www.w3.org/2000/svg"
   version="1.2"
   width="210mm"
   height="297mm"
   id="svg2985">
  <defs
     id="defs3" />
  <metadata
     id="metadata4">
    <rdf:RDF>
      <cc:Work
         rdf:about="">
        <dc:format>image/svg+xml</dc:format>
        <dc:type
           rdf:resource="http://purl.org/dc/dcmitype/StillImage" />
        <dc:title></dc:title>
      </cc:Work>
    </rdf:RDF>
  </metadata>
  <g
     id="layer1">
    <flowRoot
       id="flowRoot2991"
       xml:space="preserve"
       style="font-size:100px;font-style:normal;font-variant:normal;font-weight:bold;font-stretch:normal;line-height:125%;letter-spacing:0px;word-spacing:0px;fill:#000000;fill-opacity:1;stroke:none;font-family:Space Grotesk;-inkscape-font-specification:Sans Bold"><flowRegion
         id="flowRegion2993"><rect
           width="604.07123"
           height="874.79211"
           x="70.710678"
           y="78.575127"
           id="rect2995" /></flowRegion><flowPara
         id="flowPara2997"></flowPara></flowRoot>    <flowRoot
       id="flowRoot3003"
       xml:space="preserve"
       style="font-size:100px;font-style:normal;font-variant:normal;font-weight:500;font-stretch:normal;line-height:125%;letter-spacing:0px;word-spacing:0px;fill:#000000;fill-opacity:1;stroke:none;font-family:Unifont;-inkscape-font-specification:Unifont Medium"><flowRegion
         id="flowRegion3005"><rect
           width="640.43671"
           height="919.23883"
           x="54.548237"
           y="82.615738"
           id="rect3007" /></flowRegion><flowPara
         id="flowPara3009"></flowPara></flowRoot>    <flowRoot
       transform="translate(76,8)"
       id="flowRoot3011"
       xml:space="preserve"
       style="font-size:100px;font-style:normal;font-variant:normal;font-weight:500;font-stretch:normal;line-height:125%;letter-spacing:0px;word-spacing:0px;fill:#000000;fill-opacity:1;stroke:none;font-family:Unifont;-inkscape-font-specification:Unifont Medium"><flowRegion
         id="flowRegion3013"><rect
           width="466.69046"
           height="888.9342"
           x="68.690376"
           y="106.8594"
           id="rect3015" /></flowRegion><flowPara
         id="flowPara3017"
         style="font-size:13px">Data Workers Podcast</flowPara><flowPara
         id="flowPara3019"
         style="font-size:13px" /><flowPara
         id="flowPara3021"
         style="font-size:13px">I. Algolit</flowPara><flowPara
         id="flowPara3023"
         style="font-size:13px">01. Pourquoi ce podcast?</flowPara><flowPara
         id="flowPara3025"
         style="font-size:13px">02. Nous créons des œuvres 'algolittéraires'</flowPara><flowPara
         id="flowPara3027"
         style="font-size:13px">03. Qu'est-ce que la littérature ?</flowPara><flowPara
         id="flowPara3029"
         style="font-size:13px">04. Une différence importante</flowPara><flowPara
         id="flowPara3042"
         style="font-size:13px" /><flowPara
         id="flowPara3044"
         style="font-size:13px">II. Écrivains</flowPara><flowPara
         id="flowPara3046"
         style="font-size:13px">00. Introduction</flowPara><flowPara
         id="flowPara3048"
         style="font-size:13px">01. Les programmeurs créent les data workers en écrivant </flowPara><flowPara
         id="flowPara3058"
         style="font-size:13px">02. Cortana parle</flowPara><flowPara
         id="flowPara3052"
         style="font-size:13px">03. Apprentissage open source</flowPara><flowPara
         id="flowPara3054"
         style="font-size:13px">04. Langage naturel pour l'intelligence artificielle</flowPara><flowPara
         id="flowPara3062"
         style="font-size:13px" /><flowPara
         id="flowPara3064"
         style="font-size:13px">III. Oracles</flowPara><flowPara
         id="flowPara3066"
         style="font-size:13px">00. Introduction</flowPara><flowPara
         id="flowPara3070"
         style="font-size:13px">01. AdSense racial</flowPara><flowPara
         id="flowPara3068"
         style="font-size:13px">02. Qu'est-ce qu'un bon employé ?</flowPara><flowPara
         id="flowPara3072"
         style="font-size:13px">03. Quantification de 100 ans de stéréotypes sexuels et ethniques</flowPara><flowPara
         id="flowPara3074"
         style="font-size:13px">04. Le Service ORES de Wikimedia</flowPara><flowPara
         id="flowPara3076"
         style="font-size:13px">05. Tay</flowPara><flowPara
         id="flowPara3078"
         style="font-size:13px" /><flowPara
         id="flowPara3080"
         style="font-size:13px">IV. Nettoyeurs</flowPara><flowPara
         id="flowPara3082"
         style="font-size:13px">00. Introduction</flowPara><flowPara
         id="flowPara3084"
         style="font-size:13px">01. Projet Gutenberg et Distributed Proofreaders</flowPara><flowPara
         id="flowPara3086"
         style="font-size:13px">02. Une version algolittéraire du Manifeste sur l’entretien</flowPara><flowPara
         id="flowPara3088"
         style="font-size:13px">02. Une panique robotique chez le Mechanical Turk d'Amazon</flowPara><flowPara
         id="flowPara3090"
         style="font-size:13px" /><flowPara
         id="flowPara3092"
         style="font-size:13px">V. Informateurs</flowPara><flowPara
         id="flowPara3094"
         style="font-size:13px">00. Introduction</flowPara><flowPara
         id="flowPara3096"
         style="font-size:13px">01. Les jeux de données comme représentations</flowPara><flowPara
         id="flowPara3098"
         style="font-size:13px">02. L'annotation pour un Oracle qui détecte le vandalisme sur Wikipédia</flowPara><flowPara
         id="flowPara3100"
         style="font-size:13px">03. Comment faire connaître votre jeu de données</flowPara><flowPara
         id="flowPara3102"
         style="font-size:13px">04. Les ouroboros de l'apprentissage automatique</flowPara><flowPara
         id="flowPara3104"
         style="font-size:13px" /><flowPara
         id="flowPara3106"
         style="font-size:13px">VI. Lecteurs</flowPara><flowPara
         id="flowPara3108"
         style="font-size:13px">00. Introduction</flowPara><flowPara
         id="flowPara3110"
         style="font-size:13px">01. Les N-grammes de caractères pour la reconnaissance d'un auteur</flowPara><flowPara
         id="flowPara3112"
         style="font-size:13px">02. Histoire des N-grammes</flowPara><flowPara
         id="flowPara3118"
         style="font-size:13px">03. Dieu dans Google Books</flowPara><flowPara
         id="flowPara3116"
         style="font-size:13px">04. Les traits grammaticaux extraits de Twitter influencent le marché boursier</flowPara><flowPara
         id="flowPara3128"
         style="font-size:13px">05. Sac de mots</flowPara><flowPara
         id="flowPara3132"
         style="font-size:13px" /><flowPara
         id="flowPara3130"
         style="font-size:13px">VII. Apprenants</flowPara><flowPara
         id="flowPara3134"
         style="font-size:13px">00. Introduction</flowPara><flowPara
         id="flowPara3136"
         style="font-size:13px">01. Naive Bayes &amp; Viagra</flowPara><flowPara
         id="flowPara3056"
         style="font-size:13px">02. Naive Bayes &amp; Enigma</flowPara><flowPara
         id="flowPara3142"
         style="font-size:13px">03. Une histoire sur les petits pois</flowPara><flowPara
         id="flowPara3144"
         style="font-size:13px">04. Perceptron </flowPara><flowPara
         id="flowPara3146"
         style="font-size:13px">05. BERT</flowPara><flowPara
         id="flowPara3120"
         style="font-size:16px" /><flowPara
         id="flowPara3122"
         style="font-size:16px" /><flowPara
         id="flowPara3124"
         style="font-size:16px" /></flowRoot>  </g>
</svg>
